24
0 zpe= -687.187662 src= /lustre/lwork/pjhsu/sugar_opt/pj_sugar/alpha_galactose/1H2.xyz:0 moment= 2.389470 0.624949 -0.150410 10.078273 2.616195 0.997738 -0.671088 3.264610 3.923166 1.534559 -0.841004 3.003759 3.214958 1.385586 -0.179961 2.791493
H 1.890495 -2.261584 1.695760
O  2.260441 -1.447666 1.335386
C  1.281910 -0.844423 0.527050
H  1.136781 -1.393876 -0.410690
C  1.751493 0.577558 0.237244
H  2.674093 0.523666 -0.353089
C  0.691458 1.303579 -0.584389
H  0.937557 2.371679 -0.590386
C  -0.730824 1.168758 0.028829
H  -0.802268 1.945622 0.790311
C  -1.067108 -0.188122 0.735105
H  -1.662902 0.054989 1.619681
C  -1.945990 -1.147785 -0.067033
H  -1.946481 -2.110037 0.455268
H  -2.969761 -0.756019 -0.083154
O  -1.451654 -1.291445 -1.405973
H  -1.930376 -1.999575 -1.847877
O  0.080379 -0.846582 1.287530
O  -1.716107 1.499823 -0.947246
H  -1.758421 0.751778 -1.561542
O  0.781248 0.779901 -1.903787
H  0.180353 1.282385 -2.463336
O  1.952425 1.312074 1.434446
H  2.364257 0.714303 2.070894
