24
0 zpe= -687.199934 src= /lustre/lwork/pjhsu/sugar_opt/pj_sugar/alpha_galactose/OS2.xyz:0 moment= 2.374913 0.645030 -0.588845 7.755899 2.504220 0.907260 -0.817816 4.039261 3.874898 1.500868 -0.865017 3.047379 3.160930 1.353808 -0.231374 2.743187
H 1.799401 -2.240172 1.696684
O  1.838271 -1.278073 1.700781
C  1.459745 -0.797369 0.421585
H  2.090363 -1.233327 -0.355140
C  1.658658 0.731902 0.465315
H  2.713324 0.933211 0.245454
C  0.794142 1.406102 -0.596343
H  0.913695 2.491442 -0.499980
C  -0.720373 1.049834 -0.411354
H  -1.197797 1.854991 0.155165
C  -0.891675 -0.245764 0.407170
H  -0.829857 0.024376 1.465991
C  -2.205834 -0.982508 0.178183
H  -2.291564 -1.805944 0.894530
H  -3.050348 -0.306602 0.323624
O  -2.310976 -1.479055 -1.162477
H  -1.566876 -2.078741 -1.300920
O  0.141742 -1.196761 0.094331
O  -1.315552 1.023341 -1.711949
H  -1.768464 0.173143 -1.840452
O  1.272789 0.970304 -1.855676
H  0.500791 0.984961 -2.443139
O  1.298915 1.287571 1.724237
H  1.665477 0.712140 2.407378
24
1 zpe= -687.19736 src= /lustre/lwork/pjhsu/sugar_opt/pj_sugar/alpha_galactose/OS2.xyz:10 moment= 2.371896 0.648488 -0.535404 6.927231 2.507760 0.916449 -0.759984 3.968218 3.786126 1.601895 -0.364590 2.608960 3.561939 1.635264 -0.327132 2.123961
H 1.886283 -0.986062 2.094670
O  1.708259 -1.756616 1.536885
C  1.182192 -1.287288 0.330628
H  1.407243 -2.032580 -0.429642
C  1.817817 0.068003 -0.059349
H  2.788425 -0.142725 -0.515658
C  0.946530 0.835427 -1.055912
H  1.402872 1.819120 -1.234324
C  -0.506664 1.051992 -0.505574
H  -0.577245 2.063958 -0.093657
C  -0.811094 0.061004 0.634994
H  -0.385088 0.475899 1.556169
C  -2.295465 -0.191519 0.880013
H  -2.415931 -0.788611 1.789108
H  -2.829994 0.751779 1.006907
O  -2.904006 -0.856512 -0.234361
H  -2.439948 -1.696867 -0.344254
O  -0.243918 -1.222793 0.361497
O  -1.400079 0.973139 -1.617977
H  -2.099149 0.325661 -1.420164
O  0.939075 0.087754 -2.254774
H  0.056475 0.222402 -2.637603
O  1.995671 0.834686 1.147289
H  2.775736 1.389750 1.062091
24
2 zpe= -687.196656 src= /lustre/lwork/pjhsu/sugar_opt/pj_sugar/alpha_galactose/OS2.xyz:19 moment= 2.407914 0.702568 -0.418959 4.451044 2.519202 0.905367 -0.877752 4.131871 4.010555 1.720753 -0.544121 2.255029 3.524603 1.626611 0.006429 2.311113
H 2.060455 -2.199495 1.615682
O  2.226968 -1.316895 1.268527
C  1.463757 -1.144844 0.081889
H  1.717939 -1.913763 -0.649483
C  1.840032 0.248813 -0.466020
H  2.737366 0.133375 -1.084567
C  0.703219 0.791797 -1.326809
H  0.980502 1.787549 -1.691894
C  -0.592309 0.921108 -0.486516
H  -0.593627 1.910220 -0.019477
C  -0.649511 -0.133625 0.648912
H  -0.214357 0.325611 1.545185
C  -2.067006 -0.622041 0.949092
H  -2.413461 -1.235572 0.117798
H  -2.067953 -1.238588 1.852644
O  -2.997901 0.462851 1.058753
H  -2.865710 0.918266 1.896262
O  0.085676 -1.318348 0.323247
O  -1.670796 0.830001 -1.416827
H  -2.491128 0.998902 -0.934991
O  0.546142 -0.100085 -2.418665
H  -0.376760 -0.037669 -2.699617
O  2.069643 1.193784 0.571856
H  2.567818 0.740649 1.264019
24
3 zpe= -687.196354 src= /lustre/lwork/pjhsu/sugar_opt/pj_sugar/alpha_galactose/OS2.xyz:20 moment= 2.363842 0.671309 -0.374849 5.313427 2.502152 0.889630 -0.905266 4.362816 3.853337 1.535756 -0.685963 2.900938 3.775970 1.680841 -0.364111 2.132818
H 1.341798 -1.819433 2.445090
O  1.433016 -0.892453 2.198978
C  1.433315 -0.785589 0.791444
H  2.219749 -1.415759 0.366523
C  1.694524 0.707963 0.448406
H  2.765595 0.833379 0.250753
C  0.895281 1.079922 -0.806047
H  1.112669 2.112100 -1.081180
C  -0.617964 0.920922 -0.543072
H  -0.969883 1.781809 0.024590
C  -0.884229 -0.356736 0.300719
H  -1.002310 -0.061563 1.346392
C  -2.110225 -1.153540 -0.147494
H  -1.900969 -1.616929 -1.119005
H  -2.299709 -1.952241 0.571690
O  -3.274367 -0.347855 -0.194567
H  -3.160933 0.252188 -0.943578
O  0.240652 -1.271515 0.209371
O  -1.328656 0.936339 -1.782804
H  -0.717145 0.645780 -2.473991
O  1.291949 0.294745 -1.937051
H  1.129556 -0.634277 -1.723172
O  1.273711 1.589425 1.476488
H  1.435575 1.154317 2.323517
24
4 zpe= -687.195909 src= /lustre/lwork/pjhsu/sugar_opt/pj_sugar/alpha_galactose/OS2.xyz:25 moment= 2.403725 0.693224 -0.351024 4.210678 2.548493 0.945629 -0.689521 3.833175 3.899226 1.565020 -0.696386 2.793554 3.816520 1.710369 -0.375809 2.060592
H 1.584651 -2.770828 1.060475
O  1.912053 -1.867104 0.995124
C  1.298977 -1.246600 -0.127937
H  1.599224 -1.752590 -1.048134
C  1.814578 0.213481 -0.132920
H  2.749933 0.237664 -0.706828
C  0.781503 1.122935 -0.799546
H  1.145900 2.152841 -0.785230
C  -0.578144 1.059314 -0.053164
H  -0.573448 1.815278 0.732189
C  -0.787289 -0.317490 0.626681
H  -0.387714 -0.255533 1.643326
C  -2.254701 -0.750438 0.678719
H  -2.572958 -1.040356 -0.328715
H  -2.346641 -1.624798 1.325265
O  -3.091992 0.258565 1.220658
H  -3.149246 0.953038 0.551855
O  -0.098875 -1.358246 -0.092444
O  -1.635571 1.418858 -0.938386
H  -1.406185 1.058845 -1.807135
O  0.576332 0.694014 -2.156794
H  1.051080 1.282945 -2.749060
O  2.028449 0.724375 1.173153
H  2.341082 -0.009168 1.719849
24
5 zpe= -687.195671 src= /lustre/lwork/pjhsu/sugar_opt/pj_sugar/alpha_galactose/OS2.xyz:38 moment= 2.413378 0.716378 -0.276351 4.657593 2.522992 0.916218 -0.849754 3.925823 4.269123 1.842547 -0.585401 2.319333 3.518079 1.640787 0.073192 2.405049
H 1.921785 -1.870973 2.019275
O  2.037238 -0.955422 1.744059
C  1.521448 -0.810975 0.427270
H  2.024885 -1.496265 -0.256640
C  1.809956 0.649018 0.017178
H  2.833863 0.686818 -0.371415
C  0.852116 1.085860 -1.088862
H  1.029169 2.147826 -1.295115
C  -0.647263 0.900725 -0.662591
H  -1.031939 1.867345 -0.321103
C  -0.758025 -0.080821 0.522198
H  -0.497526 0.489676 1.420982
C  -2.141686 -0.654732 0.780001
H  -2.084877 -1.322276 1.645746
H  -2.824254 0.172330 1.012018
O  -2.604202 -1.378400 -0.370683
H  -3.489432 -1.715958 -0.205833
O  0.157051 -1.171041 0.371974
O  -1.372418 0.522895 -1.834831
H  -1.942362 -0.234086 -1.625010
O  1.160977 0.309477 -2.231006
H  0.311970 0.153985 -2.675360
O  1.659625 1.556962 1.103377
H  2.072901 1.148029 1.874368
24
6 zpe= -687.195645 src= /lustre/lwork/pjhsu/sugar_opt/pj_sugar/alpha_galactose/OS2.xyz:42 moment= 2.404400 0.684491 -0.425388 4.593997 2.541542 0.946045 -0.667533 3.806548 3.838913 1.678183 -0.574157 2.351284 3.839177 1.608876 -0.457413 2.642719
H 1.437601 -2.586432 1.235826
O  1.762013 -1.684374 1.142878
C  1.211339 -1.118093 -0.037841
H  1.538055 -1.679622 -0.915692
C  1.760084 0.329065 -0.099927
H  2.725632 0.297725 -0.619856
C  0.791707 1.217144 -0.881197
H  1.178008 2.238507 -0.895382
C  -0.628168 1.218943 -0.235936
H  -0.685826 2.050154 0.469719
C  -0.873807 -0.078785 0.563400
H  -0.477253 0.050541 1.574658
C  -2.338102 -0.476169 0.664151
H  -2.910344 0.344667 1.099409
H  -2.738814 -0.672462 -0.335041
O  -2.517252 -1.600210 1.519636
H  -2.003223 -2.323805 1.145391
O  -0.192545 -1.194865 -0.056403
O  -1.610106 1.473905 -1.226852
H  -1.318837 1.013787 -2.026671
O  0.694982 0.709400 -2.223509
H  1.084604 1.344696 -2.829245
O  1.912477 0.913412 1.184077
H  2.196775 0.212871 1.786408
24
7 zpe= -687.195562 src= /lustre/lwork/pjhsu/sugar_opt/pj_sugar/alpha_galactose/OS2.xyz:44 moment= 2.362775 0.656712 -0.508502 6.380439 2.496806 0.888378 -0.899365 4.355061 3.779208 1.609806 -0.687281 2.431985 3.453519 1.546435 -0.059911 2.394380
H 1.484681 -1.807055 2.129894
O  1.593450 -0.880713 1.889070
C  1.408957 -0.733779 0.497951
H  2.099150 -1.385370 -0.045297
C  1.692862 0.756653 0.159366
H  2.736425 0.840988 -0.165976
C  0.764659 1.197944 -0.977926
H  0.994386 2.226920 -1.254835
C  -0.717675 1.096507 -0.542093
H  -0.964548 1.967442 0.067411
C  -0.925047 -0.164015 0.334172
H  -0.852102 0.116198 1.388158
C  -2.246572 -0.879669 0.109878
H  -3.068067 -0.179319 0.265201
H  -2.307024 -1.236736 -0.923401
O  -2.432180 -1.944682 1.035571
H  -1.713472 -2.571130 0.899576
O  0.123612 -1.145128 0.071501
O  -1.564709 1.140881 -1.683599
H  -1.038123 0.865711 -2.446649
O  0.992536 0.427439 -2.164065
H  0.798219 -0.496937 -1.957526
O  1.443079 1.624953 1.252406
H  1.698506 1.162899 2.061208
24
8 zpe= -687.195485 src= /lustre/lwork/pjhsu/sugar_opt/pj_sugar/alpha_galactose/OS2.xyz:48 moment= 2.400674 0.682525 -0.512357 4.856686 2.521847 0.909306 -0.880631 4.046952 3.811300 1.632113 -0.691485 2.376272 3.486695 1.565385 -0.097167 2.311624
H 1.768389 -1.811062 2.072485
O  1.869505 -0.895559 1.791748
C  1.467714 -0.782590 0.434937
H  2.061773 -1.444912 -0.197070
C  1.722446 0.690758 0.040913
H  2.758632 0.768728 -0.307606
C  0.781475 1.092950 -1.092385
H  0.961253 2.148224 -1.333487
C  -0.705864 0.922783 -0.654952
H  -1.055856 1.860511 -0.217415
C  -0.861484 -0.174847 0.412014
H  -0.721525 0.288157 1.393175
C  -2.209381 -0.882311 0.395484
H  -3.011484 -0.147422 0.485867
H  -2.336564 -1.409777 -0.554491
O  -2.343697 -1.767843 1.500412
H  -1.625636 -2.407267 1.438461
O  0.134427 -1.201708 0.245208
O  -1.501329 0.608802 -1.814719
H  -1.810581 1.426951 -2.215464
O  1.092408 0.284817 -2.215389
H  0.251297 0.061406 -2.638984
O  1.490751 1.594115 1.113712
H  1.823333 1.176095 1.918546
24
9 zpe= -687.195243 src= /lustre/lwork/pjhsu/sugar_opt/pj_sugar/alpha_galactose/OS2.xyz:55 moment= 2.356856 0.654490 -0.475190 6.231800 2.500363 0.889023 -0.911663 4.349222 3.832856 1.511180 -0.743787 2.944941 3.355644 1.404062 -0.337971 2.743724
H 1.965921 -1.701849 2.038022
O  2.070765 -0.849145 1.601946
C  1.472894 -0.911596 0.321638
H  1.898789 -1.740866 -0.249990
C  1.776740 0.440048 -0.381820
H  2.673372 0.314460 -0.999678
C  0.590617 0.813364 -1.276053
H  0.813895 1.740571 -1.804555
C  -0.697199 0.989240 -0.432567
H  -0.702271 1.987872 0.007747
C  -0.719014 -0.040967 0.724825
H  -0.266577 0.439448 1.599180
C  -2.101500 -0.528733 1.149979
H  -1.978909 -1.217983 1.988315
H  -2.664493 0.343468 1.513929
O  -2.822822 -1.228310 0.154974
H  -2.931920 -0.606459 -0.577450
O  0.092245 -1.192782 0.382256
O  -1.839785 0.911499 -1.294908
H  -1.532364 0.534707 -2.133011
O  0.381754 -0.164917 -2.300835
H  0.157370 -1.003117 -1.871664
O  1.951895 1.510285 0.533704
H  2.411599 1.160761 1.308015
24
10 zpe= -687.194287 src= /lustre/lwork/pjhsu/sugar_opt/pj_sugar/alpha_galactose/OS2.xyz:58 moment= 2.397688 0.692484 -0.423575 4.475286 2.528216 0.908477 -0.904551 4.091265 3.929095 1.597855 -0.612669 2.795233 3.617486 1.518989 -0.330771 2.772498
H 1.331008 -2.233242 2.217502
O  1.503740 -1.293943 2.092845
C  1.411000 -0.994727 0.707615
H  2.135845 -1.582245 0.141412
C  1.732121 0.512174 0.574751
H  2.816096 0.616665 0.450665
C  1.028467 1.077348 -0.658331
H  1.255360 2.148698 -0.725682
C  -0.509468 0.898478 -0.524665
H  -0.919355 1.760863 0.003751
C  -0.871862 -0.368278 0.280392
H  -0.979294 -0.065450 1.325879
C  -2.157398 -1.063274 -0.177228
H  -1.985896 -1.526789 -1.153542
H  -2.397658 -1.852830 0.536232
O  -3.268223 -0.178235 -0.207042
H  -3.157411 0.373584 -0.989447
O  0.159689 -1.359679 0.175301
O  -1.102843 0.824182 -1.841314
H  -1.094557 1.705214 -2.232268
O  1.549893 0.415240 -1.801568
H  0.802097 0.181429 -2.367458
O  1.284971 1.269718 1.690855
H  1.433677 0.733101 2.480342
24
11 zpe= -687.194253 src= /lustre/lwork/pjhsu/sugar_opt/pj_sugar/alpha_galactose/OS2.xyz:62 moment= 2.398850 0.679621 -0.424410 4.540536 2.546805 0.950563 -0.654542 3.797332 3.868275 1.526699 -0.785445 2.866270 3.798315 1.562373 -0.541038 2.701045
H 1.462058 -2.509990 1.600541
O  1.796795 -1.621587 1.435491
C  1.266517 -1.169272 0.194128
H  1.642040 -1.789820 -0.622633
C  1.777590 0.284484 0.032915
H  2.763016 0.240315 -0.448159
C  0.822002 1.082350 -0.855538
H  1.161799 2.119664 -0.897397
C  -0.642985 1.043333 -0.311034
H  -0.821375 1.950294 0.271543
C  -0.854355 -0.159511 0.632103
H  -0.456874 0.126299 1.613125
C  -2.314541 -0.551456 0.855464
H  -2.342197 -1.364089 1.585066
H  -2.819977 0.316742 1.307303
O  -3.007615 -1.012101 -0.286121
H  -2.890726 -0.333235 -0.965055
O  -0.128261 -1.300320 0.145755
O  -1.562561 1.077067 -1.402248
H  -1.087676 0.712025 -2.165323
O  0.828279 0.511039 -2.175412
H  1.387703 1.040313 -2.749922
O  1.869828 0.976144 1.268883
H  2.150517 0.332314 1.933524
24
12 zpe= -687.193886 src= /lustre/lwork/pjhsu/sugar_opt/pj_sugar/alpha_galactose/OS2.xyz:65 moment= 2.388191 0.717377 -0.121121 5.162950 2.507115 0.891366 -0.939143 4.305226 4.411592 1.806166 -0.822045 2.713924 3.497933 1.626951 0.121744 2.541535
H 1.537853 -2.236186 1.491214
O  1.904578 -1.391956 1.203612
C  1.349731 -1.063606 -0.052904
H  1.687834 -1.775983 -0.811120
C  1.833161 0.372465 -0.404664
H  2.720739 0.292408 -1.043078
C  0.718462 1.094632 -1.171149
H  1.062289 2.087009 -1.463069
C  -0.557145 1.221208 -0.298125
H  -0.442623 2.074020 0.373746
C  -0.722827 -0.049459 0.570448
H  -0.244143 0.119214 1.538867
C  -2.163384 -0.437555 0.820837
H  -2.727322 0.464166 1.085031
H  -2.597286 -0.852402 -0.094799
O  -2.182218 -1.389217 1.886241
H  -3.079574 -1.718579 1.988509
O  -0.057083 -1.172895 -0.065405
O  -1.686362 1.489960 -1.121956
H  -1.459012 1.209737 -2.019432
O  0.417093 0.422725 -2.400797
H  0.115270 -0.469609 -2.181606
O  2.120459 1.153675 0.743938
H  2.453511 0.556230 1.426655
24
13 zpe= -687.193759 src= /lustre/lwork/pjhsu/sugar_opt/pj_sugar/alpha_galactose/OS2.xyz:66 moment= 2.359371 0.675216 -0.317150 4.948779 2.511231 0.914276 -0.731512 4.187154 3.816989 1.619049 -0.359651 2.605222 3.431067 1.483060 -0.256273 2.476103
H 2.071471 -1.200842 1.596721
O  1.782331 -1.939879 1.040799
C  1.240518 -1.405587 -0.123021
H  1.484501 -2.086602 -0.939225
C  1.799524 0.025259 -0.418326
H  2.632451 -0.059967 -1.119992
C  0.695883 0.908353 -1.017393
H  1.098658 1.892974 -1.262118
C  -0.474816 1.058488 -0.021607
H  -0.203443 1.782482 0.746952
C  -0.754309 -0.310803 0.661894
H  -0.285313 -0.307176 1.650990
C  -2.240497 -0.632272 0.824732
H  -2.675546 -0.831597 -0.161811
H  -2.342813 -1.536928 1.425386
O  -2.933655 0.404034 1.500018
H  -2.978574 1.148468 0.885955
O  -0.186148 -1.383560 -0.118571
O  -1.609520 1.603885 -0.696032
H  -1.550490 1.341940 -1.625638
O  0.228232 0.374043 -2.259941
H  -0.122207 -0.510198 -2.075686
O  2.246045 0.602591 0.819420
H  3.078718 1.062894 0.685495
24
14 zpe= -687.193642 src= /lustre/lwork/pjhsu/sugar_opt/pj_sugar/alpha_galactose/OS2.xyz:81 moment= 2.357389 0.663887 -0.367046 5.596188 2.500774 0.908926 -0.739870 4.195476 3.817063 1.652351 -0.617873 2.385776 3.796705 1.601546 -0.370751 2.640110
H 1.896367 -0.810779 1.842962
O  1.843198 -1.539160 1.206328
C  1.385760 -1.016340 0.002497
H  1.855562 -1.588190 -0.798416
C  1.725534 0.501540 -0.139114
H  2.671930 0.599429 -0.676189
C  0.606171 1.220553 -0.906202
H  0.869194 2.269071 -1.057930
C  -0.733267 1.126934 -0.135519
H  -0.734216 1.862683 0.671082
C  -0.858898 -0.281074 0.499185
H  -0.520749 -0.234423 1.539615
C  -2.259878 -0.870203 0.486653
H  -2.956753 -0.174468 0.956071
H  -2.586472 -1.020653 -0.548568
O  -2.317410 -2.080690 1.227655
H  -1.624071 -2.658784 0.888155
O  -0.012497 -1.226504 -0.204388
O  -1.810260 1.474039 -0.994646
H  -1.535845 1.276247 -1.900668
O  0.465130 0.675766 -2.221847
H  0.227943 -0.257761 -2.120439
O  1.840706 1.060323 1.179668
H  2.564820 1.691445 1.206059
24
15 zpe= -687.193549 src= /lustre/lwork/pjhsu/sugar_opt/pj_sugar/alpha_galactose/OS2.xyz:96 moment= 2.350302 0.636683 -0.477119 8.367682 2.506514 0.898308 -0.851495 4.254903 3.827417 1.487217 -0.808686 3.082143 3.329800 1.404187 -0.186531 2.783601
H 1.746516 -1.697902 2.218900
O  1.930543 -0.891497 1.725569
C  1.343683 -0.988077 0.444557
H  1.649362 -1.918863 -0.040256
C  1.832136 0.232777 -0.381113
H  2.686061 -0.087358 -0.989613
C  0.694112 0.703920 -1.298798
H  1.045689 1.532590 -1.913772
C  -0.485772 1.193933 -0.434647
H  -0.176427 2.128968 0.031435
C  -0.779243 0.171957 0.711905
H  -0.447809 0.596841 1.665095
C  -2.245500 -0.222831 0.837020
H  -2.388435 -0.803227 1.755366
H  -2.860711 0.674684 0.888986
O  -2.698498 -0.963898 -0.297064
H  -2.275273 -1.828176 -0.263876
O  -0.067342 -1.079307 0.505509
O  -1.612395 1.533478 -1.220204
H  -1.919883 0.742481 -1.681465
O  0.311902 -0.318038 -2.217355
H  -0.096472 -1.033806 -1.714961
O  2.193193 1.334351 0.438640
H  2.620562 0.985999 1.231141
24
16 zpe= -687.193539 src= /lustre/lwork/pjhsu/sugar_opt/pj_sugar/alpha_galactose/OS2.xyz:97 moment= 2.391534 0.673400 -0.516476 5.145358 2.524966 0.908937 -0.894301 4.062380 3.906771 1.566697 -0.682485 2.867315 3.650565 1.529315 -0.339794 2.785255
H 1.748371 -2.551318 1.376512
O  2.021448 -1.650745 1.170951
C  1.330919 -1.226102 0.002559
H  1.560751 -1.885944 -0.835726
C  1.845219 0.202222 -0.293977
H  2.740700 0.115067 -0.919560
C  0.777759 0.983582 -1.057151
H  1.146231 2.003680 -1.224158
C  -0.537723 1.054331 -0.225678
H  -0.520861 1.955789 0.390614
C  -0.685648 -0.155314 0.720389
H  -0.167508 0.116862 1.647755
C  -2.122081 -0.506843 1.109638
H  -2.084230 -1.286942 1.872785
H  -2.571079 0.387075 1.569955
O  -2.930909 -1.013015 0.067055
H  -2.902533 -0.368123 -0.650114
O  -0.063783 -1.316197 0.162297
O  -1.662760 1.133623 -1.134886
H  -1.833746 2.055753 -1.351141
O  0.585882 0.335581 -2.303795
H  -0.361746 0.352916 -2.494077
O  2.135858 0.937991 0.887941
H  2.549469 0.325072 1.509813
24
17 zpe= -687.193286 src= /lustre/lwork/pjhsu/sugar_opt/pj_sugar/alpha_galactose/OS2.xyz:101 moment= 2.418281 0.735349 -0.157468 4.327586 2.539990 0.928867 -0.801690 3.894321 4.364756 1.925882 -0.533842 2.170823 3.507377 1.676566 0.159192 2.408609
H 2.021466 -0.627875 2.143416
O  1.886978 -1.499680 1.745596
C  1.359432 -1.298788 0.464138
H  1.668914 -2.144136 -0.147257
C  1.897332 0.018872 -0.152009
H  2.867230 -0.195140 -0.608027
C  0.940378 0.568390 -1.211091
H  1.338167 1.517677 -1.596336
C  -0.454817 0.841070 -0.592520
H  -0.468917 1.864276 -0.206215
C  -0.739571 -0.117130 0.592927
H  -0.409319 0.388605 1.508335
C  -2.210766 -0.494629 0.733809
H  -2.466194 -1.210316 -0.053671
H  -2.371561 -0.966711 1.706626
O  -2.994725 0.704940 0.605372
H  -3.898340 0.521725 0.877832
O  -0.059684 -1.359552 0.445760
O  -1.384622 0.727503 -1.669483
H  -2.258376 0.945069 -1.316960
O  0.890820 -0.383455 -2.258835
H  0.003172 -0.333492 -2.640214
O  2.050437 0.977252 0.912151
H  2.791567 1.557528 0.718656
24
18 zpe= -687.193051 src= /lustre/lwork/pjhsu/sugar_opt/pj_sugar/alpha_galactose/OS2.xyz:105 moment= 2.414428 0.735337 -0.153535 4.520422 2.527290 0.924194 -0.808033 3.858737 4.432486 1.841304 -0.749934 2.625944 3.494669 1.620920 0.097066 2.523145
H 1.418354 -1.578951 2.317174
O  1.852962 -0.891393 1.799686
C  1.336833 -0.941395 0.479183
H  1.717404 -1.821130 -0.045144
C  1.825309 0.348003 -0.222805
H  2.821279 0.148582 -0.633947
C  0.897812 0.730494 -1.378142
H  1.177255 1.740208 -1.697446
C  -0.623142 0.731030 -0.958644
H  -1.001237 1.754348 -0.973301
C  -0.800280 0.142742 0.443854
H  -0.397164 0.840118 1.182369
C  -2.242715 -0.147031 0.810670
H  -2.860587 0.709365 0.511905
H  -2.595594 -1.030466 0.268339
O  -2.302514 -0.352205 2.221557
H  -3.174069 -0.687896 2.449369
O  -0.066241 -1.096246 0.488284
O  -1.407312 0.028797 -1.926434
H  -1.213029 -0.912011 -1.823720
O  1.155480 -0.202762 -2.419389
H  0.461452 -0.095651 -3.081070
O  1.869900 1.459345 0.661586
H  2.151845 1.123105 1.523068
24
19 zpe= -687.192946 src= /lustre/lwork/pjhsu/sugar_opt/pj_sugar/alpha_galactose/OS2.xyz:113 moment= 2.403003 0.700194 -0.410568 4.369515 2.526275 0.919151 -0.794336 4.030108 4.027313 1.730308 -0.541350 2.252000 3.488501 1.637097 0.062339 2.271486
H 2.143489 -0.759131 1.936262
O  2.007196 -1.599136 1.475641
C  1.393153 -1.310595 0.250843
H  1.685989 -2.091450 -0.448197
C  1.852964 0.071090 -0.282685
H  2.797870 -0.071196 -0.812816
C  0.815412 0.674566 -1.230342
H  1.162154 1.663885 -1.560132
C  -0.541379 0.852437 -0.502210
H  -0.545844 1.837339 -0.024535
C  -0.730387 -0.217674 0.605538
H  -0.360595 0.216094 1.545589
C  -2.186109 -0.652646 0.783137
H  -2.478161 -1.257582 -0.074919
H  -2.285383 -1.266433 1.682147
O  -3.086208 0.464924 0.810040
H  -3.042319 0.895116 1.669559
O  -0.022334 -1.416963 0.315406
O  -1.535692 0.815861 -1.523719
H  -2.391986 0.980029 -1.106045
O  0.720317 -0.190730 -2.347033
H  -0.188327 -0.129404 -2.673281
O  2.045255 0.944506 0.847138
H  2.771923 1.547091 0.667612
24
20 zpe= -687.192798 src= /lustre/lwork/pjhsu/sugar_opt/pj_sugar/alpha_galactose/OS2.xyz:117 moment= 2.422833 0.737383 -0.202599 4.414435 2.531140 0.909761 -0.929803 4.045886 4.422803 1.815649 -0.821556 2.678628 3.532153 1.641162 0.067003 2.438493
H 1.616144 -2.229444 1.604129
O  1.999681 -1.404239 1.286004
C  1.398785 -1.091909 0.036000
H  1.733990 -1.790286 -0.732871
C  1.857899 0.345262 -0.314221
H  2.797951 0.274108 -0.873001
C  0.805855 1.019738 -1.195004
H  1.129415 2.049724 -1.389539
C  -0.578111 1.054803 -0.472954
H  -0.673916 1.997943 0.070215
C  -0.711144 -0.092847 0.542517
H  -0.273963 0.244227 1.487347
C  -2.145359 -0.504361 0.812220
H  -2.762685 0.396639 0.914849
H  -2.520620 -1.083837 -0.036193
O  -2.161372 -1.267535 2.018953
H  -3.000789 -1.731493 2.080005
O  0.001823 -1.248014 0.081586
O  -1.628598 0.958485 -1.455705
H  -1.833075 1.839465 -1.784468
O  0.743406 0.304509 -2.418895
H  -0.193680 0.205432 -2.638928
O  2.027405 1.162268 0.836912
H  2.368958 0.592363 1.539042
24
21 zpe= -687.192793 src= /lustre/lwork/pjhsu/sugar_opt/pj_sugar/alpha_galactose/OS2.xyz:119 moment= 2.375268 0.683625 -0.403848 5.161887 2.496033 0.883967 -0.929739 4.426806 4.040838 1.636848 -0.767594 2.722469 3.474406 1.584298 0.016148 2.406663
H 1.575048 -2.168254 1.633269
O  1.789704 -1.242944 1.468748
C  1.423402 -0.922910 0.142003
H  1.972475 -1.555123 -0.561583
C  1.781986 0.572677 -0.082281
H  2.775024 0.625074 -0.543502
C  0.747085 1.192116 -1.028909
H  1.015386 2.228682 -1.233389
C  -0.671793 1.133373 -0.405649
H  -0.785773 1.967055 0.290360
C  -0.835848 -0.182203 0.396878
H  -0.550064 0.015797 1.435806
C  -2.247307 -0.748961 0.373937
H  -2.959350 0.065686 0.546074
H  -2.461063 -1.167245 -0.609246
O  -2.432361 -1.809621 1.308264
H  -2.427554 -1.443068 2.197991
O  0.064008 -1.194177 -0.121617
O  -1.657085 1.300351 -1.417631
H  -1.241121 1.083791 -2.263571
O  0.759971 0.540112 -2.304548
H  0.527864 -0.388330 -2.164677
O  1.752754 1.331317 1.116831
H  2.083613 0.766802 1.827444
24
22 zpe= -687.192495 src= /lustre/lwork/pjhsu/sugar_opt/pj_sugar/alpha_galactose/OS2.xyz:121 moment= 2.412936 0.710869 -0.332473 4.019942 2.537427 0.939931 -0.687779 3.879579 4.058354 1.690764 -0.597215 2.668453 3.874354 1.661282 -0.343585 2.643107
H 1.587697 -2.342238 1.437266
O  1.884605 -1.435916 1.296742
C  1.372181 -0.994233 0.045148
H  1.841455 -1.547014 -0.771465
C  1.734133 0.509157 -0.053784
H  2.731643 0.588537 -0.501916
C  0.723428 1.226331 -0.949844
H  0.965161 2.291012 -0.968744
C  -0.741193 1.040290 -0.432239
H  -1.006310 1.900800 0.186176
C  -0.853918 -0.224119 0.446413
H  -0.519284 0.036595 1.457766
C  -2.269712 -0.777350 0.528932
H  -2.968059 0.052694 0.689971
H  -2.533846 -1.254005 -0.414110
O  -2.416455 -1.777841 1.533879
H  -2.298346 -1.369147 2.397145
O  -0.000546 -1.257373 -0.074420
O  -1.648062 1.044176 -1.522490
H  -1.217183 0.555736 -2.238065
O  0.838298 0.672183 -2.271289
H  1.053356 1.374891 -2.889500
O  1.709415 1.161982 1.207418
H  2.030538 0.524853 1.860008
24
23 zpe= -687.192287 src= /lustre/lwork/pjhsu/sugar_opt/pj_sugar/alpha_galactose/OS2.xyz:124 moment= 2.410833 0.722174 -0.203424 4.480225 2.528679 0.926838 -0.788763 3.850485 4.304685 1.883165 -0.521024 2.298314 3.817708 1.663483 -0.192042 2.714564
H 2.072936 -1.078979 1.880261
O  1.925831 -1.805759 1.258686
C  1.335504 -1.261644 0.110873
H  1.603744 -1.906790 -0.723305
C  1.859820 0.173101 -0.146520
H  2.823881 0.087000 -0.653923
C  0.900610 0.977402 -1.027040
H  1.270827 2.010037 -1.092695
C  -0.551703 1.006232 -0.429757
H  -0.697533 1.959437 0.090466
C  -0.723553 -0.125639 0.605185
H  -0.255553 0.229091 1.533233
C  -2.158322 -0.461406 0.984640
H  -2.136331 -1.281475 1.708573
H  -2.615840 0.419620 1.452600
O  -2.901644 -0.849283 -0.180394
H  -3.794252 -1.102417 0.071351
O  -0.086102 -1.317960 0.163104
O  -1.453068 0.959098 -1.535802
H  -2.157016 0.317905 -1.344200
O  0.922907 0.382457 -2.307743
H  0.006392 0.421741 -2.628361
O  2.032987 0.820996 1.130478
H  2.775476 1.429236 1.081294
24
24 zpe= -687.192183 src= /lustre/lwork/pjhsu/sugar_opt/pj_sugar/alpha_galactose/OS2.xyz:127 moment= 2.395249 0.684035 -0.452590 4.576912 2.524036 0.923497 -0.777648 3.931866 3.835310 1.662554 -0.642949 2.321277 3.795533 1.586574 -0.443743 2.609499
H 2.144802 -0.951362 1.605394
O  1.916295 -1.738880 1.091523
C  1.177332 -1.317230 -0.018354
H  1.287949 -2.083072 -0.783502
C  1.704216 0.042348 -0.551404
H  2.544830 -0.161094 -1.218403
C  0.614769 0.791624 -1.325615
H  1.018380 1.761942 -1.645654
C  -0.640658 1.036614 -0.426244
H  -0.566085 2.024738 0.035117
C  -0.720658 -0.010272 0.694937
H  -0.105080 0.346838 1.528540
C  -2.121896 -0.276510 1.228074
H  -2.582540 0.658751 1.553561
H  -2.739291 -0.703864 0.431923
O  -2.076527 -1.128200 2.363888
H  -1.580555 -1.914813 2.105861
O  -0.220244 -1.273644 0.242328
O  -1.824600 0.976726 -1.240852
H  -2.001554 1.848223 -1.608497
O  0.299387 0.019304 -2.470237
H  -0.666653 -0.018853 -2.527773
O  2.137959 0.845451 0.563165
H  2.999425 1.224236 0.370224
24
25 zpe= -687.192083 src= /lustre/lwork/pjhsu/sugar_opt/pj_sugar/alpha_galactose/OS2.xyz:130 moment= 2.397055 0.679515 -0.513723 4.827733 2.518776 0.919941 -0.773417 3.976102 3.822812 1.659317 -0.623063 2.330898 3.789961 1.587539 -0.428469 2.600161
H 1.679694 -1.280946 1.937314
O  1.756885 -1.871496 1.174637
C  1.342821 -1.157158 0.045720
H  1.817988 -1.619976 -0.816802
C  1.770946 0.330701 0.145751
H  2.807745 0.402883 -0.190450
C  0.891834 1.220728 -0.735754
H  1.195516 2.267825 -0.602354
C  -0.606734 1.089084 -0.333920
H  -0.845736 1.884964 0.378672
C  -0.880561 -0.265018 0.348405
H  -0.660181 -0.147753 1.416467
C  -2.309405 -0.774449 0.217876
H  -3.011484 -0.030846 0.607663
H  -2.534103 -0.949963 -0.840803
O  -2.507683 -1.951845 0.983103
H  -1.803532 -2.565186 0.737516
O  -0.051871 -1.293322 -0.200189
O  -1.343525 1.299332 -1.547085
H  -2.246502 1.559982 -1.347737
O  1.131711 0.821423 -2.072927
H  0.322306 0.988109 -2.574572
O  1.663019 0.747931 1.519387
H  2.419848 1.292994 1.750082
24
26 zpe= -687.191834 src= /lustre/lwork/pjhsu/sugar_opt/pj_sugar/alpha_galactose/OS2.xyz:136 moment= 2.407006 0.702547 -0.463655 4.339353 2.517752 0.902969 -0.908539 4.130678 4.007029 1.628278 -0.740919 2.698427 3.503561 1.593278 -0.044451 2.313751
H 1.834895 -1.846935 1.923339
O  2.093628 -1.078699 1.402143
C  1.359790 -1.099966 0.184608
H  1.616934 -1.984770 -0.400090
C  1.767748 0.180053 -0.583718
H  2.650224 -0.055526 -1.189038
C  0.629887 0.607960 -1.510859
H  0.922714 1.541646 -2.006563
C  -0.681514 0.856332 -0.698894
H  -0.743304 1.915159 -0.435407
C  -0.696574 0.039227 0.605909
H  -0.153112 0.626023 1.356749
C  -2.098067 -0.248420 1.130268
H  -2.696258 0.669720 1.069468
H  -2.576290 -1.000512 0.504671
O  -2.097506 -0.772198 2.453827
H  -1.734832 -0.110124 3.051056
O  -0.023434 -1.209082 0.417414
O  -1.816810 0.495546 -1.508081
H  -2.074362 1.250648 -2.046087
O  0.461249 -0.411192 -2.482834
H  -0.490746 -0.562654 -2.570319
O  2.039644 1.276070 0.281697
H  2.504097 0.920693 1.050739
24
27 zpe= -687.191564 src= /lustre/lwork/pjhsu/sugar_opt/pj_sugar/alpha_galactose/OS2.xyz:141 moment= 2.353699 0.662948 -0.378110 5.379641 2.510221 0.912202 -0.751671 4.182214 3.812915 1.625413 -0.319454 2.637343 3.645147 1.631938 -0.336662 2.317616
H 2.022548 -0.265191 2.048073
O  1.924168 -1.161794 1.695180
C  1.442304 -1.053205 0.392382
H  1.900740 -1.851815 -0.191848
C  1.781076 0.340300 -0.229611
H  2.705859 0.255335 -0.804813
C  0.636803 0.796877 -1.142486
H  0.888795 1.752328 -1.607157
C  -0.683227 0.936849 -0.344742
H  -0.687425 1.889795 0.188085
C  -0.777692 -0.207820 0.699552
H  -0.385818 0.179176 1.648783
C  -2.185463 -0.719717 0.998737
H  -2.104331 -1.503946 1.753679
H  -2.759886 0.111004 1.434681
O  -2.864526 -1.289023 -0.104163
H  -2.956690 -0.580206 -0.754127
O  0.046993 -1.315609 0.288384
O  -1.778644 0.984430 -1.266205
H  -1.454471 0.619407 -2.103473
O  0.459802 -0.113917 -2.231052
H  0.209248 -0.970747 -1.851682
O  1.944433 1.288827 0.839089
H  2.676408 1.879662 0.642733
24
28 zpe= -687.191084 src= /lustre/lwork/pjhsu/sugar_opt/pj_sugar/alpha_galactose/OS2.xyz:144 moment= 2.387330 0.660091 -0.517556 5.904790 2.527911 0.913148 -0.871070 4.013888 3.872398 1.538321 -0.681792 3.010114 3.712684 1.526457 -0.440191 2.897885
H 1.518360 -2.482166 1.637041
O  1.772291 -1.559265 1.530899
C  1.326138 -1.106100 0.261886
H  1.755642 -1.716115 -0.534708
C  1.818518 0.351815 0.133492
H  2.835998 0.327138 -0.273162
C  0.907050 1.117650 -0.820715
H  1.267371 2.152118 -0.893200
C  -0.551951 1.134420 -0.282354
H  -0.658335 1.982830 0.398235
C  -0.877588 -0.137492 0.532381
H  -0.648148 0.092399 1.578149
C  -2.324248 -0.636820 0.465038
H  -2.494021 -1.285690 1.335573
H  -3.009867 0.209950 0.532573
O  -2.630494 -1.327720 -0.730695
H  -1.893122 -1.923569 -0.907973
O  -0.068542 -1.253933 0.119687
O  -1.451066 1.294092 -1.389134
H  -1.589089 2.233535 -1.544724
O  0.984447 0.488781 -2.089118
H  0.105447 0.564580 -2.488742
O  1.796276 1.045426 1.374790
H  2.107929 0.431137 2.051780
24
29 zpe= -687.190618 src= /lustre/lwork/pjhsu/sugar_opt/pj_sugar/alpha_galactose/OS2.xyz:145 moment= 2.399789 0.696132 -0.341783 3.972344 2.554503 0.960221 -0.617913 3.701179 3.822543 1.711201 -0.378158 2.065065 3.425691 1.583149 0.056799 2.355761
H 1.957513 -0.998533 1.988644
O  1.916951 -1.752768 1.384145
C  1.323237 -1.310800 0.196197
H  1.654321 -1.987505 -0.590054
C  1.774170 0.140008 -0.132695
H  2.735842 0.087813 -0.649302
C  0.739636 0.843369 -1.016104
H  1.072057 1.862781 -1.231710
C  -0.645801 0.897657 -0.310199
H  -0.713258 1.823484 0.261925
C  -0.806616 -0.289062 0.671860
H  -0.415736 0.026658 1.645872
C  -2.259491 -0.740835 0.841748
H  -2.568555 -1.279755 -0.060399
H  -2.320791 -1.432676 1.682731
O  -3.130640 0.344536 1.126219
H  -3.223104 0.844263 0.305501
O  -0.087249 -1.433774 0.201121
O  -1.681686 0.971846 -1.285222
H  -1.450137 0.344486 -1.984676
O  0.623712 0.103406 -2.243139
H  0.879893 0.668357 -2.976446
O  1.912438 0.870271 1.099524
H  2.714295 1.398772 1.074457
24
30 zpe= -687.190564 src= /lustre/lwork/pjhsu/sugar_opt/pj_sugar/alpha_galactose/OS2.xyz:147 moment= 2.389440 0.692399 -0.375878 4.249711 2.526765 0.932645 -0.725867 3.813764 3.858810 1.718916 -0.375797 2.110065 3.433731 1.588872 0.049950 2.351404
H 2.286457 -1.295009 1.471947
O  1.997702 -1.998469 0.873436
C  1.203323 -1.410446 -0.111981
H  1.237539 -2.067093 -0.980105
C  1.741885 -0.008477 -0.492985
H  2.567294 -0.150256 -1.194875
C  0.674378 0.866276 -1.162057
H  1.067604 1.889478 -1.219836
C  -0.675318 0.891315 -0.351484
H  -0.836391 1.891129 0.051010
C  -0.637998 -0.127536 0.791146
H  0.039187 0.244090 1.565953
C  -2.009653 -0.409335 1.416073
H  -2.592062 -1.047106 0.741700
H  -1.868611 -0.960843 2.346267
O  -2.711853 0.782454 1.742218
H  -3.062476 1.149775 0.923001
O  -0.174868 -1.374017 0.259448
O  -1.787769 0.654215 -1.224030
H  -1.822189 -0.296680 -1.395476
O  0.500934 0.343796 -2.469789
H  -0.351513 0.661600 -2.794796
O  2.216471 0.625625 0.707763
H  2.999928 1.145514 0.508454
24
31 zpe= -687.189187 src= /lustre/lwork/pjhsu/sugar_opt/pj_sugar/alpha_galactose/OS2.xyz:150 moment= 2.391269 0.735232 0.043873 4.654715 2.523559 0.919842 -0.772703 4.060141 4.463618 1.853407 -0.762178 2.653995 3.837155 1.663664 -0.223776 2.686061
H 1.157841 -0.504448 2.476470
O  1.344813 -1.314695 1.980589
C  1.325012 -0.997634 0.627019
H  2.016483 -1.679481 0.130874
C  1.749611 0.485036 0.375916
H  2.825805 0.515772 0.191163
C  0.990604 1.043900 -0.834519
H  1.325973 2.059087 -1.053955
C  -0.535321 1.043901 -0.570138
H  -0.795539 1.912903 0.037769
C  -0.915849 -0.235053 0.221319
H  -0.932373 0.001542 1.290570
C  -2.279985 -0.785477 -0.142015
H  -2.980571 0.050768 -0.247722
H  -2.217473 -1.297505 -1.108243
O  -2.691510 -1.672306 0.895805
H  -3.446978 -2.180136 0.587532
O  0.073414 -1.263078 -0.003830
O  -1.234840 1.186429 -1.800768
H  -0.651643 0.864166 -2.502015
O  1.292258 0.285868 -2.011152
H  1.003729 -0.623751 -1.843240
O  1.421543 1.261977 1.540260
H  2.154999 1.841216 1.762314
24
32 zpe= -687.188531 src= /lustre/lwork/pjhsu/sugar_opt/pj_sugar/alpha_galactose/OS2.xyz:153 moment= 2.368757 0.684149 -0.297189 4.781407 2.504880 0.910659 -0.738350 4.199027 3.970709 1.620842 -0.709066 2.662746 3.430644 1.579786 0.043213 2.346929
H 1.452027 -0.661218 2.253498
O  1.435932 -1.468742 1.718606
C  1.317028 -1.087882 0.384023
H  1.930945 -1.767107 -0.208433
C  1.772072 0.392171 0.164286
H  2.813779 0.396521 -0.165264
C  0.881115 1.058788 -0.892724
H  1.219761 2.079891 -1.079118
C  -0.596588 1.080622 -0.431867
H  -0.737182 1.890648 0.286679
C  -0.929617 -0.264605 0.274434
H  -0.816259 -0.116982 1.356946
C  -2.345851 -0.754943 0.005949
H  -3.038729 0.072450 0.204793
H  -2.454341 -1.024616 -1.044465
O  -2.694705 -1.914791 0.747711
H  -2.507309 -1.765180 1.679934
O  0.004217 -1.281492 -0.135416
O  -1.437336 1.375538 -1.538301
H  -0.979562 1.078399 -2.336993
O  1.001337 0.388618 -2.150714
H  0.707179 -0.524703 -2.015183
O  1.643371 1.092699 1.413682
H  2.360717 1.724915 1.509939
24
33 zpe= -687.187715 src= /lustre/lwork/pjhsu/sugar_opt/pj_sugar/alpha_galactose/OS2.xyz:157 moment= 2.397001 0.687416 -0.373668 4.082022 2.553879 0.964511 -0.590169 3.674989 3.794303 1.603289 -0.358697 2.673340 3.751025 1.684324 -0.424129 2.184789
H 1.856229 -1.330957 1.847518
O  1.854204 -1.943086 1.098851
C  1.265418 -1.281270 0.012443
H  1.598063 -1.803714 -0.883292
C  1.738182 0.200036 -0.035532
H  2.710816 0.227082 -0.532752
C  0.741229 1.069536 -0.806681
H  1.073380 2.110847 -0.787815
C  -0.694428 0.973240 -0.192837
H  -0.852542 1.824021 0.474316
C  -0.839906 -0.319985 0.638309
H  -0.389978 -0.121342 1.620781
C  -2.281619 -0.742718 0.925743
H  -2.251029 -1.636718 1.551965
H  -2.748364 0.062787 1.515128
O  -3.066840 -1.069341 -0.202975
H  -3.010287 -0.314100 -0.803302
O  -0.144427 -1.391575 -0.003669
O  -1.662817 1.100722 -1.232031
H  -1.258585 0.712027 -2.023363
O  0.700773 0.597519 -2.164593
H  1.083669 1.260533 -2.744786
O  1.858032 0.706345 1.307292
H  2.720829 1.113111 1.421284
24
34 zpe= -687.187704 src= /lustre/lwork/pjhsu/sugar_opt/pj_sugar/alpha_galactose/OS2.xyz:158 moment= 2.374601 0.694144 -0.269071 4.577983 2.507995 0.906896 -0.782440 4.226721 4.079916 1.679197 -0.730938 2.574893 3.439593 1.604536 0.104591 2.394467
H 1.501020 -0.517048 2.306393
O  1.552508 -1.353173 1.819865
C  1.403932 -1.062339 0.465987
H  2.054047 -1.741021 -0.087244
C  1.772102 0.423473 0.152835
H  2.820668 0.467423 -0.152018
C  0.875193 0.955460 -0.972226
H  1.160467 1.977434 -1.229341
C  -0.622133 0.917682 -0.564063
H  -0.857318 1.795901 0.039717
C  -0.875944 -0.347664 0.299287
H  -0.747051 -0.075305 1.353902
C  -2.260814 -0.970482 0.143285
H  -2.505062 -1.089576 -0.911224
H  -2.248424 -1.957576 0.617684
O  -3.273772 -0.132206 0.693352
H  -3.236934 -0.192762 1.653005
O  0.098914 -1.362502 -0.026433
O  -1.430888 0.992288 -1.726394
H  -0.893487 0.693296 -2.472597
O  1.089203 0.198352 -2.169217
H  0.834899 -0.716334 -1.978219
O  1.570744 1.193852 1.349404
H  2.219136 1.901826 1.395258
24
35 zpe= -687.18734 src= /lustre/lwork/pjhsu/sugar_opt/pj_sugar/alpha_galactose/OS2.xyz:160 moment= 2.327785 0.632217 -0.511969 9.270405 2.479432 0.869834 -0.956383 4.660178 3.609487 1.580225 -0.449465 2.299866 3.435962 1.546057 -0.022045 2.394401
H 2.049234 -1.055770 1.864397
O  1.711427 -1.792290 1.331998
C  1.350159 -1.282067 0.087353
H  1.756204 -1.938008 -0.684322
C  1.876763 0.181572 -0.104310
H  2.789568 0.152694 -0.700009
C  0.823314 1.023029 -0.832568
H  1.196552 2.038852 -0.978602
C  -0.517910 1.060911 -0.050062
H  -0.463981 1.799194 0.759165
C  -0.790523 -0.334919 0.577796
H  -0.425491 -0.317327 1.614550
C  -2.260282 -0.746819 0.661187
H  -2.304086 -1.729397 1.134234
H  -2.776199 -0.031464 1.318454
O  -2.919873 -0.868063 -0.583729
H  -2.923608 0.015093 -0.974000
O  -0.058158 -1.342896 -0.134972
O  -1.546491 1.529701 -0.922119
H  -1.220354 1.403585 -1.826882
O  0.590755 0.516226 -2.146960
H  0.249782 -0.387219 -2.052610
O  2.252076 0.760816 1.155602
H  1.561119 1.344564 1.484404
24
36 zpe= -687.187164 src= /lustre/lwork/pjhsu/sugar_opt/pj_sugar/alpha_galactose/OS2.xyz:161 moment= 2.371912 0.674844 -0.359636 4.974264 2.521056 0.927248 -0.688729 4.045853 3.799151 1.681432 -0.397793 2.133863 3.439167 1.575969 0.050475 2.403858
H 1.899368 -1.077378 2.133691
O  1.779351 -1.807932 1.510201
C  1.384131 -1.267691 0.281430
H  1.869220 -1.846784 -0.503631
C  1.810330 0.226091 0.180046
H  2.835697 0.260691 -0.191039
C  0.889388 0.990329 -0.776529
H  1.195330 2.039235 -0.822831
C  -0.596133 0.909017 -0.316627
H  -0.811444 1.757197 0.339613
C  -0.852544 -0.398732 0.481143
H  -0.669634 -0.199544 1.548664
C  -2.289240 -0.911286 0.343784
H  -2.415527 -1.332694 -0.658496
H  -2.451408 -1.709572 1.068839
O  -3.245232 0.104286 0.611086
H  -3.253357 0.686241 -0.158864
O  -0.002094 -1.446621 0.029868
O  -1.461842 1.069694 -1.430446
H  -1.034487 0.631328 -2.180976
O  0.979418 0.398786 -2.081060
H  1.565143 0.927609 -2.629762
O  1.875205 0.854966 1.468929
H  1.000359 1.141765 1.752965
24
37 zpe= -687.187073 src= /lustre/lwork/pjhsu/sugar_opt/pj_sugar/alpha_galactose/OS2.xyz:164 moment= 2.386773 0.666969 -0.475663 5.187495 2.533792 0.927548 -0.779375 3.912489 3.806974 1.614167 -0.365148 2.599656 3.660608 1.598027 -0.452305 2.437517
H 1.613112 -0.792484 2.331415
O  1.627245 -1.586163 1.778016
C  1.254031 -1.202293 0.486317
H  1.686632 -1.927437 -0.200170
C  1.784654 0.216899 0.157526
H  2.817143 0.118300 -0.185345
C  0.939811 0.880075 -0.931132
H  1.332418 1.890464 -1.116273
C  -0.549001 0.995653 -0.482628
H  -0.686998 1.949198 0.034713
C  -0.918568 -0.125204 0.512269
H  -0.693318 0.260784 1.514351
C  -2.384601 -0.576096 0.514160
H  -2.581258 -1.059765 1.480639
H  -3.041051 0.292193 0.426485
O  -2.705296 -1.450873 -0.548891
H  -1.999378 -2.107516 -0.591021
O  -0.148141 -1.306104 0.273531
O  -1.385751 0.959199 -1.645714
H  -1.509382 1.855415 -1.973253
O  1.071498 0.100663 -2.105654
H  0.195352 0.069520 -2.519008
O  1.734564 1.016354 1.356113
H  2.544281 1.527219 1.435555
24
38 zpe= -687.185129 src= /lustre/lwork/pjhsu/sugar_opt/pj_sugar/alpha_galactose/OS2.xyz:165 moment= 2.364035 0.707313 0.002582 5.844822 2.491034 0.878095 -0.958190 4.515713 4.431142 1.812137 -0.843514 2.715641 3.478673 1.627658 0.162401 2.555720
H 2.290350 -0.172700 1.728002
O  2.014108 -1.076484 1.513341
C  1.449971 -1.057019 0.243901
H  1.809199 -1.933855 -0.297365
C  1.822204 0.252370 -0.529047
H  2.686240 0.051681 -1.163257
C  0.638631 0.693836 -1.398033
H  0.905746 1.582940 -1.972000
C  -0.619558 0.982137 -0.533717
H  -0.550486 1.985214 -0.094718
C  -0.697724 -0.053871 0.621612
H  -0.241223 0.369947 1.525216
C  -2.118622 -0.439422 0.986459
H  -2.745691 0.459424 0.969962
H  -2.505857 -1.135276 0.234577
O  -2.095936 -1.025932 2.284431
H  -2.931833 -1.474702 2.437961
O  0.030865 -1.240348 0.261943
O  -1.770597 1.008570 -1.362508
H  -1.567379 0.482367 -2.149321
O  0.332702 -0.305546 -2.373107
H  0.109707 -1.115700 -1.890260
O  2.241608 1.283938 0.377393
H  1.512576 1.879432 0.578537
24
39 zpe= -687.184474 src= /lustre/lwork/pjhsu/sugar_opt/pj_sugar/alpha_galactose/OS2.xyz:166 moment= 2.348332 0.670880 -0.318946 6.071463 2.476253 0.865301 -0.975820 4.738426 4.071812 1.663346 -0.749890 2.648080 3.462547 1.599347 0.095799 2.459636
H 2.213929 -0.039885 1.783895
O  1.920102 -0.961645 1.714473
C  1.401254 -1.138456 0.436047
H  1.761380 -2.093673 0.051509
C  1.818116 0.033621 -0.516192
H  2.684505 -0.280802 -1.099524
C  0.660237 0.370642 -1.461979
H  0.958068 1.164736 -2.149540
C  -0.616173 0.798065 -0.680152
H  -0.550740 1.854835 -0.396786
C  -0.718806 -0.049301 0.619950
H  -0.231540 0.499911 1.436824
C  -2.143976 -0.363124 1.069714
H  -2.729037 -0.743084 0.233530
H  -2.096048 -1.132433 1.846982
O  -2.810121 0.812028 1.525765
H  -2.529859 0.996194 2.427476
O  -0.021981 -1.295572 0.443738
O  -1.742821 0.695070 -1.528635
H  -1.517272 0.068424 -2.230719
O  0.365138 -0.752196 -2.295993
H  0.103677 -1.481159 -1.714069
O  2.244813 1.172396 0.249287
H  1.576155 1.864409 0.234398
24
40 zpe= -687.181889 src= /lustre/lwork/pjhsu/sugar_opt/pj_sugar/alpha_galactose/OS2.xyz:167 moment= 2.359173 0.637891 -0.574521 8.354009 2.502231 0.890550 -0.917941 4.308760 3.681830 1.522287 -0.682702 2.468442 3.453126 1.539371 -0.101236 2.343564
H 2.060733 -0.379455 2.180774
O  1.871746 -1.252683 1.806790
C  1.415091 -1.063878 0.499658
H  1.844283 -1.845535 -0.124966
C  1.836042 0.335276 -0.034295
H  2.816594 0.236101 -0.500197
C  0.839552 0.846550 -1.076421
H  1.149450 1.852068 -1.395480
C  -0.605704 0.924632 -0.492140
H  -0.750776 1.906351 -0.023264
C  -0.826776 -0.150719 0.599418
H  -0.580185 0.311637 1.567789
C  -2.255328 -0.700199 0.726228
H  -2.354240 -1.132880 1.730697
H  -2.978537 0.111514 0.627678
O  -2.569396 -1.660160 -0.260854
H  -1.837326 -2.288668 -0.282719
O  0.009951 -1.282178 0.392232
O  -1.550696 0.782497 -1.554976
H  -1.670720 1.634775 -1.987011
O  0.899720 -0.037147 -2.179718
H  -0.008220 -0.168709 -2.490632
O  2.028487 1.270643 1.040926
H  1.215257 1.749166 1.229484
24
41 zpe= -687.181464 src= /lustre/lwork/pjhsu/sugar_opt/pj_sugar/alpha_galactose/OS2.xyz:168 moment= 2.382192 0.689532 -0.292259 4.620716 2.514957 0.925744 -0.675982 4.054944 3.987138 1.656013 -0.587423 2.685382 3.823953 1.615956 -0.359603 2.765730
H 2.206306 -1.122790 1.514230
O  1.777986 -1.860990 1.057709
C  1.147614 -1.352489 -0.085433
H  1.313099 -2.057246 -0.899502
C  1.742206 0.040187 -0.458576
H  2.604269 -0.120996 -1.106872
C  0.703186 0.894754 -1.189516
H  1.126732 1.879039 -1.407237
C  -0.598921 1.072390 -0.342631
H  -0.515448 1.988822 0.252695
C  -0.777089 -0.125090 0.629577
H  -0.220571 0.094795 1.559149
C  -2.234746 -0.343529 1.022965
H  -2.660010 0.621742 1.329452
H  -2.796639 -0.691846 0.157555
O  -2.410352 -1.327950 2.030195
H  -1.843075 -1.124916 2.780772
O  -0.264123 -1.314549 0.049180
O  -1.705655 1.276922 -1.196661
H  -1.563355 0.712632 -1.970680
O  0.355049 0.232796 -2.413793
H  0.752211 0.702529 -3.152017
O  2.276837 0.721501 0.688620
H  1.583490 1.204282 1.150819
