24
0 zpe= -687.192177 src= /backup_lustre/htphan/sugar_archive/ring_form/D-alpha_glucose/neutral_b3lyp/out_xyz/14B.xyz:0 moment= 2.398020 0.705767 -0.362133 -1.412892 2.556851 0.999136 -0.418713 -0.006083 3.822418 1.644666 -0.492276 -0.671518 3.649900 1.508977 -0.371282 -0.177974
H 3.169515 -0.262611 -0.927673
O  2.520821 -0.890620 -1.278675
C  1.271807 -0.444418 -0.895082
H  0.549726 -0.880039 -1.592380
C  1.179646 1.090190 -0.889244
H  1.197557 1.458744 -1.915712
C  -0.125344 1.566938 -0.220655
H  0.133480 2.059811 0.728618
C  -1.047564 0.394360 0.115433
H  -1.406155 -0.064750 -0.810735
C  -0.296266 -0.638118 0.974438
H  -0.150549 -0.191117 1.966093
C  -1.048794 -1.954371 1.154073
H  -0.498345 -2.581080 1.864850
H  -2.039886 -1.765395 1.575087
O  -1.247936 -2.637578 -0.078202
H  -0.392353 -2.976367 -0.364368
O  1.012394 -0.928215 0.440614
O  -2.158252 0.939330 0.837574
H  -2.945086 0.417970 0.653984
O  -0.764944 2.495168 -1.082469
H  -1.590787 2.757110 -0.657246
O  2.352092 1.624462 -0.269756
H  2.325226 1.408598 0.670433
24
1 zpe= -687.189991 src= /backup_lustre/htphan/sugar_archive/ring_form/D-alpha_glucose/neutral_b3lyp/out_xyz/14B.xyz:2 moment= 2.387466 0.692092 -0.358802 -1.412049 2.559135 1.004998 -0.398566 -0.038162 3.800960 1.616481 -0.549998 -0.665021 3.518696 1.433323 -0.458937 -0.238555
H 2.831912 -1.106146 -1.244690
O  2.055543 -1.685166 -1.240059
C  0.972793 -0.919744 -0.857542
H  0.075181 -1.420078 -1.230518
C  1.064913 0.523922 -1.371870
H  0.925100 0.541171 -2.453261
C  -0.021058 1.406913 -0.720899
H  0.489724 2.124158 -0.055526
C  -0.996025 0.589745 0.134707
H  -1.606866 -0.041050 -0.514954
C  -0.242273 -0.279016 1.157329
H  0.108303 0.379449 1.966549
C  -1.114146 -1.370369 1.781140
H  -0.582605 -1.807987 2.634142
H  -2.046234 -0.930438 2.142698
O  -1.469662 -2.373510 0.838538
H  -0.682557 -2.900111 0.660365
O  0.937829 -0.876454 0.589293
O  -1.940349 1.450565 0.775480
H  -1.480829 1.983808 1.436196
O  -0.708975 2.110624 -1.742318
H  -1.489656 2.516038 -1.343859
O  2.389406 1.012740 -1.146504
H  2.531530 1.070936 -0.193436
24
2 zpe= -687.189851 src= /backup_lustre/htphan/sugar_archive/ring_form/D-alpha_glucose/neutral_b3lyp/out_xyz/14B.xyz:3 moment= 2.430232 0.754239 -0.233151 -1.389648 2.560365 1.024034 -0.270466 -0.007622 3.916733 1.834169 -0.347009 -1.028412 3.867984 1.727733 -0.271386 -0.700608
H 2.593541 -2.014398 -0.910654
O  2.409514 -1.180265 -1.358622
C  1.156681 -0.722844 -0.934185
H  0.358978 -1.261738 -1.468028
C  1.077362 0.785557 -1.273018
H  0.777882 0.854673 -2.333229
C  0.007006 1.465828 -0.400905
H  0.524880 1.990929 0.404426
C  -0.935404 0.432290 0.217680
H  -1.441909 -0.125683 -0.586730
C  -0.149231 -0.540354 1.109140
H  0.162937 0.007270 2.003898
C  -0.971514 -1.757062 1.546292
H  -1.396410 -2.253433 0.659555
H  -0.304896 -2.467714 2.038568
O  -1.981582 -1.421623 2.483168
H  -2.427227 -0.619087 2.180532
O  1.058795 -0.981718 0.453915
O  -1.923030 1.056367 1.029579
H  -2.229066 1.842487 0.557075
O  -0.753316 2.470770 -1.077308
H  -0.931416 2.186431 -1.980607
O  2.308603 1.441971 -1.071369
H  3.008821 0.811347 -1.288172
