24
0 zpe= -687.194706 src= /backup_lustre/htphan/sugar_archive/ring_form/D-alpha_glucose/neutral_b3lyp/out_xyz/B25.xyz:0 moment= 2.427504 0.721301 -0.382343 -1.258622 2.568517 0.984426 -0.517176 0.107015 3.966275 1.651822 -0.530773 -0.395193 3.708382 1.590812 -0.449414 -0.564620
H 3.103119 -1.326034 -0.090854
O  2.880849 -0.411181 -0.295951
C  1.525928 -0.366367 -0.710259
H  1.426166 -0.819418 -1.702828
C  1.150996 1.121057 -0.769217
H  1.627648 1.539676 -1.665360
C  -0.371122 1.339068 -0.875560
H  -0.580588 2.320653 -0.439933
C  -1.182861 0.300255 -0.093204
H  -1.555987 -0.432949 -0.814052
C  -0.301496 -0.446002 0.919154
H  0.143275 0.259952 1.627419
C  -1.041817 -1.522347 1.698288
H  -0.326724 -2.036489 2.352042
H  -1.798922 -1.054028 2.329005
O  -1.724987 -2.449414 0.861640
H  -1.067381 -2.862352 0.290504
O  0.730167 -1.133314 0.175797
O  -2.271796 0.963647 0.546465
H  -3.025796 0.366518 0.564844
O  -0.809504 1.277433 -2.235313
H  -0.605869 2.111526 -2.670018
O  1.600223 1.804337 0.392950
H  2.476477 1.454774 0.604441
24
1 zpe= -687.194134 src= /backup_lustre/htphan/sugar_archive/ring_form/D-alpha_glucose/neutral_b3lyp/out_xyz/B25.xyz:2 moment= 2.447737 0.767301 -0.165748 -0.688949 2.555475 0.954262 -0.708471 0.068608 4.400527 1.944283 -0.557668 -0.891104 3.525236 1.665892 0.131800 -0.586583
H 3.043706 -1.550911 -0.431627
O  2.807439 -0.637581 -0.625537
C  1.446635 -0.601604 -1.026076
H  1.312941 -1.157243 -1.957955
C  1.106117 0.883707 -1.242017
H  1.475137 1.168108 -2.233890
C  -0.405765 1.122789 -1.208999
H  -0.561244 2.199096 -1.090506
C  -1.110032 0.426314 -0.016201
H  -1.853365 -0.267789 -0.437462
C  -0.122389 -0.414052 0.813116
H  0.537058 0.255211 1.372410
C  -0.809550 -1.386023 1.765680
H  -1.407776 -2.096194 1.182563
H  -0.049411 -1.941325 2.325193
O  -1.641030 -0.624558 2.652805
H  -2.131835 -1.222007 3.224014
O  0.626475 -1.253951 -0.077477
O  -1.748689 1.430668 0.759256
H  -2.048849 1.015772 1.580451
O  -0.900324 0.670361 -2.472647
H  -1.828935 0.912709 -2.542758
O  1.686382 1.703595 -0.238364
H  2.575307 1.362910 -0.073969
24
2 zpe= -687.193251 src= /backup_lustre/htphan/sugar_archive/ring_form/D-alpha_glucose/neutral_b3lyp/out_xyz/B25.xyz:3 moment= 2.440460 0.743626 -0.303172 -1.049647 2.553644 0.967823 -0.563887 0.160457 4.069798 1.791931 -0.468209 -0.834263 3.969458 1.685433 -0.432169 -0.431718
H 2.325933 -2.119246 -1.297780
O  2.323802 -1.156028 -1.287262
C  0.977890 -0.710916 -1.370183
H  0.549235 -0.990127 -2.336587
C  1.031567 0.821740 -1.235925
H  1.320378 1.223363 -2.216977
C  -0.337664 1.403246 -0.847522
H  -0.173889 2.423435 -0.490010
C  -1.026401 0.626435 0.291516
H  -1.967869 0.238998 -0.119981
C  -0.184878 -0.575712 0.753179
H  0.708011 -0.212772 1.273767
C  -0.963131 -1.537919 1.651023
H  -1.853254 -1.890199 1.126153
H  -0.340836 -2.407677 1.884845
O  -1.430441 -0.899169 2.846411
H  -0.696596 -0.816914 3.464363
O  0.178591 -1.351627 -0.398739
O  -1.281218 1.534931 1.355384
H  -1.666748 1.023353 2.080630
O  -1.219003 1.387490 -1.976343
H  -0.977798 2.106024 -2.569422
O  1.966975 1.228401 -0.248455
H  2.737346 0.650892 -0.333089
24
3 zpe= -687.191204 src= /backup_lustre/htphan/sugar_archive/ring_form/D-alpha_glucose/neutral_b3lyp/out_xyz/B25.xyz:4 moment= 2.408413 0.691004 -0.460541 -1.242096 2.555205 0.964879 -0.599516 0.144404 3.821553 1.555641 -0.573884 -0.248415 3.722170 1.594558 -0.493010 -0.656937
H 2.975540 -0.224730 0.424340
O  2.798194 -0.882596 -0.261758
C  1.512951 -0.648562 -0.760746
H  1.477923 -1.109715 -1.747549
C  1.233390 0.864405 -0.881720
H  1.759228 1.227300 -1.774137
C  -0.268790 1.164899 -1.007098
H  -0.425564 2.242920 -0.875177
C  -1.116311 0.453677 0.066446
H  -1.885102 -0.111487 -0.465128
C  -0.276436 -0.529852 0.897758
H  0.355586 0.029406 1.595122
C  -1.115538 -1.522471 1.692920
H  -0.439449 -2.164702 2.270221
H  -1.754539 -0.985847 2.397994
O  -1.975807 -2.298917 0.869978
H  -1.419810 -2.743686 0.218936
O  0.514372 -1.319908 -0.001446
O  -1.715330 1.447306 0.907399
H  -2.590202 1.146565 1.168722
O  -0.752330 0.745679 -2.286461
H  -0.370422 1.306126 -2.970260
O  1.785816 1.478987 0.287749
H  1.693631 2.435205 0.232895
24
4 zpe= -687.190609 src= /backup_lustre/htphan/sugar_archive/ring_form/D-alpha_glucose/neutral_b3lyp/out_xyz/B25.xyz:5 moment= 2.469512 0.801837 -0.020696 -0.817540 2.600063 1.000106 -0.571489 -0.005302 4.553272 1.931865 -0.677386 -0.446351 4.013441 1.790141 -0.153265 -0.355198
H 2.582843 -1.910600 -0.664167
O  2.445501 -1.089267 -1.150812
C  1.049579 -0.824375 -1.141357
H  0.567639 -1.389957 -1.947319
C  0.897238 0.685344 -1.394199
H  1.056637 0.853508 -2.468404
C  -0.498093 1.222863 -1.009427
H  -0.332029 2.236462 -0.629368
C  -1.177743 0.413646 0.103292
H  -1.804534 -0.351106 -0.374672
C  -0.124312 -0.317386 0.942322
H  0.623557 0.384781 1.323735
C  -0.720869 -1.078935 2.107642
H  -1.356320 -0.391536 2.674070
H  -1.337286 -1.901032 1.720691
O  0.349886 -1.574543 2.910966
H  -0.023311 -2.035415 3.667512
O  0.494209 -1.282145 0.070690
O  -1.973319 1.241256 0.946460
H  -2.663220 1.640809 0.405854
O  -1.413854 1.239884 -2.109091
H  -1.139337 1.915332 -2.738163
O  1.844588 1.421208 -0.635077
H  2.653548 0.890203 -0.612179
24
5 zpe= -687.188724 src= /backup_lustre/htphan/sugar_archive/ring_form/D-alpha_glucose/neutral_b3lyp/out_xyz/B25.xyz:6 moment= 2.460662 0.783968 -0.152437 -0.748791 2.569560 0.963455 -0.692138 0.075732 4.484884 1.883985 -0.706945 -0.434204 3.946417 1.694661 -0.335352 -0.346890
H 2.643901 -1.842083 -0.663882
O  2.506561 -0.994965 -1.103179
C  1.105415 -0.778868 -1.187030
H  0.692102 -1.363641 -2.015414
C  0.917163 0.724322 -1.453842
H  1.104117 0.904545 -2.518205
C  -0.503656 1.211215 -1.135871
H  -0.404147 2.263659 -0.852695
C  -1.153693 0.480289 0.055061
H  -1.844508 -0.270168 -0.350966
C  -0.091814 -0.274705 0.874379
H  0.676344 0.414676 1.235695
C  -0.664829 -1.036564 2.052396
H  -1.295470 -0.356321 2.640648
H  -1.282392 -1.863346 1.677131
O  0.413958 -1.518292 2.847231
H  0.063187 -2.092172 3.534280
O  0.473358 -1.252252 -0.016359
O  -1.875573 1.470085 0.794666
H  -2.518520 1.040359 1.366408
O  -1.284968 1.084134 -2.324805
H  -2.115856 1.551460 -2.190440
O  1.804186 1.493883 -0.652272
H  2.637137 1.003747 -0.611940
