24
0 zpe= -687.193578 src= /lustre/lwork/pjhsu/sugar_opt/pj_sugar/beta_galactose/1H2.xyz:0 moment= 2.275484 0.500030 -0.337286 -2.087185 2.519768 0.905990 -0.868586 4.178572 3.541283 1.524053 -0.433857 2.272988 3.372386 1.440919 -0.242512 2.488948
H -1.765381 0.755163 -0.675431
O  -2.091860 0.031348 -0.109351
C  -1.282387 -1.102489 -0.336572
H  -1.931104 -1.977852 -0.392992
O  -0.421091 -1.399434 0.753399
C  0.608977 -0.448317 1.115600
H  1.374836 -1.085222 1.567732
C  0.129846 0.466961 2.246107
H  0.997539 0.901164 2.746332
H  -0.409135 -0.151252 2.971731
O  -0.668878 1.567222 1.815098
H  -1.458461 1.193937 1.390738
C  1.275145 0.286383 -0.102459
H  2.229582 -0.208658 -0.287633
O  1.608458 1.638438 0.203048
H  0.852018 2.020535 0.681202
C  0.501287 0.243075 -1.459533
H  1.239148 0.218216 -2.266920
O  -0.334881 1.396091 -1.627394
H  0.198687 2.172312 -1.409502
C  -0.423153 -0.972956 -1.599093
H  -1.058074 -0.831244 -2.476793
O  0.323912 -2.162287 -1.805851
H  0.505971 -2.551135 -0.940461
24
1 zpe= -687.192287 src= /lustre/lwork/pjhsu/sugar_opt/pj_sugar/beta_galactose/1H2.xyz:7 moment= 2.283339 0.511153 -0.354992 -2.537151 2.517310 0.898312 -0.896195 4.317889 3.586451 1.483395 -0.576497 2.515359 3.394461 1.466915 -0.205688 2.451588
H -1.987285 0.514492 0.394392
O  -1.916308 0.205155 -0.531176
C  -1.226076 -1.033835 -0.547326
H  -1.930213 -1.857321 -0.695563
O  -0.594165 -1.332616 0.675250
C  0.458746 -0.452817 1.155760
H  1.178560 -1.145981 1.601808
C  -0.104849 0.379477 2.308952
H  0.712434 0.893097 2.824223
H  -0.589145 -0.300187 3.011656
O  -1.101211 1.314889 1.894885
H  -0.609361 2.012609 1.438052
C  1.224304 0.377436 0.067180
H  2.265735 0.048407 0.114532
O  1.203942 1.767004 0.408564
H  0.975005 2.231757 -0.415412
C  0.754060 0.208295 -1.432074
H  1.640943 0.076368 -2.051890
O  0.134081 1.407981 -1.895981
H  -0.790171 1.370803 -1.594649
C  -0.169220 -0.998610 -1.653121
H  -0.645248 -0.887796 -2.629917
O  0.557288 -2.219513 -1.672297
H  0.556155 -2.581094 -0.776848
24
2 zpe= -687.190515 src= /lustre/lwork/pjhsu/sugar_opt/pj_sugar/beta_galactose/1H2.xyz:14 moment= 2.304181 0.551457 0.037172 -6.759724 2.540477 0.927078 -0.814661 3.910873 3.899551 1.612537 -0.519899 2.708542 3.586479 1.591032 -0.302061 2.243765
H -1.870559 0.402650 -0.713487
O  -2.095759 -0.358522 -0.150466
C  -1.064050 -1.330988 -0.271522
H  -1.535402 -2.311754 -0.332970
O  -0.263720 -1.411565 0.877568
C  0.624253 -0.329920 1.217520
H  1.466760 -0.839757 1.693437
C  -0.014715 0.533602 2.307804
H  0.750403 1.138530 2.797901
H  -0.451632 -0.138212 3.053668
O  -0.990821 1.450452 1.810497
H  -1.680220 0.923125 1.373337
C  1.204033 0.476518 0.000581
H  2.232519 0.142182 -0.136176
O  1.292549 1.875572 0.271437
H  0.472315 2.130833 0.729057
C  0.501261 0.280386 -1.380935
H  1.270685 0.365344 -2.158253
O  -0.495654 1.280140 -1.617366
H  -0.110302 2.128590 -1.356825
C  -0.206581 -1.071055 -1.514930
H  -0.859961 -1.043390 -2.394407
O  0.734321 -2.134798 -1.605976
H  1.088278 -2.158964 -2.500496
