24
0 zpe= -687.197661 src= /lustre/lwork/pjhsu/sugar_opt/pj_sugar/beta_galactose/1S5.xyz:0 moment= 2.333401 0.635402 -0.281078 8.130104 2.511074 0.939216 -0.618806 3.795649 3.818504 1.559510 -0.612881 2.663419 3.485112 1.579538 -0.315889 2.159924
H -1.331429 1.370957 -0.807796
O  -2.006206 0.694431 -0.984734
C  -1.449004 -0.548643 -0.656222
H  -2.266100 -1.267524 -0.763178
O  -1.070124 -0.614637 0.719137
C  0.308286 -0.403247 1.060339
H  0.835558 -1.367427 1.059401
C  0.297165 0.141860 2.485485
H  1.317945 0.319383 2.830342
H  -0.170580 -0.590398 3.151226
O  -0.384877 1.398810 2.569295
H  -1.311668 1.227127 2.357410
C  1.027626 0.509556 0.059891
H  2.063668 0.652632 0.388422
O  0.397037 1.796936 -0.063520
H  0.203613 2.116220 0.834669
C  1.017141 -0.137139 -1.336272
H  1.820071 -0.876948 -1.373567
O  1.289215 0.811901 -2.350502
H  0.941716 1.665786 -2.063258
C  -0.286352 -0.942787 -1.586021
H  -0.600896 -0.770908 -2.619349
O  0.065484 -2.315925 -1.375903
H  -0.707286 -2.869012 -1.532296
24
1 zpe= -687.197173 src= /lustre/lwork/pjhsu/sugar_opt/pj_sugar/beta_galactose/1S5.xyz:42 moment= 2.337327 0.645346 -0.229862 6.948910 2.505209 0.926868 -0.694485 3.835969 3.884806 1.617157 -0.501816 2.657641 3.496682 1.601719 -0.259606 2.193051
H -1.798712 1.062002 0.038493
O  -2.347745 0.273861 -0.104283
C  -1.484723 -0.816060 -0.284141
H  -2.118282 -1.701050 -0.333920
O  -0.641955 -1.010112 0.854022
C  0.699479 -0.509418 0.811102
H  1.367007 -1.284277 0.407411
C  1.084523 -0.249593 2.264813
H  2.106631 0.130100 2.325154
H  1.028609 -1.186325 2.828093
O  0.244960 0.744182 2.865123
H  -0.645189 0.370065 2.900563
C  0.837985 0.726179 -0.087167
H  1.876613 1.076418 -0.055756
O  -0.027617 1.801247 0.315065
H  0.040573 1.885685 1.282003
C  0.461174 0.360213 -1.534025
H  1.336950 -0.109046 -1.992106
O  0.172896 1.511869 -2.306275
H  -0.206261 2.178750 -1.719414
C  -0.671352 -0.711017 -1.582979
H  -1.362441 -0.440606 -2.385887
O  -0.119252 -2.015937 -1.795544
H  0.165131 -2.086127 -2.712343
24
2 zpe= -687.195652 src= /lustre/lwork/pjhsu/sugar_opt/pj_sugar/beta_galactose/1S5.xyz:50 moment= 2.309419 0.600796 -0.409038 47.688778 2.487957 0.904123 -0.787425 4.041346 3.669881 1.554611 -0.526436 2.418974 3.412349 1.457678 -0.379485 2.597981
H -1.480130 1.214715 -0.654075
O  -2.119554 0.485889 -0.731050
C  -1.429852 -0.717268 -0.593319
H  -2.181111 -1.503176 -0.676545
O  -0.877482 -0.894451 0.727935
C  0.446105 -0.394795 1.003028
H  1.151814 -1.239435 1.000502
C  0.404031 0.161558 2.424629
H  1.394888 0.512372 2.721775
H  0.097069 -0.631342 3.113933
O  -0.473412 1.286283 2.533338
H  -1.369520 0.967313 2.362858
C  0.962403 0.605032 -0.039571
H  1.999093 0.858045 0.211651
O  0.192844 1.820455 -0.085594
H  0.001459 2.090196 0.829650
C  0.912108 -0.018680 -1.446672
H  1.777844 -0.675558 -1.560354
O  1.023998 0.975183 -2.449809
H  0.608876 1.783466 -2.123587
C  -0.328774 -0.946550 -1.637298
H  -0.733570 -0.763760 -2.633135
O  0.071622 -2.320335 -1.597157
H  -0.051751 -2.656157 -0.702134
24
3 zpe= -687.195651 src= /lustre/lwork/pjhsu/sugar_opt/pj_sugar/beta_galactose/1S5.xyz:51 moment= 2.309495 0.600885 -0.408809 47.018720 2.488037 0.904185 -0.787358 4.040655 3.669775 1.554598 -0.526300 2.418997 3.412589 1.457811 -0.379436 2.597943
H -1.546694 1.046316 -0.778946
O  -2.114542 0.259939 -0.850572
C  -1.328951 -0.868897 -0.623963
H  -2.002792 -1.722373 -0.704506
O  -0.830325 -0.938149 0.728221
C  0.428389 -0.308841 1.040179
H  1.205422 -1.085240 1.110213
C  0.265749 0.301867 2.430392
H  1.205471 0.753190 2.756538
H  -0.004720 -0.485229 3.141271
O  -0.711749 1.346482 2.444914
H  -1.566630 0.940776 2.249067
C  0.905937 0.687691 -0.023717
H  1.902202 1.044288 0.262975
O  0.035187 1.825177 -0.163138
H  -0.225236 2.115611 0.728438
C  0.982106 0.001486 -1.400275
H  1.906930 -0.578875 -1.441956
O  1.056887 0.956831 -2.443501
H  0.555616 1.737526 -2.176446
C  -0.161001 -1.042144 -1.603996
H  -0.529796 -0.939655 -2.624960
O  0.356232 -2.371313 -1.480947
H  0.219310 -2.677462 -0.577287
24
4 zpe= -687.19565 src= /lustre/lwork/pjhsu/sugar_opt/pj_sugar/beta_galactose/1S5.xyz:53 moment= 2.309432 0.600851 -0.409035 47.277457 2.487974 0.904146 -0.787370 4.041016 3.669921 1.554609 -0.526471 2.419082 3.412448 1.457711 -0.379493 2.598099
H -1.285617 1.102018 -1.107907
O  -1.926071 0.374537 -1.188977
C  -1.319770 -0.794590 -0.733059
H  -2.071167 -1.578540 -0.831964
O  -1.031014 -0.757652 0.680193
C  0.235983 -0.229201 1.119253
H  0.897620 -1.067885 1.384423
C  -0.049475 0.550913 2.400698
H  0.880986 0.938676 2.821441
H  -0.509103 -0.117306 3.135726
O  -0.889026 1.684375 2.161224
H  -1.748858 1.347966 1.876000
C  0.974763 0.584347 0.048979
H  1.955071 0.867956 0.449544
O  0.273208 1.781123 -0.334623
H  -0.075493 2.197337 0.472998
C  1.164722 -0.259783 -1.224909
H  2.011124 -0.932256 -1.065906
O  1.499354 0.556526 -2.333119
H  1.061535 1.410077 -2.224322
C  -0.052596 -1.198150 -1.498590
H  -0.257420 -1.177134 -2.569345
O  0.281338 -2.549839 -1.165910
H  -0.019093 -2.734519 -0.268850
24
5 zpe= -687.19565 src= /lustre/lwork/pjhsu/sugar_opt/pj_sugar/beta_galactose/1S5.xyz:54 moment= 2.309416 0.600819 -0.408827 47.507037 2.487967 0.904137 -0.787371 4.041201 3.670008 1.554663 -0.526421 2.419056 3.412485 1.457706 -0.379603 2.598141
H -1.810530 0.846517 -0.314516
O  -2.251092 -0.011299 -0.441356
C  -1.269698 -0.994063 -0.556969
H  -1.804003 -1.935516 -0.687908
O  -0.520501 -1.179198 0.662302
C  0.659771 -0.381876 0.883259
H  1.548108 -1.000126 0.683093
C  0.668259 -0.037266 2.370934
H  1.569584 0.526262 2.622388
H  0.664547 -0.962230 2.956166
O  -0.441131 0.789512 2.734969
H  -1.242864 0.266360 2.603087
C  0.765744 0.840426 -0.037576
H  1.729635 1.328145 0.149341
O  -0.283270 1.802053 0.177710
H  -0.413626 1.895368 1.137568
C  0.687811 0.404500 -1.512504
H  1.667699 0.021621 -1.807681
O  0.413672 1.508050 -2.357197
H  -0.144178 2.129570 -1.872866
C  -0.294785 -0.790024 -1.724245
H  -0.860791 -0.600264 -2.636682
O  0.438642 -2.001242 -1.934921
H  0.523994 -2.465278 -1.094394
24
6 zpe= -687.195649 src= /lustre/lwork/pjhsu/sugar_opt/pj_sugar/beta_galactose/1S5.xyz:60 moment= 2.309384 0.600768 -0.408847 47.894861 2.487923 0.904102 -0.787439 4.041562 3.669889 1.554612 -0.526361 2.419052 3.412405 1.457649 -0.379620 2.598227
H -1.132662 1.323522 -1.028974
O  -1.897192 0.723521 -1.067335
C  -1.483598 -0.539323 -0.647268
H  -2.368130 -1.174980 -0.697049
O  -1.106107 -0.567075 0.745245
C  0.259506 -0.276853 1.103285
H  0.775446 -1.222281 1.330056
C  0.197494 0.532013 2.397149
H  1.206390 0.743723 2.758351
H  -0.328416 -0.048755 3.161465
O  -0.438591 1.799180 2.205940
H  -1.360525 1.624339 1.975042
C  1.064895 0.399614 -0.013424
H  2.102945 0.499607 0.324742
O  0.567328 1.705811 -0.356564
H  0.349011 2.171208 0.469784
C  1.021469 -0.454673 -1.293982
H  1.741469 -1.269397 -1.185683
O  1.428365 0.297301 -2.423396
H  1.159440 1.214850 -2.289750
C  -0.359129 -1.156979 -1.489069
H  -0.622229 -1.090490 -2.545127
O  -0.253745 -2.549450 -1.174323
H  -0.524434 -2.684436 -0.259115
24
7 zpe= -687.195647 src= /lustre/lwork/pjhsu/sugar_opt/pj_sugar/beta_galactose/1S5.xyz:76 moment= 2.309423 0.600923 -0.409093 46.750987 2.487894 0.904124 -0.787287 4.041041 3.669885 1.554563 -0.526504 2.419296 3.412396 1.457755 -0.379148 2.598062
H -1.511035 1.264482 -0.461700
O  -2.149984 0.542527 -0.590391
C  -1.450210 -0.662594 -0.607701
H  -2.201024 -1.441700 -0.742675
O  -0.843331 -0.972974 0.664265
C  0.488534 -0.494062 0.936419
H  1.197161 -1.327480 0.815015
C  0.503671 -0.092004 2.409560
H  1.504719 0.233579 2.701269
H  0.228943 -0.955986 3.022836
O  -0.372831 1.007572 2.673198
H  -1.274087 0.700944 2.507209
C  0.956710 0.614961 -0.014420
H  2.001773 0.849095 0.219885
O  0.180517 1.821568 0.099792
H  0.026036 1.991490 1.045488
C  0.851234 0.142387 -1.476221
H  1.714642 -0.491137 -1.693300
O  0.917251 1.237122 -2.372819
H  0.513055 2.003206 -1.946425
C  -0.391991 -0.771518 -1.713452
H  -0.838129 -0.489012 -2.667407
O  0.015870 -2.138413 -1.834322
H  -0.068494 -2.567052 -0.975104
24
8 zpe= -687.195208 src= /lustre/lwork/pjhsu/sugar_opt/pj_sugar/beta_galactose/1S5.xyz:78 moment= 2.376060 0.686664 -0.145759 4.173378 2.560181 0.971337 -0.607579 3.470836 3.920114 1.727430 -0.601565 2.259983 3.446885 1.536884 -0.163480 2.598358
H -2.763586 0.892471 0.278470
O  -2.058535 0.866936 -0.378262
C  -1.496596 -0.451621 -0.370938
H  -2.296890 -1.191727 -0.430418
O  -0.830751 -0.698790 0.840182
C  0.586226 -0.393944 0.928664
H  1.131115 -1.306509 0.655976
C  0.854608 -0.078790 2.393745
H  0.307883 0.826524 2.680549
H  1.921950 0.107382 2.534260
O  0.521854 -1.172197 3.237780
H  -0.394336 -1.409369 3.054378
C  1.009032 0.714350 -0.036451
H  2.084373 0.874331 0.073979
O  0.417091 1.982650 0.234571
H  -0.548813 1.875910 0.185269
C  0.718916 0.265097 -1.489593
H  1.524708 -0.411941 -1.794082
O  0.736883 1.368439 -2.373061
H  0.572655 2.160460 -1.840339
C  -0.598753 -0.561268 -1.605949
H  -1.160539 -0.184997 -2.465580
O  -0.332632 -1.958901 -1.732585
H  0.095140 -2.115497 -2.580566
24
9 zpe= -687.194584 src= /lustre/lwork/pjhsu/sugar_opt/pj_sugar/beta_galactose/1S5.xyz:83 moment= 2.373650 0.679475 -0.183318 4.419831 2.555526 0.964963 -0.629597 3.514910 3.904514 1.709635 -0.625601 2.287108 3.466000 1.543281 -0.195245 2.562659
H -2.662737 1.056596 -0.314778
O  -1.870408 0.912697 -0.844978
C  -1.397763 -0.414965 -0.587548
H  -2.234987 -1.113667 -0.691329
O  -0.961081 -0.542877 0.739224
C  0.444549 -0.301164 1.028679
H  0.961767 -1.264367 0.943713
C  0.496394 0.165156 2.476647
H  -0.023285 1.124942 2.572838
H  1.538237 0.309493 2.771806
O  -0.042791 -0.804860 3.364530
H  -0.937649 -1.002310 3.066016
C  1.084897 0.669941 0.036010
H  2.136881 0.791299 0.304879
O  0.539206 1.987497 0.080506
H  -0.408678 1.922941 -0.125542
C  1.003148 0.075793 -1.391755
H  1.801780 -0.662992 -1.502497
O  1.204806 1.077768 -2.367686
H  1.010799 1.927573 -1.946358
C  -0.310353 -0.718461 -1.628555
H  -0.692940 -0.454456 -2.618264
O  0.039092 -2.101642 -1.555555
H  -0.716888 -2.640937 -1.810001
24
10 zpe= -687.193763 src= /lustre/lwork/pjhsu/sugar_opt/pj_sugar/beta_galactose/1S5.xyz:90 moment= 2.399987 0.752545 0.152448 3.973524 2.559504 0.979332 -0.603031 3.336398 4.464936 1.918971 -0.645026 2.341130 3.414050 1.616392 0.275681 2.725344
H -2.752098 0.485044 1.165779
O  -2.190726 0.801827 0.449161
C  -1.701972 -0.344400 -0.260742
H  -2.536812 -1.002700 -0.509088
O  -0.844819 -1.101082 0.553962
C  0.573591 -0.835367 0.483539
H  1.005378 -1.484075 -0.288436
C  1.146245 -1.247509 1.832628
H  0.743112 -2.231948 2.095624
H  0.845907 -0.521951 2.595671
O  2.565752 -1.291156 1.686121
H  2.968576 -1.346166 2.556736
C  0.884511 0.612255 0.100815
H  1.968752 0.729192 0.081263
O  0.419958 1.572877 1.048618
H  -0.544144 1.471629 1.128890
C  0.306684 0.898306 -1.305566
H  1.005539 0.484794 -2.041320
O  0.214607 2.289712 -1.543769
H  0.204829 2.721765 -0.677166
C  -1.051546 0.171536 -1.547435
H  -1.740535 0.882615 -2.012152
O  -0.887831 -0.994475 -2.357377
H  -0.604958 -0.720722 -3.235761
24
11 zpe= -687.193574 src= /lustre/lwork/pjhsu/sugar_opt/pj_sugar/beta_galactose/1S5.xyz:93 moment= 2.350961 0.648280 -0.245544 6.678460 2.527126 0.934502 -0.697645 3.817917 3.864158 1.685442 -0.611810 2.337581 3.468938 1.543754 -0.197191 2.572377
H -2.804420 0.523127 -0.085848
O  -2.030325 0.534845 -0.660382
C  -1.345364 -0.710390 -0.520048
H  -2.064047 -1.530551 -0.575681
O  -0.743834 -0.835202 0.750793
C  0.547089 -0.190601 0.978737
H  1.301264 -0.989089 0.967289
C  0.496454 0.385648 2.387860
H  -0.258688 1.177754 2.434892
H  1.465362 0.825008 2.635478
O  0.250518 -0.622991 3.357603
H  -0.580211 -1.052670 3.124426
C  0.935167 0.822898 -0.100416
H  1.966750 1.127183 0.093203
O  0.187059 2.035807 -0.062909
H  -0.749607 1.807978 -0.192917
C  0.871131 0.161402 -1.500759
H  1.772670 -0.444321 -1.637520
O  0.867057 1.148675 -2.513239
H  0.565245 1.973501 -2.105709
C  -0.320056 -0.835339 -1.648828
H  -0.807475 -0.636737 -2.602598
O  0.122168 -2.190470 -1.705249
H  0.357092 -2.486463 -0.818177
24
12 zpe= -687.193038 src= /lustre/lwork/pjhsu/sugar_opt/pj_sugar/beta_galactose/1S5.xyz:109 moment= 2.388256 0.722608 -0.052724 3.704055 2.554960 0.971730 -0.632375 3.392668 4.182567 1.770471 -0.664228 2.370446 3.397537 1.577767 0.172556 2.567397
H -2.948886 0.798693 0.008565
O  -2.195340 0.762275 -0.591432
C  -1.593875 -0.531048 -0.460127
H  -2.361967 -1.302382 -0.545142
O  -1.031678 -0.686224 0.818900
C  0.367374 -0.372000 0.990693
H  0.944521 -1.282403 0.774931
C  0.548702 -0.008230 2.464910
H  -0.002556 -0.730514 3.076432
H  0.143555 0.986233 2.653512
O  1.927046 0.044403 2.822725
H  2.262682 -0.853649 2.906011
C  0.846653 0.714714 0.026930
H  1.900321 0.909900 0.233066
O  0.192428 1.968840 0.204275
H  -0.761325 1.831531 0.073052
C  0.685644 0.206822 -1.426437
H  1.537235 -0.447038 -1.646665
O  0.723884 1.277933 -2.348441
H  0.506359 2.081811 -1.854061
C  -0.587686 -0.675322 -1.605494
H  -1.084624 -0.373253 -2.531639
O  -0.262548 -2.067794 -1.623207
H  0.242082 -2.254299 -2.421357
24
13 zpe= -687.193015 src= /lustre/lwork/pjhsu/sugar_opt/pj_sugar/beta_galactose/1S5.xyz:110 moment= 2.399119 0.748281 0.155597 4.058430 2.574112 0.971479 -0.674368 3.451883 4.460316 1.918279 -0.638709 2.342284 3.421855 1.616269 0.266257 2.723075
H -2.718026 0.843903 -0.905269
O  -1.878660 0.570159 -1.292744
C  -1.464113 -0.635306 -0.637636
H  -2.297938 -1.345885 -0.651588
O  -1.193782 -0.401352 0.718321
C  0.171547 -0.099192 1.094916
H  0.679446 -1.043675 1.322669
C  0.079897 0.722667 2.373261
H  -0.626943 0.233179 3.052950
H  -0.287236 1.726887 2.137728
O  1.391467 0.766192 2.934757
H  1.423111 1.455299 3.603574
C  0.951763 0.589901 -0.025149
H  1.959499 0.787536 0.341863
O  0.427918 1.868626 -0.386668
H  -0.486286 1.741758 -0.691119
C  1.024678 -0.352809 -1.250035
H  1.815808 -1.086436 -1.071929
O  1.356397 0.364322 -2.423184
H  1.140360 1.292808 -2.255239
C  -0.269417 -1.192930 -1.425815
H  -0.527409 -1.204098 -2.488351
O  0.035203 -2.505696 -0.949565
H  -0.707286 -3.092858 -1.125750
24
14 zpe= -687.192483 src= /lustre/lwork/pjhsu/sugar_opt/pj_sugar/beta_galactose/1S5.xyz:111 moment= 2.370670 0.638242 -0.400878 7.924642 2.541221 0.950944 -0.670214 3.610830 3.839608 1.591409 -0.518005 2.659888 3.538441 1.606634 -0.339102 2.172764
H -2.719669 0.853061 0.607585
O  -2.198447 0.831176 -0.201578
C  -1.607527 -0.442161 -0.313021
H  -2.372968 -1.223811 -0.345004
O  -0.814099 -0.746365 0.829443
C  0.616281 -0.648824 0.716404
H  0.997223 -1.556588 0.230749
C  1.131170 -0.626232 2.152518
H  2.217856 -0.521486 2.158960
H  0.870846 -1.567022 2.648344
O  0.612266 0.484399 2.893785
H  -0.340040 0.348584 2.967440
C  1.072878 0.545636 -0.128560
H  2.166633 0.486328 -0.213692
O  0.720031 1.806927 0.424450
H  0.679901 1.722036 1.389422
C  0.455274 0.458130 -1.559006
H  1.191109 -0.020644 -2.214297
O  0.211187 1.737877 -2.094981
H  -0.032091 2.308876 -1.351089
C  -0.807596 -0.445340 -1.612385
H  -1.456688 -0.065126 -2.405855
O  -0.459741 -1.816256 -1.839804
H  -0.133786 -1.905176 -2.740829
24
15 zpe= -687.192327 src= /lustre/lwork/pjhsu/sugar_opt/pj_sugar/beta_galactose/1S5.xyz:112 moment= 2.387068 0.718365 -0.057105 3.789206 2.557085 0.961065 -0.656194 3.558253 4.174750 1.767985 -0.658548 2.369023 3.403829 1.575990 0.160757 2.565184
H -2.685376 0.759942 -1.151724
O  -1.810762 0.493709 -1.458125
C  -1.408919 -0.654154 -0.703130
H  -2.217099 -1.393468 -0.729964
O  -1.241865 -0.328339 0.652561
C  0.087533 0.021584 1.105923
H  0.597157 -0.907634 1.395763
C  -0.100397 0.896184 2.345836
H  -0.869754 0.445683 2.982408
H  -0.434088 1.890983 2.049912
O  1.126344 1.076422 3.047025
H  1.341196 0.264068 3.516070
C  0.923312 0.680209 0.007489
H  1.897007 0.933955 0.429313
O  0.384494 1.917427 -0.455308
H  -0.503436 1.744518 -0.810009
C  1.108439 -0.321306 -1.158395
H  1.910692 -1.015551 -0.892333
O  1.489131 0.344339 -2.345778
H  1.236244 1.272991 -2.241428
C  -0.143101 -1.216786 -1.367428
H  -0.322498 -1.305879 -2.442228
O  0.166556 -2.485446 -0.783768
H  -0.531812 -3.114454 -0.992684
24
16 zpe= -687.192235 src= /lustre/lwork/pjhsu/sugar_opt/pj_sugar/beta_galactose/1S5.xyz:116 moment= 2.369625 0.686124 -0.112692 4.210781 2.560315 0.977145 -0.569517 3.441474 3.933786 1.740193 -0.597770 2.220341 3.385230 1.514207 -0.086093 2.685550
H -2.771891 0.929161 -0.442908
O  -2.146590 0.616706 0.222056
C  -1.481525 -0.572887 -0.249600
H  -2.216440 -1.370634 -0.385588
O  -0.630129 -0.979109 0.771699
C  0.752927 -0.541463 0.737349
H  1.315164 -1.275183 0.147068
C  1.234026 -0.591911 2.181402
H  0.673456 0.133504 2.780942
H  2.292459 -0.323400 2.218451
O  1.130111 -1.900023 2.724476
H  0.209189 -2.173009 2.641295
C  0.906236 0.825894 0.074229
H  1.965983 1.091675 0.068893
O  0.264279 1.884753 0.779597
H  -0.672197 1.644533 0.891143
C  0.401776 0.743746 -1.394672
H  1.230248 0.379072 -2.013630
O  0.028123 2.022779 -1.870430
H  -0.030294 2.599613 -1.093031
C  -0.754083 -0.283512 -1.568377
H  -1.472308 0.143881 -2.278839
O  -0.285709 -1.550693 -2.024164
H  0.055193 -1.454495 -2.919364
24
17 zpe= -687.191934 src= /lustre/lwork/pjhsu/sugar_opt/pj_sugar/beta_galactose/1S5.xyz:119 moment= 2.375293 0.715269 0.101087 4.980779 2.539964 0.954815 -0.678676 3.522274 4.403527 1.870265 -0.676931 2.402097 3.443755 1.608025 0.238866 2.766074
H -2.900750 -0.208285 0.555635
O  -2.305877 0.136542 -0.120208
C  -1.413778 -0.912020 -0.504278
H  -1.986474 -1.819958 -0.704201
O  -0.537027 -1.256715 0.546380
C  0.672562 -0.472232 0.722175
H  1.508613 -1.045726 0.298389
C  0.906802 -0.368757 2.224125
H  0.743067 -1.355841 2.671157
H  0.196795 0.342951 2.656970
O  2.254428 0.063153 2.404228
H  2.361057 0.399499 3.297917
C  0.647044 0.879841 0.004967
H  1.634902 1.326313 0.126339
O  -0.256938 1.824620 0.574953
H  -1.152631 1.449843 0.516937
C  0.362188 0.665954 -1.502227
H  1.288843 0.341108 -1.986131
O  -0.031127 1.881639 -2.110962
H  -0.340942 2.464433 -1.402867
C  -0.664758 -0.478166 -1.767036
H  -1.382005 -0.123214 -2.506060
O  -0.046494 -1.630122 -2.340193
H  0.441498 -2.103860 -1.657005
24
18 zpe= -687.191847 src= /lustre/lwork/pjhsu/sugar_opt/pj_sugar/beta_galactose/1S5.xyz:125 moment= 2.361328 0.673425 -0.157834 4.736947 2.548907 0.962319 -0.617857 3.547499 3.910847 1.718337 -0.616118 2.258676 3.387349 1.522507 -0.090157 2.613004
H -2.312463 0.271106 -1.666595
O  -2.084610 0.283268 -0.728490
C  -1.260694 -0.854890 -0.412295
H  -1.897888 -1.747432 -0.378128
O  -0.784221 -0.666154 0.880610
C  0.522684 -0.048991 1.048053
H  1.269838 -0.849793 1.014572
C  0.509266 0.565314 2.441274
H  -0.236666 1.366079 2.485044
H  1.489964 0.998003 2.652294
O  0.275274 -0.412473 3.445002
H  -0.569213 -0.832087 3.245274
C  0.833300 0.942519 -0.071073
H  1.830618 1.354250 0.099404
O  -0.034756 2.073744 -0.087334
H  -0.948732 1.744042 -0.136602
C  0.825100 0.201412 -1.441800
H  1.821321 -0.215747 -1.617552
O  0.513197 1.097467 -2.493468
H  0.238705 1.928154 -2.075471
C  -0.138401 -1.010199 -1.450841
H  -0.579430 -1.076125 -2.453537
O  0.644000 -2.167283 -1.167244
H  0.075807 -2.944183 -1.131095
24
19 zpe= -687.191633 src= /lustre/lwork/pjhsu/sugar_opt/pj_sugar/beta_galactose/1S5.xyz:135 moment= 2.357357 0.673923 -0.129354 5.007601 2.542563 0.949096 -0.678353 3.674972 3.920860 1.726335 -0.611984 2.251841 3.384540 1.521863 -0.003740 2.584405
H -1.840403 1.002629 0.422456
O  -2.261136 0.452304 -0.257606
C  -1.446010 -0.711108 -0.393979
H  -2.112429 -1.564263 -0.530229
O  -0.707006 -0.950145 0.777751
C  0.653218 -0.458985 0.835501
H  1.301881 -1.201748 0.359119
C  0.998557 -0.378921 2.317429
H  0.334155 0.337618 2.811213
H  2.028309 -0.031557 2.431581
O  0.933423 -1.655566 2.936727
H  0.046030 -2.001942 2.787479
C  0.813985 0.860439 0.087048
H  1.869324 1.155167 0.128629
O  0.023977 1.855293 0.743474
H  0.038549 2.638538 0.177456
C  0.387426 0.692803 -1.413132
H  1.289006 0.524545 -2.006966
O  -0.190691 1.898480 -1.908069
H  -1.135339 1.870184 -1.701772
C  -0.548161 -0.522733 -1.619679
H  -1.194863 -0.322367 -2.480793
O  0.179509 -1.734245 -1.805494
H  0.538689 -1.752422 -2.698144
24
20 zpe= -687.191303 src= /lustre/lwork/pjhsu/sugar_opt/pj_sugar/beta_galactose/1S5.xyz:137 moment= 2.334913 0.645374 -0.179302 7.350038 2.516449 0.929611 -0.670970 3.946758 3.872869 1.702397 -0.575207 2.314640 3.478536 1.562807 -0.027557 2.568277
H -1.129786 1.380822 0.941463
O  -1.943428 1.067126 0.506439
C  -1.640452 -0.130949 -0.166725
H  -2.582753 -0.670456 -0.279402
O  -0.796098 -0.994062 0.582670
C  0.643949 -0.809526 0.489656
H  1.029327 -1.557259 -0.215167
C  1.199732 -1.134899 1.872608
H  0.828151 -0.404452 2.597918
H  2.290587 -1.076636 1.849997
O  0.873321 -2.461451 2.259299
H  -0.088545 -2.526105 2.276681
C  1.051997 0.561824 -0.038526
H  2.136313 0.549764 -0.197011
O  0.743289 1.553093 0.949345
H  0.906604 2.409629 0.529666
C  0.338705 0.878361 -1.392191
H  0.975344 0.537332 -2.209939
O  0.208270 2.294763 -1.537689
H  -0.681144 2.552878 -1.268240
C  -1.010056 0.132782 -1.538876
H  -1.688840 0.753515 -2.130467
O  -0.834036 -1.087173 -2.253512
H  -0.831451 -1.819923 -1.626997
24
21 zpe= -687.191261 src= /lustre/lwork/pjhsu/sugar_opt/pj_sugar/beta_galactose/1S5.xyz:138 moment= 2.409935 0.761167 0.248025 4.105647 2.587314 0.984456 -0.640937 3.373917 4.560527 1.927889 -0.729235 2.507194 3.472177 1.588593 -0.007260 2.779005
H -2.533511 1.466064 0.227364
O  -1.852250 1.304353 -0.435240
C  -1.597518 -0.111331 -0.455902
H  -2.542941 -0.647499 -0.557255
O  -1.046877 -0.531665 0.759708
C  0.392000 -0.539496 0.902892
H  0.743545 -1.546834 0.644399
C  0.712725 -0.288780 2.366459
H  0.170631 0.598489 2.708329
H  1.789782 -0.094478 2.460298
O  0.343949 -1.446528 3.111065
H  0.339581 -1.226986 4.046750
C  1.085001 0.454165 -0.032949
H  2.164408 0.365843 0.110449
O  0.785478 1.820308 0.249455
H  -0.177882 1.933623 0.164005
C  0.751465 0.103338 -1.501441
H  1.385192 -0.742098 -1.790847
O  1.069258 1.181565 -2.360601
H  1.061848 1.984847 -1.819766
C  -0.718934 -0.381953 -1.679999
H  -1.152120 0.152160 -2.530457
O  -0.786175 -1.795877 -1.869919
H  -0.384657 -2.011227 -2.717796
24
22 zpe= -687.191212 src= /lustre/lwork/pjhsu/sugar_opt/pj_sugar/beta_galactose/1S5.xyz:140 moment= 2.365246 0.668678 -0.257081 5.201132 2.531606 0.939326 -0.687616 3.780766 3.877662 1.696235 -0.612150 2.311553 3.455758 1.530229 -0.188330 2.635587
H -1.486608 1.610248 0.030588
O  -2.196328 0.991507 -0.201268
C  -1.627080 -0.287886 -0.303744
H  -2.475130 -0.978971 -0.322131
O  -0.879704 -0.623423 0.859232
C  0.552058 -0.508393 0.817595
H  0.969320 -1.452773 0.443741
C  0.993232 -0.319579 2.265229
H  0.619662 0.643168 2.643549
H  2.085421 -0.316045 2.318900
O  0.550365 -1.379844 3.092561
H  -0.400955 -1.466315 2.954491
C  1.016077 0.601873 -0.128971
H  2.106938 0.688788 -0.095710
O  0.432991 1.885318 0.189512
H  0.878849 2.279564 0.944972
C  0.575292 0.260490 -1.564790
H  1.284616 -0.467966 -1.963108
O  0.637756 1.389079 -2.413918
H  0.364333 2.160760 -1.902309
C  -0.799324 -0.461415 -1.592097
H  -1.380589 -0.054429 -2.424436
O  -0.500213 -1.846032 -1.802649
H  -1.321978 -2.346725 -1.844238
24
23 zpe= -687.191191 src= /lustre/lwork/pjhsu/sugar_opt/pj_sugar/beta_galactose/1S5.xyz:142 moment= 2.364176 0.660019 -0.228493 5.132529 2.563937 0.970825 -0.617106 3.490205 3.878890 1.609431 -0.519913 2.678424 3.617459 1.604759 -0.360747 2.347494
H -2.505164 0.431571 1.357469
O  -1.934624 0.782863 0.665322
C  -1.565449 -0.293000 -0.201017
H  -2.443100 -0.897867 -0.436864
O  -0.665955 -1.165553 0.437865
C  0.752242 -0.891343 0.331213
H  1.132412 -1.455124 -0.532158
C  1.384715 -1.489759 1.592823
H  2.426871 -1.170985 1.663027
H  1.369993 -2.583645 1.498040
O  0.748479 -1.088914 2.793004
H  -0.179607 -1.333531 2.706915
C  1.067543 0.579966 0.045622
H  2.150184 0.663109 -0.081062
O  0.751431 1.498050 1.082603
H  -0.171866 1.355936 1.343894
C  0.386170 0.998740 -1.286278
H  1.012076 0.637071 -2.109971
O  0.319686 2.405561 -1.389332
H  0.375451 2.749389 -0.484261
C  -1.007184 0.328837 -1.482505
H  -1.709131 1.096320 -1.820566
O  -0.942466 -0.757178 -2.410043
H  -0.755704 -0.401514 -3.284741
24
24 zpe= -687.191127 src= /lustre/lwork/pjhsu/sugar_opt/pj_sugar/beta_galactose/1S5.xyz:144 moment= 2.388064 0.713888 -0.052697 3.795818 2.562416 0.970178 -0.618068 3.495177 4.133635 1.713063 -0.724195 2.560263 3.520162 1.498186 -0.275354 2.803652
H -2.835750 -0.141364 0.847713
O  -2.302131 0.289124 0.169702
C  -1.444570 -0.709384 -0.403419
H  -2.041078 -1.573781 -0.701271
O  -0.533193 -1.182551 0.550262
C  0.749597 -0.532965 0.656449
H  1.442813 -1.063406 -0.014834
C  1.238043 -0.683905 2.093653
H  0.524457 -0.222269 2.775744
H  2.192666 -0.146481 2.187191
O  1.368829 -2.033309 2.515152
H  1.954502 -2.498770 1.909030
C  0.713878 0.929605 0.197712
H  1.720337 1.345436 0.287199
O  -0.105286 1.767037 1.009043
H  -1.010017 1.408206 0.984726
C  0.279711 0.993856 -1.286688
H  1.155993 0.753740 -1.899132
O  -0.133941 2.299849 -1.636010
H  -0.389151 2.745202 -0.814670
C  -0.793261 -0.080623 -1.637530
H  -1.578133 0.400856 -2.227424
O  -0.217150 -1.182257 -2.343247
H  0.044833 -0.881844 -3.219350
24
25 zpe= -687.191069 src= /lustre/lwork/pjhsu/sugar_opt/pj_sugar/beta_galactose/1S5.xyz:145 moment= 2.345159 0.650794 -0.187745 6.501231 2.527198 0.943866 -0.628732 3.757244 3.878678 1.702207 -0.596175 2.287415 3.401982 1.521987 -0.110504 2.644523
H -2.546385 1.307081 -0.471746
O  -1.995212 0.863150 0.184581
C  -1.520496 -0.383860 -0.352733
H  -2.368804 -1.058911 -0.496197
O  -0.716505 -0.984107 0.619233
C  0.691791 -0.606613 0.698648
H  1.264264 -1.391110 0.185433
C  1.053583 -0.652029 2.178059
H  0.490612 0.116183 2.717841
H  2.119101 -0.441928 2.295601
O  0.831599 -1.941424 2.730212
H  -0.107068 -2.138809 2.634884
C  1.007331 0.722416 0.013668
H  2.092794 0.847277 0.019941
O  0.507058 1.861448 0.708394
H  -0.455076 1.747590 0.801730
C  0.517407 0.690434 -1.464399
H  1.293326 0.221097 -2.077837
O  0.303022 2.007627 -1.940530
H  0.351711 2.594785 -1.171005
C  -0.754972 -0.182682 -1.664086
H  -1.387649 0.328749 -2.393039
O  -0.457210 -1.456061 -2.230587
H  -0.215222 -2.070307 -1.528068
24
26 zpe= -687.191046 src= /lustre/lwork/pjhsu/sugar_opt/pj_sugar/beta_galactose/1S5.xyz:150 moment= 2.404359 0.750265 0.210324 4.283954 2.575969 0.971110 -0.683230 3.457261 4.540428 1.903488 -0.767375 2.547428 3.423851 1.613414 0.252979 2.699680
H -2.743683 0.786345 -0.595467
O  -1.914069 0.675140 -1.074067
C  -1.355515 -0.592141 -0.691422
H  -2.129566 -1.359904 -0.800965
O  -1.008719 -0.597939 0.663108
C  0.344127 -0.224758 1.024591
H  0.945028 -1.142176 1.047140
C  0.299118 0.352306 2.428103
H  -0.466299 1.133308 2.474869
H  1.273879 0.808172 2.648036
O  0.021271 -0.707371 3.340097
H  -0.195424 -0.330775 4.197474
C  0.976841 0.729904 0.008746
H  1.995227 0.954010 0.333577
O  0.326281 1.999026 -0.063918
H  -0.596276 1.841656 -0.328699
C  1.039864 0.048319 -1.380060
H  1.904355 -0.621271 -1.394489
O  1.221382 1.006291 -2.403553
H  0.921436 1.856868 -2.051812
C  -0.182534 -0.870667 -1.641139
H  -0.518228 -0.709396 -2.669453
O  0.278019 -2.208689 -1.446443
H  -0.437518 -2.827260 -1.627256
24
27 zpe= -687.19084 src= /lustre/lwork/pjhsu/sugar_opt/pj_sugar/beta_galactose/1S5.xyz:163 moment= 2.364894 0.672730 -0.145158 4.711271 2.519329 0.942883 -0.630229 3.782938 3.836864 1.618517 -0.376738 2.707271 3.809268 1.639417 -0.487052 2.414191
H -1.944694 0.643959 0.307145
O  -2.339342 -0.141408 -0.104161
C  -1.298599 -1.038093 -0.390635
H  -1.794318 -1.988741 -0.612090
O  -0.475264 -1.301935 0.724925
C  0.698292 -0.506910 0.941072
H  1.567562 -1.077308 0.579051
C  0.896449 -0.326459 2.449519
H  1.880271 0.147465 2.596863
H  0.933973 -1.316924 2.907536
O  -0.122567 0.384908 3.122288
H  -0.327971 1.178621 2.613174
C  0.709043 0.803730 0.153827
H  1.678891 1.288975 0.311785
O  -0.325716 1.679010 0.637462
H  -0.392780 2.408675 0.004959
C  0.529633 0.527664 -1.345353
H  1.490557 0.181554 -1.740194
O  0.177934 1.785075 -1.924746
H  0.115579 1.700110 -2.881171
C  -0.486342 -0.603943 -1.631350
H  -1.207583 -0.263311 -2.383464
O  0.294977 -1.690683 -2.135791
H  -0.257986 -2.477028 -2.199653
24
28 zpe= -687.190806 src= /lustre/lwork/pjhsu/sugar_opt/pj_sugar/beta_galactose/1S5.xyz:164 moment= 2.385899 0.708002 -0.075457 3.959504 2.556381 0.961259 -0.652232 3.556180 4.138075 1.709813 -0.736716 2.584379 3.532248 1.512069 -0.273288 2.731466
H -2.904790 0.249733 -0.322914
O  -2.113787 0.335298 -0.868055
C  -1.278924 -0.801941 -0.607756
H  -1.881880 -1.710145 -0.716369
O  -0.834916 -0.803800 0.719886
C  0.427967 -0.167488 1.017988
H  1.211165 -0.934689 0.925821
C  0.375101 0.322471 2.461238
H  -0.456809 1.015267 2.584849
H  1.305176 0.869315 2.670995
O  0.167478 -0.714959 3.409068
H  0.882849 -1.355239 3.336995
C  0.773994 0.949187 0.026560
H  1.745068 1.367065 0.301916
O  -0.127823 2.053084 0.072951
H  -1.015554 1.718532 -0.141605
C  0.875170 0.362526 -1.402970
H  1.855868 -0.109286 -1.512068
O  0.779616 1.383705 -2.375042
H  0.339072 2.136014 -1.954002
C  -0.147543 -0.779150 -1.644714
H  -0.583300 -0.642527 -2.638223
O  0.590940 -2.000521 -1.562528
H  0.015864 -2.740451 -1.784019
24
29 zpe= -687.19069 src= /lustre/lwork/pjhsu/sugar_opt/pj_sugar/beta_galactose/1S5.xyz:168 moment= 2.377764 0.702902 -0.134058 4.457528 2.516902 0.943616 -0.609867 3.768052 4.130146 1.757271 -0.599163 2.347763 3.434815 1.601611 0.132655 2.442875
H -1.696921 1.146424 0.853196
O  -2.382622 0.595508 0.444497
C  -1.746175 -0.440751 -0.259337
H  -2.540103 -1.155653 -0.494439
O  -0.826882 -1.155620 0.554248
C  0.558447 -0.797117 0.505414
H  1.065764 -1.441275 -0.228620
C  1.102338 -1.094836 1.905752
H  0.914112 -2.145497 2.146337
H  0.563681 -0.491210 2.638271
O  2.483342 -0.759452 2.032869
H  3.018237 -1.452626 1.634106
C  0.799615 0.646664 0.056919
H  1.874129 0.838662 0.036450
O  0.174680 1.602735 0.942912
H  0.756595 1.781958 1.687988
C  0.205672 0.866451 -1.346874
H  0.917151 0.465823 -2.072326
O  0.061980 2.242995 -1.639874
H  -0.187939 2.691141 -0.821769
C  -1.095075 0.050607 -1.565898
H  -1.814619 0.686802 -2.089153
O  -0.714963 -1.068585 -2.376214
H  -1.490448 -1.614146 -2.545455
24
30 zpe= -687.190652 src= /lustre/lwork/pjhsu/sugar_opt/pj_sugar/beta_galactose/1S5.xyz:169 moment= 2.377922 0.730966 0.164954 4.738028 2.532120 0.949799 -0.632852 3.694243 4.449817 1.904357 -0.654271 2.368313 3.425316 1.643241 0.255247 2.585059
H -1.464978 1.541511 0.028111
O  -2.121478 1.021773 -0.468630
C  -1.697427 -0.331004 -0.403285
H  -2.606702 -0.938232 -0.453915
O  -1.089719 -0.636200 0.830027
C  0.347916 -0.545852 0.908064
H  0.780574 -1.506623 0.609476
C  0.667442 -0.304016 2.377879
H  0.128505 -1.049593 2.973026
H  0.330730 0.695487 2.668232
O  2.081181 -0.444496 2.526064
H  2.329585 -0.172493 3.413583
C  0.917351 0.517109 -0.026025
H  2.005780 0.508466 0.074934
O  0.419563 1.799147 0.386020
H  0.764383 2.444220 -0.244390
C  0.519394 0.204832 -1.503271
H  1.313611 -0.390158 -1.956602
O  0.435617 1.409670 -2.263080
H  -0.464652 1.749358 -2.184839
C  -0.771003 -0.633698 -1.592088
H  -1.299617 -0.369936 -2.515623
O  -0.372474 -2.003644 -1.618622
H  -1.154585 -2.563625 -1.566047
24
31 zpe= -687.190627 src= /lustre/lwork/pjhsu/sugar_opt/pj_sugar/beta_galactose/1S5.xyz:170 moment= 2.392594 0.751639 0.192683 4.092191 2.551715 0.970932 -0.624328 3.392107 4.477891 1.934711 -0.622583 2.319161 3.390622 1.630242 0.304502 2.658508
H -2.868045 1.032624 -0.076569
O  -2.234818 0.563879 0.480314
C  -1.655354 -0.534251 -0.255157
H  -2.435230 -1.263746 -0.488892
O  -0.765627 -1.163348 0.608336
C  0.627306 -0.788561 0.542800
H  1.116497 -1.404260 -0.221253
C  1.215970 -1.144210 1.900761
H  0.895003 -2.158159 2.163691
H  0.845402 -0.444273 2.656011
O  2.635956 -1.066620 1.769168
H  3.031935 -1.089889 2.644330
C  0.815762 0.677516 0.155031
H  1.885467 0.889145 0.139298
O  0.264910 1.593522 1.099247
H  -0.675737 1.372051 1.215802
C  0.216200 0.908332 -1.260526
H  0.983596 0.644364 -1.998192
O  -0.125370 2.269433 -1.448405
H  -0.094960 2.681258 -0.571058
C  -1.000511 -0.019894 -1.543634
H  -1.740088 0.564891 -2.104795
O  -0.629797 -1.191375 -2.267691
H  -0.309467 -0.931430 -3.137614
24
32 zpe= -687.190626 src= /lustre/lwork/pjhsu/sugar_opt/pj_sugar/beta_galactose/1S5.xyz:171 moment= 2.366312 0.691885 -0.086141 4.875687 2.531249 0.932796 -0.721537 3.849655 4.176344 1.760638 -0.671563 2.407763 3.430369 1.577799 0.156794 2.640061
H -2.898510 -0.009604 0.708755
O  -2.308247 0.355393 0.039354
C  -1.516968 -0.710031 -0.486217
H  -2.164809 -1.550052 -0.745549
O  -0.626206 -1.221536 0.484119
C  0.649006 -0.553298 0.674904
H  1.411844 -1.142697 0.142547
C  0.958624 -0.620006 2.172591
H  0.716676 -1.623832 2.537578
H  0.340815 0.102014 2.706905
O  2.312335 -0.270206 2.441015
H  2.878411 -1.022203 2.241440
C  0.699685 0.862819 0.095614
H  1.722830 1.223835 0.213725
O  -0.104929 1.806527 0.796835
H  -1.028768 1.506702 0.746783
C  0.338312 0.823397 -1.410043
H  1.215314 0.479850 -1.968279
O  0.017723 2.119288 -1.878352
H  -0.214502 2.650561 -1.103058
C  -0.786195 -0.208715 -1.734578
H  -1.501389 0.271152 -2.401503
O  -0.283195 -1.341107 -2.444612
H  0.171141 -1.927251 -1.828972
24
33 zpe= -687.190579 src= /lustre/lwork/pjhsu/sugar_opt/pj_sugar/beta_galactose/1S5.xyz:176 moment= 2.370690 0.699437 -0.096942 3.953769 2.519611 0.941714 -0.665914 3.680212 3.946273 1.728529 -0.424786 2.242204 3.848712 1.593081 -0.498208 2.741310
H -2.906970 0.503056 -0.543958
O  -2.254789 0.319311 0.142830
C  -1.505105 -0.868213 -0.197513
H  -2.186816 -1.720144 -0.260115
O  -0.650285 -1.121950 0.865256
C  0.675203 -0.545671 0.841917
H  1.355794 -1.273952 0.384844
C  1.051771 -0.353040 2.314830
H  1.055439 -1.327991 2.804525
H  0.295873 0.268992 2.802133
O  2.356852 0.194822 2.463365
H  2.292252 1.152854 2.400712
C  0.752102 0.737006 0.015206
H  1.791605 1.068833 0.001355
O  0.022537 1.825432 0.582046
H  -0.900875 1.535748 0.690243
C  0.304787 0.451155 -1.444708
H  1.177399 0.073754 -1.990797
O  -0.129866 1.639500 -2.080615
H  -0.246739 2.300997 -1.382074
C  -0.775968 -0.663824 -1.530466
H  -1.506142 -0.360654 -2.290891
O  -0.213776 -1.935158 -1.847583
H  0.144714 -1.903861 -2.740543
24
34 zpe= -687.19057 src= /lustre/lwork/pjhsu/sugar_opt/pj_sugar/beta_galactose/1S5.xyz:178 moment= 2.369151 0.678531 -0.208397 4.788524 2.537869 0.949747 -0.640902 3.702259 3.895619 1.716573 -0.585952 2.276123 3.433926 1.520976 -0.156008 2.685972
H -1.571305 1.288493 0.869198
O  -2.276661 0.754593 0.473405
C  -1.672636 -0.319812 -0.199538
H  -2.472041 -1.025340 -0.425926
O  -0.759762 -1.010873 0.648212
C  0.644906 -0.762402 0.503826
H  1.045135 -1.433091 -0.268987
C  1.270939 -1.138960 1.842800
H  0.913083 -0.452210 2.624255
H  2.359409 -1.056069 1.777114
O  0.986544 -2.479458 2.196404
H  0.031039 -2.594449 2.120193
C  0.936027 0.673263 0.057451
H  2.017647 0.838820 0.011973
O  0.346306 1.662580 0.928278
H  0.851285 1.735895 1.743651
C  0.323567 0.897210 -1.338311
H  1.018881 0.464892 -2.062965
O  0.222957 2.272359 -1.655781
H  -0.005741 2.747623 -0.846921
C  -1.016089 0.117687 -1.519466
H  -1.723018 0.773317 -2.034703
O  -0.800437 -1.088718 -2.259904
H  -0.671036 -0.866349 -3.187258
24
35 zpe= -687.19044 src= /lustre/lwork/pjhsu/sugar_opt/pj_sugar/beta_galactose/1S5.xyz:179 moment= 2.361349 0.652355 -0.271329 5.639989 2.557546 0.962901 -0.643034 3.544231 3.839809 1.555025 -0.648872 2.737901 3.609521 1.585114 -0.419386 2.327962
H -2.513410 1.200581 0.596991
O  -1.840291 1.155629 -0.091087
C  -1.522449 -0.217408 -0.324660
H  -2.452171 -0.792324 -0.395726
O  -0.828135 -0.771151 0.764845
C  0.621225 -0.691032 0.763104
H  1.000317 -1.604764 0.285990
C  1.035846 -0.725970 2.237971
H  2.100428 -0.497072 2.320009
H  0.878299 -1.745323 2.614927
O  0.348536 0.211552 3.047392
H  -0.592041 0.035015 2.935638
C  1.159871 0.475433 -0.070332
H  2.250828 0.411264 -0.055038
O  0.866312 1.775713 0.423353
H  -0.089618 1.836185 0.571689
C  0.683347 0.317532 -1.541352
H  1.335151 -0.405065 -2.040658
O  0.788679 1.544399 -2.231384
H  0.798094 2.239713 -1.555939
C  -0.740853 -0.291094 -1.643408
H  -1.292279 0.260713 -2.409546
O  -0.567691 -1.661919 -2.010572
H  -1.425992 -2.058609 -2.192208
24
36 zpe= -687.190392 src= /lustre/lwork/pjhsu/sugar_opt/pj_sugar/beta_galactose/1S5.xyz:182 moment= 2.381389 0.721079 0.209812 5.250730 2.548088 0.944077 -0.731911 3.718386 4.499241 1.877771 -0.761310 2.597049 3.447849 1.607011 0.226977 2.750029
H -2.827725 -0.010330 0.538256
O  -2.211577 0.361835 -0.103177
C  -1.390346 -0.701515 -0.597119
H  -2.023843 -1.547382 -0.872250
O  -0.526555 -1.201114 0.395316
C  0.705410 -0.478191 0.671798
H  1.523099 -1.060199 0.225371
C  0.925591 -0.475471 2.175082
H  0.018590 -0.120936 2.674633
H  1.743391 0.218867 2.408988
O  1.257780 -1.803022 2.573260
H  1.234500 -1.856932 3.532769
C  0.755663 0.925160 0.059365
H  1.769354 1.307758 0.199008
O  -0.082739 1.873931 0.717223
H  -0.998716 1.553330 0.644226
C  0.458809 0.860855 -1.459996
H  1.367155 0.532367 -1.974822
O  0.132610 2.146070 -1.953586
H  -0.158495 2.675919 -1.197442
C  -0.623656 -0.200741 -1.821473
H  -1.317501 0.252707 -2.528609
O  -0.055457 -1.330315 -2.483476
H  0.325652 -1.923649 -1.825344
24
37 zpe= -687.190349 src= /lustre/lwork/pjhsu/sugar_opt/pj_sugar/beta_galactose/1S5.xyz:192 moment= 2.362021 0.685680 -0.116542 4.393206 2.519264 0.946340 -0.615735 3.711251 3.923321 1.718457 -0.417304 2.248521 3.801117 1.565940 -0.514760 2.738606
H -2.685993 1.028831 -0.220788
O  -2.157312 0.514613 0.402311
C  -1.577351 -0.619986 -0.274182
H  -2.367743 -1.360136 -0.449571
O  -0.683520 -1.214638 0.604435
C  0.697012 -0.773677 0.582476
H  1.250402 -1.426230 -0.101836
C  1.200972 -0.983099 2.015056
H  1.147800 -2.046628 2.253013
H  0.546610 -0.447632 2.708816
O  2.559252 -0.589387 2.166456
H  2.582381 0.360072 2.322640
C  0.856292 0.660081 0.079679
H  1.923606 0.878546 0.021930
O  0.328663 1.634400 0.982542
H  -0.607204 1.414872 1.134549
C  0.245297 0.804559 -1.345369
H  1.012599 0.536282 -2.077817
O  -0.165590 2.140214 -1.583105
H  -0.076381 2.612492 -0.741792
C  -0.922689 -0.178927 -1.591167
H  -1.665504 0.333268 -2.215949
O  -0.378578 -1.305240 -2.274527
H  -1.062021 -1.972652 -2.397799
24
38 zpe= -687.190253 src= /lustre/lwork/pjhsu/sugar_opt/pj_sugar/beta_galactose/1S5.xyz:195 moment= 2.385886 0.741842 0.194725 4.343658 2.553651 0.977657 -0.575416 3.400381 4.467269 1.926510 -0.628217 2.325892 3.400843 1.632856 0.291835 2.644727
H -2.387029 1.243196 -1.162456
O  -2.123974 0.909699 -0.295466
C  -1.615395 -0.432336 -0.427314
H  -2.467234 -1.115944 -0.530824
O  -1.001499 -0.761464 0.776125
C  0.428007 -0.557394 0.883714
H  0.934020 -1.456977 0.516424
C  0.712037 -0.411251 2.371934
H  0.194779 -1.216817 2.905096
H  0.332704 0.552017 2.726514
O  2.127185 -0.507327 2.534511
H  2.361040 -0.207536 3.416922
C  0.908774 0.624125 0.042904
H  1.987931 0.711739 0.171864
O  0.377835 1.877643 0.471801
H  -0.592153 1.803540 0.472537
C  0.584266 0.355349 -1.456672
H  1.410549 -0.211949 -1.895571
O  0.437296 1.574721 -2.165138
H  0.453849 2.280179 -1.500365
C  -0.672157 -0.530922 -1.636576
H  -1.197761 -0.185954 -2.536157
O  -0.218675 -1.872460 -1.802367
H  -0.975394 -2.462876 -1.882439
24
39 zpe= -687.190191 src= /lustre/lwork/pjhsu/sugar_opt/pj_sugar/beta_galactose/1S5.xyz:196 moment= 2.351091 0.672630 -0.149153 5.244355 2.500261 0.915613 -0.713816 4.083081 3.914287 1.697597 -0.453648 2.283402 3.406964 1.594103 0.124077 2.401562
H -1.692785 0.681302 1.009271
O  -2.288874 0.391656 0.298643
C  -1.596698 -0.620148 -0.428828
H  -2.353641 -1.344981 -0.744088
O  -0.690095 -1.322917 0.378933
C  0.677171 -0.856697 0.432194
H  1.249199 -1.362047 -0.352222
C  1.191155 -1.297423 1.808503
H  1.155865 -2.386756 1.859594
H  0.530970 -0.897429 2.582067
O  2.544894 -0.912786 2.022916
H  2.552718 -0.014577 2.367618
C  0.802660 0.643685 0.186578
H  1.868280 0.888771 0.141958
O  0.211148 1.335580 1.295589
H  0.159610 2.266271 1.037025
C  0.132396 1.057480 -1.166957
H  0.904114 1.105520 -1.936214
O  -0.419338 2.369436 -1.062197
H  -1.333956 2.279397 -0.763065
C  -0.909659 0.028069 -1.639080
H  -1.670402 0.546933 -2.234280
O  -0.215001 -0.927918 -2.435789
H  -0.809732 -1.652420 -2.658168
24
40 zpe= -687.19015 src= /lustre/lwork/pjhsu/sugar_opt/pj_sugar/beta_galactose/1S5.xyz:198 moment= 2.348962 0.665716 -0.189339 4.832536 2.514083 0.941800 -0.639342 3.673083 3.836498 1.579390 -0.514974 2.782600 3.668298 1.637775 -0.392613 2.242129
H -2.755367 0.956980 -0.519342
O  -2.118809 0.648421 0.136354
C  -1.540485 -0.606841 -0.285925
H  -2.337586 -1.340370 -0.430461
O  -0.760963 -1.063871 0.766828
C  0.642648 -0.731925 0.777341
H  1.176980 -1.501977 0.203018
C  1.141159 -0.821514 2.219123
H  2.240213 -0.755851 2.185316
H  0.879967 -1.805562 2.613999
O  0.600419 0.129062 3.115729
H  0.624853 0.994651 2.687191
C  0.920727 0.609842 0.093552
H  1.994497 0.806629 0.131694
O  0.319112 1.725051 0.763216
H  -0.643959 1.565433 0.791271
C  0.471302 0.538209 -1.390341
H  1.292444 0.092139 -1.963855
O  0.226173 1.830367 -1.913337
H  0.175527 2.435303 -1.158490
C  -0.754327 -0.401108 -1.587129
H  -1.413123 0.064689 -2.329615
O  -0.364805 -1.708357 -2.004649
H  -0.015595 -1.659402 -2.900487
24
41 zpe= -687.190134 src= /lustre/lwork/pjhsu/sugar_opt/pj_sugar/beta_galactose/1S5.xyz:201 moment= 2.395564 0.698400 -0.115442 4.946694 2.548877 0.947162 -0.736528 3.637506 4.246435 1.836297 -0.534289 2.349424 3.858243 1.627115 -0.417148 2.695843
H -2.536451 0.562901 0.681087
O  -2.368595 0.437243 -0.259579
C  -1.547177 -0.703081 -0.390251
H  -2.175286 -1.604468 -0.439168
O  -0.735920 -0.885812 0.756767
C  0.653003 -0.535319 0.661373
H  1.181738 -1.341121 0.134238
C  1.206095 -0.508718 2.077107
H  2.300720 -0.468730 2.021014
H  0.909069 -1.431967 2.585310
O  0.701020 0.633650 2.784634
H  1.065486 0.651430 3.673973
C  0.881410 0.750893 -0.143928
H  1.964046 0.933998 -0.188981
O  0.230244 1.886658 0.408880
H  0.301273 1.834764 1.372916
C  0.348693 0.553368 -1.592758
H  1.168479 0.183757 -2.213321
O  -0.069567 1.776241 -2.154991
H  -0.489954 2.281630 -1.444575
C  -0.746177 -0.539685 -1.684576
H  -1.434888 -0.248460 -2.482482
O  -0.075936 -1.766594 -2.002797
H  -0.732326 -2.453578 -2.158890
24
42 zpe= -687.190093 src= /lustre/lwork/pjhsu/sugar_opt/pj_sugar/beta_galactose/1S5.xyz:202 moment= 2.366785 0.700593 -0.074480 4.505258 2.525570 0.939976 -0.670892 3.785617 4.159379 1.753624 -0.663253 2.412685 3.405625 1.600144 0.146650 2.416626
H -1.764346 1.263054 0.037278
O  -2.283720 0.638494 -0.499210
C  -1.597784 -0.601630 -0.449923
H  -2.362380 -1.378281 -0.551225
O  -0.982927 -0.815494 0.800902
C  0.405844 -0.453195 0.934746
H  1.020266 -1.303244 0.611366
C  0.640137 -0.206840 2.426751
H  0.199457 -1.035245 2.991050
H  0.150968 0.717270 2.731903
O  2.027488 -0.048694 2.715896
H  2.449659 -0.913349 2.709330
C  0.781640 0.734386 0.053944
H  1.844671 0.945683 0.199751
O  0.016472 1.870148 0.481472
H  0.267690 2.607674 -0.088173
C  0.507472 0.398470 -1.445542
H  1.419051 -0.015216 -1.879753
O  0.216525 1.584996 -2.180437
H  -0.731476 1.753773 -2.111192
C  -0.588032 -0.674452 -1.607265
H  -1.125204 -0.489494 -2.544500
O  0.074307 -1.939032 -1.652156
H  -0.584781 -2.640782 -1.686011
24
43 zpe= -687.190004 src= /lustre/lwork/pjhsu/sugar_opt/pj_sugar/beta_galactose/1S5.xyz:210 moment= 2.397827 0.703673 -0.096447 4.772224 2.554130 0.953456 -0.716602 3.584010 4.254188 1.846984 -0.511831 2.355100 3.881653 1.655029 -0.345108 2.731389
H -2.685669 0.552996 0.315423
O  -2.331754 0.397935 -0.567318
C  -1.525198 -0.758851 -0.497489
H  -2.143155 -1.661092 -0.553874
O  -0.860736 -0.839829 0.753521
C  0.529143 -0.496683 0.802373
H  1.113125 -1.343741 0.415998
C  0.902362 -0.350746 2.269153
H  1.995428 -0.304375 2.348062
H  0.542958 -1.233033 2.808586
O  0.311928 0.839778 2.812030
H  0.554302 0.929623 3.737857
C  0.873770 0.717812 -0.071796
H  1.958141 0.883884 -0.003042
O  0.190127 1.904440 0.304604
H  0.106841 1.912310 1.269236
C  0.507406 0.408580 -1.555033
H  1.403384 0.014891 -2.046425
O  0.152929 1.580507 -2.252877
H  -0.340755 2.135340 -1.631429
C  -0.571689 -0.703329 -1.688107
H  -1.163915 -0.486498 -2.581457
O  0.024894 -2.004233 -1.766538
H  0.455132 -2.093685 -2.622459
24
44 zpe= -687.189994 src= /lustre/lwork/pjhsu/sugar_opt/pj_sugar/beta_galactose/1S5.xyz:211 moment= 2.341684 0.653198 -0.230186 5.586924 2.515682 0.947390 -0.594169 3.688932 3.764728 1.583724 -0.601085 2.411188 3.332195 1.427041 -0.312082 2.634612
H -1.684404 1.057009 -2.059030
O  -1.598376 1.042288 -1.097610
C  -1.487801 -0.321595 -0.637491
H  -2.461792 -0.809438 -0.765838
O  -1.251499 -0.278797 0.728860
C  0.120823 -0.305877 1.184661
H  0.423632 -1.357275 1.280526
C  0.166733 0.305624 2.584248
H  1.170638 0.105146 2.990541
H  -0.555358 -0.218762 3.213753
O  -0.153026 1.680541 2.665853
H  0.335916 2.143112 1.972709
C  1.071764 0.342141 0.175102
H  2.089475 0.281790 0.566601
O  0.830609 1.744091 -0.006446
H  -0.092898 1.842397 -0.307177
C  1.005379 -0.422958 -1.177399
H  1.703411 -1.264440 -1.130770
O  1.379665 0.416209 -2.255214
H  1.439801 1.316884 -1.904083
C  -0.387274 -1.054093 -1.421624
H  -0.598414 -0.989371 -2.496366
O  -0.303698 -2.415273 -1.004582
H  -1.164309 -2.837352 -1.099223
24
45 zpe= -687.18999 src= /lustre/lwork/pjhsu/sugar_opt/pj_sugar/beta_galactose/1S5.xyz:220 moment= 2.399194 0.725113 0.108005 4.911722 2.563551 0.954917 -0.743832 3.602722 4.451167 1.908343 -0.661662 2.332968 3.436762 1.648018 0.226291 2.534882
H -2.366788 1.070433 0.692467
O  -2.289028 0.838138 -0.240697
C  -1.711745 -0.473492 -0.290744
H  -2.509482 -1.220939 -0.321981
O  -0.970432 -0.730423 0.870688
C  0.467472 -0.618652 0.799500
H  0.862180 -1.529435 0.339365
C  0.945587 -0.563300 2.244661
H  0.447391 -1.363485 2.803571
H  0.679287 0.402440 2.682116
O  2.361572 -0.755901 2.224247
H  2.725666 -0.467834 3.065279
C  0.926873 0.570266 -0.040375
H  2.014559 0.488005 -0.144027
O  0.607030 1.771975 0.647363
H  0.606295 2.476890 -0.013211
C  0.270609 0.530952 -1.472282
H  1.036342 0.247349 -2.198441
O  -0.175007 1.826344 -1.863107
H  -1.033730 1.957452 -1.430752
C  -0.880064 -0.495819 -1.571882
H  -1.533041 -0.200934 -2.400568
O  -0.413917 -1.831140 -1.743885
H  -0.064629 -1.927889 -2.635307
24
46 zpe= -687.189523 src= /lustre/lwork/pjhsu/sugar_opt/pj_sugar/beta_galactose/1S5.xyz:221 moment= 2.349418 0.610827 -0.359749 21.871929 2.515288 0.911354 -0.819310 4.084878 3.761619 1.685869 -0.502547 2.076164 3.446240 1.578775 0.030349 2.398649
H -2.628213 -0.082001 0.734118
O  -2.272965 0.139613 -0.134374
C  -1.422514 -0.919582 -0.558761
H  -2.019921 -1.801657 -0.808811
O  -0.552582 -1.347193 0.459539
C  0.718017 -0.666942 0.656515
H  1.491350 -1.292088 0.194770
C  0.936991 -0.655305 2.176740
H  1.032424 -1.683315 2.529942
H  0.056348 -0.208839 2.647204
O  2.126143 0.024443 2.544615
H  1.949924 0.968930 2.454272
C  0.843056 0.730522 0.032069
H  1.917039 0.897364 -0.105170
O  0.352476 1.700895 0.951543
H  0.030034 2.445114 0.422730
C  0.146253 0.860903 -1.376890
H  0.912467 1.002757 -2.138742
O  -0.672108 2.027947 -1.418579
H  -1.511184 1.796218 -0.991894
C  -0.659293 -0.393731 -1.770836
H  -1.368178 -0.106631 -2.550436
O  0.171081 -1.408193 -2.321647
H  0.424354 -2.028230 -1.628917
24
47 zpe= -687.189496 src= /lustre/lwork/pjhsu/sugar_opt/pj_sugar/beta_galactose/1S5.xyz:223 moment= 2.374248 0.711100 -0.027890 4.050376 2.552068 0.960432 -0.638813 3.572313 4.177809 1.776221 -0.625394 2.387344 3.541317 1.534006 -0.107869 2.870210
H -2.723852 1.066238 -0.343435
O  -2.265781 0.545243 0.327929
C  -1.590110 -0.562721 -0.295279
H  -2.330191 -1.343290 -0.511194
O  -0.725013 -1.103061 0.652486
C  0.654243 -0.664621 0.637022
H  1.199932 -1.290770 -0.080927
C  1.197407 -0.925411 2.042104
H  0.878342 -1.922571 2.363503
H  0.793740 -0.192338 2.740158
O  2.614777 -0.784317 2.082815
H  3.018301 -1.558698 1.678334
C  0.790646 0.787310 0.180798
H  1.849040 1.050949 0.198205
O  0.161394 1.715833 1.060593
H  -0.768385 1.448595 1.161207
C  0.243867 0.922290 -1.271316
H  1.053100 0.692791 -1.971488
O  -0.214502 2.240841 -1.516689
H  -0.182324 2.704885 -0.666032
C  -0.873840 -0.104411 -1.575893
H  -1.597058 0.379043 -2.244634
O  -0.258141 -1.217682 -2.221840
H  -0.924596 -1.883130 -2.423427
24
48 zpe= -687.189307 src= /lustre/lwork/pjhsu/sugar_opt/pj_sugar/beta_galactose/1S5.xyz:227 moment= 2.368386 0.717039 0.162096 5.097465 2.532614 0.946965 -0.699124 3.587513 4.421749 1.890836 -0.647755 2.373347 3.422413 1.624773 0.271367 2.694344
H -2.735439 0.865113 -0.825358
O  -2.219775 0.568063 -0.065482
C  -1.574306 -0.677570 -0.384091
H  -2.333243 -1.459123 -0.478900
O  -0.792370 -1.041320 0.715402
C  0.564328 -0.530902 0.800584
H  1.246278 -1.302139 0.416545
C  0.857654 -0.358869 2.285294
H  0.502896 -1.249647 2.815481
H  0.324843 0.518343 2.663547
O  2.271020 -0.209111 2.411183
H  2.472492 0.155646 3.276964
C  0.797480 0.731016 -0.030504
H  1.859315 0.971267 0.035593
O  0.126606 1.882407 0.476184
H  -0.823352 1.674596 0.517658
C  0.419500 0.456340 -1.516050
H  1.281088 0.003755 -2.017515
O  0.098731 1.669429 -2.176669
H  0.043249 2.351562 -1.490679
C  -0.739723 -0.571158 -1.664690
H  -1.367292 -0.235115 -2.493237
O  -0.276895 -1.868837 -2.031265
H  -0.004083 -2.346745 -1.239997
24
49 zpe= -687.189294 src= /lustre/lwork/pjhsu/sugar_opt/pj_sugar/beta_galactose/1S5.xyz:230 moment= 2.329519 0.644534 -0.218840 7.652995 2.475961 0.884429 -0.858964 4.367773 3.846893 1.650551 -0.477808 2.321214 3.420081 1.584545 0.096255 2.433368
H -1.450881 1.171664 0.672054
O  -2.178900 0.701798 0.228204
C  -1.686861 -0.532920 -0.243198
H  -2.548111 -1.198152 -0.325632
O  -0.804646 -1.171701 0.664250
C  0.589733 -0.773839 0.667752
H  1.167072 -1.550903 0.152314
C  1.004034 -0.749112 2.146124
H  0.887802 -1.753536 2.555923
H  0.334066 -0.079428 2.690956
O  2.367563 -0.382681 2.314789
H  2.420789 0.578344 2.321638
C  0.873105 0.537605 -0.062535
H  1.958485 0.627040 -0.165569
O  0.400672 1.625094 0.749107
H  0.452609 2.414809 0.191184
C  0.221095 0.569363 -1.483402
H  0.958049 0.228777 -2.211731
O  -0.099452 1.920885 -1.826245
H  -1.032311 2.072937 -1.631917
C  -0.994348 -0.378418 -1.600971
H  -1.699601 0.045961 -2.321108
O  -0.594568 -1.648334 -2.106934
H  -0.546395 -2.273251 -1.374050
24
50 zpe= -687.189262 src= /lustre/lwork/pjhsu/sugar_opt/pj_sugar/beta_galactose/1S5.xyz:231 moment= 2.354333 0.651165 -0.205695 5.790107 2.551503 0.963510 -0.669616 3.453153 3.838207 1.576898 -0.539834 2.752902 3.616265 1.604010 -0.390314 2.293240
H -2.654303 1.057856 -0.016387
O  -1.971294 0.665836 0.540828
C  -1.506312 -0.562710 -0.045110
H  -2.317199 -1.295810 -0.056527
O  -0.534679 -1.069424 0.812242
C  0.844353 -0.678008 0.608658
H  1.309692 -1.432470 -0.039800
C  1.491595 -0.773506 1.994833
H  2.492262 -0.337070 1.962032
H  1.591720 -1.836308 2.252595
O  0.770439 -0.084240 2.998780
H  -0.137386 -0.409210 2.963801
C  0.999496 0.662200 -0.114687
H  2.066425 0.805765 -0.304097
O  0.605505 1.810989 0.621885
H  -0.263912 1.638952 1.015241
C  0.261747 0.605330 -1.489466
H  0.951750 0.172935 -2.224119
O  -0.080517 1.907771 -1.919521
H  0.031280 2.483070 -1.145021
C  -0.983796 -0.323250 -1.465331
H  -1.770851 0.162364 -2.055230
O  -0.696099 -1.623028 -1.979082
H  -0.498918 -1.549036 -2.918518
24
51 zpe= -687.189086 src= /lustre/lwork/pjhsu/sugar_opt/pj_sugar/beta_galactose/1S5.xyz:232 moment= 2.341796 0.594623 -0.547102 15655.362714 2.510848 0.924534 -0.701694 3.901417 3.672771 1.554789 -0.544912 2.388125 3.410980 1.445309 -0.427241 2.617017
H -2.530000 1.249193 0.586474
O  -1.914127 1.153951 -0.147197
C  -1.625403 -0.206501 -0.326677
H  -2.544785 -0.801004 -0.318681
O  -0.856236 -0.749809 0.753491
C  0.589064 -0.705726 0.675020
H  0.944462 -1.662836 0.266523
C  1.071698 -0.621741 2.121826
H  2.161675 -0.566922 2.149393
H  0.755964 -1.517948 2.665998
O  0.588312 0.553674 2.777372
H  -0.370032 0.465460 2.841974
C  1.153739 0.387321 -0.239949
H  2.227553 0.180043 -0.341101
O  1.000438 1.709848 0.258797
H  0.842324 1.676875 1.214141
C  0.502574 0.310560 -1.656642
H  1.126126 -0.323780 -2.292010
O  0.459102 1.586111 -2.255498
H  0.336328 2.225739 -1.538291
C  -0.892437 -0.375013 -1.651700
H  -1.481351 0.079986 -2.448222
O  -0.784471 -1.769812 -1.956208
H  -0.759513 -2.276672 -1.137834
24
52 zpe= -687.188931 src= /lustre/lwork/pjhsu/sugar_opt/pj_sugar/beta_galactose/1S5.xyz:233 moment= 2.325365 0.624754 -0.335791 10.056207 2.498160 0.917587 -0.740914 3.888847 3.731324 1.564526 -0.584834 2.461340 3.345254 1.425871 -0.340379 2.655958
H -2.597727 1.236958 -0.366440
O  -1.985908 0.817370 0.250727
C  -1.587196 -0.465320 -0.265504
H  -2.470189 -1.104992 -0.349515
O  -0.765743 -1.075786 0.682987
C  0.651385 -0.762900 0.685069
H  1.170166 -1.562139 0.133454
C  1.159390 -0.843944 2.126264
H  2.259578 -0.815548 2.082386
H  0.869347 -1.812554 2.538823
O  0.653985 0.134797 3.009459
H  0.782784 0.999875 2.598919
C  0.984119 0.544051 -0.040303
H  2.071748 0.639289 -0.076171
O  0.540558 1.714574 0.656775
H  -0.429525 1.644837 0.745527
C  0.434439 0.500837 -1.494044
H  1.165412 -0.017975 -2.122580
O  0.258335 1.811972 -2.001974
H  0.355303 2.422614 -1.257040
C  -0.877942 -0.327025 -1.616169
H  -1.521847 0.190262 -2.331165
O  -0.642770 -1.625738 -2.156232
H  -0.479702 -2.244515 -1.435255
24
53 zpe= -687.188605 src= /lustre/lwork/pjhsu/sugar_opt/pj_sugar/beta_galactose/1S5.xyz:236 moment= 2.381678 0.731691 0.240248 5.032473 2.554860 0.946397 -0.754922 3.702130 4.522553 1.892799 -0.767165 2.564785 3.430301 1.599298 0.167745 2.756631
H -1.644595 1.316667 0.363993
O  -2.160929 0.863569 -0.322564
C  -1.555510 -0.418294 -0.495597
H  -2.373549 -1.126882 -0.661480
O  -0.891895 -0.839579 0.665175
C  0.527520 -0.584131 0.762079
H  1.061078 -1.410906 0.281469
C  0.886627 -0.579699 2.238519
H  0.174702 0.048693 2.780675
H  1.891313 -0.151481 2.355843
O  0.861699 -1.926738 2.706371
H  0.766247 -1.923798 3.662440
C  0.927067 0.705938 0.050776
H  2.016484 0.809330 0.110678
O  0.315889 1.803834 0.737558
H  0.464981 2.586214 0.189436
C  0.503287 0.666852 -1.456860
H  1.361127 0.350613 -2.052011
O  0.156095 1.974292 -1.907419
H  -0.787083 2.098716 -1.734476
C  -0.623794 -0.350257 -1.713306
H  -1.208197 -0.013748 -2.577773
O  -0.000738 -1.602589 -1.986707
H  -0.667825 -2.297614 -1.996817
24
54 zpe= -687.188547 src= /lustre/lwork/pjhsu/sugar_opt/pj_sugar/beta_galactose/1S5.xyz:237 moment= 2.340759 0.646150 -0.265913 6.315140 2.530748 0.941103 -0.686655 3.780165 3.754821 1.595670 -0.578638 2.368592 3.432139 1.498583 -0.157179 2.528471
H -1.672118 1.116222 0.160003
O  -2.199934 0.461621 -0.333938
C  -1.413971 -0.709407 -0.427182
H  -2.117697 -1.537168 -0.557654
O  -0.713550 -0.973801 0.771575
C  0.650262 -0.507094 0.870135
H  1.309324 -1.261124 0.420113
C  0.967665 -0.468657 2.366074
H  1.967642 -0.051396 2.510877
H  0.982560 -1.507580 2.724156
O  0.077180 0.310316 3.138016
H  -0.817995 0.061726 2.879246
C  0.874267 0.777363 0.073057
H  1.924011 1.071203 0.185883
O  0.038282 1.824181 0.571600
H  0.192631 2.590599 0.003748
C  0.579690 0.505395 -1.437121
H  1.499092 0.162775 -1.914665
O  0.214316 1.717300 -2.095221
H  -0.744567 1.812654 -2.052458
C  -0.462368 -0.615243 -1.632455
H  -1.062017 -0.389123 -2.521947
O  0.270085 -1.826192 -1.820345
H  -0.345790 -2.564572 -1.881494
24
55 zpe= -687.188364 src= /lustre/lwork/pjhsu/sugar_opt/pj_sugar/beta_galactose/1S5.xyz:238 moment= 2.376149 0.691274 0.065658 6.408216 2.540244 0.931794 -0.795573 3.818007 4.389885 1.867285 -0.671179 2.383741 3.464948 1.641549 0.198976 2.575995
H -2.292988 0.919396 0.986711
O  -2.194191 0.921767 0.027372
C  -1.720635 -0.362160 -0.365277
H  -2.567768 -1.043900 -0.492657
O  -0.916546 -0.955451 0.630159
C  0.519274 -0.755509 0.583608
H  0.963043 -1.557929 -0.019316
C  1.009530 -0.943750 2.014807
H  0.518051 -1.828288 2.435520
H  0.742393 -0.066175 2.608183
O  2.424092 -1.126690 1.952055
H  2.808730 -0.886742 2.798863
C  0.945541 0.569315 -0.043957
H  2.026729 0.501279 -0.208042
O  0.677021 1.620871 0.872663
H  0.652659 2.435577 0.353394
C  0.233782 0.801641 -1.430303
H  0.950873 0.622811 -2.231868
O  -0.173636 2.162406 -1.553750
H  -1.005151 2.244600 -1.063055
C  -0.959865 -0.151763 -1.671110
H  -1.623341 0.324007 -2.396629
O  -0.557790 -1.393139 -2.240180
H  -0.458809 -2.054177 -1.547189
24
56 zpe= -687.188321 src= /lustre/lwork/pjhsu/sugar_opt/pj_sugar/beta_galactose/1S5.xyz:239 moment= 2.391679 0.744710 0.250473 4.533226 2.568910 0.969801 -0.661297 3.478653 4.541920 1.908824 -0.759714 2.522075 3.412326 1.576957 0.075201 2.816877
H -2.458206 0.787334 -1.370657
O  -2.133314 0.637912 -0.473923
C  -1.453320 -0.634080 -0.407424
H  -2.209050 -1.429563 -0.418343
O  -0.834390 -0.702730 0.832414
C  0.552617 -0.293901 0.925918
H  1.176333 -1.166892 0.701673
C  0.803552 0.119170 2.365193
H  0.019777 0.812239 2.684721
H  1.770064 0.638241 2.416638
O  0.823007 -1.056910 3.170900
H  0.697811 -0.807173 4.090365
C  0.893876 0.805257 -0.080557
H  1.951474 1.056490 0.024067
O  0.198295 2.026905 0.165788
H  -0.753852 1.824779 0.173106
C  0.643734 0.289708 -1.528734
H  1.548092 -0.217997 -1.877620
O  0.361039 1.368034 -2.402803
H  0.242730 2.151010 -1.843607
C  -0.476896 -0.775369 -1.584821
H  -1.021444 -0.637799 -2.527852
O  0.160636 -2.049977 -1.553724
H  -0.502567 -2.744689 -1.479718
24
57 zpe= -687.188122 src= /lustre/lwork/pjhsu/sugar_opt/pj_sugar/beta_galactose/1S5.xyz:243 moment= 2.355724 0.667726 -0.178065 4.994107 2.508731 0.922894 -0.735332 3.892970 3.828875 1.591038 -0.465406 2.722255 3.683069 1.657720 -0.332368 2.271604
H -1.820541 0.972617 0.445781
O  -2.355149 0.325219 -0.039805
C  -1.525794 -0.779289 -0.311670
H  -2.188855 -1.624555 -0.500653
O  -0.734770 -1.138417 0.799817
C  0.614208 -0.665932 0.878081
H  1.273217 -1.395926 0.383957
C  1.024378 -0.630434 2.352338
H  2.102035 -0.403297 2.386569
H  0.883023 -1.629831 2.769060
O  0.289159 0.254749 3.173802
H  0.161797 1.083229 2.695435
C  0.822421 0.660221 0.144563
H  1.878004 0.943694 0.229174
O  0.018222 1.678713 0.756278
H  -0.011851 2.417662 0.130762
C  0.458266 0.500755 -1.350483
H  1.344605 0.113415 -1.867567
O  0.168876 1.813841 -1.834974
H  -0.460232 1.769801 -2.561770
C  -0.677468 -0.533815 -1.572689
H  -1.361209 -0.171344 -2.351844
O  -0.133060 -1.802832 -1.932156
H  0.228721 -1.757242 -2.823001
24
58 zpe= -687.18797 src= /lustre/lwork/pjhsu/sugar_opt/pj_sugar/beta_galactose/1S5.xyz:244 moment= 2.363082 0.713944 0.254070 5.755594 2.533051 0.934014 -0.729614 3.862900 4.487156 1.876963 -0.742535 2.591588 3.461796 1.609231 0.155204 2.759472
H -1.740024 1.105276 -0.069538
O  -2.204874 0.433475 -0.598128
C  -1.432863 -0.752837 -0.548325
H  -2.135049 -1.583935 -0.645085
O  -0.789128 -0.937153 0.696363
C  0.524125 -0.352846 0.883523
H  1.275791 -1.122466 0.668638
C  0.658226 0.014352 2.352910
H  -0.227648 0.573523 2.665328
H  1.540487 0.655942 2.479599
O  0.809109 -1.193527 3.095073
H  0.551734 -1.036739 4.007397
C  0.801668 0.821565 -0.051308
H  1.849400 1.114957 0.078137
O  -0.034881 1.918452 0.338774
H  0.066186 2.592746 -0.347647
C  0.561066 0.425348 -1.545816
H  1.511790 0.117201 -1.982790
O  0.124220 1.567599 -2.283869
H  -0.841590 1.572432 -2.283006
C  -0.406974 -0.771342 -1.684289
H  -0.929931 -0.684641 -2.641177
O  0.321623 -1.996758 -1.699565
H  0.147536 -2.480625 -0.884199
24
59 zpe= -687.187958 src= /lustre/lwork/pjhsu/sugar_opt/pj_sugar/beta_galactose/1S5.xyz:245 moment= 2.358621 0.691905 -0.033753 4.969255 2.529896 0.941074 -0.730190 3.631341 4.183837 1.777628 -0.619480 2.409275 3.572798 1.518818 -0.188301 2.951221
H -2.588028 1.496841 0.121834
O  -2.042205 0.886556 0.632969
C  -1.715223 -0.254064 -0.176155
H  -2.617771 -0.851500 -0.334006
O  -0.850195 -1.065935 0.566018
C  0.576890 -0.804451 0.498512
H  1.007321 -1.480162 -0.256400
C  1.149064 -1.190926 1.864211
H  0.701848 -2.140137 2.176968
H  0.892161 -0.429106 2.599721
O  2.571063 -1.259858 1.827333
H  2.836244 -2.098197 1.436898
C  0.914936 0.621575 0.062501
H  1.999862 0.684645 -0.035202
O  0.576188 1.610386 1.029729
H  -0.374762 1.527266 1.218134
C  0.251006 0.917261 -1.315152
H  0.913753 0.554832 -2.107793
O  0.062765 2.312236 -1.484192
H  0.263707 2.724411 -0.630373
C  -1.092650 0.158530 -1.513847
H  -1.767952 0.829357 -2.050152
O  -0.947816 -0.995503 -2.339823
H  -0.718206 -1.754055 -1.791733
24
60 zpe= -687.187825 src= /lustre/lwork/pjhsu/sugar_opt/pj_sugar/beta_galactose/1S5.xyz:249 moment= 2.373567 0.722313 0.257735 5.314772 2.545194 0.952040 -0.663334 3.661403 4.505592 1.888030 -0.749129 2.557015 3.424384 1.617688 0.243722 2.651223
H -2.442481 0.953780 -1.328242
O  -2.042257 0.758572 -0.471843
C  -1.485227 -0.570053 -0.495291
H  -2.301006 -1.296165 -0.553531
O  -0.865407 -0.795171 0.733233
C  0.506731 -0.346567 0.914278
H  1.160532 -1.216729 0.765597
C  0.657754 0.088688 2.361731
H  -0.158975 0.768661 2.620141
H  1.608373 0.626939 2.471242
O  0.644666 -1.081755 3.175429
H  0.459362 -0.830449 4.084337
C  0.935284 0.726803 -0.086861
H  2.003908 0.904295 0.053773
O  0.323304 1.994006 0.143070
H  -0.640501 1.860146 0.105008
C  0.699759 0.226662 -1.543157
H  1.575403 -0.349633 -1.858733
O  0.540676 1.326723 -2.423051
H  0.465350 2.118167 -1.869012
C  -0.505002 -0.748936 -1.657886
H  -1.001944 -0.540732 -2.608542
O  -0.091157 -2.111637 -1.713934
H  -0.047143 -2.467617 -0.818759
24
61 zpe= -687.187735 src= /lustre/lwork/pjhsu/sugar_opt/pj_sugar/beta_galactose/1S5.xyz:254 moment= 2.365670 0.692292 -0.060493 4.794487 2.537785 0.937346 -0.732276 3.798106 4.140615 1.719498 -0.704458 2.572878 3.411120 1.566493 0.085261 2.638355
H -1.751644 1.300755 0.168698
O  -2.201730 0.732456 -0.476927
C  -1.542160 -0.533044 -0.424457
H  -2.323870 -1.296145 -0.496418
O  -0.903078 -0.733466 0.807998
C  0.498010 -0.407252 0.901509
H  1.075752 -1.272311 0.549902
C  0.817729 -0.157687 2.372948
H  0.131642 0.585812 2.776139
H  1.838143 0.245041 2.441519
O  0.670521 -1.313511 3.186056
H  1.283228 -1.991287 2.882771
C  0.875038 0.773635 0.007937
H  1.957945 0.929533 0.079299
O  0.202075 1.935811 0.498609
H  0.336118 2.630102 -0.160593
C  0.502851 0.481351 -1.486342
H  1.392319 0.118257 -2.003359
O  0.113683 1.683862 -2.144475
H  -0.836572 1.795159 -2.002348
C  -0.571725 -0.614497 -1.610595
H  -1.136374 -0.444447 -2.534407
O  0.108814 -1.867435 -1.662727
H  -0.538712 -2.580691 -1.670738
24
62 zpe= -687.187642 src= /lustre/lwork/pjhsu/sugar_opt/pj_sugar/beta_galactose/1S5.xyz:256 moment= 2.344071 0.656280 -0.215944 5.591688 2.525902 0.930249 -0.749916 3.835864 3.821599 1.558573 -0.556154 2.799083 3.675751 1.623604 -0.419468 2.319284
H -1.413127 1.449975 0.264527
O  -2.087102 0.925137 -0.203329
C  -1.602422 -0.405911 -0.260157
H  -2.472116 -1.063179 -0.291940
O  -0.882139 -0.744052 0.907648
C  0.553926 -0.615422 0.871857
H  0.974214 -1.519815 0.412299
C  1.006058 -0.607090 2.333414
H  2.084400 -0.432278 2.375904
H  0.811652 -1.609075 2.740344
O  0.393986 0.382421 3.134955
H  -0.554867 0.337839 2.968211
C  0.996855 0.555149 -0.005584
H  2.092021 0.599977 0.007801
O  0.470100 1.780301 0.505094
H  0.740297 2.475060 -0.109264
C  0.509582 0.310151 -1.473609
H  1.304622 -0.210236 -2.013223
O  0.322698 1.549291 -2.155067
H  -0.578025 1.851933 -1.983198
C  -0.753479 -0.586051 -1.524688
H  -1.365324 -0.283242 -2.381276
O  -0.418665 -1.970788 -1.612311
H  -0.135150 -2.169096 -2.510408
24
63 zpe= -687.18763 src= /lustre/lwork/pjhsu/sugar_opt/pj_sugar/beta_galactose/1S5.xyz:258 moment= 2.367287 0.682350 -0.139048 4.167183 2.543126 0.946857 -0.732433 3.645258 3.805407 1.653994 -0.482208 2.328279 3.794184 1.646901 -0.220214 2.619366
H -1.343343 1.342416 0.911008
O  -2.125665 0.875533 0.567627
C  -1.663316 -0.282812 -0.068877
H  -2.536498 -0.912860 -0.240442
O  -0.796376 -1.034520 0.768468
C  0.623086 -0.880072 0.613947
H  0.975554 -1.598270 -0.141788
C  1.235701 -1.303818 1.950600
H  2.317107 -1.145451 1.921042
H  1.055583 -2.381819 2.065258
O  0.741010 -0.593588 3.066405
H  -0.220422 -0.572880 2.985628
C  1.008343 0.502352 0.085590
H  2.101557 0.552570 0.011503
O  0.544511 1.535227 0.953265
H  0.664296 2.366790 0.473976
C  0.398440 0.666830 -1.323974
H  1.046650 0.135404 -2.032376
O  0.424695 2.067802 -1.597888
H  -0.043814 2.259612 -2.415959
C  -1.013772 0.021237 -1.434123
H  -1.690808 0.706174 -1.958883
O  -0.939090 -1.235934 -2.111151
H  -0.764433 -1.087926 -3.045859
24
64 zpe= -687.187424 src= /lustre/lwork/pjhsu/sugar_opt/pj_sugar/beta_galactose/1S5.xyz:259 moment= 2.375215 0.705253 -0.032734 4.148860 2.551477 0.961410 -0.629631 3.567001 4.156158 1.732573 -0.691220 2.547672 3.395223 1.535497 -0.051261 2.661461
H -2.608877 0.615178 -1.214378
O  -2.227567 0.439065 -0.345193
C  -1.402166 -0.742318 -0.403319
H  -2.057427 -1.619365 -0.475404
O  -0.749950 -0.844621 0.818352
C  0.575696 -0.280521 0.931375
H  1.293161 -1.045723 0.602643
C  0.817486 0.035223 2.403758
H  0.022319 0.679390 2.777473
H  1.766723 0.582905 2.486198
O  0.817021 -1.114670 3.237946
H  1.530465 -1.700969 2.965931
C  0.763581 0.936558 0.022245
H  1.785857 1.303783 0.137482
O  -0.066483 2.038440 0.380936
H  -0.987745 1.724199 0.385293
C  0.547627 0.519214 -1.462741
H  1.498211 0.153085 -1.862777
O  0.125136 1.626103 -2.237991
H  -0.081846 2.337050 -1.612124
C  -0.442083 -0.662328 -1.600140
H  -1.018033 -0.509210 -2.521402
O  0.340115 -1.852671 -1.687970
H  -0.241222 -2.619793 -1.726193
24
65 zpe= -687.186662 src= /lustre/lwork/pjhsu/sugar_opt/pj_sugar/beta_galactose/1S5.xyz:263 moment= 2.375819 0.653396 -0.241831 6.424871 2.531701 0.927649 -0.807987 3.835302 3.790439 1.722079 -0.445596 2.052684 3.405318 1.555293 0.054398 2.461597
H -2.421026 1.092408 0.726070
O  -2.016566 0.987419 -0.142435
C  -1.688450 -0.367932 -0.316415
H  -2.593513 -0.980607 -0.388607
O  -0.987192 -0.931290 0.776200
C  0.433029 -0.669362 0.927630
H  0.952955 -1.613066 0.719176
C  0.635710 -0.296248 2.404515
H  0.403447 -1.161833 3.027002
H  -0.065491 0.505535 2.651612
O  1.974666 0.077091 2.692666
H  2.098313 0.975174 2.363201
C  1.015379 0.386340 -0.018305
H  2.101105 0.235952 -0.013924
O  0.751650 1.686888 0.490149
H  0.528785 2.255622 -0.258807
C  0.524184 0.179669 -1.475946
H  1.219866 -0.507135 -1.970182
O  0.591617 1.466271 -2.089593
H  0.252029 1.417902 -2.988572
C  -0.873160 -0.486688 -1.600901
H  -1.426976 -0.009758 -2.413382
O  -0.745900 -1.861188 -1.955032
H  -0.663461 -2.382167 -1.147117
24
66 zpe= -687.186155 src= /lustre/lwork/pjhsu/sugar_opt/pj_sugar/beta_galactose/1S5.xyz:264 moment= 2.359810 0.688718 -0.003365 5.135399 2.530419 0.941945 -0.649736 3.788445 4.186032 1.755019 -0.667547 2.518751 3.404252 1.536632 -0.056377 2.692430
H -2.169986 1.947633 -0.499792
O  -1.741866 1.408932 0.177063
C  -1.646447 0.048517 -0.282071
H  -2.652811 -0.373852 -0.354768
O  -0.997478 -0.692978 0.705737
C  0.454552 -0.701754 0.728726
H  0.782227 -1.631609 0.238362
C  0.895583 -0.749510 2.189916
H  0.432982 0.072184 2.735160
H  1.984595 -0.613982 2.230213
O  0.499703 -1.939772 2.857298
H  0.998048 -2.682536 2.501924
C  1.089191 0.454090 -0.049850
H  2.167559 0.280748 -0.080727
O  0.943989 1.717687 0.591983
H  -0.009383 1.872497 0.715599
C  0.547201 0.482060 -1.510255
H  1.151590 -0.198204 -2.118922
O  0.653484 1.787541 -2.050815
H  0.890515 2.374966 -1.317350
C  -0.910888 -0.044809 -1.621621
H  -1.418756 0.559701 -2.377206
O  -0.955760 -1.393485 -2.084312
H  -0.988843 -1.987065 -1.325295
24
67 zpe= -687.185482 src= /lustre/lwork/pjhsu/sugar_opt/pj_sugar/beta_galactose/1S5.xyz:266 moment= 2.390020 0.722350 0.002644 3.749314 2.560102 0.982878 -0.565216 3.366925 4.152678 1.748713 -0.635793 2.536681 3.750410 1.690518 -0.013365 2.697098
H -1.478883 1.549014 0.616538
O  -2.195455 1.100810 0.138093
C  -1.704676 -0.158405 -0.252384
H  -2.576659 -0.780874 -0.457423
O  -0.998423 -0.797658 0.790367
C  0.429095 -0.708098 0.817682
H  0.841077 -1.550116 0.237901
C  0.886134 -0.843119 2.269163
H  0.406248 -0.075217 2.874971
H  1.973700 -0.680609 2.302806
O  0.541275 -2.085983 2.860526
H  0.877226 -2.801952 2.311466
C  0.956312 0.570691 0.165968
H  2.052300 0.563161 0.211042
O  0.464083 1.701822 0.884331
H  0.622515 2.470339 0.317624
C  0.515566 0.616626 -1.315786
H  1.244317 0.037912 -1.897137
O  0.580284 1.988731 -1.708448
H  -0.024318 2.155711 -2.438077
C  -0.866932 -0.052386 -1.540002
H  -1.454440 0.540839 -2.252966
O  -0.703789 -1.389797 -2.013557
H  -0.385557 -1.371441 -2.921700
24
68 zpe= -687.183656 src= /lustre/lwork/pjhsu/sugar_opt/pj_sugar/beta_galactose/1S5.xyz:267 moment= 2.359084 0.676549 -0.159404 5.757723 2.512578 0.914403 -0.754261 4.110227 4.111198 1.702343 -0.698022 2.607114 3.510042 1.508811 -0.172840 2.821437
H -1.449774 1.557129 0.479283
O  -2.209393 1.003494 0.241606
C  -1.745056 -0.225824 -0.236232
H  -2.628105 -0.862693 -0.307875
O  -0.886381 -0.903773 0.687714
C  0.523781 -0.638912 0.654219
H  1.017975 -1.477214 0.134394
C  1.042463 -0.610272 2.092761
H  0.457424 0.104844 2.673417
H  2.093502 -0.279503 2.080245
O  0.913573 -1.846041 2.773193
H  1.417046 -2.520460 2.305415
C  0.906946 0.618673 -0.137399
H  1.997527 0.687615 -0.193176
O  0.399760 1.829298 0.470240
H  0.987670 2.130007 1.169394
C  0.329641 0.548875 -1.566325
H  0.985997 -0.093706 -2.157310
O  0.349268 1.818458 -2.189863
H  0.114167 2.480218 -1.527580
C  -1.062649 -0.149734 -1.608509
H  -1.697944 0.407128 -2.298298
O  -0.922113 -1.474559 -2.134607
H  -0.933326 -2.103048 -1.403704
24
69 zpe= -687.183525 src= /lustre/lwork/pjhsu/sugar_opt/pj_sugar/beta_galactose/1S5.xyz:268 moment= 2.392613 0.701661 -0.026668 4.631136 2.558615 0.970441 -0.544518 3.748963 4.188778 1.770635 -0.607279 2.552655 3.860014 1.718768 -0.129878 2.665661
H -2.372332 0.858744 1.046638
O  -2.117320 0.999141 0.127523
C  -1.637184 -0.223933 -0.377032
H  -2.474685 -0.889104 -0.618246
O  -0.874446 -0.956476 0.561871
C  0.544904 -0.704710 0.677606
H  1.064651 -1.469684 0.078014
C  0.938587 -0.895557 2.140521
H  0.338008 -0.232865 2.761436
H  1.992617 -0.609214 2.257780
O  0.709439 -2.213784 2.621318
H  1.301127 -2.822118 2.167268
C  0.985290 0.659256 0.140832
H  2.084185 0.656522 0.120084
O  0.553632 1.682776 1.016756
H  0.237074 2.414871 0.470503
C  0.487536 0.843087 -1.318339
H  1.240033 0.413448 -1.988744
O  0.395321 2.250822 -1.522122
H  -0.022046 2.432540 -2.369859
C  -0.830855 0.085070 -1.635712
H  -1.446482 0.700701 -2.297670
O  -0.550569 -1.122781 -2.341480
H  -0.547482 -1.858753 -1.718947
24
70 zpe= -687.18345 src= /lustre/lwork/pjhsu/sugar_opt/pj_sugar/beta_galactose/1S5.xyz:269 moment= 2.383257 0.704329 -0.122887 3.793793 2.550435 0.985175 -0.433162 3.601488 3.910664 1.753491 -0.477747 2.308537 3.896311 1.697650 -0.215679 2.695139
H -1.203015 1.636742 -0.952946
O  -1.977429 1.051987 -1.009946
C  -1.609541 -0.197496 -0.503533
H  -2.520009 -0.796031 -0.472131
O  -1.149050 -0.114850 0.844493
C  0.264058 -0.129293 1.092209
H  0.599890 -1.172849 1.163157
C  0.452157 0.526909 2.455925
H  0.165576 1.588360 2.403803
H  1.502630 0.465572 2.752836
O  -0.295343 -0.132514 3.461098
H  -1.199799 -0.210493 3.132315
C  1.047092 0.543075 -0.044187
H  2.114046 0.571621 0.206632
O  0.589149 1.870627 -0.320661
H  0.730838 2.424390 0.453636
C  0.855937 -0.312908 -1.307557
H  1.527551 -1.174497 -1.188625
O  1.237370 0.461695 -2.432220
H  1.180242 -0.083959 -3.223113
C  -0.584360 -0.908621 -1.404682
H  -0.944226 -0.805930 -2.434300
O  -0.596653 -2.280267 -0.996333
H  -0.186112 -2.821269 -1.677868
24
71 zpe= -687.18322 src= /lustre/lwork/pjhsu/sugar_opt/pj_sugar/beta_galactose/1S5.xyz:270 moment= 2.368566 0.683022 -0.134936 3.980513 2.553510 0.963155 -0.645217 3.574987 3.881150 1.611444 -0.447116 2.816331 3.803685 1.637944 -0.473649 2.422082
H -2.668228 0.735116 -0.867235
O  -2.153623 0.484584 -0.090398
C  -1.414072 -0.722541 -0.360823
H  -2.130603 -1.536112 -0.534731
O  -0.712758 -1.060204 0.782872
C  0.641200 -0.563606 0.927156
H  1.315996 -1.300587 0.470314
C  0.968456 -0.516131 2.418738
H  2.048607 -0.313226 2.502075
H  0.785949 -1.505457 2.845601
O  0.215356 0.404088 3.180493
H  0.135257 1.216219 2.659039
C  0.848341 0.771234 0.194059
H  1.892896 1.066684 0.319412
O  0.095950 1.832891 0.763368
H  -0.841082 1.679677 0.555277
C  0.593733 0.543332 -1.319321
H  1.511440 0.112182 -1.734559
O  0.303954 1.792928 -1.929460
H  0.522285 1.736272 -2.864892
C  -0.510377 -0.515022 -1.586224
H  -1.128928 -0.166642 -2.424904
O  0.157886 -1.726677 -1.934796
H  -0.477630 -2.450003 -1.973058
24
72 zpe= -687.182916 src= /lustre/lwork/pjhsu/sugar_opt/pj_sugar/beta_galactose/1S5.xyz:271 moment= 2.354600 0.660779 -0.170589 5.187781 2.538606 0.938433 -0.763880 3.725488 3.886418 1.615616 -0.451592 2.802950 3.774392 1.621340 -0.454660 2.474985
H -2.724930 0.515405 -1.068391
O  -2.090711 0.473656 -0.343630
C  -1.397257 -0.783422 -0.381499
H  -2.127121 -1.593079 -0.473609
O  -0.760002 -0.984453 0.840036
C  0.540502 -0.374428 1.061138
H  1.300582 -1.154823 0.897707
C  0.642349 0.017617 2.536512
H  1.694209 0.289134 2.723605
H  0.416494 -0.861953 3.144239
O  -0.235414 1.038937 2.954504
H  -0.198036 1.739759 2.287098
C  0.855545 0.766599 0.079223
H  1.893655 1.063371 0.249209
O  0.097876 1.941789 0.324836
H  -0.813755 1.774980 0.032919
C  0.745729 0.219410 -1.366478
H  1.671991 -0.332494 -1.568323
O  0.620815 1.323015 -2.251887
H  0.849464 1.030513 -3.139997
C  -0.400550 -0.824264 -1.545296
H  -0.923993 -0.600091 -2.478403
O  0.104666 -2.150328 -1.693970
H  0.237890 -2.534849 -0.819539
24
73 zpe= -687.182459 src= /lustre/lwork/pjhsu/sugar_opt/pj_sugar/beta_galactose/1S5.xyz:272 moment= 2.395872 0.717011 -0.035819 3.340689 2.588591 1.021963 -0.384876 3.291100 3.968290 1.788992 -0.492399 2.241159 3.907613 1.697989 -0.205038 2.751123
H -2.914730 0.226090 -0.548106
O  -2.261037 0.031605 0.133842
C  -1.275937 -0.884101 -0.377761
H  -1.763506 -1.818064 -0.671655
O  -0.418109 -1.188625 0.668734
C  0.795715 -0.403672 0.820302
H  1.573427 -0.889486 0.217875
C  1.169120 -0.510214 2.291638
H  0.392145 -0.036087 2.899359
H  2.110832 0.016489 2.463727
O  1.384340 -1.859833 2.684557
H  0.575067 -2.345848 2.489355
C  0.612614 1.039402 0.332945
H  1.567252 1.559135 0.452701
O  -0.307603 1.776140 1.104925
H  -1.192865 1.408146 0.958347
C  0.286493 0.988940 -1.186590
H  1.247979 0.884746 -1.707722
O  -0.348094 2.206013 -1.555238
H  -0.238751 2.341986 -2.501413
C  -0.556164 -0.262359 -1.582345
H  -1.316729 0.051132 -2.310607
O  0.246426 -1.311029 -2.121552
H  0.633116 -1.022506 -2.954319
24
74 zpe= -687.182301 src= /lustre/lwork/pjhsu/sugar_opt/pj_sugar/beta_galactose/1S5.xyz:273 moment= 2.406474 0.733557 -0.009485 3.326051 2.581678 1.004107 -0.451008 3.426740 4.143282 1.740096 -0.633354 2.575207 3.905704 1.715533 -0.185208 2.682320
H -2.722474 0.822756 0.761487
O  -2.161540 0.924406 -0.016450
C  -1.586601 -0.354259 -0.295649
H  -2.380606 -1.085955 -0.463763
O  -0.850117 -0.833118 0.794074
C  0.562257 -0.543608 0.844212
H  1.082548 -1.352848 0.307980
C  0.991609 -0.559457 2.306315
H  0.424685 0.187076 2.860871
H  2.054657 -0.282464 2.352535
O  0.760765 -1.800930 2.958690
H  1.196013 -2.502435 2.463477
C  0.915629 0.783771 0.151213
H  1.999538 0.917147 0.209740
O  0.364712 1.905645 0.805930
H  -0.574621 1.958426 0.574054
C  0.528111 0.666784 -1.345640
H  1.342577 0.114905 -1.837070
O  0.428855 1.979019 -1.873974
H  0.284555 1.926509 -2.824218
C  -0.759333 -0.184240 -1.571262
H  -1.394910 0.316076 -2.310847
O  -0.445080 -1.514852 -1.985912
H  -0.061226 -1.488359 -2.867793
24
75 zpe= -687.181347 src= /lustre/lwork/pjhsu/sugar_opt/pj_sugar/beta_galactose/1S5.xyz:274 moment= 2.367205 0.700080 -0.020643 3.890373 2.556144 0.988338 -0.450266 3.539752 3.939753 1.766842 -0.500041 2.274269 3.834795 1.704114 -0.112688 2.654267
H -1.940240 1.425667 -0.471070
O  -2.231246 0.674704 0.067743
C  -1.520608 -0.505587 -0.299171
H  -2.254991 -1.294154 -0.465621
O  -0.717646 -0.952633 0.770182
C  0.683431 -0.583135 0.767765
H  1.217451 -1.279981 0.112925
C  1.167724 -0.785563 2.196735
H  0.624610 -0.115984 2.871297
H  2.231750 -0.543919 2.256286
O  1.038284 -2.141509 2.603016
H  0.113452 -2.387439 2.484862
C  0.862266 0.843467 0.242052
H  1.925989 1.091675 0.237788
O  0.266626 1.803513 1.090334
H  -0.659306 1.560327 1.233934
C  0.347757 0.887641 -1.242519
H  1.210767 0.738522 -1.902345
O  -0.244087 2.169820 -1.472590
H  -0.260158 2.343932 -2.419463
C  -0.687196 -0.232855 -1.552757
H  -1.362310 0.122248 -2.341793
O  -0.077922 -1.459777 -1.936177
H  0.265604 -1.377982 -2.831410
24
76 zpe= -687.179693 src= /lustre/lwork/pjhsu/sugar_opt/pj_sugar/beta_galactose/1S5.xyz:275 moment= 2.390907 0.760730 0.232113 3.955294 2.559889 0.953185 -0.742144 3.627214 4.485155 1.945830 -0.609073 2.293474 3.832183 1.697396 -0.127688 2.653847
H -1.956051 1.246030 -1.002208
O  -2.320800 0.656073 -0.325974
C  -1.639622 -0.599378 -0.340999
H  -2.395944 -1.382272 -0.403840
O  -0.971919 -0.816990 0.879790
C  0.434602 -0.499195 0.935514
H  1.003913 -1.333863 0.513482
C  0.784391 -0.381690 2.411204
H  0.370596 -1.250178 2.935418
H  0.345304 0.530531 2.825071
O  2.211580 -0.357055 2.496862
H  2.464372 -0.063013 3.375921
C  0.736953 0.769497 0.131762
H  1.803707 0.982397 0.205134
O  0.092450 1.904452 0.674100
H  -0.855582 1.719878 0.741870
C  0.383139 0.484792 -1.370155
H  1.300282 0.157909 -1.874938
O  -0.107412 1.695418 -1.956002
H  -0.015438 1.640238 -2.912874
C  -0.677868 -0.642839 -1.531208
H  -1.255117 -0.454489 -2.445921
O  -0.107196 -1.945651 -1.566430
H  0.369658 -2.060604 -2.394579
24
77 zpe= -687.179575 src= /lustre/lwork/pjhsu/sugar_opt/pj_sugar/beta_galactose/1S5.xyz:276 moment= 2.407531 0.747270 0.015802 3.156842 2.588039 0.978258 -0.714283 3.385181 4.212581 1.813983 -0.573551 2.344439 3.681114 1.559183 -0.266861 2.896349
H -3.011117 0.554801 -0.416918
O  -2.366194 0.287773 0.248561
C  -1.532555 -0.763391 -0.269632
H  -2.151719 -1.630804 -0.516399
O  -0.682675 -1.155427 0.756062
C  0.635237 -0.563073 0.811891
H  1.298529 -1.159479 0.169441
C  1.099196 -0.695868 2.261623
H  0.828968 -1.691398 2.629182
H  0.599351 0.051723 2.876497
O  2.499816 -0.451343 2.381658
H  2.977751 -1.219140 2.053081
C  0.636984 0.886271 0.304007
H  1.657518 1.266247 0.384856
O  -0.147092 1.745409 1.098872
H  -1.078976 1.500285 0.989861
C  0.235826 0.857114 -1.196724
H  1.147700 0.615857 -1.760144
O  -0.250586 2.140530 -1.567743
H  -0.154784 2.248197 -2.518909
C  -0.785934 -0.276486 -1.520131
H  -1.526211 0.117650 -2.229656
O  -0.155241 -1.440002 -2.056770
H  0.228205 -1.227446 -2.913568
24
78 zpe= -687.178487 src= /lustre/lwork/pjhsu/sugar_opt/pj_sugar/beta_galactose/1S5.xyz:277 moment= 2.364799 0.710755 0.110737 4.433053 2.536789 0.967559 -0.461246 3.816331 4.190787 1.782853 -0.569475 2.526414 3.886951 1.724455 -0.133489 2.679925
H -1.757792 1.640988 -0.957022
O  -1.992565 1.129987 -0.168949
C  -1.624030 -0.238045 -0.349373
H  -2.538681 -0.832965 -0.412771
O  -0.954203 -0.725633 0.785516
C  0.479288 -0.512614 0.873754
H  0.975656 -1.402571 0.459220
C  0.840948 -0.405474 2.352312
H  0.201530 0.335085 2.829646
H  1.880111 -0.061106 2.435915
O  0.643248 -1.620675 3.065776
H  1.298736 -2.263990 2.778411
C  0.952156 0.700807 0.058848
H  2.044580 0.708226 0.078146
O  0.574812 1.922912 0.655086
H  -0.393133 1.958062 0.684558
C  0.502125 0.521669 -1.434572
H  1.318136 0.039451 -1.981419
O  0.218646 1.814267 -1.977340
H  0.334541 1.780826 -2.932377
C  -0.742541 -0.395011 -1.587087
H  -1.295192 -0.076886 -2.477936
O  -0.368435 -1.753592 -1.782355
H  -0.598943 -2.261717 -0.995985
24
79 zpe= -687.177839 src= /lustre/lwork/pjhsu/sugar_opt/pj_sugar/beta_galactose/1S5.xyz:280 moment= 2.390087 0.721515 -0.095712 3.583413 2.547984 0.981706 -0.440357 3.636057 4.032694 1.680960 -0.615383 2.654291 3.885983 1.698421 -0.191051 2.713558
H -1.923287 1.249615 0.255373
O  -2.475350 0.486254 0.017348
C  -1.625755 -0.593377 -0.246872
H  -2.269586 -1.463035 -0.379913
O  -0.781694 -0.898434 0.860260
C  0.571519 -0.451507 0.820919
H  1.174911 -1.177012 0.249848
C  1.105854 -0.417482 2.250243
H  0.487066 0.237345 2.870100
H  2.127719 -0.008163 2.221447
O  1.088622 -1.674894 2.903246
H  1.400982 -2.352151 2.294240
C  0.704362 0.902253 0.099948
H  1.742150 1.251874 0.149802
O  -0.158816 1.899412 0.652074
H  0.071201 2.046087 1.575056
C  0.323972 0.681340 -1.375267
H  1.210882 0.238630 -1.850264
O  0.029864 1.941614 -1.953348
H  -0.183343 1.817712 -2.883795
C  -0.813574 -0.374714 -1.535120
H  -1.517512 -0.031733 -2.301044
O  -0.270852 -1.654434 -1.882339
H  -0.019335 -1.653195 -2.810944
