24
0 zpe= -687.196461 src= /lustre/lwork/pjhsu/sugar_opt/pj_sugar/beta_galactose/2SO.xyz:0 moment= 2.384880 0.652700 -0.082081 5.100269 2.638273 1.076229 -0.279954 3.072273 3.860482 1.610621 -0.470668 2.653613 3.746655 1.694739 -0.380557 2.212676
H -3.098562 -0.709517 0.692507
O  -2.532926 -0.235618 0.071998
C  -1.378478 -1.017011 -0.171087
H  -1.662173 -2.016955 -0.515117
O  -0.612903 -1.252173 0.991841
C  0.387028 -0.284754 1.379241
H  0.923447 -0.792453 2.181293
C  -0.241788 0.976781 1.996196
H  -0.948685 0.651043 2.761449
H  -0.793467 1.554482 1.249474
O  0.737491 1.770702 2.648616
H  1.294681 2.142431 1.952645
C  1.388698 -0.006104 0.213910
H  2.361932 -0.445331 0.456551
O  1.547915 1.404424 0.047059
H  1.955648 1.536545 -0.820092
C  0.890653 -0.626118 -1.100708
H  1.027469 -1.713443 -1.065496
O  1.674089 -0.071220 -2.151859
H  1.197395 -0.226313 -2.977306
C  -0.586775 -0.308076 -1.274858
H  -0.733836 0.773172 -1.186925
O  -0.974115 -0.747798 -2.577648
H  -1.825736 -0.356699 -2.798683
24
1 zpe= -687.194595 src= /lustre/lwork/pjhsu/sugar_opt/pj_sugar/beta_galactose/2SO.xyz:22 moment= 2.383541 0.655732 -0.133797 4.776384 2.621412 1.068011 -0.310785 3.003013 3.769017 1.656837 -0.272419 2.424805 3.754640 1.683494 -0.383037 2.325914
H -2.617213 -1.783199 0.452692
O  -2.234009 -0.987061 0.068675
C  -0.887514 -1.251859 -0.288305
H  -0.815999 -2.228867 -0.776663
O  -0.030690 -1.344632 0.831880
C  0.654683 -0.151678 1.295985
H  1.349882 -0.560317 2.030107
C  -0.301437 0.778316 2.050922
H  -1.064836 1.189596 1.383895
H  0.262507 1.612778 2.465879
O  -0.897015 0.097440 3.147285
H  -1.342384 -0.680248 2.793936
C  1.456520 0.533593 0.150935
H  2.526966 0.348769 0.299210
O  1.213103 1.934546 0.186060
H  1.512959 2.285457 -0.663678
C  1.056158 -0.038339 -1.221408
H  1.510091 -1.028463 -1.351334
O  1.549568 0.852315 -2.213864
H  1.059639 0.675985 -3.027153
C  -0.458193 -0.167462 -1.278202
H  -0.911997 0.788307 -0.996235
O  -0.821857 -0.504786 -2.616878
H  -1.768932 -0.369191 -2.725739
24
2 zpe= -687.19313 src= /lustre/lwork/pjhsu/sugar_opt/pj_sugar/beta_galactose/2SO.xyz:46 moment= 2.360404 0.615474 -0.211875 13.515681 2.591377 1.023298 -0.446295 3.208396 3.850287 1.491232 -0.787610 3.174076 3.378561 1.366982 -0.419104 3.026112
H -2.595524 -1.956302 0.676696
O  -2.296654 -1.222886 0.127899
C  -0.934475 -1.412680 -0.172716
H  -0.783951 -2.400131 -0.624939
O  -0.103749 -1.422972 0.975513
C  0.602612 -0.234017 1.390383
H  1.305534 -0.636087 2.124338
C  -0.263793 0.769034 2.168930
H  0.415485 1.401787 2.755826
H  -0.876840 0.195943 2.867577
O  -1.148122 1.564160 1.399374
H  -0.579188 2.153324 0.886382
C  1.428237 0.378324 0.214951
H  2.486817 0.133048 0.353796
O  1.296150 1.802488 0.218424
H  1.558899 2.096731 -0.666369
C  0.979141 -0.194598 -1.143713
H  1.431290 -1.184527 -1.281166
O  1.453137 0.690234 -2.153406
H  0.930151 0.522073 -2.948113
C  -0.534995 -0.335131 -1.177233
H  -1.011028 0.605948 -0.888583
O  -0.901281 -0.689957 -2.511646
H  -1.858853 -0.625807 -2.593201
24
3 zpe= -687.193114 src= /lustre/lwork/pjhsu/sugar_opt/pj_sugar/beta_galactose/2SO.xyz:73 moment= 2.354122 0.611792 -0.249740 15.867625 2.571717 1.005629 -0.464941 3.313989 3.767241 1.505766 -0.627835 2.917029 3.450735 1.370431 -0.541932 3.109249
H -2.877468 -1.271265 0.753864
O  -2.404338 -0.560387 0.305933
C  -1.161689 -1.074233 -0.174350
H  -1.344674 -2.015869 -0.699979
O  -0.276845 -1.399428 0.872874
C  0.700552 -0.418395 1.304307
H  1.333939 -1.002291 1.976154
C  0.085981 0.684610 2.180604
H  0.886720 1.360746 2.481700
H  -0.306683 0.192652 3.080971
O  -0.914166 1.483483 1.574433
H  -1.685200 0.925515 1.399460
C  1.580197 0.054228 0.104982
H  2.534826 -0.486285 0.143103
O  1.829079 1.442799 0.220663
H  2.070459 1.755476 -0.662075
C  0.913901 -0.284306 -1.245447
H  1.097068 -1.340748 -1.479039
O  1.517354 0.534275 -2.239209
H  0.923270 0.545272 -3.000503
C  -0.585917 -0.050349 -1.156036
H  -0.771624 0.962389 -0.787806
O  -1.134024 -0.218996 -2.465324
H  -2.009718 0.180109 -2.489281
24
4 zpe= -687.192254 src= /lustre/lwork/pjhsu/sugar_opt/pj_sugar/beta_galactose/2SO.xyz:82 moment= 2.406795 0.697198 0.197369 4.232756 2.670417 1.093347 -0.251039 3.136389 4.283422 1.832043 -0.518636 2.536958 3.806771 1.718737 -0.136411 2.500059
H -2.274425 -1.678960 0.980942
O  -2.149054 -1.009834 0.296849
C  -0.913609 -1.273558 -0.342411
H  -0.969820 -2.207818 -0.911586
O  0.139042 -1.486864 0.569867
C  0.823020 -0.338544 1.107525
H  1.640210 -0.795316 1.667321
C  -0.020292 0.447318 2.110345
H  -0.901015 0.880221 1.630223
H  0.593462 1.263892 2.503172
O  -0.398716 -0.460661 3.147735
H  -0.896016 0.029941 3.808213
C  1.410194 0.545857 -0.035250
H  2.501095 0.438199 -0.050674
O  1.079437 1.912110 0.192334
H  1.236215 2.371017 -0.644391
C  0.866478 0.093815 -1.401860
H  1.342314 -0.851034 -1.689114
O  1.198602 1.109728 -2.342780
H  0.634590 0.977452 -3.115345
C  -0.638578 -0.110543 -1.306100
H  -1.100751 0.801520 -0.915054
O  -1.120817 -0.373229 -2.626064
H  -2.079567 -0.285709 -2.631892
24
5 zpe= -687.192222 src= /lustre/lwork/pjhsu/sugar_opt/pj_sugar/beta_galactose/2SO.xyz:91 moment= 2.360358 0.625676 -0.122463 8.974451 2.617855 1.042937 -0.401417 3.128709 3.830258 1.609371 -0.441678 2.595286 3.715881 1.676486 -0.364992 2.250964
H -2.579852 0.383132 0.225561
O  -2.666618 -0.441084 -0.268804
C  -1.389599 -1.021329 -0.441648
H  -1.588296 -1.964064 -0.954281
O  -0.762891 -1.377361 0.774650
C  0.222092 -0.505534 1.362376
H  0.660802 -1.121311 2.147885
C  -0.441385 0.693133 2.064952
H  -1.231888 0.299056 2.706294
H  -0.896578 1.375292 1.332618
O  0.462659 1.390027 2.899855
H  1.117293 1.796500 2.316227
C  1.346461 -0.119751 0.349489
H  2.276409 -0.627243 0.625172
O  1.559783 1.293442 0.395702
H  2.052614 1.526537 -0.403659
C  0.966742 -0.534905 -1.079738
H  1.082053 -1.619817 -1.189026
O  1.855013 0.140664 -1.963736
H  1.458362 0.122065 -2.843963
C  -0.484214 -0.156309 -1.332431
H  -0.618023 0.906184 -1.090830
O  -0.752128 -0.368862 -2.716138
H  -1.646810 -0.070462 -2.913528
24
6 zpe= -687.192184 src= /lustre/lwork/pjhsu/sugar_opt/pj_sugar/beta_galactose/2SO.xyz:107 moment= 2.349189 0.628629 -0.109368 8.283136 2.592325 1.040451 -0.331288 3.183283 3.826776 1.675645 -0.335401 2.365252 3.734132 1.617910 -0.303576 2.526270
H -2.296962 -0.484271 1.029828
O  -2.346575 -0.976085 0.190286
C  -1.033346 -1.238301 -0.239398
H  -1.056786 -2.206453 -0.746420
O  -0.125658 -1.396271 0.843671
C  0.623388 -0.243955 1.258842
H  1.245027 -0.643709 2.063268
C  -0.269568 0.869711 1.855989
H  -0.677324 1.525359 1.090232
H  0.337190 1.492820 2.518816
O  -1.405285 0.338707 2.545252
H  -1.120293 -0.334691 3.173461
C  1.542941 0.262144 0.108602
H  2.547658 -0.156853 0.237141
O  1.614384 1.679437 0.161864
H  1.868267 1.973838 -0.724556
C  0.994174 -0.212908 -1.256415
H  1.325284 -1.242515 -1.436651
O  1.539451 0.645405 -2.252922
H  0.993185 0.551354 -3.043707
C  -0.526782 -0.185198 -1.244311
H  -0.875219 0.811573 -0.953422
O  -0.970541 -0.472671 -2.569799
H  -1.926607 -0.358469 -2.608648
24
7 zpe= -687.191643 src= /lustre/lwork/pjhsu/sugar_opt/pj_sugar/beta_galactose/2SO.xyz:118 moment= 2.395921 0.676149 0.168918 4.987912 2.629988 1.067213 -0.329155 2.987452 4.217088 1.820451 -0.523231 2.403309 3.849732 1.706332 -0.221470 2.519762
H -3.102151 -0.798819 -0.350551
O  -2.415538 -0.797715 0.327088
C  -1.216652 -1.296422 -0.259231
H  -1.399598 -2.280319 -0.701507
O  -0.286691 -1.521961 0.766989
C  0.554533 -0.441952 1.188885
H  1.279518 -0.930368 1.842035
C  -0.222005 0.556640 2.052825
H  -0.723348 0.001390 2.849468
H  -0.973452 1.092209 1.468679
O  0.753000 1.470398 2.594854
H  0.327436 2.041428 3.241351
C  1.336050 0.210915 -0.002176
H  2.404413 0.000838 0.115102
O  1.148965 1.624346 -0.109326
H  1.306145 2.016604 0.762022
C  0.852592 -0.365013 -1.339028
H  1.214669 -1.388743 -1.458970
O  1.361247 0.375974 -2.442429
H  1.395751 1.301703 -2.161479
C  -0.676100 -0.360561 -1.352256
H  -1.020000 0.661368 -1.149378
O  -1.200968 -0.811000 -2.594880
H  -0.699816 -0.361941 -3.288088
24
8 zpe= -687.191315 src= /lustre/lwork/pjhsu/sugar_opt/pj_sugar/beta_galactose/2SO.xyz:129 moment= 2.366859 0.635851 -0.059317 7.040251 2.623823 1.087210 -0.207508 2.982058 3.831948 1.593143 -0.503850 2.596412 3.574994 1.547988 -0.306747 2.458254
H -2.380826 0.585612 -0.036645
O  -2.495955 -0.348904 -0.247701
C  -1.232823 -0.977023 -0.338162
H  -1.453857 -1.986281 -0.687676
O  -0.606393 -1.156225 0.920318
C  0.363006 -0.192126 1.397143
H  0.827848 -0.728813 2.225326
C  -0.353085 1.024323 1.991982
H  -0.838274 1.617385 1.204805
H  0.371125 1.680694 2.475013
O  -1.284172 0.619477 2.981535
H  -1.776862 -0.132315 2.628331
C  1.447829 0.145301 0.337536
H  2.421994 -0.207438 0.694663
O  1.501917 1.556229 0.147675
H  2.045433 1.706207 -0.637486
C  1.140890 -0.551814 -0.994800
H  1.300270 -1.632091 -0.893017
O  2.032970 -0.014041 -1.963690
H  1.677396 -0.228521 -2.835368
C  -0.312625 -0.285992 -1.359408
H  -0.477896 0.799097 -1.341967
O  -0.524534 -0.782379 -2.679629
H  -1.395377 -0.508361 -2.986776
24
9 zpe= -687.19108 src= /lustre/lwork/pjhsu/sugar_opt/pj_sugar/beta_galactose/2SO.xyz:135 moment= 2.390171 0.670882 0.100177 4.917519 2.617002 1.051639 -0.353861 3.093132 4.108121 1.826595 -0.388343 2.248569 3.850778 1.708410 -0.214776 2.527252
H -3.190340 -0.523408 0.008724
O  -2.442455 -0.561280 0.617028
C  -1.353934 -1.182299 -0.058341
H  -1.652550 -2.171169 -0.419183
O  -0.338500 -1.424979 0.880155
C  0.612473 -0.387283 1.149627
H  1.365587 -0.902409 1.752279
C  0.005681 0.724025 2.019560
H  -0.474906 0.273746 2.891101
H  -0.745480 1.292915 1.476296
O  1.023698 1.664923 2.409218
H  1.530597 1.305023 3.143887
C  1.312336 0.139492 -0.150441
H  2.369901 -0.145749 -0.130491
O  1.214196 1.554102 -0.325865
H  1.487683 1.987133 0.495847
C  0.652859 -0.469749 -1.394503
H  0.927829 -1.522980 -1.486964
O  1.094980 0.169646 -2.586249
H  1.218071 1.105010 -2.369062
C  -0.865268 -0.350352 -1.255393
H  -1.113850 0.704314 -1.082656
O  -1.545986 -0.826839 -2.409150
H  -1.092627 -0.451830 -3.175423
24
10 zpe= -687.190848 src= /lustre/lwork/pjhsu/sugar_opt/pj_sugar/beta_galactose/2SO.xyz:148 moment= 2.383374 0.665006 -0.051550 4.471130 2.637533 1.055458 -0.440510 3.015457 3.919034 1.712354 -0.311291 2.437607 3.668776 1.626201 -0.217701 2.406255
H -2.551493 -2.051246 0.250696
O  -2.164589 -1.176583 0.144526
C  -0.841747 -1.318790 -0.347886
H  -0.754399 -2.242662 -0.925206
O  0.097720 -1.450011 0.698332
C  0.606258 -0.236362 1.298078
H  1.314704 -0.617810 2.033876
C  -0.473347 0.542994 2.065651
H  -1.197028 1.001062 1.386563
H  0.009823 1.347705 2.619581
O  -1.122459 -0.284860 3.016581
H  -1.638792 -0.928551 2.518302
C  1.358498 0.611296 0.231523
H  2.440271 0.467637 0.355693
O  1.045865 1.986606 0.412287
H  1.261913 2.433331 -0.417322
C  0.969773 0.156004 -1.192023
H  1.523052 -0.749158 -1.457542
O  1.266693 1.201785 -2.135457
H  2.098174 1.008303 -2.577948
C  -0.524670 -0.140561 -1.274728
H  -1.087870 0.741569 -0.949330
O  -0.917111 -0.520692 -2.585418
H  -0.719239 0.219997 -3.169828
24
11 zpe= -687.190808 src= /lustre/lwork/pjhsu/sugar_opt/pj_sugar/beta_galactose/2SO.xyz:155 moment= 2.370004 0.637491 -0.137073 6.202915 2.625849 1.047668 -0.328967 3.300636 3.829467 1.554711 -0.580128 2.838359 3.651176 1.498759 -0.437324 2.819230
H -2.636253 -1.952156 0.462543
O  -2.202264 -1.105013 0.321321
C  -0.934038 -1.333249 -0.276966
H  -0.936394 -2.287182 -0.808487
O  0.080601 -1.459213 0.702097
C  0.691379 -0.246912 1.183886
H  1.421797 -0.620013 1.903950
C  -0.295303 0.648743 1.955389
H  -1.007367 1.133753 1.281874
H  0.266818 1.438476 2.456980
O  -0.965915 -0.076802 2.968128
H  -1.558517 -0.691250 2.517982
C  1.423509 0.481139 0.015113
H  2.495385 0.268547 0.054786
O  1.231736 1.908113 0.049554
H  1.950219 2.321042 0.535714
C  0.882844 -0.000539 -1.346319
H  1.353952 -0.952863 -1.600795
O  1.214720 0.902038 -2.391065
H  1.182129 1.789579 -2.004597
C  -0.632815 -0.217760 -1.281412
H  -1.126441 0.707661 -0.957385
O  -1.142872 -0.623329 -2.541619
H  -0.756912 -0.031809 -3.200674
24
12 zpe= -687.190476 src= /lustre/lwork/pjhsu/sugar_opt/pj_sugar/beta_galactose/2SO.xyz:162 moment= 2.362459 0.627232 -0.190398 7.700309 2.623561 1.059870 -0.370456 2.958026 3.770600 1.586759 -0.464713 2.552112 3.652870 1.611751 -0.414271 2.371078
H -3.087351 -0.235368 -0.541944
O  -2.472185 -0.280919 0.199542
C  -1.307437 -0.999011 -0.208353
H  -1.596264 -1.980608 -0.596135
O  -0.540530 -1.250071 0.935744
C  0.410569 -0.245670 1.337110
H  0.870046 -0.698932 2.217025
C  -0.275662 1.053751 1.796830
H  -0.682488 1.610662 0.948136
H  0.466962 1.691733 2.280477
O  -1.274727 0.790645 2.761273
H  -1.981966 0.308581 2.312273
C  1.485664 -0.048994 0.222678
H  2.400908 -0.585517 0.487679
O  1.806933 1.337416 0.003350
H  2.539523 1.595313 0.569116
C  0.975485 -0.592185 -1.128845
H  1.095383 -1.677868 -1.149215
O  1.728704 -0.083031 -2.219539
H  1.981644 0.820317 -1.977958
C  -0.509586 -0.261021 -1.293629
H  -0.651703 0.821946 -1.182088
O  -1.010948 -0.684314 -2.553213
H  -0.369973 -0.405856 -3.220313
24
13 zpe= -687.190223 src= /lustre/lwork/pjhsu/sugar_opt/pj_sugar/beta_galactose/2SO.xyz:189 moment= 2.374273 0.656342 -0.094318 4.961049 2.612221 1.040691 -0.420070 3.103250 3.907899 1.691333 -0.347984 2.471486 3.668198 1.613316 -0.238816 2.455329
H -2.483259 -1.856074 0.434637
O  -1.681417 -1.592569 0.901135
C  -0.613821 -1.486469 -0.038609
H  -0.540274 -2.413223 -0.617243
O  0.583477 -1.382755 0.672523
C  1.013897 -0.063007 1.077346
H  1.965404 -0.270776 1.567000
C  0.080789 0.553470 2.132361
H  -0.876403 0.848036 1.694103
H  0.551272 1.454470 2.526793
O  -0.108734 -0.332038 3.221013
H  -0.609301 -1.088122 2.888772
C  1.250206 0.829883 -0.176647
H  2.328027 0.887409 -0.379227
O  0.749783 2.136925 0.073015
H  0.638148 2.563749 -0.786976
C  0.554574 0.218065 -1.414622
H  1.158971 -0.598577 -1.819412
O  0.364187 1.228652 -2.421418
H  1.061591 1.161001 -3.080252
C  -0.815209 -0.320958 -1.021632
H  -1.383666 0.479326 -0.534089
O  -1.545830 -0.834584 -2.128131
H  -1.641413 -0.119832 -2.768442
24
14 zpe= -687.189807 src= /lustre/lwork/pjhsu/sugar_opt/pj_sugar/beta_galactose/2SO.xyz:207 moment= 2.359262 0.602650 -0.186873 31.846205 2.631957 1.057007 -0.411987 3.003546 3.802850 1.543120 -0.576104 2.835219 3.641474 1.475813 -0.472625 2.954723
H -2.867478 -1.487879 0.627068
O  -2.404214 -0.802275 0.132768
C  -1.102693 -1.275554 -0.192416
H  -1.168761 -2.300851 -0.562566
O  -0.272083 -1.355884 0.952698
C  0.485249 -0.192745 1.347717
H  1.104037 -0.583528 2.160937
C  -0.374814 0.905323 1.994106
H  0.294856 1.684473 2.365947
H  -0.864109 0.446299 2.864645
O  -1.317464 1.547434 1.162889
H  -1.992726 0.896987 0.915845
C  1.436618 0.253135 0.190597
H  2.447274 -0.104133 0.408381
O  1.479978 1.676391 0.021339
H  2.261537 2.027900 0.454655
C  1.004268 -0.361986 -1.157190
H  1.369193 -1.390755 -1.213151
O  1.587335 0.327708 -2.252615
H  1.608836 1.263150 -2.000549
C  -0.520316 -0.384058 -1.290491
H  -0.908300 0.634734 -1.175373
O  -0.911655 -0.930809 -2.540962
H  -0.374569 -0.492075 -3.213280
24
15 zpe= -687.189771 src= /lustre/lwork/pjhsu/sugar_opt/pj_sugar/beta_galactose/2SO.xyz:213 moment= 2.380327 0.635998 -0.118430 6.847190 2.610460 1.043072 -0.342751 3.222203 3.861135 1.547962 -0.658345 2.860697 3.560502 1.466379 -0.398789 2.875875
H -2.889766 -1.497543 0.746563
O  -2.450280 -0.864519 0.168015
C  -1.181480 -1.373293 -0.170627
H  -1.254483 -2.410050 -0.509059
O  -0.306386 -1.431070 0.948575
C  0.377681 -0.224400 1.321980
H  0.996589 -0.529766 2.166890
C  -0.572383 0.861492 1.863891
H  -1.250521 0.379344 2.568717
H  -1.178702 1.311920 1.074087
O  0.144514 1.851155 2.591512
H  0.627793 2.366864 1.936133
C  1.313083 0.231917 0.160033
H  2.341139 -0.060571 0.384909
O  1.272164 1.671919 0.017192
H  2.171815 1.989232 -0.103820
C  0.902939 -0.424280 -1.175504
H  1.316511 -1.434148 -1.217883
O  1.460459 0.265183 -2.290375
H  1.258617 1.202974 -2.168442
C  -0.617147 -0.517576 -1.308891
H  -1.053657 0.488670 -1.242882
O  -0.984497 -1.128036 -2.536429
H  -0.443999 -0.723416 -3.226582
24
16 zpe= -687.189343 src= /lustre/lwork/pjhsu/sugar_opt/pj_sugar/beta_galactose/2SO.xyz:228 moment= 2.364828 0.624334 -0.130217 10.040048 2.609177 1.022938 -0.510386 3.209979 3.874367 1.650920 -0.439083 2.447670 3.626233 1.596946 -0.269902 2.428806
H -3.160668 -0.713440 0.559678
O  -2.524518 -0.231504 0.019392
C  -1.322080 -0.987589 -0.046053
H  -1.563050 -2.033522 -0.252435
O  -0.639670 -1.007113 1.190870
C  0.317988 0.040267 1.476432
H  0.751566 -0.292541 2.422801
C  -0.326268 1.400284 1.789010
H  0.474914 2.087903 2.063929
H  -0.965624 1.250807 2.670359
O  -1.050100 2.019072 0.743619
H  -1.837971 1.484658 0.565491
C  1.447892 0.039209 0.401894
H  2.306667 -0.509351 0.814840
O  1.848387 1.366707 0.118536
H  2.187535 1.373807 -0.786753
C  0.996876 -0.704403 -0.878081
H  1.135898 -1.781159 -0.743237
O  1.770673 -0.255564 -2.005008
H  2.493299 -0.869778 -2.164115
C  -0.470585 -0.440897 -1.195329
H  -0.628889 0.638532 -1.285280
O  -0.880586 -1.116892 -2.376018
H  -0.362687 -0.756494 -3.104544
24
17 zpe= -687.189146 src= /lustre/lwork/pjhsu/sugar_opt/pj_sugar/beta_galactose/2SO.xyz:230 moment= 2.386726 0.662809 -0.077551 4.611690 2.618045 1.049643 -0.334403 3.210893 3.862288 1.621263 -0.493947 2.513532 3.607272 1.562747 -0.290156 2.533029
H -3.020635 -1.207179 -0.469257
O  -2.386639 -1.086506 0.247410
C  -1.091268 -1.385692 -0.251598
H  -1.103349 -2.356090 -0.759472
O  -0.210847 -1.541050 0.824713
C  0.444451 -0.374348 1.357657
H  1.142330 -0.793321 2.083004
C  -0.518145 0.530268 2.146385
H  -1.066638 -0.103773 2.843746
H  -1.245485 1.013378 1.489087
O  0.199710 1.483152 2.918953
H  0.580613 2.112490 2.293979
C  1.266945 0.355367 0.247064
H  2.336891 0.192004 0.424654
O  1.001680 1.758529 0.291630
H  1.282734 2.128168 -0.556332
C  0.904486 -0.191159 -1.147941
H  1.370964 -1.167606 -1.305401
O  1.341459 0.732693 -2.162824
H  2.189894 0.446946 -2.514617
C  -0.607526 -0.326159 -1.257583
H  -1.064570 0.639290 -1.011831
O  -1.031743 -0.754661 -2.545631
H  -0.715313 -0.106741 -3.185793
24
18 zpe= -687.188909 src= /lustre/lwork/pjhsu/sugar_opt/pj_sugar/beta_galactose/2SO.xyz:234 moment= 2.361007 0.631674 -0.210446 7.187784 2.586443 1.036675 -0.341602 3.142276 3.707637 1.659979 -0.373283 2.319257 3.698059 1.603412 -0.311359 2.473503
H -2.884688 -0.777474 -0.150914
O  -2.158516 -1.030847 0.431893
C  -0.964708 -1.169681 -0.332875
H  -1.070697 -2.028684 -1.011863
O  0.069913 -1.517908 0.532598
C  0.808056 -0.446448 1.172650
H  1.564866 -0.996616 1.731389
C  -0.053847 0.315064 2.192530
H  -0.798212 0.943190 1.695982
H  0.595309 0.974310 2.769155
O  -0.666555 -0.575468 3.107224
H  -1.309067 -1.097370 2.610552
C  1.491018 0.457265 0.104641
H  2.559385 0.215813 0.052354
O  1.332827 1.819720 0.474764
H  1.541352 2.343953 -0.310480
C  0.875344 0.208992 -1.290304
H  1.284079 -0.725633 -1.698140
O  1.250080 1.297930 -2.126622
H  0.577651 1.390640 -2.813441
C  -0.639658 0.088128 -1.160211
H  -1.024498 0.978006 -0.658521
O  -1.296873 0.077926 -2.431733
H  -1.083563 -0.743807 -2.891628
24
19 zpe= -687.1888 src= /lustre/lwork/pjhsu/sugar_opt/pj_sugar/beta_galactose/2SO.xyz:239 moment= 2.357008 0.625538 -0.125767 8.994263 2.609131 1.027319 -0.471262 3.138918 3.784929 1.660634 -0.277922 2.423673 3.722236 1.688320 -0.333929 2.271314
H -2.604252 0.066883 0.225323
O  -2.564615 -0.868747 -0.004697
C  -1.234588 -1.245957 -0.247063
H  -1.313035 -2.269248 -0.628802
O  -0.457632 -1.378897 0.931094
C  0.351601 -0.277463 1.384985
H  0.937228 -0.717076 2.192732
C  -0.502098 0.835018 2.019907
H  -1.171695 0.365440 2.742255
H  -1.113400 1.346408 1.263493
O  0.292099 1.767182 2.729081
H  0.817163 2.239361 2.069277
C  1.329423 0.215495 0.273292
H  2.356270 -0.053877 0.541198
O  1.239184 1.637097 0.153316
H  1.653740 1.871310 -0.688975
C  0.982583 -0.435288 -1.073952
H  1.306563 -1.484216 -1.062251
O  1.683999 0.278530 -2.085725
H  1.208041 0.143058 -2.916129
C  -0.528213 -0.362499 -1.290641
H  -0.839110 0.680220 -1.176900
O  -0.874859 -0.697284 -2.633358
H  -0.954397 -1.654450 -2.718459
24
20 zpe= -687.188587 src= /lustre/lwork/pjhsu/sugar_opt/pj_sugar/beta_galactose/2SO.xyz:245 moment= 2.348674 0.621080 -0.080111 9.744121 2.616988 1.049128 -0.291064 3.298573 3.779841 1.594517 -0.451125 2.581033 3.648355 1.625000 -0.350319 2.381422
H -2.648459 -1.889792 0.080203
O  -2.168223 -1.073289 -0.089198
C  -0.793412 -1.374985 -0.276190
H  -0.674470 -2.408925 -0.606110
O  -0.078592 -1.294758 0.944313
C  0.404725 -0.003034 1.361436
H  0.951010 -0.236349 2.275744
C  -0.741528 0.945463 1.755998
H  -1.306548 1.282862 0.874921
H  -0.316216 1.823707 2.245184
O  -1.616366 0.345844 2.687545
H  -2.034657 -0.398440 2.237934
C  1.391154 0.579093 0.300639
H  2.415994 0.478800 0.658717
O  1.252267 1.992086 0.077559
H  0.325331 2.219014 -0.056464
C  1.260648 -0.181563 -1.033892
H  1.776076 -1.142307 -0.953270
O  1.877332 0.526247 -2.100653
H  1.874539 1.463491 -1.856325
C  -0.212619 -0.450197 -1.349573
H  -0.775702 0.495516 -1.345598
O  -0.367267 -1.085835 -2.606050
H  0.202984 -0.614649 -3.227871
24
21 zpe= -687.188577 src= /lustre/lwork/pjhsu/sugar_opt/pj_sugar/beta_galactose/2SO.xyz:249 moment= 2.349898 0.605786 -0.267652 23.341561 2.576319 1.008614 -0.463955 3.292893 3.753161 1.498558 -0.633174 2.924554 3.449091 1.371070 -0.541508 3.088319
H -2.852744 -1.419177 0.460780
O  -2.360441 -0.799725 -0.090607
C  -1.005736 -1.221291 -0.141300
H  -0.974800 -2.289000 -0.394685
O  -0.373814 -1.145492 1.117547
C  0.327711 0.072548 1.480872
H  0.802940 -0.209065 2.423365
C  -0.616175 1.232767 1.833812
H  0.000289 2.074750 2.151139
H  -1.216178 0.903841 2.693540
O  -1.450133 1.709756 0.794786
H  -2.099554 1.023461 0.585715
C  1.450275 0.382367 0.444741
H  2.404823 0.026587 0.854590
O  1.529263 1.777270 0.230081
H  1.952134 1.901315 -0.630994
C  1.206648 -0.379296 -0.877484
H  1.568558 -1.410480 -0.755848
O  1.960469 0.265895 -1.896609
H  1.516002 0.097112 -2.738006
C  -0.280039 -0.409529 -1.221499
H  -0.668611 0.609386 -1.238919
O  -0.494965 -0.922182 -2.536990
H  -0.324920 -1.871821 -2.544027
24
22 zpe= -687.188477 src= /lustre/lwork/pjhsu/sugar_opt/pj_sugar/beta_galactose/2SO.xyz:252 moment= 2.356488 0.610794 -0.225577 16.707622 2.598483 1.028509 -0.437908 3.188336 3.816092 1.474304 -0.787885 3.201924 3.377890 1.363265 -0.438300 3.006978
H -2.588891 -1.842382 0.799100
O  -2.273068 -1.254323 0.103840
C  -0.893250 -1.436522 -0.034966
H  -0.672819 -2.491749 -0.262634
O  -0.174163 -1.210759 1.168057
C  0.397281 0.085228 1.455881
H  1.020371 -0.135607 2.326076
C  -0.619891 1.130577 1.939493
H  -0.058250 1.906475 2.477457
H  -1.279393 0.636837 2.656442
O  -1.447359 1.706480 0.946456
H  -0.858464 2.240374 0.397124
C  1.328522 0.556313 0.296936
H  2.373611 0.436590 0.603515
O  1.101648 1.938889 0.013853
H  1.464017 2.092315 -0.871387
C  1.098021 -0.290874 -0.968714
H  1.621374 -1.249432 -0.848068
O  1.657788 0.420414 -2.067405
H  1.192963 0.125919 -2.862690
C  -0.392443 -0.555438 -1.180135
H  -0.949619 0.381703 -1.170361
O  -0.620231 -1.123099 -2.471263
H  -0.428752 -2.067927 -2.445607
24
23 zpe= -687.188345 src= /lustre/lwork/pjhsu/sugar_opt/pj_sugar/beta_galactose/2SO.xyz:254 moment= 2.379056 0.645918 -0.126481 5.647753 2.625055 1.053976 -0.361941 3.106832 3.769094 1.720775 -0.347447 2.193009 3.756036 1.667650 -0.215700 2.393745
H -2.934616 -1.069685 -0.312642
O  -2.316895 -1.008607 0.426300
C  -1.025836 -1.380338 -0.030299
H  -1.041305 -2.433472 -0.349226
O  -0.135487 -1.353295 1.043454
C  0.519992 -0.110651 1.381309
H  1.255528 -0.420702 2.123604
C  -0.433238 0.872360 2.081917
H  -0.924936 0.333985 2.892941
H  -1.206978 1.232402 1.399226
O  0.288991 1.947192 2.666227
H  0.610574 2.490257 1.935533
C  1.279247 0.485143 0.154199
H  2.358543 0.433424 0.332142
O  0.904523 1.851857 -0.026767
H  1.218268 2.111645 -0.903847
C  0.955241 -0.306409 -1.123396
H  1.461244 -1.280324 -1.080274
O  1.447654 0.446050 -2.228411
H  0.927787 0.202713 -3.005280
C  -0.553409 -0.506459 -1.210074
H  -1.038245 0.470088 -1.158463
O  -0.954559 -1.044868 -2.474557
H  -0.663090 -1.963309 -2.533615
24
24 zpe= -687.188325 src= /lustre/lwork/pjhsu/sugar_opt/pj_sugar/beta_galactose/2SO.xyz:257 moment= 2.349905 0.631478 -0.093059 7.761694 2.603479 1.051632 -0.303330 3.157525 3.857559 1.696421 -0.329318 2.343510 3.709878 1.622549 -0.270701 2.483458
H -2.368948 -0.026686 1.037346
O  -2.448990 -0.642749 0.287117
C  -1.171666 -1.118646 -0.027814
H  -1.287203 -2.180120 -0.285420
O  -0.296928 -1.118103 1.094605
C  0.526178 0.042653 1.299136
H  1.081833 -0.220747 2.202123
C  -0.293613 1.317478 1.597721
H  -0.652715 1.797053 0.689996
H  0.349283 2.040021 2.107824
O  -1.466273 1.035795 2.367244
H  -1.229477 0.530281 3.153069
C  1.523174 0.223263 0.117747
H  2.495772 -0.200685 0.394243
O  1.674903 1.606982 -0.161311
H  1.991559 1.667299 -1.074043
C  0.997810 -0.533326 -1.121566
H  1.256057 -1.595880 -1.020529
O  1.651688 0.009063 -2.263042
H  1.089061 -0.174780 -3.027407
C  -0.521268 -0.396140 -1.226874
H  -0.796250 0.660020 -1.222289
O  -0.983434 -0.885226 -2.486542
H  -1.122555 -1.837820 -2.431332
24
25 zpe= -687.188153 src= /lustre/lwork/pjhsu/sugar_opt/pj_sugar/beta_galactose/2SO.xyz:260 moment= 2.353921 0.597481 -0.273972 86.152341 2.600943 1.040369 -0.379163 3.111838 3.739149 1.556381 -0.486767 2.640602 3.613752 1.555295 -0.390813 2.454835
H -3.158628 -0.112793 -0.344485
O  -2.536977 -0.316477 0.365952
C  -1.391065 -0.953360 -0.215318
H  -1.719448 -1.856130 -0.738573
O  -0.560393 -1.394738 0.821102
C  0.519913 -0.554202 1.275898
H  1.073269 -1.228570 1.935747
C  0.032642 0.588862 2.180785
H  0.903110 1.138326 2.548007
H  -0.451006 0.116000 3.045934
O  -0.824934 1.535555 1.580632
H  -1.655119 1.085470 1.357134
C  1.467881 -0.167626 0.090705
H  2.374947 -0.776521 0.151161
O  1.842264 1.216198 0.093854
H  2.655524 1.332495 0.591448
C  0.801814 -0.440699 -1.274361
H  0.870817 -1.506873 -1.505126
O  1.465697 0.242452 -2.326997
H  1.773645 1.081148 -1.951651
C  -0.670161 -0.039268 -1.211785
H  -0.740323 1.000380 -0.870950
O  -1.323490 -0.195758 -2.465428
H  -0.750977 0.204130 -3.132684
24
26 zpe= -687.188152 src= /lustre/lwork/pjhsu/sugar_opt/pj_sugar/beta_galactose/2SO.xyz:262 moment= 2.353932 0.597456 -0.274178 86.909045 2.600957 1.040386 -0.379180 3.111656 3.739249 1.556389 -0.486811 2.640715 3.613850 1.555339 -0.390819 2.454897
H -3.124620 -0.473163 -0.344690
O  -2.474751 -0.652637 0.346789
C  -1.266377 -1.098092 -0.284008
H  -1.487785 -1.992416 -0.873712
O  -0.375716 -1.510905 0.713778
C  0.598839 -0.580531 1.228687
H  1.238241 -1.229502 1.834007
C  -0.013891 0.422657 2.219187
H  0.787122 1.045996 2.624546
H  -0.425328 -0.169807 3.047239
O  -0.988324 1.298988 1.695324
H  -1.759654 0.768226 1.440150
C  1.478407 0.007575 0.074007
H  2.453674 -0.488315 0.085606
O  1.680986 1.422653 0.181498
H  2.478856 1.600185 0.685878
C  0.834596 -0.241637 -1.306271
H  1.030746 -1.270862 -1.617604
O  1.397542 0.595119 -2.305454
H  1.605621 1.434432 -1.867969
C  -0.674531 -0.029885 -1.209638
H  -0.867291 0.964586 -0.790348
O  -1.318735 -0.170613 -2.469868
H  -0.807626 0.345948 -3.106134
24
27 zpe= -687.188152 src= /lustre/lwork/pjhsu/sugar_opt/pj_sugar/beta_galactose/2SO.xyz:263 moment= 2.353907 0.597501 -0.274082 85.577173 2.600903 1.040340 -0.379178 3.111999 3.739057 1.556382 -0.486645 2.640487 3.613884 1.555370 -0.390802 2.454816
H -3.118290 -0.617259 -0.049634
O  -2.390029 -0.805404 0.556095
C  -1.237048 -1.143653 -0.226760
H  -1.478797 -2.008528 -0.851387
O  -0.226153 -1.571636 0.641569
C  0.753990 -0.625733 1.115857
H  1.484363 -1.277349 1.604058
C  0.205429 0.276762 2.232756
H  1.015450 0.914610 2.595365
H  -0.086736 -0.389353 3.055504
O  -0.859300 1.131626 1.875779
H  -1.628077 0.577857 1.665822
C  1.475799 0.082469 -0.080088
H  2.468875 -0.359595 -0.204770
O  1.622133 1.496553 0.104530
H  2.460953 1.684053 0.533181
C  0.699694 -0.111432 -1.399804
H  0.908769 -1.106423 -1.801063
O  1.112428 0.816994 -2.391321
H  1.326601 1.636435 -1.920385
C  -0.798503 0.012477 -1.131855
H  -0.991026 0.965914 -0.626054
O  -1.567205 -0.080491 -2.324948
H  -1.151319 0.502101 -2.973447
24
28 zpe= -687.188152 src= /lustre/lwork/pjhsu/sugar_opt/pj_sugar/beta_galactose/2SO.xyz:264 moment= 2.353910 0.597474 -0.274141 86.373684 2.600917 1.040366 -0.379109 3.111837 3.739165 1.556379 -0.486727 2.640677 3.613840 1.555344 -0.390812 2.454818
H -2.908992 -1.281501 -0.040671
O  -2.234973 -1.128686 0.633883
C  -0.953710 -1.406319 0.052567
H  -0.945856 -2.441596 -0.300643
O  0.011418 -1.341789 1.064189
C  0.724273 -0.108746 1.291796
H  1.505038 -0.420760 1.991396
C  -0.118588 0.922921 2.058680
H  0.502265 1.799223 2.261454
H  -0.370067 0.463344 3.023840
O  -1.280107 1.387309 1.405169
H  -1.895296 0.641017 1.325467
C  1.429920 0.381895 -0.017465
H  2.497914 0.154025 0.050543
O  1.273960 1.787620 -0.251573
H  2.003171 2.267460 0.149076
C  0.868447 -0.336930 -1.262353
H  1.314313 -1.331950 -1.338903
O  1.205649 0.348100 -2.459224
H  1.198096 1.292135 -2.240425
C  -0.645979 -0.479063 -1.127969
H  -1.079817 0.509844 -0.938765
O  -1.234976 -1.067082 -2.281332
H  -0.868104 -0.609469 -3.048734
24
29 zpe= -687.188152 src= /lustre/lwork/pjhsu/sugar_opt/pj_sugar/beta_galactose/2SO.xyz:265 moment= 2.353910 0.597489 -0.274096 85.910118 2.600916 1.040373 -0.379064 3.111820 3.739042 1.556415 -0.486567 2.640321 3.613931 1.555391 -0.390836 2.454785
H -2.947186 -1.168898 0.234116
O  -2.125334 -1.273082 0.730487
C  -1.042802 -1.326423 -0.208629
H  -1.212265 -2.163776 -0.891814
O  0.130096 -1.635958 0.489614
C  0.987590 -0.571548 0.950208
H  1.875398 -1.118593 1.280242
C  0.442516 0.115968 2.212373
H  1.171926 0.857235 2.548468
H  0.377362 -0.660674 2.986042
O  -0.789579 0.789705 2.071376
H  -1.473199 0.125128 1.890367
C  1.416894 0.356884 -0.235744
H  2.446157 0.115817 -0.518002
O  1.342649 1.752633 0.082882
H  2.185857 2.052452 0.431610
C  0.520900 0.139227 -1.473246
H  0.842908 -0.762467 -2.000493
O  0.637173 1.209442 -2.398762
H  0.767097 2.010543 -1.869154
C  -0.928969 -0.036015 -1.027208
H  -1.214177 0.819054 -0.403129
O  -1.818471 -0.164486 -2.129557
H  -1.595541 0.537829 -2.754045
24
30 zpe= -687.188151 src= /lustre/lwork/pjhsu/sugar_opt/pj_sugar/beta_galactose/2SO.xyz:266 moment= 2.340601 0.611173 -0.129994 14.762133 2.602883 1.036835 -0.394214 3.158340 3.757317 1.577069 -0.443393 2.629644 3.641351 1.617349 -0.367149 2.379280
H -2.635371 -1.605464 -0.507165
O  -1.998167 -1.366862 0.175915
C  -0.681007 -1.415254 -0.375191
H  -0.544559 -2.348864 -0.928270
O  0.226098 -1.465421 0.690575
C  0.656507 -0.220214 1.272717
H  1.373126 -0.547084 2.026292
C  -0.489330 0.487382 2.020662
H  -1.214449 0.925987 1.319038
H  -0.067362 1.294183 2.623564
O  -1.147526 -0.386646 2.909269
H  -1.574893 -1.069048 2.373955
C  1.386171 0.653723 0.204074
H  2.463628 0.603566 0.362709
O  1.098072 2.058391 0.294709
H  0.149935 2.198924 0.393554
C  1.076532 0.142016 -1.219953
H  1.680349 -0.746126 -1.424380
O  1.414639 1.105992 -2.207312
H  1.379502 1.973307 -1.777114
C  -0.400557 -0.238787 -1.323356
H  -1.022811 0.618246 -1.024463
O  -0.760996 -0.643920 -2.634070
H  -0.368532 -0.006032 -3.244761
24
31 zpe= -687.188151 src= /lustre/lwork/pjhsu/sugar_opt/pj_sugar/beta_galactose/2SO.xyz:268 moment= 2.353906 0.597466 -0.274189 86.609209 2.600911 1.040367 -0.379083 3.111831 3.739164 1.556375 -0.486712 2.640711 3.613875 1.555363 -0.390819 2.454810
H -3.049343 -0.852237 0.282509
O  -2.223322 -1.102163 0.715991
C  -1.199111 -1.170657 -0.285475
H  -1.496765 -1.902689 -1.041881
O  -0.039350 -1.684483 0.306096
C  0.957096 -0.779970 0.825052
H  1.789212 -1.455628 1.042901
C  0.555175 -0.180946 2.182433
H  1.381023 0.432539 2.551336
H  0.435576 -1.026834 2.872474
O  -0.594893 0.637097 2.185826
H  -1.359180 0.076938 1.976430
C  1.436619 0.221203 -0.279732
H  2.416453 -0.099882 -0.645783
O  1.540906 1.572375 0.187842
H  2.428320 1.735601 0.517036
C  0.464933 0.243747 -1.478488
H  0.654594 -0.623732 -2.115852
O  0.662452 1.390895 -2.291214
H  0.910142 2.108368 -1.688705
C  -0.973216 0.182138 -0.968896
H  -1.127207 0.988813 -0.242590
O  -1.921861 0.276776 -2.024376
H  -1.648253 1.015735 -2.582936
24
32 zpe= -687.188149 src= /lustre/lwork/pjhsu/sugar_opt/pj_sugar/beta_galactose/2SO.xyz:271 moment= 2.353871 0.597422 -0.274413 87.922882 2.600844 1.040327 -0.379103 3.111914 3.739113 1.556226 -0.486965 2.641185 3.613736 1.555255 -0.390963 2.454821
H -3.094824 -0.722022 -0.048134
O  -2.384806 -0.787651 0.603221
C  -1.194642 -1.207257 -0.078066
H  -1.388351 -2.168883 -0.562189
O  -0.204257 -1.455614 0.879278
C  0.730071 -0.412753 1.225469
H  1.460419 -0.952086 1.835470
C  0.115182 0.637964 2.163916
H  0.892807 1.352967 2.444227
H  -0.187847 0.102926 3.073799
O  -0.959759 1.387514 1.640021
H  -1.704089 0.781150 1.498373
C  1.474768 0.118544 -0.045782
H  2.483761 -0.304153 -0.066169
O  1.574422 1.548060 -0.087007
H  2.391666 1.829847 0.331585
C  0.753130 -0.310360 -1.340857
H  1.005414 -1.348902 -1.570002
O  1.174684 0.461412 -2.455388
H  1.348771 1.352167 -2.115674
C  -0.756752 -0.196736 -1.143512
H  -0.994812 0.818299 -0.804404
O  -1.478556 -0.505944 -2.329415
H  -1.057398 -0.019486 -3.049757
24
33 zpe= -687.188134 src= /lustre/lwork/pjhsu/sugar_opt/pj_sugar/beta_galactose/2SO.xyz:291 moment= 2.340482 0.610953 -0.130821 14.945215 2.602708 1.036813 -0.393839 3.158210 3.757267 1.576896 -0.443476 2.630332 3.641304 1.617278 -0.367252 2.379346
H -2.424688 -1.967930 0.050021
O  -1.678052 -1.657546 0.575279
C  -0.541880 -1.496367 -0.276155
H  -0.412063 -2.389377 -0.894081
O  0.594694 -1.426135 0.538650
C  0.971746 -0.139939 1.066000
H  1.889643 -0.367086 1.608305
C  -0.045950 0.373865 2.101947
H  -0.975019 0.709735 1.617650
H  0.390859 1.224967 2.628548
O  -0.336561 -0.604223 3.074356
H  -0.780194 -1.334150 2.621251
C  1.286441 0.851903 -0.098420
H  2.365842 0.962456 -0.204308
O  0.832222 2.195284 0.132656
H  -0.073700 2.189345 0.460922
C  0.715095 0.323117 -1.432265
H  1.371275 -0.459786 -1.821730
O  0.660275 1.343593 -2.419442
H  0.609035 2.188453 -1.948147
C  -0.672467 -0.275503 -1.200193
H  -1.318733 0.472354 -0.716338
O  -1.280075 -0.708492 -2.406485
H  -1.145746 -0.007540 -3.058022
24
34 zpe= -687.18801 src= /lustre/lwork/pjhsu/sugar_opt/pj_sugar/beta_galactose/2SO.xyz:293 moment= 2.345933 0.605183 -0.000607 24.682786 2.608445 1.064337 -0.277875 3.015973 3.815197 1.574700 -0.532565 2.638631 3.518023 1.578200 -0.187918 2.286152
H -2.275916 0.286240 0.427599
O  -2.437624 -0.594813 0.053129
C  -1.181752 -1.154697 -0.229582
H  -1.383700 -2.157403 -0.608043
O  -0.388317 -1.367694 0.935142
C  0.543875 -0.364910 1.358729
H  1.142005 -0.889472 2.108586
C  -0.132366 0.769336 2.124221
H  0.636966 1.420657 2.546710
H  -0.732238 0.331993 2.927817
O  -0.987089 1.532801 1.241382
H  -1.345578 2.283869 1.725406
C  1.510478 0.109873 0.211241
H  2.517057 -0.247061 0.433574
O  1.655925 1.518562 0.158430
H  0.802248 1.919017 -0.043888
C  1.079055 -0.524400 -1.126198
H  1.297116 -1.600388 -1.068821
O  1.811828 0.066879 -2.180434
H  1.393949 -0.219464 -3.001963
C  -0.423878 -0.361016 -1.313332
H  -0.687466 0.701337 -1.243241
O  -0.747894 -0.838619 -2.619715
H  -1.665683 -0.620627 -2.813749
24
35 zpe= -687.188009 src= /lustre/lwork/pjhsu/sugar_opt/pj_sugar/beta_galactose/2SO.xyz:294 moment= 2.345835 0.605027 -0.001950 25.033020 2.608100 1.064020 -0.278443 3.016956 3.814477 1.574391 -0.532679 2.638179 3.517712 1.577810 -0.188409 2.286483
H -2.097889 -0.641730 0.796496
O  -2.050406 -1.429488 0.230934
C  -0.776110 -1.432593 -0.357972
H  -0.728255 -2.344845 -0.953833
O  0.278916 -1.571633 0.590134
C  0.915407 -0.405517 1.127975
H  1.797494 -0.817110 1.625667
C  0.100352 0.235633 2.247979
H  0.697069 1.023061 2.715375
H  -0.138801 -0.537057 2.984653
O  -1.123551 0.798738 1.720983
H  -1.585550 1.260052 2.428546
C  1.406351 0.600640 0.022116
H  2.497028 0.591844 0.002476
O  1.085218 1.948532 0.319512
H  0.126402 2.048797 0.345583
C  0.914372 0.131434 -1.361750
H  1.468148 -0.782974 -1.618215
O  1.172196 1.142223 -2.315672
H  0.695121 0.893911 -3.117118
C  -0.565574 -0.222236 -1.290130
H  -1.128743 0.638239 -0.908738
O  -1.001443 -0.515506 -2.618190
H  -1.959752 -0.611412 -2.618812
24
36 zpe= -687.187796 src= /lustre/lwork/pjhsu/sugar_opt/pj_sugar/beta_galactose/2SO.xyz:299 moment= 2.366489 0.636533 -0.079966 7.169889 2.588497 1.000756 -0.541411 3.283736 3.852055 1.613785 -0.500199 2.521654 3.582194 1.574194 -0.217592 2.484440
H -2.583017 0.008065 0.452641
O  -2.575272 -0.921391 0.198060
C  -1.292757 -1.291580 -0.235557
H  -1.423478 -2.270467 -0.696466
O  -0.382241 -1.517730 0.833650
C  0.419406 -0.432009 1.320670
H  1.099892 -0.915417 2.022678
C  -0.396418 0.582631 2.142924
H  -0.982623 0.022512 2.872755
H  -1.087637 1.150683 1.506463
O  0.445998 1.463222 2.865854
H  0.880105 2.027356 2.212944
C  1.264790 0.204351 0.173744
H  2.323030 -0.039806 0.324753
O  1.113191 1.626692 0.192452
H  1.426654 1.956926 -0.660471
C  0.816436 -0.341663 -1.191944
H  1.176811 -1.364897 -1.327292
O  1.326182 0.505453 -2.239747
H  2.119072 0.111813 -2.615781
C  -0.706406 -0.330904 -1.287046
H  -1.052609 0.693397 -1.088081
O  -1.160417 -0.758187 -2.559337
H  -0.767691 -0.171049 -3.215867
24
37 zpe= -687.187482 src= /lustre/lwork/pjhsu/sugar_opt/pj_sugar/beta_galactose/2SO.xyz:304 moment= 2.359012 0.622055 -0.219256 10.884920 2.576433 1.004864 -0.481492 3.339434 3.868755 1.629180 -0.491310 2.483389 3.667633 1.611554 -0.319595 2.398400
H -2.838682 -1.300906 -0.472603
O  -2.232307 -1.282053 0.278786
C  -0.897209 -1.373821 -0.229411
H  -0.806328 -2.301741 -0.803852
O  -0.016531 -1.500589 0.847277
C  0.634093 -0.322291 1.377523
H  1.362290 -0.752441 2.069091
C  -0.298062 0.532670 2.251235
H  0.274037 1.383130 2.624225
H  -0.586579 -0.092408 3.106698
O  -1.445144 1.058107 1.611200
H  -2.024720 0.316365 1.380424
C  1.427173 0.423311 0.256912
H  2.487409 0.148476 0.350573
O  1.297161 1.822597 0.429842
H  1.451218 2.230767 -0.432809
C  0.951326 -0.010752 -1.150901
H  1.431234 -0.953077 -1.432067
O  1.276059 1.004861 -2.117050
H  2.085586 0.764283 -2.577128
C  -0.557029 -0.194542 -1.149796
H  -1.021931 0.717617 -0.762146
O  -1.081528 -0.523896 -2.432196
H  -0.872535 0.206333 -3.025831
24
38 zpe= -687.186838 src= /lustre/lwork/pjhsu/sugar_opt/pj_sugar/beta_galactose/2SO.xyz:309 moment= 2.373452 0.634384 -0.157881 6.982367 2.614511 1.052962 -0.295071 3.221359 3.842761 1.554048 -0.637970 2.777062 3.577828 1.480844 -0.384057 2.839387
H -3.165992 -0.929332 -0.418765
O  -2.479573 -0.991320 0.256163
C  -1.249256 -1.279574 -0.391692
H  -1.365804 -2.149919 -1.045612
O  -0.309823 -1.661077 0.578040
C  0.483879 -0.633706 1.189879
H  1.137515 -1.184839 1.867147
C  -0.349543 0.308010 2.081167
H  -1.012728 -0.317252 2.678761
H  -0.975474 0.986145 1.494044
O  0.477986 1.027524 2.986481
H  0.964086 1.667874 2.455075
C  1.365114 0.064161 0.107209
H  2.366751 -0.370763 0.118432
O  1.479716 1.479577 0.389840
H  2.405877 1.729316 0.323235
C  0.766345 -0.119024 -1.308455
H  1.088116 -1.080747 -1.714417
O  1.248052 0.864900 -2.217041
H  1.198843 1.714434 -1.756840
C  -0.758194 -0.098490 -1.242660
H  -1.086851 0.840539 -0.776820
O  -1.351403 -0.229828 -2.527343
H  -0.878638 0.363386 -3.124830
24
39 zpe= -687.185994 src= /lustre/lwork/pjhsu/sugar_opt/pj_sugar/beta_galactose/2SO.xyz:319 moment= 2.346004 0.600047 -0.352034 47.883339 2.550207 0.997282 -0.417637 3.403324 3.660074 1.594632 -0.366743 2.386241 3.633345 1.522842 -0.469051 2.525583
H -2.667717 -1.436852 -0.427334
O  -2.135877 -1.321357 0.370888
C  -0.754624 -1.409668 0.008965
H  -0.553099 -2.440026 -0.318802
O  0.023410 -1.230991 1.151942
C  0.570979 0.078825 1.451950
H  1.259615 -0.145403 2.269365
C  -0.479912 1.030041 2.045246
H  0.004248 1.985065 2.251774
H  -0.803309 0.591291 2.998186
O  -1.597201 1.303234 1.220202
H  -2.114255 0.487978 1.142919
C  1.410379 0.626018 0.255179
H  2.473656 0.472300 0.481087
O  1.163636 2.009416 0.096973
H  1.438148 2.237916 -0.801822
C  1.098975 -0.144889 -1.048950
H  1.658558 -1.091285 -1.040750
O  1.541234 0.651546 -2.143141
H  0.975503 0.455869 -2.900974
C  -0.392579 -0.436975 -1.123714
H  -0.947624 0.494761 -1.002640
O  -0.789248 -0.951349 -2.400562
H  -0.379896 -1.815466 -2.535989
24
40 zpe= -687.185993 src= /lustre/lwork/pjhsu/sugar_opt/pj_sugar/beta_galactose/2SO.xyz:320 moment= 2.345948 0.600008 -0.351898 48.212457 2.550190 0.997263 -0.417690 3.403428 3.659781 1.594494 -0.366661 2.386268 3.633228 1.522701 -0.469218 2.525824
H -2.667968 -1.332100 -0.687283
O  -2.167252 -1.314662 0.138753
C  -0.773907 -1.387894 -0.177310
H  -0.573798 -2.379125 -0.609828
O  -0.040197 -1.351306 1.007597
C  0.512598 -0.092897 1.472667
H  1.164400 -0.418620 2.286140
C  -0.548358 0.805632 2.126946
H  -0.059797 1.722730 2.457676
H  -0.916391 0.269724 3.011547
O  -1.627096 1.189184 1.294577
H  -2.152069 0.397310 1.106950
C  1.407074 0.568128 0.377697
H  2.458181 0.371073 0.625826
O  1.185694 1.964716 0.365152
H  1.500164 2.286574 -0.490924
C  1.138200 -0.047746 -1.015374
H  1.683934 -0.999221 -1.090960
O  1.635451 0.856925 -1.995874
H  1.097843 0.757526 -2.791943
C  -0.352936 -0.302553 -1.179866
H  -0.899477 0.620036 -0.977490
O  -0.704788 -0.665353 -2.520332
H  -0.301506 -1.516084 -2.735345
24
41 zpe= -687.185639 src= /lustre/lwork/pjhsu/sugar_opt/pj_sugar/beta_galactose/2SO.xyz:325 moment= 2.360674 0.604394 -0.154529 27.863383 2.612441 1.052124 -0.291219 3.230154 3.898681 1.538809 -0.710641 3.070687 3.606534 1.492675 -0.348675 2.886314
H -2.457998 -2.287747 0.519988
O  -2.237431 -1.413331 0.181959
C  -0.965487 -1.471677 -0.402179
H  -0.875645 -2.348510 -1.050542
O  0.068946 -1.657688 0.566286
C  0.679769 -0.513685 1.177418
H  1.473243 -0.967987 1.778256
C  -0.204416 0.240174 2.189572
H  0.466854 0.758237 2.888731
H  -0.759753 -0.509019 2.756441
O  -1.157815 1.141902 1.656717
H  -0.659176 1.886311 1.300390
C  1.345422 0.381547 0.084915
H  2.416438 0.171555 0.044185
O  1.180551 1.791483 0.375924
H  2.034985 2.175568 0.587696
C  0.749414 0.094453 -1.311011
H  1.253514 -0.779423 -1.731099
O  1.006835 1.162790 -2.213884
H  0.881081 1.982112 -1.715178
C  -0.749397 -0.214740 -1.245298
H  -1.292291 0.613306 -0.775878
O  -1.257138 -0.473554 -2.546759
H  -0.939505 0.237921 -3.116647
24
42 zpe= -687.185262 src= /lustre/lwork/pjhsu/sugar_opt/pj_sugar/beta_galactose/2SO.xyz:332 moment= 2.353417 0.621514 -0.124884 9.891458 2.589064 1.017715 -0.334950 3.565891 3.799268 1.659477 -0.346765 2.355457 3.798346 1.613477 -0.452131 2.516694
H -1.835830 -1.304414 1.357000
O  -2.038133 -1.639530 0.467541
C  -0.919803 -1.448483 -0.350916
H  -0.911079 -2.269863 -1.069828
O  0.307293 -1.575104 0.381788
C  0.898485 -0.387138 0.910905
H  1.797360 -0.766337 1.406078
C  0.029974 0.307931 1.986014
H  -0.723096 0.960749 1.548347
H  0.674105 0.934275 2.611448
O  -0.694336 -0.628705 2.783019
H  -0.111048 -1.346234 3.056103
C  1.318943 0.572525 -0.240553
H  2.375394 0.428342 -0.478815
O  1.106082 1.950293 0.123607
H  1.953058 2.379278 0.268497
C  0.486318 0.277102 -1.508250
H  0.946574 -0.552775 -2.049791
O  0.495892 1.382475 -2.401354
H  0.444760 2.178842 -1.853228
C  -0.946949 -0.130940 -1.150924
H  -1.421869 0.656965 -0.549847
O  -1.706584 -0.358058 -2.325611
H  -1.526512 0.379802 -2.922230
24
43 zpe= -687.185184 src= /lustre/lwork/pjhsu/sugar_opt/pj_sugar/beta_galactose/2SO.xyz:333 moment= 2.352419 0.613418 -0.238370 15.303273 2.581649 1.003726 -0.515233 3.325226 3.822685 1.582959 -0.526474 2.618833 3.539596 1.513398 -0.306217 2.599549
H -3.095137 -0.242347 -0.613109
O  -2.637498 -0.495116 0.197692
C  -1.398619 -1.072897 -0.157456
H  -1.565812 -2.055310 -0.617114
O  -0.672558 -1.334632 1.014825
C  0.276471 -0.362362 1.488077
H  0.726973 -0.882053 2.336903
C  -0.344716 0.914950 2.086207
H  0.375890 1.317366 2.810299
H  -1.241163 0.612309 2.629388
O  -0.736754 1.926095 1.171304
H  0.086096 2.267850 0.798563
C  1.381250 -0.139478 0.410161
H  2.247819 -0.765318 0.655510
O  1.799635 1.227187 0.413924
H  2.235518 1.380543 -0.436823
C  0.873554 -0.548913 -0.995759
H  1.007561 -1.625575 -1.132224
O  1.630724 0.161981 -1.994473
H  2.194065 -0.454820 -2.469644
C  -0.604210 -0.213333 -1.151261
H  -0.769111 0.842391 -0.918331
O  -1.101020 -0.523733 -2.450604
H  -0.668954 0.067215 -3.077054
24
44 zpe= -687.184783 src= /lustre/lwork/pjhsu/sugar_opt/pj_sugar/beta_galactose/2SO.xyz:341 moment= 2.351400 0.602168 -0.220018 32.730798 2.588963 1.007038 -0.498084 3.252525 3.770539 1.607217 -0.424351 2.510336 3.656704 1.616525 -0.416411 2.358975
H -2.639362 -0.168856 0.444894
O  -2.550228 -1.112004 0.268676
C  -1.255441 -1.398734 -0.188054
H  -1.322277 -2.390969 -0.633002
O  -0.313777 -1.543338 0.875156
C  0.445018 -0.401856 1.282536
H  1.095146 -0.786665 2.069777
C  -0.423936 0.681094 1.954558
H  -1.085548 0.172803 2.657324
H  -1.044433 1.218138 1.224401
O  0.354974 1.596192 2.706459
H  0.868445 2.102031 2.065550
C  1.333584 0.095763 0.102467
H  2.348602 -0.288397 0.223965
O  1.391273 1.542746 0.098664
H  2.299120 1.811100 -0.071355
C  0.780870 -0.398406 -1.252619
H  1.133858 -1.415735 -1.434509
O  1.275708 0.378767 -2.338417
H  1.155372 1.307722 -2.098209
C  -0.749146 -0.411563 -1.252123
H  -1.107885 0.604133 -1.014813
O  -1.262021 -0.814432 -2.508374
H  -0.726918 -0.379531 -3.184952
24
45 zpe= -687.184782 src= /lustre/lwork/pjhsu/sugar_opt/pj_sugar/beta_galactose/2SO.xyz:345 moment= 2.351422 0.602211 -0.219706 32.556551 2.588927 1.007005 -0.498117 3.252667 3.770844 1.607329 -0.424285 2.510604 3.656846 1.616697 -0.416219 2.358785
H -2.559256 0.319346 0.734866
O  -2.692683 -0.593888 0.457837
C  -1.538989 -1.081572 -0.173342
H  -1.859519 -1.979160 -0.701112
O  -0.554229 -1.540409 0.752793
C  0.467408 -0.634114 1.176426
H  1.091183 -1.234272 1.840660
C  -0.080535 0.514906 2.047748
H  -0.766849 0.071738 2.770639
H  -0.636903 1.250305 1.450861
O  0.944436 1.155534 2.788032
H  1.491652 1.619627 2.143482
C  1.326301 -0.190237 -0.046309
H  2.242211 -0.783838 -0.082612
O  1.692312 1.205057 0.082936
H  2.616265 1.301917 -0.166139
C  0.554803 -0.396860 -1.368406
H  0.662102 -1.435618 -1.687885
O  1.100262 0.387268 -2.424656
H  1.205622 1.285868 -2.083243
C  -0.935134 -0.098484 -1.189330
H  -1.042924 0.933331 -0.814673
O  -1.639259 -0.236302 -2.409441
H  -1.090276 0.158855 -3.099133
24
46 zpe= -687.1838 src= /lustre/lwork/pjhsu/sugar_opt/pj_sugar/beta_galactose/2SO.xyz:348 moment= 2.346503 0.588785 -0.281560 -42.529117 2.603494 1.036670 -0.417171 3.107411 3.723605 1.532767 -0.534670 2.684918 3.575513 1.550026 -0.375144 2.351016
H -3.066566 -0.833246 -0.153757
O  -2.427163 -1.092054 0.520623
C  -1.197938 -1.372086 -0.119964
H  -1.263597 -2.328004 -0.652313
O  -0.220205 -1.573550 0.872643
C  0.590682 -0.468456 1.290048
H  1.278388 -0.943387 1.995223
C  -0.143170 0.608286 2.116378
H  0.595927 1.072685 2.782534
H  -0.877691 0.090936 2.734768
O  -0.845489 1.607895 1.392882
H  -0.175946 2.171104 0.987599
C  1.420735 0.057093 0.077304
H  2.407632 -0.410070 0.084383
O  1.604113 1.491517 0.152902
H  2.537936 1.689123 0.260116
C  0.733805 -0.292243 -1.269159
H  1.046691 -1.294316 -1.573079
O  1.150693 0.579986 -2.311839
H  1.231016 1.461071 -1.920190
C  -0.787810 -0.288324 -1.125242
H  -1.121884 0.685560 -0.751860
O  -1.432556 -0.593680 -2.357324
H  -1.039600 -0.026838 -3.032673
24
47 zpe= -687.183793 src= /lustre/lwork/pjhsu/sugar_opt/pj_sugar/beta_galactose/2SO.xyz:349 moment= 2.346640 0.589027 -0.280344 -44.424238 2.603697 1.036766 -0.417227 3.107433 3.723873 1.532881 -0.534613 2.685055 3.575506 1.550320 -0.374464 2.349800
H -2.903569 -1.228388 -0.450360
O  -2.282638 -1.441413 0.256545
C  -0.984563 -1.506945 -0.300624
H  -0.879238 -2.421554 -0.895509
O  -0.060499 -1.647789 0.751977
C  0.558291 -0.477777 1.300743
H  1.254420 -0.906957 2.026676
C  -0.373559 0.427922 2.132581
H  0.245857 0.937258 2.882686
H  -1.070302 -0.226625 2.657640
O  -1.155845 1.374425 1.419942
H  -0.544418 2.049948 1.104492
C  1.389891 0.241441 0.192928
H  2.429405 -0.088008 0.248955
O  1.365863 1.678462 0.371446
H  2.251842 1.990348 0.572232
C  0.854442 -0.097782 -1.222907
H  1.323769 -1.024427 -1.562741
O  1.218673 0.895765 -2.172663
H  1.150871 1.748621 -1.720726
C  -0.659377 -0.307631 -1.200230
H  -1.150884 0.582900 -0.794396
O  -1.167582 -0.605904 -2.496240
H  -0.810848 0.056112 -3.101445
24
48 zpe= -687.183792 src= /lustre/lwork/pjhsu/sugar_opt/pj_sugar/beta_galactose/2SO.xyz:350 moment= 2.346717 0.589104 -0.280283 -45.065582 2.603723 1.036792 -0.417245 3.107115 3.723861 1.532920 -0.534491 2.684923 3.575641 1.550426 -0.374470 2.349535
H -2.959804 -1.075184 -0.480859
O  -2.414246 -1.196630 0.305454
C  -1.089312 -1.459872 -0.112844
H  -1.021661 -2.474261 -0.522670
O  -0.262244 -1.470552 1.026227
C  0.415907 -0.268060 1.409710
H  1.015577 -0.605418 2.259627
C  -0.490691 0.842434 1.980195
H  0.114531 1.435241 2.678777
H  -1.279343 0.349838 2.550244
O  -1.131622 1.695027 1.043175
H  -0.441379 2.253750 0.667573
C  1.387762 0.169862 0.269675
H  2.386974 -0.218983 0.476164
O  1.477893 1.612887 0.185797
H  2.371583 1.890297 0.402390
C  0.930797 -0.385780 -1.104662
H  1.339996 -1.391376 -1.230270
O  1.451084 0.384866 -2.180450
H  1.424682 1.309498 -1.896613
C  -0.593137 -0.475639 -1.179768
H  -1.032319 0.508526 -0.985107
O  -1.028454 -0.970811 -2.441571
H  -0.570575 -0.460658 -3.121194
24
49 zpe= -687.183792 src= /lustre/lwork/pjhsu/sugar_opt/pj_sugar/beta_galactose/2SO.xyz:351 moment= 2.346776 0.589163 -0.279837 -45.576780 2.603738 1.036740 -0.417527 3.107417 3.723945 1.532931 -0.534619 2.684923 3.575871 1.550504 -0.374630 2.349693
H -3.096921 -0.728146 -0.185655
O  -2.466779 -1.015808 0.485791
C  -1.245925 -1.324038 -0.157841
H  -1.343815 -2.263304 -0.714365
O  -0.280229 -1.585357 0.832430
C  0.568829 -0.521323 1.279558
H  1.236568 -1.038627 1.974008
C  -0.128339 0.560060 2.131131
H  0.624969 0.980623 2.810361
H  -0.882985 0.054329 2.734717
O  -0.791873 1.602007 1.431279
H  -0.101182 2.150698 1.041975
C  1.421533 0.004518 0.082672
H  2.391277 -0.497334 0.080936
O  1.655306 1.429302 0.194855
H  2.595127 1.590809 0.309683
C  0.727865 -0.286305 -1.274008
H  1.005645 -1.291136 -1.601975
O  1.180185 0.596013 -2.293286
H  1.290043 1.463689 -1.879477
C  -0.793169 -0.231071 -1.134508
H  -1.093726 0.744572 -0.738134
O  -1.443804 -0.482641 -2.375615
H  -1.028597 0.086471 -3.035535
24
50 zpe= -687.183791 src= /lustre/lwork/pjhsu/sugar_opt/pj_sugar/beta_galactose/2SO.xyz:353 moment= 2.346700 0.589069 -0.280613 -44.781008 2.603661 1.036740 -0.417331 3.107327 3.723887 1.532880 -0.534578 2.685074 3.575835 1.550446 -0.374696 2.349816
H -2.990818 -0.977012 -0.494965
O  -2.461989 -1.096308 0.303035
C  -1.141889 -1.421035 -0.086569
H  -1.106531 -2.449071 -0.465199
O  -0.332287 -1.428325 1.065048
C  0.385053 -0.240830 1.423288
H  0.959195 -0.574411 2.292121
C  -0.487280 0.919369 1.946544
H  0.129431 1.509419 2.637343
H  -1.302603 0.473681 2.517647
O  -1.081200 1.767494 0.975084
H  -0.364559 2.288198 0.594321
C  1.389082 0.125952 0.286110
H  2.369718 -0.293821 0.519376
O  1.535071 1.561394 0.161468
H  2.435877 1.811271 0.382034
C  0.931254 -0.453134 -1.078289
H  1.304225 -1.476488 -1.168047
O  1.495726 0.265074 -2.167911
H  1.499151 1.198197 -1.912087
C  -0.593707 -0.488369 -1.174145
H  -0.998199 0.516863 -1.015204
O  -1.029543 -1.004559 -2.427335
H  -0.543179 -0.532546 -3.114671
24
51 zpe= -687.183791 src= /lustre/lwork/pjhsu/sugar_opt/pj_sugar/beta_galactose/2SO.xyz:354 moment= 2.346740 0.589141 -0.279979 -45.386460 2.603699 1.036718 -0.417506 3.107558 3.723899 1.532884 -0.534663 2.685050 3.575897 1.550471 -0.374722 2.349841
H -3.158041 0.014903 -0.423009
O  -2.670796 -0.326178 0.336546
C  -1.521569 -0.997448 -0.141438
H  -1.809525 -1.950160 -0.600712
O  -0.726544 -1.351118 0.965054
C  0.325916 -0.471713 1.379813
H  0.790953 -1.038918 2.190835
C  -0.140082 0.845751 2.033895
H  0.642374 1.158663 2.737861
H  -1.039156 0.617279 2.607507
O  -0.469685 1.916328 1.161590
H  0.362593 2.228898 0.788367
C  1.367891 -0.324268 0.227197
H  2.179289 -1.039019 0.378954
O  1.940795 1.005646 0.208731
H  2.880124 0.951607 0.401824
C  0.724680 -0.614222 -1.154347
H  0.766424 -1.690059 -1.342093
O  1.455895 -0.004907 -2.210766
H  1.748236 0.857423 -1.883516
C  -0.740552 -0.179992 -1.178352
H  -0.816504 0.882019 -0.922014
O  -1.340909 -0.427325 -2.445359
H  -0.749808 -0.064194 -3.116566
24
52 zpe= -687.183789 src= /lustre/lwork/pjhsu/sugar_opt/pj_sugar/beta_galactose/2SO.xyz:356 moment= 2.346842 0.589235 -0.279584 -46.209074 2.603765 1.036717 -0.417737 3.107487 3.723863 1.532939 -0.534578 2.684667 3.576020 1.550583 -0.374723 2.349622
H -2.810330 -1.399175 -0.555545
O  -2.244355 -1.506138 0.218348
C  -0.902005 -1.570579 -0.222292
H  -0.714866 -2.534443 -0.709610
O  -0.066509 -1.565517 0.910434
C  0.462303 -0.320872 1.384221
H  1.108999 -0.644985 2.204269
C  -0.567790 0.621823 2.040474
H  -0.032488 1.229618 2.781860
H  -1.283484 -0.006738 2.571748
O  -1.319215 1.458186 1.173362
H  -0.707281 2.125397 0.841663
C  1.359157 0.319702 0.279155
H  2.400993 0.042792 0.452730
O  1.269622 1.764936 0.307724
H  2.126537 2.133558 0.536527
C  0.957863 -0.181499 -1.132969
H  1.486698 -1.115855 -1.337263
O  1.366243 0.727909 -2.146970
H  1.225986 1.617623 -1.793538
C  -0.544087 -0.453874 -1.211305
H  -1.099495 0.450284 -0.940510
O  -0.929564 -0.902053 -2.506525
H  -0.545934 -0.289100 -3.145987
24
53 zpe= -687.178537 src= /lustre/lwork/pjhsu/sugar_opt/pj_sugar/beta_galactose/2SO.xyz:357 moment= 2.331583 0.595525 -0.086672 262.551397 2.596513 1.036165 -0.276996 3.436417 3.807335 1.554901 -0.620235 2.662521 3.486941 1.492314 -0.340885 2.473863
H -2.476981 -0.000304 0.003997
O  -2.368363 -0.942710 -0.171527
C  -0.997327 -1.251790 -0.323309
H  -0.987676 -2.284843 -0.672032
O  -0.302030 -1.280236 0.916250
C  0.482635 -0.142653 1.319572
H  1.038886 -0.528344 2.175376
C  -0.435593 0.964106 1.856071
H  -1.001830 1.444063 1.037417
H  0.159816 1.742698 2.335304
O  -1.323431 0.452734 2.828801
H  -1.619645 -0.416551 2.526236
C  1.489533 0.293914 0.214806
H  2.499297 0.016431 0.516577
O  1.576155 1.718614 0.049825
H  0.701272 2.092104 -0.103936
C  1.195737 -0.383119 -1.145798
H  1.518963 -1.427486 -1.103810
O  1.940106 0.230648 -2.173080
H  2.075177 1.154322 -1.920720
C  -0.316724 -0.370657 -1.388211
H  -0.689974 0.665494 -1.299145
O  -0.600522 -0.860520 -2.683028
H  -1.557480 -0.888916 -2.796634
24
54 zpe= -687.178536 src= /lustre/lwork/pjhsu/sugar_opt/pj_sugar/beta_galactose/2SO.xyz:358 moment= 2.331634 0.595585 -0.086467 246.765251 2.596575 1.036199 -0.276989 3.436338 3.807465 1.554999 -0.620079 2.662401 3.486937 1.492288 -0.340914 2.473986
H -2.405099 -0.136369 0.577160
O  -2.340658 -1.009738 0.172405
C  -1.044898 -1.202308 -0.359034
H  -1.117856 -2.131122 -0.925490
O  -0.074488 -1.465102 0.646017
C  0.782982 -0.403177 1.103960
H  1.527235 -0.937078 1.696889
C  0.018169 0.506132 2.075595
H  -0.727519 1.122435 1.541393
H  0.709739 1.191882 2.567340
O  -0.611453 -0.254857 3.085764
H  -0.971268 -1.050733 2.670906
C  1.497499 0.320578 -0.075301
H  2.550315 0.039305 -0.086768
O  1.541248 1.749205 0.072014
H  0.654567 2.098857 0.213847
C  0.888763 -0.055225 -1.447826
H  1.213496 -1.063870 -1.720054
O  1.366604 0.809571 -2.452887
H  1.557671 1.660788 -2.035687
C  -0.637941 -0.072482 -1.324007
H  -0.979996 0.896659 -0.918165
O  -1.221303 -0.279788 -2.594340
H  -2.177808 -0.334562 -2.486732
24
55 zpe= -687.178535 src= /lustre/lwork/pjhsu/sugar_opt/pj_sugar/beta_galactose/2SO.xyz:359 moment= 2.331611 0.595573 -0.086508 249.756553 2.596560 1.036187 -0.277015 3.436341 3.807375 1.554947 -0.620119 2.662486 3.487032 1.492328 -0.340928 2.473972
H -2.435315 0.452542 0.012012
O  -2.503104 -0.505590 -0.078202
C  -1.214162 -1.071981 -0.205832
H  -1.399127 -2.116082 -0.459880
O  -0.511477 -1.117538 1.029061
C  0.474584 -0.111378 1.325594
H  0.968311 -0.515384 2.210785
C  -0.216669 1.187276 1.763225
H  -0.702644 1.688352 0.906499
H  0.519414 1.883404 2.168097
O  -1.162985 0.934260 2.781283
H  -1.618429 0.110754 2.559079
C  1.522018 0.035063 0.182606
H  2.470454 -0.394182 0.504930
O  1.862370 1.399904 -0.110537
H  1.066916 1.911481 -0.295265
C  1.083594 -0.694289 -1.110287
H  1.212613 -1.772270 -0.975209
O  1.906718 -0.319822 -2.191254
H  2.212505 0.582123 -2.023582
C  -0.405927 -0.427336 -1.348024
H  -0.583012 0.663324 -1.351613
O  -0.799210 -0.969312 -2.592433
H  -1.747437 -0.832318 -2.700056
24
56 zpe= -687.178535 src= /lustre/lwork/pjhsu/sugar_opt/pj_sugar/beta_galactose/2SO.xyz:360 moment= 2.331615 0.595582 -0.086281 247.521844 2.596579 1.036196 -0.277002 3.436432 3.807463 1.554962 -0.620143 2.662653 3.486966 1.492267 -0.340914 2.474214
H -2.272211 -0.905592 0.389890
O  -1.912345 -1.693832 -0.034276
C  -0.590609 -1.447438 -0.471237
H  -0.333124 -2.322988 -1.067878
O  0.347841 -1.446714 0.596516
C  0.798600 -0.195687 1.148318
H  1.633751 -0.501388 1.780460
C  -0.272388 0.380482 2.084712
H  -1.138324 0.761166 1.513389
H  0.137003 1.221072 2.646964
O  -0.694278 -0.588808 3.021998
H  -0.759669 -1.434843 2.558414
C  1.323121 0.773145 0.047787
H  2.409555 0.833884 0.108222
O  0.907335 2.135235 0.238848
H  -0.051485 2.184514 0.321446
C  0.950863 0.297168 -1.377177
H  1.591799 -0.545597 -1.652620
O  1.196165 1.317506 -2.317962
H  1.084519 2.163633 -1.863285
C  -0.498157 -0.199616 -1.370081
H  -1.151640 0.593396 -0.963923
O  -0.905643 -0.513214 -2.686316
H  -1.801677 -0.867484 -2.653209
24
57 zpe= -687.178535 src= /lustre/lwork/pjhsu/sugar_opt/pj_sugar/beta_galactose/2SO.xyz:361 moment= 2.331682 0.595610 -0.086189 240.481416 2.596657 1.036217 -0.277115 3.436499 3.807655 1.555111 -0.620007 2.662275 3.486923 1.492246 -0.340934 2.474285
H -2.418724 -0.386688 0.366942
O  -2.203098 -1.289125 0.102621
C  -0.842997 -1.371048 -0.274212
H  -0.738659 -2.367862 -0.703600
O  0.035968 -1.363042 0.842975
C  0.700544 -0.142375 1.218253
H  1.435072 -0.485851 1.948347
C  -0.272582 0.773768 1.972951
H  -1.025283 1.205470 1.288586
H  0.270766 1.607145 2.420798
O  -0.910529 0.074071 3.021435
H  -1.123970 -0.810787 2.695206
C  1.445902 0.510193 0.016791
H  2.520141 0.376896 0.142992
O  1.297302 1.938207 -0.041726
H  0.364183 2.178690 -0.035010
C  1.042703 -0.123526 -1.336515
H  1.517271 -1.105006 -1.428365
O  1.517698 0.658496 -2.408553
H  1.556899 1.575196 -2.103145
C  -0.474502 -0.333954 -1.352088
H  -0.975865 0.624178 -1.125022
O  -0.884321 -0.785922 -2.626758
H  -1.832919 -0.956124 -2.600903
24
58 zpe= -687.178533 src= /lustre/lwork/pjhsu/sugar_opt/pj_sugar/beta_galactose/2SO.xyz:362 moment= 2.331652 0.595646 -0.086558 232.368208 2.596527 1.036148 -0.277112 3.436479 3.807294 1.554936 -0.620123 2.662310 3.486891 1.492211 -0.341085 2.473951
H -2.353315 -0.603015 0.484252
O  -2.084068 -1.469749 0.157068
C  -0.747091 -1.420584 -0.299493
H  -0.590043 -2.383020 -0.787353
O  0.194299 -1.394821 0.765322
C  0.782269 -0.143634 1.166869
H  1.584600 -0.460946 1.834834
C  -0.212375 0.651823 2.023547
H  -1.037190 1.053157 1.407176
H  0.289780 1.504106 2.483730
O  -0.727939 -0.148244 3.067592
H  -0.888519 -1.031166 2.707588
C  1.399436 0.625474 -0.038284
H  2.486520 0.574540 0.019465
O  1.135397 2.037617 -0.011898
H  0.188384 2.200240 0.060887
C  0.965925 0.027549 -1.398575
H  1.509625 -0.906393 -1.569251
O  1.312378 0.896738 -2.452425
H  1.296656 1.797791 -2.101757
C  -0.528158 -0.304897 -1.339053
H  -1.088539 0.596620 -1.032219
O  -0.978690 -0.725576 -2.610663
H  -1.907340 -0.974610 -2.539358
24
59 zpe= -687.178532 src= /lustre/lwork/pjhsu/sugar_opt/pj_sugar/beta_galactose/2SO.xyz:363 moment= 2.331681 0.595699 -0.086302 221.185429 2.596548 1.036154 -0.277133 3.436530 3.807341 1.554972 -0.620031 2.662363 3.486931 1.492204 -0.341100 2.474079
H -2.285145 -0.864784 0.407295
O  -1.921075 -1.683715 0.050113
C  -0.588746 -1.476082 -0.374428
H  -0.323255 -2.394827 -0.898244
O  0.325813 -1.398958 0.710990
C  0.772363 -0.112121 1.176866
H  1.591805 -0.373121 1.848420
C  -0.314900 0.537402 2.043989
H  -1.166578 0.876893 1.426990
H  0.086871 1.416615 2.549814
O  -0.761358 -0.356593 3.042681
H  -0.822892 -1.234834 2.642907
C  1.326341 0.768863 0.018508
H  2.411581 0.829068 0.098028
O  0.915019 2.143296 0.097600
H  -0.045020 2.203066 0.155367
C  0.982022 0.188813 -1.374624
H  1.623609 -0.675192 -1.571736
O  1.253929 1.134311 -2.383679
H  1.137730 2.012762 -1.996464
C  -0.469785 -0.299521 -1.361844
H  -1.126927 0.524595 -1.030297
O  -0.851342 -0.709140 -2.659330
H  -1.750056 -1.055795 -2.618920
24
60 zpe= -687.178196 src= /lustre/lwork/pjhsu/sugar_opt/pj_sugar/beta_galactose/2SO.xyz:364 moment= 2.329451 0.603073 -0.079274 30.030489 2.578032 1.015110 -0.303726 3.600958 3.806211 1.524837 -0.696435 2.808639 3.464531 1.477672 -0.346233 2.472621
H -2.095136 -0.815931 1.194309
O  -2.187412 -1.266474 0.337996
C  -0.914983 -1.350299 -0.260307
H  -0.891374 -2.294387 -0.809419
O  0.128432 -1.449674 0.704083
C  0.798651 -0.245376 1.077293
H  1.570101 -0.597222 1.766773
C  -0.116892 0.718855 1.871736
H  -0.731587 1.346990 1.222548
H  0.505635 1.381262 2.481333
O  -1.065917 0.023519 2.676718
H  -0.624625 -0.686121 3.158379
C  1.492211 0.402361 -0.159386
H  2.542604 0.112485 -0.177853
O  1.546254 1.834914 -0.089663
H  0.656555 2.199627 -0.023812
C  0.836918 -0.065669 -1.487846
H  1.231706 -1.053941 -1.743349
O  1.186780 0.799681 -2.547318
H  1.441559 1.648489 -2.161447
C  -0.673351 -0.213884 -1.280728
H  -1.096758 0.724626 -0.891220
O  -1.297328 -0.532039 -2.510094
H  -2.244042 -0.619794 -2.349724
24
61 zpe= -687.177628 src= /lustre/lwork/pjhsu/sugar_opt/pj_sugar/beta_galactose/2SO.xyz:365 moment= 2.346746 0.618056 -0.022411 11.517800 2.587458 1.031835 -0.341409 3.205576 3.865993 1.641065 -0.430802 2.571443 3.701164 1.677436 -0.348836 2.230236
H -2.358257 -0.654674 0.945787
O  -2.280164 -1.446925 0.400707
C  -1.007605 -1.477191 -0.214564
H  -0.996094 -2.424755 -0.755858
O  0.054296 -1.563566 0.714296
C  0.849211 -0.416649 1.052025
H  1.749430 -0.854799 1.485797
C  0.188847 0.402024 2.174253
H  -0.099653 -0.292295 2.964292
H  -0.734095 0.894970 1.822691
O  1.078867 1.338515 2.750608
H  1.335610 1.959954 2.056999
C  1.275005 0.421856 -0.195744
H  2.359366 0.402315 -0.296762
O  0.986544 1.832108 -0.058705
H  0.032235 1.966954 -0.016385
C  0.649817 -0.112961 -1.496910
H  1.101518 -1.078060 -1.743457
O  0.926977 0.744788 -2.581979
H  0.948557 1.651473 -2.250260
C  -0.844555 -0.339410 -1.241440
H  -1.292373 0.582695 -0.826529
O  -1.501588 -0.667308 -2.447205
H  -2.421894 -0.871059 -2.242656
