24
0 zpe= -687.205344 src= /lustre/lwork/pjhsu/sugar_opt/pj_sugar/beta_galactose/4C1.xyz:0 moment= 2.458668 0.770204 -0.066632 2.377267 2.652415 1.109806 -0.168317 2.937857 4.004248 1.847077 -0.387435 2.196867 3.885147 1.764218 -0.153171 2.364165
H -2.028341 -2.691128 0.054784
O  -2.084382 -1.864200 -0.436526
C  -0.827757 -1.254398 -0.454502
H  -0.063779 -1.940235 -0.858503
O  -0.474990 -0.882101 0.866576
C  0.801711 -0.226707 0.952852
H  1.575763 -0.912874 0.575644
C  1.053672 0.020732 2.434645
H  0.276958 0.683987 2.825806
H  2.021834 0.509203 2.562305
O  1.114838 -1.198306 3.164049
H  0.261341 -1.633558 3.061446
C  0.847793 1.048951 0.103211
H  1.892331 1.391341 0.063471
O  0.031309 2.047681 0.694209
H  -0.088559 2.739051 0.030311
C  0.390845 0.738468 -1.327236
H  1.144976 0.101002 -1.810460
O  0.293990 1.978417 -2.021234
H  -0.163866 1.813499 -2.854441
C  -0.938827 -0.006932 -1.328889
H  -1.719857 0.628346 -0.896255
O  -1.232192 -0.322197 -2.687077
H  -2.085811 -0.769045 -2.714185
24
1 zpe= -687.204938 src= /lustre/lwork/pjhsu/sugar_opt/pj_sugar/beta_galactose/4C1.xyz:4 moment= 2.445369 0.751446 -0.069161 2.600899 2.646193 1.101034 -0.186087 2.976100 4.007610 1.846473 -0.399305 2.191045 3.874179 1.743981 -0.164403 2.436929
H -2.946620 -0.594119 -0.258931
O  -2.459395 -1.379408 -0.541544
C  -1.094113 -1.105693 -0.391028
H  -0.584103 -2.077008 -0.445019
O  -0.897454 -0.495458 0.869323
C  0.477774 -0.197792 1.172811
H  1.043527 -1.141472 1.175538
C  0.482039 0.371409 2.585235
H  -0.116789 1.286990 2.606268
H  1.504914 0.622229 2.873515
O  0.015536 -0.580557 3.531175
H  -0.872536 -0.841664 3.261995
C  1.110616 0.728350 0.129364
H  2.192510 0.766124 0.322202
O  0.550321 2.028366 0.239865
H  0.825742 2.518592 -0.545523
C  0.890699 0.150882 -1.273078
H  1.469373 -0.778510 -1.370865
O  1.364319 1.114931 -2.209071
H  1.077759 0.839724 -3.088234
C  -0.581507 -0.173462 -1.495821
H  -1.163757 0.756535 -1.451355
O  -0.686220 -0.773320 -2.782864
H  -1.601632 -1.045672 -2.916960
24
2 zpe= -687.204041 src= /lustre/lwork/pjhsu/sugar_opt/pj_sugar/beta_galactose/4C1.xyz:15 moment= 2.454303 0.770927 -0.022453 2.446271 2.622094 1.085642 -0.162404 3.165407 4.012883 1.836045 -0.150826 2.323155 3.910370 1.875311 -0.239139 1.997955
H -2.900704 -1.993652 0.182756
O  -2.675568 -1.267183 -0.409276
C  -1.289627 -1.090693 -0.404612
H  -0.775665 -2.005895 -0.746075
O  -0.873021 -0.775197 0.910554
C  0.537289 -0.555603 1.038351
H  1.075023 -1.479992 0.778004
C  0.761580 -0.219149 2.520342
H  0.633164 -1.122499 3.118342
H  -0.001011 0.504645 2.819810
O  2.071522 0.265979 2.775946
H  2.096757 1.184337 2.482675
C  1.049472 0.547515 0.102460
H  2.144450 0.481717 0.077025
O  0.660439 1.818312 0.616282
H  0.773620 2.455953 -0.101085
C  0.526200 0.338283 -1.322160
H  1.029204 -0.537964 -1.755264
O  0.862783 1.503387 -2.070857
H  0.394164 1.457039 -2.913067
C  -0.974347 0.077419 -1.335978
H  -1.510556 0.954196 -0.954995
O  -1.332580 -0.191066 -2.688486
H  -2.282584 -0.350887 -2.721691
24
3 zpe= -687.203917 src= /lustre/lwork/pjhsu/sugar_opt/pj_sugar/beta_galactose/4C1.xyz:19 moment= 2.436940 0.740293 -0.090818 2.632520 2.625915 1.084431 -0.186720 3.136127 3.979708 1.783709 -0.239559 2.318842 3.790922 1.758946 -0.216502 2.081583
H -3.208169 -1.219216 0.167550
O  -2.665889 -1.010404 -0.601682
C  -1.322710 -1.005139 -0.219177
H  -1.003330 -2.010600 0.108525
O  -1.153877 -0.087667 0.844403
C  0.193962 0.008591 1.307796
H  0.529632 -0.982799 1.658141
C  0.223280 0.940641 2.522335
H  1.262067 0.969488 2.887824
H  -0.392636 0.500430 3.310046
O  -0.281565 2.238540 2.295738
H  0.079712 2.553351 1.456079
C  1.160667 0.420813 0.185174
H  2.186243 0.282392 0.554152
O  0.957864 1.792264 -0.148634
H  1.398390 1.951224 -0.994036
C  0.964215 -0.468389 -1.046437
H  1.322335 -1.481068 -0.813355
O  1.748676 0.089035 -2.097627
H  1.493973 -0.348623 -2.918998
C  -0.507335 -0.556910 -1.430668
H  -0.876146 0.433067 -1.722331
O  -0.593494 -1.473393 -2.517301
H  -1.516863 -1.533628 -2.787514
24
4 zpe= -687.203703 src= /lustre/lwork/pjhsu/sugar_opt/pj_sugar/beta_galactose/4C1.xyz:30 moment= 2.411808 0.711588 -0.104143 3.113257 2.607113 1.057038 -0.268353 3.190948 3.915548 1.779719 -0.159197 2.315438 3.813649 1.722003 -0.300616 2.218160
H -2.976054 -1.274104 -1.145190
O  -2.641021 -1.253575 -0.239699
C  -1.254196 -1.106546 -0.318468
H  -0.773660 -2.084666 -0.500029
O  -0.845480 -0.621374 0.946384
C  0.569753 -0.483202 1.064187
H  1.053001 -1.462630 0.912236
C  0.822256 -0.052681 2.506913
H  1.889090 0.110822 2.671023
H  0.482218 -0.842091 3.184640
O  0.170990 1.183587 2.814029
H  -0.779737 1.033007 2.734107
C  1.155965 0.478896 0.011796
H  2.251797 0.399550 0.059210
O  0.771428 1.841017 0.179820
H  0.601543 2.009380 1.120480
C  0.685299 0.071665 -1.390603
H  1.158027 -0.873337 -1.677596
O  1.076745 1.020556 -2.375775
H  0.952467 1.895796 -1.981859
C  -0.833874 -0.115032 -1.402225
H  -1.318609 0.843685 -1.180512
O  -1.293875 -0.634257 -2.645660
H  -0.924074 -0.084471 -3.347210
24
5 zpe= -687.203598 src= /lustre/lwork/pjhsu/sugar_opt/pj_sugar/beta_galactose/4C1.xyz:47 moment= 2.424016 0.717123 -0.127352 2.954001 2.612655 1.058434 -0.294707 3.127871 3.952505 1.779165 -0.228098 2.284332 3.786133 1.752041 -0.226634 2.086209
H -2.994800 -0.706794 0.144391
O  -2.576711 -1.406790 -0.374685
C  -1.194291 -1.178608 -0.340671
H  -0.718162 -2.148061 -0.547443
O  -0.859371 -0.704925 0.945483
C  0.534786 -0.458912 1.146829
H  1.085003 -1.406600 1.023284
C  0.734211 -0.015609 2.599152
H  1.815889 0.119119 2.756113
H  0.400778 -0.823182 3.254305
O  0.008544 1.134230 2.978177
H  0.132809 1.800294 2.288665
C  1.117506 0.518840 0.112847
H  2.212006 0.486532 0.199808
O  0.659964 1.843763 0.381901
H  0.864926 2.380805 -0.395081
C  0.727243 0.096568 -1.306030
H  1.248934 -0.837832 -1.556507
O  1.149646 1.135372 -2.186111
H  0.749797 0.972491 -3.049059
C  -0.772304 -0.149705 -1.396221
H  -1.307678 0.786085 -1.188927
O  -1.042522 -0.603807 -2.717720
H  -1.978202 -0.832273 -2.771500
24
6 zpe= -687.203368 src= /lustre/lwork/pjhsu/sugar_opt/pj_sugar/beta_galactose/4C1.xyz:61 moment= 2.441243 0.748882 -0.059690 2.653718 2.608354 1.058476 -0.276629 3.149251 3.986084 1.834974 -0.133523 2.289090 3.900277 1.862940 -0.251733 2.008234
H -2.666541 -1.653910 -0.399683
O  -1.964310 -2.157407 -0.832296
C  -0.756887 -1.490914 -0.583797
H  0.038712 -2.227901 -0.760609
O  -0.762009 -1.050166 0.757805
C  0.438702 -0.386878 1.177463
H  1.275472 -1.099016 1.129457
C  0.184726 0.022279 2.636308
H  0.196422 -0.867873 3.266466
H  -0.810550 0.471664 2.692550
O  1.182533 0.900053 3.135667
H  0.997906 1.775806 2.776763
C  0.804191 0.807053 0.286582
H  1.838130 1.091222 0.518152
O  -0.067385 1.897126 0.578539
H  0.034066 2.534871 -0.140491
C  0.732557 0.419906 -1.192951
H  1.556974 -0.271748 -1.416813
O  0.889598 1.617561 -1.950419
H  0.683980 1.414421 -2.870905
C  -0.578748 -0.284297 -1.512400
H  -1.415208 0.405423 -1.336644
O  -0.522772 -0.671504 -2.880973
H  -1.308558 -1.194770 -3.078770
24
7 zpe= -687.203325 src= /lustre/lwork/pjhsu/sugar_opt/pj_sugar/beta_galactose/4C1.xyz:67 moment= 2.406058 0.694682 -0.170235 3.478518 2.598764 1.037518 -0.368209 3.164113 3.908421 1.775505 -0.175805 2.320902 3.796231 1.702991 -0.313213 2.262638
H -3.124488 -0.373667 0.348241
O  -2.719692 -1.223919 0.140597
C  -1.406105 -1.022998 -0.245953
H  -1.090032 -1.945516 -0.749346
O  -0.613495 -0.835803 0.937754
C  0.787675 -0.737610 0.693421
H  1.142548 -1.650777 0.186486
C  1.454222 -0.680766 2.065420
H  2.535587 -0.578265 1.954949
H  1.245977 -1.608543 2.607547
O  1.017785 0.450348 2.826173
H  0.076330 0.329602 3.001881
C  1.132036 0.450626 -0.221244
H  2.195440 0.376151 -0.491770
O  0.874201 1.729781 0.353424
H  1.008776 1.676253 1.312790
C  0.285970 0.372773 -1.493503
H  0.610382 -0.481274 -2.097303
O  0.461803 1.520067 -2.317446
H  0.493329 2.285322 -1.726100
C  -1.202356 0.188563 -1.160467
H  -1.547125 1.077648 -0.610010
O  -1.959338 0.005530 -2.343873
H  -1.659431 0.674470 -2.972667
24
8 zpe= -687.203076 src= /lustre/lwork/pjhsu/sugar_opt/pj_sugar/beta_galactose/4C1.xyz:86 moment= 2.481926 0.830727 0.177287 2.598365 2.658329 1.104579 -0.223077 2.974178 4.531376 2.047073 -0.414733 2.220091 4.043554 1.898701 -0.011810 2.442146
H -3.040301 -1.742063 -0.067238
O  -2.660554 -1.142628 -0.719351
C  -1.286994 -1.032247 -0.487268
H  -0.795490 -2.017742 -0.564096
O  -1.083041 -0.507497 0.811998
C  0.300184 -0.334674 1.138288
H  0.813355 -1.307678 1.088323
C  0.344063 0.153324 2.580505
H  -0.294646 -0.497955 3.187367
H  -0.039852 1.175148 2.624591
O  1.703661 0.081539 3.013185
H  1.840528 0.719424 3.718022
C  1.007705 0.611542 0.158801
H  2.083139 0.568573 0.370139
O  0.524700 1.934765 0.348491
H  0.833216 2.453606 -0.405018
C  0.764366 0.142211 -1.279381
H  1.288064 -0.811723 -1.435345
O  1.302756 1.132917 -2.151134
H  0.997447 0.933794 -3.044437
C  -0.721919 -0.076785 -1.536521
H  -1.257852 0.873688 -1.437516
O  -0.843187 -0.594905 -2.859109
H  -1.780349 -0.713636 -3.050292
24
9 zpe= -687.202998 src= /lustre/lwork/pjhsu/sugar_opt/pj_sugar/beta_galactose/4C1.xyz:94 moment= 2.418589 0.711402 -0.130788 3.253411 2.608820 1.066359 -0.225606 3.109793 3.946952 1.784295 -0.222856 2.306035 3.785067 1.694576 -0.303528 2.298381
H -2.364314 -2.546416 0.137678
O  -2.194126 -1.853109 -0.508888
C  -0.879936 -1.428831 -0.378161
H  -0.181731 -2.281441 -0.351345
O  -0.775464 -0.716424 0.863446
C  0.510179 -0.158951 1.129426
H  1.268010 -0.959596 1.168758
C  0.412946 0.463065 2.520254
H  1.355966 0.945567 2.784516
H  0.206778 -0.322013 3.255405
O  -0.591862 1.479071 2.580179
H  -1.437413 1.055451 2.384335
C  0.946592 0.824431 0.030257
H  1.995981 1.096246 0.217400
O  0.155229 2.006095 -0.054814
H  -0.168593 2.234522 0.830296
C  0.846174 0.137591 -1.332296
H  1.606110 -0.648261 -1.398567
O  1.128279 1.038101 -2.397951
H  0.677836 1.867923 -2.186934
C  -0.531911 -0.508748 -1.545059
H  -1.300070 0.273641 -1.583883
O  -0.526716 -1.279550 -2.735610
H  -0.156945 -0.718364 -3.428442
24
10 zpe= -687.20258 src= /lustre/lwork/pjhsu/sugar_opt/pj_sugar/beta_galactose/4C1.xyz:111 moment= 2.488476 0.832919 0.198905 2.720989 2.671010 1.113623 -0.220762 2.898075 4.623927 2.026057 -0.540587 2.425666 3.911433 1.816325 -0.026311 2.498386
H -3.112761 -1.284377 0.287805
O  -2.700464 -0.890607 -0.489597
C  -1.314171 -0.895712 -0.310901
H  -0.935030 -1.928097 -0.214863
O  -1.001778 -0.166805 0.858890
C  0.401652 -0.120805 1.135656
H  0.779838 -1.148304 1.255054
C  0.588725 0.603377 2.456521
H  -0.009782 1.517935 2.443273
H  1.645253 0.879247 2.565099
O  0.189763 -0.276321 3.507743
H  -0.011544 0.245064 4.289261
C  1.182662 0.535963 -0.010891
H  2.255162 0.374034 0.170822
O  0.900877 1.927090 -0.037937
H  1.215384 2.259161 -0.888744
C  0.818400 -0.130122 -1.343002
H  1.221179 -1.152977 -1.348267
O  1.430901 0.631959 -2.379778
H  1.061055 0.333878 -3.219595
C  -0.692379 -0.210646 -1.526217
H  -1.113301 0.799594 -1.581875
O  -0.923256 -0.925859 -2.737431
H  -1.875381 -0.975671 -2.879024
24
11 zpe= -687.20253 src= /lustre/lwork/pjhsu/sugar_opt/pj_sugar/beta_galactose/4C1.xyz:114 moment= 2.470077 0.814215 0.186463 2.825385 2.644710 1.078171 -0.332033 2.956802 4.539901 2.043868 -0.431016 2.233524 4.017428 1.898129 0.005640 2.416893
H -3.127201 0.393211 0.229180
O  -2.983420 -0.413509 -0.282959
C  -1.600021 -0.630197 -0.341907
H  -1.470532 -1.683278 -0.627842
O  -1.057837 -0.380601 0.938857
C  0.354972 -0.604154 1.024896
H  0.568323 -1.657665 0.789636
C  0.740290 -0.354945 2.477256
H  0.047776 -0.910040 3.119420
H  0.655895 0.712998 2.693515
O  2.080174 -0.820645 2.642687
H  2.465824 -0.393950 3.412059
C  1.141319 0.260870 0.032230
H  2.185040 -0.074802 0.049780
O  1.058427 1.625165 0.426554
H  1.409058 2.147308 -0.305846
C  0.574928 0.066386 -1.377091
H  0.779704 -0.962380 -1.705950
O  1.238997 0.987984 -2.238558
H  0.772134 0.991023 -3.082747
C  -0.933067 0.283301 -1.377808
H  -1.145238 1.323737 -1.098841
O  -1.397979 0.009741 -2.696126
H  -2.359564 0.083445 -2.698394
24
12 zpe= -687.202001 src= /lustre/lwork/pjhsu/sugar_opt/pj_sugar/beta_galactose/4C1.xyz:115 moment= 2.424558 0.714138 -0.137834 3.226610 2.610190 1.069561 -0.214027 3.107472 4.016446 1.786182 -0.311223 2.308864 3.747755 1.731164 -0.192826 2.126930
H -2.873440 -1.842950 0.175371
O  -2.540180 -1.224943 -0.484219
C  -1.153794 -1.119547 -0.357942
H  -0.682369 -2.116520 -0.351352
O  -0.863738 -0.472194 0.877908
C  0.536427 -0.274773 1.085869
H  1.054431 -1.248596 1.083257
C  0.674142 0.320938 2.484558
H  1.723982 0.526752 2.702108
H  0.302208 -0.397882 3.222595
O  -0.016031 1.566899 2.610561
H  -0.953942 1.391627 2.462827
C  1.157966 0.576630 -0.031961
H  2.248035 0.582483 0.113336
O  0.672068 1.916435 -0.071874
H  0.491034 2.213403 0.832719
C  0.858688 -0.025187 -1.414988
H  1.400370 -0.970396 -1.526248
O  1.343620 0.822683 -2.437089
H  1.074315 1.721991 -2.207372
C  -0.641161 -0.319067 -1.559792
H  -1.194776 0.627269 -1.588348
O  -0.833775 -1.067445 -2.749589
H  -1.782076 -1.188610 -2.869338
24
13 zpe= -687.201541 src= /lustre/lwork/pjhsu/sugar_opt/pj_sugar/beta_galactose/4C1.xyz:120 moment= 2.476918 0.817534 0.226157 2.954802 2.667166 1.106209 -0.238902 2.931050 4.624288 2.023229 -0.550421 2.426675 3.900149 1.797779 -0.029654 2.574950
H -3.020146 -0.466965 0.256261
O  -2.686745 -1.084288 -0.408020
C  -1.297684 -0.906588 -0.480871
H  -0.894741 -1.830032 -0.919972
O  -0.806847 -0.703333 0.825794
C  0.618379 -0.567504 0.898050
H  1.081434 -1.490167 0.516748
C  0.995225 -0.426598 2.362184
H  0.332357 0.308254 2.826785
H  2.025731 -0.055408 2.429476
O  0.883064 -1.707999 2.978186
H  0.770644 -1.591020 3.925090
C  1.127546 0.602021 0.045809
H  2.223832 0.534624 -0.002822
O  0.743376 1.828930 0.650927
H  0.896006 2.522442 -0.003866
C  0.574884 0.491238 -1.378645
H  1.027845 -0.382135 -1.868868
O  0.947285 1.679598 -2.072512
H  0.457281 1.701323 -2.903270
C  -0.935590 0.299801 -1.355977
H  -1.404870 1.188919 -0.914712
O  -1.356981 0.124732 -2.705075
H  -2.301284 -0.071843 -2.700699
24
14 zpe= -687.201533 src= /lustre/lwork/pjhsu/sugar_opt/pj_sugar/beta_galactose/4C1.xyz:121 moment= 2.471615 0.810059 0.052541 2.340497 2.655942 1.100723 -0.231363 2.997452 4.293875 1.917581 -0.419319 2.252648 4.030078 1.869241 -0.080809 2.360378
H -3.172877 -1.408460 0.229422
O  -2.860201 -0.690747 -0.332622
C  -1.465443 -0.737246 -0.394884
H  -1.123081 -1.699528 -0.814548
O  -0.943299 -0.587056 0.914184
C  0.487215 -0.584146 0.955904
H  0.860754 -1.538227 0.545404
C  0.882828 -0.496848 2.431378
H  0.291782 -1.226318 2.995422
H  0.659109 0.499832 2.808135
O  2.282112 -0.698027 2.611979
H  2.476808 -1.636809 2.531719
C  1.081741 0.544630 0.102583
H  2.168904 0.400087 0.061453
O  0.775734 1.793315 0.703826
H  1.010787 2.477472 0.064828
C  0.513320 0.469220 -1.317994
H  0.882854 -0.445987 -1.803014
O  0.980210 1.610907 -2.030326
H  0.481716 1.665862 -2.854574
C  -1.009696 0.416816 -1.285920
H  -1.400872 1.342885 -0.850857
O  -1.448833 0.260594 -2.633269
H  -2.412571 0.267781 -2.638232
24
15 zpe= -687.201231 src= /lustre/lwork/pjhsu/sugar_opt/pj_sugar/beta_galactose/4C1.xyz:126 moment= 2.459928 0.793878 0.053047 2.525478 2.641445 1.073182 -0.343574 2.987829 4.304311 1.922132 -0.426468 2.242393 4.003639 1.867315 -0.066665 2.327727
H -3.134620 -0.028899 0.342011
O  -2.898691 -0.736993 -0.271844
C  -1.501633 -0.750811 -0.377725
H  -1.240739 -1.729491 -0.804397
O  -0.957989 -0.601474 0.919145
C  0.473645 -0.625909 0.958313
H  0.821258 -1.597041 0.568271
C  0.871993 -0.519751 2.431976
H  0.265694 -1.225751 3.008941
H  0.671183 0.488587 2.790737
O  2.266773 -0.748227 2.613224
H  2.437803 -1.693966 2.569057
C  1.094830 0.469255 0.082171
H  2.178554 0.301295 0.049631
O  0.811793 1.738757 0.653652
H  1.087774 2.403358 0.010482
C  0.526636 0.372412 -1.336213
H  0.863555 -0.568530 -1.794889
O  1.031454 1.477660 -2.080122
H  0.542911 1.521903 -2.910806
C  -0.996431 0.371506 -1.293140
H  -1.342651 1.328304 -0.881585
O  -1.455587 0.201435 -2.630867
H  -2.418512 0.151368 -2.616019
24
16 zpe= -687.20098 src= /lustre/lwork/pjhsu/sugar_opt/pj_sugar/beta_galactose/4C1.xyz:132 moment= 2.472909 0.804354 0.040376 2.376665 2.655046 1.106389 -0.185037 2.967321 4.298306 1.886897 -0.472291 2.367066 4.020083 1.843753 -0.139628 2.317480
H -3.129120 -1.261439 0.189573
O  -2.779104 -0.650998 -0.469670
C  -1.383912 -0.713968 -0.441101
H  -1.029553 -1.714093 -0.748042
O  -0.943035 -0.440844 0.874362
C  0.477383 -0.474475 1.017039
H  0.843734 -1.474713 0.725009
C  0.804177 -0.241323 2.489423
H  0.270218 0.642899 2.833626
H  1.880214 -0.049404 2.588049
O  0.394002 -1.313189 3.330527
H  0.945340 -2.081177 3.150909
C  1.167604 0.543329 0.095481
H  2.248270 0.337089 0.108586
O  0.918741 1.855025 0.573820
H  1.162072 2.462911 -0.136385
C  0.666826 0.372816 -1.343705
H  1.038562 -0.584151 -1.737316
O  1.203636 1.447214 -2.109894
H  0.747451 1.457172 -2.960126
C  -0.855953 0.353132 -1.397902
H  -1.251324 1.317808 -1.060796
O  -1.216675 0.100021 -2.753402
H  -2.178552 0.109359 -2.815066
24
17 zpe= -687.200899 src= /lustre/lwork/pjhsu/sugar_opt/pj_sugar/beta_galactose/4C1.xyz:143 moment= 2.417664 0.756452 -0.003302 2.512773 2.613298 1.089620 -0.137616 3.012785 3.973210 1.830400 -0.386868 2.182206 3.929697 1.808797 -0.073147 2.379459
H -2.881823 -1.341929 -1.183648
O  -2.545899 -1.259038 -0.282208
C  -1.172548 -1.018608 -0.371600
H  -0.627835 -1.951258 -0.597100
O  -0.779425 -0.547999 0.905099
C  0.644438 -0.380304 1.006698
H  1.138755 -1.313060 0.698003
C  0.947174 -0.145439 2.481185
H  0.451361 0.769756 2.824715
H  2.023385 -0.016466 2.614185
O  0.567764 -1.261129 3.269612
H  -0.370450 -1.420803 3.111740
C  1.085446 0.745331 0.064086
H  2.172403 0.858160 0.093566
O  0.555079 2.019557 0.443695
H  -0.353166 1.891742 0.746979
C  0.652728 0.405355 -1.372633
H  1.228949 -0.455137 -1.728378
O  0.932577 1.468107 -2.275398
H  0.747955 2.292272 -1.802981
C  -0.836961 0.045471 -1.418870
H  -1.435532 0.935815 -1.178674
O  -1.223356 -0.469425 -2.686236
H  -0.924020 0.150029 -3.362836
24
18 zpe= -687.200883 src= /lustre/lwork/pjhsu/sugar_opt/pj_sugar/beta_galactose/4C1.xyz:152 moment= 2.421936 0.753513 -0.049270 2.590935 2.602950 1.066462 -0.214539 3.089988 3.958691 1.809798 -0.136973 2.371486 3.942313 1.805422 -0.380745 2.247452
H -3.351014 0.352305 0.389192
O  -2.753616 0.659241 -0.301170
C  -1.593476 -0.099162 -0.269782
H  -1.811336 -1.176794 -0.211135
O  -0.848051 0.280891 0.899685
C  0.381684 -0.445188 1.054162
H  0.176764 -1.524331 0.992235
C  0.904558 -0.136557 2.451290
H  1.115787 0.934663 2.544018
H  1.836950 -0.680419 2.616523
O  -0.002205 -0.569075 3.454163
H  -0.838426 -0.115465 3.298901
C  1.321410 -0.052554 -0.088522
H  2.263937 -0.601597 -0.014984
O  1.677271 1.332890 -0.052074
H  0.888349 1.838156 0.184534
C  0.643057 -0.391991 -1.421414
H  0.556284 -1.480226 -1.508254
O  1.423968 0.026144 -2.534673
H  1.793954 0.891185 -2.309394
C  -0.772101 0.205294 -1.522740
H  -0.703150 1.300358 -1.598216
O  -1.450434 -0.324286 -2.647584
H  -0.863164 -0.223484 -3.406761
24
19 zpe= -687.200882 src= /lustre/lwork/pjhsu/sugar_opt/pj_sugar/beta_galactose/4C1.xyz:153 moment= 2.413046 0.694941 -0.180131 3.612615 2.606044 1.060146 -0.247257 3.136028 3.988197 1.793439 -0.283817 2.237399 3.744171 1.722961 -0.208411 2.129084
H -2.975358 -0.052651 -0.544847
O  -2.711843 -0.976342 -0.441833
C  -1.327869 -1.010088 -0.241875
H  -1.088962 -2.053694 0.001086
O  -1.018246 -0.168264 0.861789
C  0.373270 -0.163278 1.190331
H  0.696735 -1.189677 1.430478
C  0.514022 0.668999 2.461475
H  1.562616 0.710567 2.762503
H  -0.059328 0.198926 3.266980
O  0.095706 2.024982 2.276657
H  -0.855125 2.014917 2.114286
C  1.229872 0.323810 0.012201
H  2.287833 0.198452 0.284229
O  0.981414 1.680663 -0.351303
H  0.821441 2.194642 0.454556
C  0.949678 -0.511597 -1.246048
H  1.315747 -1.532427 -1.095695
O  1.667141 -0.000523 -2.352468
H  1.552420 0.958922 -2.344642
C  -0.561512 -0.584892 -1.506379
H  -0.915434 0.415151 -1.797387
O  -0.790980 -1.529015 -2.538923
H  -1.744240 -1.615581 -2.655167
24
20 zpe= -687.200639 src= /lustre/lwork/pjhsu/sugar_opt/pj_sugar/beta_galactose/4C1.xyz:165 moment= 2.433526 0.740404 -0.093560 2.649588 2.624406 1.101427 -0.104904 3.010055 3.991724 1.790998 -0.248876 2.288150 3.780205 1.767819 -0.165804 2.067201
H -3.173276 -1.146141 -0.246643
O  -2.585576 -0.717486 -0.878423
C  -1.264001 -0.879636 -0.458561
H  -1.040059 -1.942479 -0.268796
O  -1.082669 -0.150969 0.752545
C  0.269778 -0.139058 1.229093
H  0.600255 -1.170225 1.435374
C  0.234299 0.607255 2.559488
H  1.242724 0.679242 2.971882
H  -0.389210 0.050195 3.267763
O  -0.242331 1.946804 2.422669
H  -1.142024 1.896870 2.076019
C  1.229399 0.461370 0.178827
H  2.257058 0.353301 0.557876
O  0.951209 1.815590 -0.125166
H  0.701240 2.263238 0.695871
C  1.098626 -0.367831 -1.100609
H  1.363482 -1.408721 -0.851636
O  1.980416 0.119751 -2.090979
H  1.729530 -0.298151 -2.923633
C  -0.354404 -0.353200 -1.569483
H  -0.648835 0.673846 -1.805507
O  -0.426897 -1.187895 -2.724224
H  -1.308733 -1.104671 -3.102748
24
21 zpe= -687.200268 src= /lustre/lwork/pjhsu/sugar_opt/pj_sugar/beta_galactose/4C1.xyz:171 moment= 2.409133 0.738549 -0.046307 2.730432 2.601768 1.069246 -0.198021 3.075961 3.954466 1.813128 -0.392668 2.218600 3.917364 1.798649 -0.096697 2.387202
H -3.041647 -0.555322 -0.545212
O  -2.560600 -1.348655 -0.282313
C  -1.201823 -1.091732 -0.289180
H  -0.704021 -2.067870 -0.254393
O  -0.868302 -0.347089 0.896404
C  0.547866 -0.207950 1.093138
H  1.017758 -1.200499 1.029201
C  0.741488 0.318718 2.509512
H  0.267802 1.302226 2.612027
H  1.808247 0.435919 2.711910
O  0.239625 -0.594000 3.471522
H  -0.682783 -0.768456 3.249005
C  1.119633 0.676740 -0.017699
H  2.205775 0.755321 0.078431
O  0.629507 2.020945 0.038388
H  -0.301442 1.991536 0.293169
C  0.777946 0.049374 -1.376707
H  1.336572 -0.885775 -1.490087
O  1.179824 0.879770 -2.459462
H  1.001937 1.793161 -2.193951
C  -0.720983 -0.278288 -1.496521
H  -1.288518 0.668856 -1.494153
O  -0.985264 -0.998477 -2.684262
H  -0.515597 -0.549451 -3.398766
24
22 zpe= -687.20022 src= /lustre/lwork/pjhsu/sugar_opt/pj_sugar/beta_galactose/4C1.xyz:176 moment= 2.460334 0.786566 0.044066 2.557016 2.650228 1.099167 -0.199668 2.999887 4.282783 1.875629 -0.484817 2.363297 3.879615 1.758454 -0.128642 2.460736
H -3.045794 0.195912 0.458628
O  -2.882735 -0.469185 -0.223140
C  -1.493312 -0.592629 -0.360150
H  -1.315260 -1.589785 -0.788168
O  -0.910421 -0.472375 0.919167
C  0.510074 -0.633651 0.934717
H  0.752596 -1.643008 0.559286
C  0.979936 -0.519045 2.382331
H  0.597333 0.407601 2.807301
H  2.076772 -0.468292 2.390296
O  0.506863 -1.567563 3.215695
H  0.882736 -2.402258 2.918461
C  1.219671 0.371656 0.014272
H  2.272275 0.065811 -0.076023
O  1.138278 1.669036 0.584394
H  1.403269 2.293402 -0.103372
C  0.588642 0.342057 -1.381640
H  0.815742 -0.623682 -1.855572
O  1.177363 1.397915 -2.136311
H  0.659280 1.507827 -2.942854
C  -0.924189 0.487305 -1.288261
H  -1.167922 1.466843 -0.857073
O  -1.439134 0.375427 -2.611045
H  -2.402066 0.400680 -2.560939
24
23 zpe= -687.199869 src= /lustre/lwork/pjhsu/sugar_opt/pj_sugar/beta_galactose/4C1.xyz:179 moment= 2.443759 0.762616 0.032012 2.992211 2.614605 1.052735 -0.360360 3.027190 4.324161 1.898027 -0.482874 2.346549 3.958713 1.854452 -0.039381 2.363553
H -3.186646 -0.158225 0.302677
O  -2.883578 -0.984100 -0.093376
C  -1.540401 -0.861936 -0.408793
H  -1.281824 -1.761333 -0.983457
O  -0.796892 -0.840809 0.816060
C  0.611169 -0.835476 0.630354
H  0.900753 -1.707304 0.017148
C  1.276758 -1.041939 1.983578
H  2.333514 -1.288495 1.821607
H  0.785699 -1.883036 2.482439
O  1.163308 0.148352 2.774192
H  1.468421 -0.022770 3.669351
C  1.085654 0.413296 -0.138786
H  2.158402 0.300294 -0.355158
O  0.851667 1.647940 0.530128
H  1.003758 1.521596 1.478196
C  0.312168 0.499560 -1.455678
H  0.612111 -0.322456 -2.113855
O  0.613314 1.695710 -2.167627
H  0.650319 2.405594 -1.511177
C  -1.201884 0.398013 -1.213770
H  -1.516593 1.266334 -0.615889
O  -1.897779 0.356476 -2.447980
H  -1.523419 1.053712 -3.001184
24
24 zpe= -687.199833 src= /lustre/lwork/pjhsu/sugar_opt/pj_sugar/beta_galactose/4C1.xyz:181 moment= 2.422342 0.723488 -0.114277 2.881726 2.619727 1.091660 -0.131681 3.050039 3.970153 1.798296 -0.220469 2.233448 3.774279 1.758176 -0.178415 2.076538
H -2.947088 -0.053564 -0.466720
O  -2.647033 -0.965592 -0.574194
C  -1.261314 -0.985125 -0.385243
H  -0.980359 -2.045779 -0.355377
O  -0.976078 -0.364091 0.862646
C  0.421335 -0.279340 1.174764
H  0.848338 -1.294028 1.220362
C  0.508590 0.311543 2.578314
H  1.555752 0.406150 2.872732
H  0.010748 -0.362070 3.283868
O  -0.051404 1.624169 2.662324
H  -0.997003 1.546055 2.488704
C  1.190114 0.509830 0.093951
H  2.261789 0.475641 0.340642
O  0.748642 1.850199 -0.031739
H  0.595428 2.197550 0.858746
C  0.977066 -0.208044 -1.239274
H  1.353507 -1.237914 -1.128152
O  1.690149 0.448574 -2.268205
H  1.393522 0.072287 -3.105484
C  -0.518420 -0.285638 -1.533318
H  -0.907093 0.734082 -1.643478
O  -0.666557 -1.020440 -2.746007
H  -1.604626 -1.075457 -2.959865
24
25 zpe= -687.199185 src= /lustre/lwork/pjhsu/sugar_opt/pj_sugar/beta_galactose/4C1.xyz:182 moment= 2.424964 0.771371 0.013744 2.542925 2.591075 1.050160 -0.237279 3.297605 4.001009 1.817738 -0.274323 2.179606 3.966930 1.817847 -0.131927 2.362939
H -2.666916 -2.317321 -0.218603
O  -2.371336 -1.648981 -0.846678
C  -1.052376 -1.324600 -0.567278
H  -0.412259 -2.219940 -0.520685
O  -1.022700 -0.673166 0.711600
C  0.290891 -0.296812 1.136495
H  0.966450 -1.164029 1.096036
C  0.156189 0.163040 2.592389
H  -0.108526 -0.696811 3.209402
H  -0.655911 0.892753 2.669803
O  1.376081 0.682113 3.103442
H  1.454052 1.603401 2.835376
C  0.828090 0.774533 0.185314
H  1.850906 1.044011 0.456181
O  0.073095 1.990699 0.266349
H  -0.864221 1.758301 0.305737
C  0.821433 0.226616 -1.246521
H  1.567956 -0.571475 -1.319123
O  1.214791 1.213729 -2.193487
H  0.809291 2.047124 -1.916821
C  -0.541111 -0.367197 -1.643388
H  -1.284303 0.438995 -1.730185
O  -0.433230 -1.071002 -2.867677
H  0.002662 -0.481978 -3.495678
24
26 zpe= -687.19909 src= /lustre/lwork/pjhsu/sugar_opt/pj_sugar/beta_galactose/4C1.xyz:188 moment= 2.456466 0.780675 0.041135 2.820777 2.625735 1.069629 -0.282376 3.051749 4.335745 1.909505 -0.473734 2.331376 4.000434 1.867467 -0.076295 2.344675
H -3.029903 -1.738908 0.127439
O  -2.701576 -1.149821 -0.560685
C  -1.317627 -1.095529 -0.471165
H  -0.869851 -2.102223 -0.542232
O  -0.985508 -0.540052 0.806144
C  0.411417 -0.398833 1.021913
H  0.905523 -1.378100 0.889932
C  0.639697 -0.010575 2.475741
H  1.705276 -0.133143 2.706890
H  0.057926 -0.687537 3.109733
O  0.238926 1.347667 2.690019
H  0.303294 1.564755 3.624119
C  1.048537 0.553121 -0.008811
H  2.139134 0.541019 0.137888
O  0.565468 1.889916 0.039358
H  0.405710 2.130903 0.963270
C  0.726475 0.039114 -1.413127
H  1.254483 -0.904427 -1.586150
O  1.193144 0.932226 -2.419215
H  0.972030 1.824939 -2.118817
C  -0.779597 -0.211349 -1.593650
H  -1.316518 0.743314 -1.539234
O  -1.016124 -0.862737 -2.832323
H  -0.550338 -0.353744 -3.507037
24
27 zpe= -687.199047 src= /lustre/lwork/pjhsu/sugar_opt/pj_sugar/beta_galactose/4C1.xyz:190 moment= 2.435436 0.733274 -0.148487 2.873092 2.614951 1.066937 -0.242890 3.104969 3.961700 1.813212 -0.404157 2.231014 3.935811 1.811070 -0.127655 2.313072
H -2.789500 -1.378020 -0.570909
O  -2.124582 -2.044025 -0.358665
C  -0.879550 -1.440602 -0.310330
H  -0.148803 -2.256438 -0.243159
O  -0.817878 -0.633931 0.872091
C  0.460212 -0.052904 1.125943
H  1.213907 -0.853837 1.199291
C  0.348206 0.620159 2.488492
H  -0.410536 1.412145 2.437926
H  1.307265 1.069002 2.761169
O  0.033826 -0.312393 3.507234
H  -0.752770 -0.791752 3.218572
C  0.895658 0.882480 -0.013572
H  1.937955 1.185356 0.149152
O  0.067867 2.043741 -0.160087
H  0.306814 2.704918 0.495572
C  0.799129 0.130262 -1.343328
H  1.563776 -0.652626 -1.363765
O  1.077407 0.973515 -2.454705
H  0.627775 1.812877 -2.284483
C  -0.572298 -0.542357 -1.514016
H  -1.347303 0.239176 -1.549207
O  -0.592877 -1.325123 -2.693364
H  -0.203701 -0.787623 -3.394853
24
28 zpe= -687.198968 src= /lustre/lwork/pjhsu/sugar_opt/pj_sugar/beta_galactose/4C1.xyz:193 moment= 2.443618 0.753736 -0.090060 2.589721 2.626921 1.089873 -0.171023 3.025022 3.982595 1.833001 -0.397374 2.186371 3.946749 1.821820 -0.101898 2.298623
H -2.732776 -1.539934 -1.413715
O  -2.613260 -1.205906 -0.515717
C  -1.239176 -1.063873 -0.308118
H  -0.783501 -2.040453 -0.064049
O  -1.100915 -0.194996 0.796004
C  0.255558 -0.026217 1.207206
H  0.680570 -1.010118 1.464240
C  0.200411 0.815800 2.476240
H  -0.237213 1.794572 2.240794
H  1.211254 0.966155 2.865052
O  -0.534726 0.170027 3.500057
H  -1.401272 -0.046290 3.133780
C  1.128330 0.570560 0.086722
H  2.180056 0.529796 0.398143
O  0.777293 1.913645 -0.268746
H  1.124241 2.530968 0.381366
C  0.958207 -0.252393 -1.197859
H  1.415152 -1.236351 -1.054085
O  1.634951 0.335687 -2.301442
H  1.478548 1.288676 -2.244042
C  -0.526940 -0.450870 -1.514119
H  -0.995266 0.520468 -1.716505
O  -0.713917 -1.338423 -2.610747
H  -0.164608 -1.027528 -3.340459
24
29 zpe= -687.198886 src= /lustre/lwork/pjhsu/sugar_opt/pj_sugar/beta_galactose/4C1.xyz:194 moment= 2.447096 0.758766 -0.066180 2.528211 2.645555 1.078235 -0.343281 2.888812 4.013250 1.853357 -0.392103 2.186200 3.928955 1.802330 -0.091252 2.404960
H -3.143620 -0.180988 0.010349
O  -2.765422 -1.063917 -0.082967
C  -1.390328 -0.948941 -0.207871
H  -1.016868 -1.968090 -0.372509
O  -0.873337 -0.422773 1.011959
C  0.553706 -0.356319 1.080936
H  0.964758 -1.367884 0.934137
C  0.887390 0.097034 2.496962
H  0.459597 1.090166 2.665539
H  1.971069 0.162242 2.616968
O  0.426724 -0.839614 3.459860
H  -0.520978 -0.949839 3.318028
C  1.128379 0.547406 -0.014303
H  2.223435 0.422381 -0.017887
O  0.795447 1.900747 0.250856
H  0.929819 2.393911 -0.568601
C  0.573112 0.099461 -1.373388
H  0.995777 -0.877935 -1.636515
O  0.894620 1.058731 -2.397241
H  1.758611 0.855676 -2.769971
C  -0.951322 -0.030728 -1.358815
H  -1.386913 0.962213 -1.177897
O  -1.420303 -0.574721 -2.580089
H  -1.093354 -0.008219 -3.288540
24
30 zpe= -687.198854 src= /lustre/lwork/pjhsu/sugar_opt/pj_sugar/beta_galactose/4C1.xyz:195 moment= 2.456924 0.784417 0.111629 3.127937 2.602909 1.048232 -0.339370 3.081043 4.447708 2.017073 -0.396780 2.161609 3.968554 1.865694 -0.022251 2.398770
H -3.098671 -1.161180 0.183183
O  -2.559486 -1.798714 -0.299968
C  -1.315380 -1.240827 -0.543847
H  -0.803425 -1.930209 -1.227577
O  -0.609518 -1.167126 0.699097
C  0.742979 -0.737390 0.595965
H  1.312221 -1.448958 -0.023390
C  1.272602 -0.762239 2.029922
H  1.450897 -1.796384 2.338099
H  0.507128 -0.328918 2.681227
O  2.480198 0.009778 2.076360
H  2.919094 -0.144676 2.917618
C  0.883153 0.646605 -0.062205
H  1.937689 0.806524 -0.307405
O  0.419311 1.713421 0.770411
H  1.093778 1.867325 1.442147
C  0.058832 0.697610 -1.349557
H  0.540585 0.065370 -2.103006
O  0.025778 2.008188 -1.903640
H  -0.051947 2.618420 -1.156678
C  -1.366749 0.168890 -1.142092
H  -1.888047 0.817007 -0.420503
O  -2.062620 0.128934 -2.375312
H  -1.889402 0.968547 -2.819845
24
31 zpe= -687.198697 src= /lustre/lwork/pjhsu/sugar_opt/pj_sugar/beta_galactose/4C1.xyz:198 moment= 2.464085 0.804137 0.164574 2.917577 2.610897 1.067803 -0.241412 3.108363 4.464933 2.049282 -0.343892 2.148285 3.980380 1.878725 0.005302 2.387000
H -2.872296 -1.652193 -1.380748
O  -2.486832 -1.777617 -0.504391
C  -1.178481 -1.290739 -0.559250
H  -0.500769 -2.059621 -0.973300
O  -0.810390 -1.009961 0.774068
C  0.547275 -0.604683 0.910518
H  1.212118 -1.417764 0.577724
C  0.729851 -0.364480 2.409364
H  0.792013 -1.324222 2.930108
H  -0.148304 0.176902 2.774234
O  1.923518 0.407873 2.598618
H  2.147208 0.414557 3.533580
C  0.897668 0.638458 0.066716
H  1.987391 0.738542 0.045288
O  0.318167 1.841938 0.576790
H  0.826993 2.097954 1.355048
C  0.383568 0.478477 -1.369760
H  0.995966 -0.268476 -1.885491
O  0.519731 1.681783 -2.115949
H  0.313410 2.404520 -1.506191
C  -1.065993 -0.007414 -1.381301
H  -1.716088 0.744131 -0.915986
O  -1.508736 -0.306043 -2.701505
H  -1.307987 0.456077 -3.258182
24
32 zpe= -687.198535 src= /lustre/lwork/pjhsu/sugar_opt/pj_sugar/beta_galactose/4C1.xyz:201 moment= 2.443227 0.826905 0.272389 2.806957 2.619114 1.072261 -0.254574 3.061725 4.555843 2.050598 -0.422301 2.254575 3.962520 1.875428 0.063758 2.483961
H -2.133736 -2.434510 -1.417443
O  -2.037369 -2.159342 -0.496972
C  -0.813280 -1.493399 -0.392212
H  0.020561 -2.215691 -0.361261
O  -0.860165 -0.788499 0.835560
C  0.390168 -0.157936 1.132111
H  1.204945 -0.893690 1.066488
C  0.316956 0.331059 2.572350
H  0.005636 -0.506344 3.206125
H  -0.422469 1.133899 2.659025
O  1.623078 0.789952 2.914692
H  1.581209 1.262484 3.750497
C  0.652702 0.948890 0.102868
H  1.610061 1.429158 0.310092
O  -0.330562 1.988378 0.167139
H  -1.193307 1.576940 0.308600
C  0.666821 0.334162 -1.305897
H  1.540711 -0.317607 -1.407947
O  0.793134 1.325318 -2.319759
H  0.276486 2.089516 -2.027767
C  -0.596755 -0.501924 -1.537665
H  -1.472953 0.161692 -1.561400
O  -0.530436 -1.253696 -2.743379
H  -0.290437 -0.648810 -3.455843
24
33 zpe= -687.198526 src= /lustre/lwork/pjhsu/sugar_opt/pj_sugar/beta_galactose/4C1.xyz:206 moment= 2.420001 0.772078 0.051485 2.495268 2.585063 1.047389 -0.226315 3.310813 3.990526 1.837676 -0.202962 2.197707 4.008064 1.739886 -0.435160 2.461284
H -2.943666 -1.600636 -1.144833
O  -2.630072 -1.473216 -0.240541
C  -1.263046 -1.195090 -0.312361
H  -0.685935 -2.120212 -0.483770
O  -0.911035 -0.652581 0.946101
C  0.499315 -0.445773 1.074640
H  1.037201 -1.377859 0.847990
C  0.742259 -0.070905 2.541679
H  0.545715 -0.944582 3.164052
H  0.037929 0.713008 2.837638
O  2.087989 0.317479 2.778154
H  2.186598 1.242890 2.531223
C  0.955975 0.622010 0.073875
H  2.041666 0.728889 0.111539
O  0.430906 1.918413 0.394186
H  -0.492165 1.813787 0.659934
C  0.543958 0.214829 -1.350120
H  1.136715 -0.653570 -1.656432
O  0.825349 1.238452 -2.297520
H  0.638964 2.082454 -1.862816
C  -0.937569 -0.171390 -1.402297
H  -1.557713 0.715892 -1.208399
O  -1.295320 -0.747474 -2.651745
H  -0.994020 -0.153815 -3.350178
24
34 zpe= -687.198461 src= /lustre/lwork/pjhsu/sugar_opt/pj_sugar/beta_galactose/4C1.xyz:210 moment= 2.429812 0.772452 0.027978 2.558461 2.603868 1.077547 -0.135251 3.216638 4.051945 1.854022 -0.152470 2.370797 3.999161 1.838339 -0.207935 2.218826
H -2.184846 -2.700877 -0.303659
O  -2.217620 -1.824014 -0.702198
C  -0.941738 -1.259542 -0.676185
H  -0.201617 -1.925577 -1.148146
O  -0.566199 -1.047781 0.682575
C  0.753990 -0.498208 0.794745
H  1.468826 -1.123341 0.239904
C  1.109003 -0.534481 2.285556
H  1.213415 -1.574866 2.597092
H  0.292069 -0.092436 2.864523
O  2.347209 0.105822 2.556068
H  2.194948 1.054867 2.612512
C  0.756614 0.901212 0.179785
H  1.763259 1.322186 0.206183
O  -0.057452 1.806484 0.940800
H  -0.877081 1.349751 1.171770
C  0.289678 0.863669 -1.288509
H  1.056075 0.364041 -1.890558
O  0.177704 2.176544 -1.802971
H  -0.213900 2.719698 -1.105832
C  -1.014013 0.065172 -1.444992
H  -1.849119 0.640844 -1.020564
O  -1.223660 -0.175743 -2.825080
H  -2.076545 -0.613422 -2.923819
24
35 zpe= -687.198375 src= /lustre/lwork/pjhsu/sugar_opt/pj_sugar/beta_galactose/4C1.xyz:212 moment= 2.445081 0.761918 -0.038071 2.876093 2.589987 1.033867 -0.352558 3.208673 4.187586 1.896182 -0.325744 2.169130 3.954827 1.836549 -0.088954 2.329589
H -3.207407 -0.835946 0.202280
O  -2.713181 -1.570839 -0.180357
C  -1.413921 -1.159635 -0.425023
H  -0.941919 -1.971575 -0.993366
O  -0.754203 -0.994363 0.834825
C  0.634192 -0.698728 0.755554
H  1.160445 -1.533178 0.259485
C  1.094964 -0.576820 2.213464
H  1.086411 -1.559326 2.693275
H  0.382878 0.059732 2.738807
O  2.370226 0.058343 2.334093
H  3.069257 -0.580514 2.165582
C  0.931117 0.571831 -0.061130
H  2.005140 0.607668 -0.273041
O  0.538178 1.772475 0.607283
H  1.197327 1.964565 1.284099
C  0.169138 0.532624 -1.387071
H  0.618754 -0.230915 -2.030939
O  0.284746 1.759240 -2.098925
H  0.228642 2.464904 -1.439131
C  -1.307589 0.162959 -1.191714
H  -1.794816 0.940445 -0.583015
O  -1.951845 0.028671 -2.445845
H  -1.685533 0.788383 -2.979190
24
36 zpe= -687.198295 src= /lustre/lwork/pjhsu/sugar_opt/pj_sugar/beta_galactose/4C1.xyz:215 moment= 2.449846 0.751226 -0.137218 2.685426 2.617735 1.067427 -0.249231 3.104852 3.974896 1.823854 -0.163423 2.293355 3.952060 1.808728 -0.390543 2.251106
H -2.870948 -1.921721 0.106349
O  -2.598753 -1.225676 -0.500993
C  -1.221356 -1.078394 -0.430791
H  -0.706823 -2.050449 -0.508429
O  -0.905010 -0.488782 0.835578
C  0.485624 -0.253818 1.049424
H  1.036270 -1.204933 0.961717
C  0.613303 0.240833 2.485261
H  0.067146 1.186875 2.590635
H  1.665977 0.413138 2.724676
O  0.140372 -0.717323 3.417053
H  -0.770668 -0.919945 3.173564
C  1.059916 0.708916 -0.002774
H  2.150900 0.753672 0.110464
O  0.508412 2.029373 0.058044
H  0.931693 2.533294 0.758621
C  0.730803 0.177535 -1.399611
H  1.299125 -0.742872 -1.567060
O  1.143842 1.077100 -2.421181
H  0.881750 1.962066 -2.132068
C  -0.761764 -0.155188 -1.556799
H  -1.356370 0.764630 -1.485257
O  -0.979254 -0.810037 -2.795195
H  -0.546187 -0.278295 -3.474228
24
37 zpe= -687.198187 src= /lustre/lwork/pjhsu/sugar_opt/pj_sugar/beta_galactose/4C1.xyz:217 moment= 2.469846 0.802017 0.115259 2.933028 2.617152 1.072326 -0.240022 3.108464 4.453000 2.018291 -0.399383 2.165740 4.008136 1.877881 -0.061078 2.373756
H -2.720191 -2.347697 0.005108
O  -2.555047 -1.620904 -0.605501
C  -1.206044 -1.298245 -0.552169
H  -0.573294 -2.178250 -0.758852
O  -0.926214 -0.824488 0.767545
C  0.423412 -0.434029 0.994438
H  1.093856 -1.297328 0.853622
C  0.459787 0.016224 2.454393
H  0.410430 -0.858502 3.109988
H  -0.419042 0.642405 2.637397
O  1.669783 0.754898 2.664572
H  1.784956 0.905689 3.607062
C  0.890488 0.664434 0.024092
H  1.977035 0.761806 0.112492
O  0.274896 1.930840 0.271537
H  0.713782 2.322746 1.034870
C  0.543820 0.270570 -1.412728
H  1.189771 -0.561938 -1.711582
O  0.821118 1.324710 -2.327644
H  0.536421 2.142386 -1.895812
C  -0.911375 -0.195326 -1.564525
H  -1.595560 0.635632 -1.349810
O  -1.119558 -0.704429 -2.871679
H  -0.762228 -0.050201 -3.484814
24
38 zpe= -687.198155 src= /lustre/lwork/pjhsu/sugar_opt/pj_sugar/beta_galactose/4C1.xyz:220 moment= 2.452169 0.781409 0.026271 2.676741 2.597947 1.053865 -0.247637 3.238240 4.202760 1.924849 -0.271789 2.172397 3.967074 1.850863 -0.057036 2.318471
H -3.093001 -1.360163 -1.195689
O  -2.856816 -1.162082 -0.280629
C  -1.464718 -1.063985 -0.228281
H  -1.013244 -2.068270 -0.129236
O  -1.169679 -0.302554 0.923425
C  0.223034 -0.195575 1.191303
H  0.639207 -1.200452 1.381402
C  0.310754 0.663658 2.458897
H  -0.056441 0.099691 3.320584
H  -0.337283 1.529403 2.323114
O  1.627631 1.173377 2.683645
H  2.169198 0.501139 3.107734
C  1.023162 0.410125 0.018878
H  2.088851 0.236767 0.203543
O  0.792223 1.809652 -0.150937
H  1.279774 2.276672 0.537459
C  0.637965 -0.261583 -1.305845
H  1.042329 -1.279150 -1.319372
O  1.213539 0.404572 -2.422643
H  1.170973 1.351450 -2.226681
C  -0.881370 -0.355016 -1.449991
H  -1.316231 0.651588 -1.490473
O  -1.253316 -1.109813 -2.598585
H  -0.776542 -0.748449 -3.355622
24
39 zpe= -687.198141 src= /lustre/lwork/pjhsu/sugar_opt/pj_sugar/beta_galactose/4C1.xyz:223 moment= 2.412369 0.733386 -0.075481 2.881249 2.598939 1.061115 -0.227781 3.113445 3.970519 1.780351 -0.260560 2.308642 3.777268 1.715675 -0.253843 2.190190
H -3.006129 -0.196581 -0.029978
O  -2.630666 -1.039930 -0.314251
C  -1.240666 -0.906399 -0.372832
H  -0.851513 -1.916518 -0.548782
O  -0.776449 -0.413373 0.880277
C  0.663685 -0.391603 0.951236
H  1.044187 -1.387290 0.682076
C  1.025980 -0.120972 2.405190
H  0.629446 0.852352 2.716421
H  2.112727 -0.089204 2.506456
O  0.567135 -1.158693 3.256818
H  -0.385420 -1.238918 3.130321
C  1.191765 0.630059 -0.055207
H  2.284526 0.636315 -0.047199
O  0.800746 1.967815 0.279847
H  -0.112615 1.946524 0.591311
C  0.716362 0.283067 -1.480380
H  1.209347 -0.637745 -1.809114
O  1.111615 1.290072 -2.390783
H  0.978909 2.138829 -1.947330
C  -0.800981 0.031482 -1.510921
H  -1.321350 0.994020 -1.369114
O  -1.134695 -0.532197 -2.764953
H  -2.075947 -0.742116 -2.758112
24
40 zpe= -687.198138 src= /lustre/lwork/pjhsu/sugar_opt/pj_sugar/beta_galactose/4C1.xyz:225 moment= 2.447896 0.761510 0.034202 3.075138 2.623624 1.065363 -0.297673 3.065271 4.325104 1.900992 -0.478073 2.342249 4.038954 1.874505 -0.138266 2.268747
H -3.073690 -0.097889 -0.174592
O  -2.782447 -1.007005 -0.323993
C  -1.382832 -1.014419 -0.283905
H  -1.091567 -2.073071 -0.237879
O  -0.974581 -0.338239 0.894573
C  0.440654 -0.328403 1.058885
H  0.808395 -1.369058 1.064024
C  0.761210 0.230291 2.437431
H  1.813238 0.016192 2.662781
H  0.128572 -0.278476 3.171792
O  0.525643 1.643748 2.465142
H  0.675974 1.981057 3.352700
C  1.140794 0.383809 -0.111834
H  2.227778 0.282913 0.021914
O  0.788589 1.757592 -0.242694
H  0.732551 2.147288 0.641599
C  0.749023 -0.275023 -1.443722
H  1.159832 -1.288829 -1.488226
O  1.324324 0.424417 -2.530694
H  1.167906 1.364845 -2.372954
C  -0.779099 -0.373217 -1.545996
H  -1.189323 0.642275 -1.639508
O  -1.104728 -1.162646 -2.678662
H  -2.063217 -1.267152 -2.696186
24
41 zpe= -687.198053 src= /lustre/lwork/pjhsu/sugar_opt/pj_sugar/beta_galactose/4C1.xyz:226 moment= 2.411973 0.753371 -0.007968 2.651974 2.575936 1.026025 -0.334700 3.282834 3.970649 1.805230 -0.265154 2.177353 3.924314 1.804579 -0.093747 2.381587
H -3.201336 0.652902 -0.304666
O  -3.061559 -0.289919 -0.157860
C  -1.710041 -0.573844 -0.231869
H  -1.629530 -1.666150 -0.283388
O  -1.074140 -0.103283 0.967766
C  0.283618 -0.535366 1.095265
H  0.341045 -1.627657 0.979891
C  0.723995 -0.159583 2.515272
H  0.181903 -0.782758 3.227341
H  0.455453 0.882985 2.714885
O  2.109355 -0.391971 2.726453
H  2.602124 0.355899 2.372876
C  1.127913 0.103303 -0.010776
H  2.147637 -0.285039 0.021418
O  1.252991 1.523365 0.156697
H  0.394179 1.870581 0.430066
C  0.512187 -0.224551 -1.376928
H  0.642523 -1.293864 -1.575199
O  1.178091 0.453840 -2.436108
H  1.406699 1.334450 -2.107291
C  -0.994813 0.078592 -1.421175
H  -1.140867 1.169319 -1.327822
O  -1.565303 -0.384775 -2.629106
H  -0.980123 -0.105476 -3.344743
24
42 zpe= -687.198043 src= /lustre/lwork/pjhsu/sugar_opt/pj_sugar/beta_galactose/4C1.xyz:229 moment= 2.424195 0.756425 -0.017927 2.531474 2.618335 1.094071 -0.123095 3.022906 3.966049 1.827519 -0.363932 2.227733 3.922389 1.742927 -0.224849 2.490753
H -2.870405 -0.836170 0.175224
O  -2.390117 -1.447295 -0.398296
C  -1.063304 -1.013367 -0.485142
H  -0.508640 -1.836687 -0.952082
O  -0.577434 -0.764094 0.826495
C  0.827079 -0.416789 0.848487
H  1.386005 -1.201856 0.319985
C  1.250395 -0.430320 2.309667
H  0.678120 0.316110 2.870675
H  2.307866 -0.167605 2.380438
O  1.113165 -1.723702 2.880031
H  0.192259 -1.989517 2.776614
C  1.027043 0.926552 0.129859
H  2.092299 1.167764 0.089416
O  0.427588 2.000785 0.838300
H  -0.491708 1.778995 1.023047
C  0.515132 0.771556 -1.312839
H  1.137827 0.001440 -1.795359
O  0.644866 1.998081 -2.003236
H  0.251716 1.880443 -2.876159
C  -0.926785 0.261000 -1.329638
H  -1.587402 1.031662 -0.902738
O  -1.269317 0.024292 -2.689222
H  -2.165246 -0.330276 -2.724525
24
43 zpe= -687.19804 src= /lustre/lwork/pjhsu/sugar_opt/pj_sugar/beta_galactose/4C1.xyz:230 moment= 2.435607 0.810702 0.240504 2.968806 2.610313 1.051925 -0.352064 3.038862 4.542945 2.026339 -0.466510 2.265048 3.949885 1.862433 0.036075 2.487627
H -3.244253 0.140491 -0.484829
O  -2.949496 -0.762543 -0.318962
C  -1.567212 -0.808977 -0.341530
H  -1.297107 -1.869999 -0.399760
O  -1.069208 -0.261124 0.892522
C  0.339970 -0.452626 1.049249
H  0.593529 -1.510008 0.883614
C  0.688204 -0.111034 2.491714
H  0.026891 -0.683097 3.151532
H  0.530045 0.957433 2.673155
O  2.055184 -0.471018 2.679491
H  2.356040 -0.133140 3.527452
C  1.076969 0.390254 0.003538
H  2.154079 0.241977 0.093069
O  0.857068 1.793939 0.186968
H  -0.066912 1.919710 0.438587
C  0.601998 -0.033778 -1.391815
H  0.948758 -1.052246 -1.596226
O  1.159287 0.782682 -2.416531
H  1.189390 1.685176 -2.069105
C  -0.933134 -0.024572 -1.496400
H  -1.283574 1.018805 -1.408760
O  -1.358899 -0.574130 -2.728616
H  -0.807618 -0.181176 -3.417355
24
44 zpe= -687.197726 src= /lustre/lwork/pjhsu/sugar_opt/pj_sugar/beta_galactose/4C1.xyz:231 moment= 2.434721 0.792542 0.063872 2.512691 2.607124 1.063639 -0.237525 3.108400 4.241955 1.857148 -0.487490 2.309527 3.973809 1.834145 -0.094874 2.378256
H -3.345602 -0.809274 0.629345
O  -2.970182 -0.262169 -0.069379
C  -1.626750 -0.574881 -0.210376
H  -1.471816 -1.656748 -0.350439
O  -0.954445 -0.173635 0.995727
C  0.450724 -0.443037 0.975739
H  0.621374 -1.497015 0.700430
C  0.982826 -0.218980 2.392233
H  0.351483 -0.769539 3.097721
H  0.935745 0.840151 2.646288
O  2.351725 -0.595299 2.498312
H  2.411951 -1.553820 2.556936
C  1.099868 0.445590 -0.089740
H  2.176510 0.269107 -0.123319
O  0.939895 1.836450 0.202883
H  0.043056 1.971126 0.536601
C  0.471540 0.118114 -1.448631
H  0.752343 -0.900585 -1.736816
O  0.965141 0.963424 -2.482006
H  1.044607 1.850355 -2.103938
C  -1.065181 0.193700 -1.406455
H  -1.376087 1.241336 -1.285175
O  -1.619761 -0.348954 -2.592271
H  -1.168962 0.073579 -3.333671
24
45 zpe= -687.19772 src= /lustre/lwork/pjhsu/sugar_opt/pj_sugar/beta_galactose/4C1.xyz:235 moment= 2.424057 0.757484 -0.028546 2.385702 2.627028 1.099120 -0.123504 3.014261 3.984889 1.805309 -0.180779 2.319262 3.796662 1.760591 -0.216687 2.087156
H -2.933366 -1.668607 0.364219
O  -2.620248 -1.114855 -0.360216
C  -1.228242 -1.030748 -0.299522
H  -0.765596 -2.027808 -0.393708
O  -0.857199 -0.462143 0.947642
C  0.565957 -0.342291 1.093361
H  1.033499 -1.320344 0.891567
C  0.899402 0.003005 2.545086
H  1.996010 -0.030921 2.640784
H  0.487027 -0.777390 3.188527
O  0.382589 1.229015 3.021213
H  0.595911 1.909444 2.368320
C  1.093373 0.662893 0.051241
H  2.181950 0.729332 0.117995
O  0.626071 1.985532 0.316478
H  -0.335965 1.995532 0.246100
C  0.722384 0.152776 -1.349740
H  1.247594 -0.804936 -1.492455
O  1.143365 1.082713 -2.327700
H  0.820722 0.767256 -3.180445
C  -0.776450 -0.132942 -1.452155
H  -1.342140 0.806144 -1.382441
O  -0.993926 -0.740923 -2.720382
H  -1.941720 -0.871730 -2.836770
24
46 zpe= -687.197687 src= /lustre/lwork/pjhsu/sugar_opt/pj_sugar/beta_galactose/4C1.xyz:237 moment= 2.457451 0.778451 -0.025773 2.719568 2.604120 1.058248 -0.246894 3.237640 4.179183 1.885378 -0.339201 2.179432 3.993630 1.847684 -0.130132 2.304528
H -3.406004 -0.892087 0.708060
O  -3.074304 -0.152858 0.186597
C  -1.778263 -0.442188 -0.215585
H  -1.730587 -1.398594 -0.764063
O  -0.971353 -0.542125 0.961201
C  0.404671 -0.818318 0.732327
H  0.510758 -1.797702 0.232518
C  1.033896 -0.868243 2.129872
H  0.683681 -1.754148 2.667670
H  0.701401 0.012041 2.680018
O  2.460935 -0.805882 2.091064
H  2.818308 -1.672249 1.874271
C  1.073217 0.227818 -0.176608
H  2.052517 -0.153978 -0.485103
O  1.234980 1.498376 0.455410
H  1.991768 1.443138 1.049558
C  0.220797 0.454583 -1.426538
H  0.279847 -0.439627 -2.056416
O  0.725981 1.521580 -2.220620
H  0.990103 2.219431 -1.604656
C  -1.260464 0.690338 -1.097501
H  -1.375175 1.623407 -0.530988
O  -2.019519 0.721707 -2.294778
H  -1.567193 1.326584 -2.895714
24
47 zpe= -687.19767 src= /lustre/lwork/pjhsu/sugar_opt/pj_sugar/beta_galactose/4C1.xyz:241 moment= 2.408552 0.741787 -0.065689 2.652776 2.588484 1.047372 -0.247128 3.280925 3.957354 1.795868 -0.170804 2.365632 3.735789 1.712677 -0.315120 2.200705
H -2.904949 -1.865754 0.269102
O  -2.597264 -1.311324 -0.456848
C  -1.219987 -1.181189 -0.363347
H  -0.715698 -2.161495 -0.364535
O  -0.925920 -0.519338 0.875350
C  0.473519 -0.336500 1.100185
H  1.000574 -1.294122 0.954154
C  0.711005 0.068991 2.555909
H  1.798155 0.064844 2.725528
H  0.269960 -0.693453 3.200746
O  0.137089 1.300605 2.954350
H  0.462911 1.992702 2.366207
C  0.996797 0.653161 0.051642
H  2.068782 0.824586 0.179160
O  0.380628 1.945007 0.185869
H  -0.562011 1.801055 0.352940
C  0.738406 0.086875 -1.348521
H  1.367271 -0.797988 -1.492651
O  1.118627 1.002121 -2.369390
H  0.834071 1.880637 -2.081654
C  -0.728017 -0.338305 -1.541165
H  -1.367084 0.555807 -1.579049
O  -0.868846 -1.094579 -2.730638
H  -0.471016 -0.581343 -3.444345
24
48 zpe= -687.197599 src= /lustre/lwork/pjhsu/sugar_opt/pj_sugar/beta_galactose/4C1.xyz:242 moment= 2.476201 0.806404 0.132208 2.909014 2.641497 1.075812 -0.294620 3.052935 4.465625 2.034301 -0.369512 2.185488 4.101095 1.918374 -0.089987 2.358436
H -3.201290 -1.476103 0.346633
O  -2.839707 -0.970076 -0.389195
C  -1.444529 -0.987793 -0.313019
H  -1.066037 -2.024337 -0.294374
O  -1.052900 -0.327929 0.880981
C  0.361664 -0.283817 1.058406
H  0.759687 -1.308815 1.129714
C  0.568145 0.442865 2.386113
H  0.283271 -0.216460 3.211965
H  -0.083772 1.321980 2.397583
O  1.946117 0.822629 2.476716
H  2.126433 1.136456 3.367356
C  1.074851 0.404846 -0.116108
H  2.149984 0.231060 -0.014015
O  0.819413 1.812828 -0.154937
H  1.395080 2.231651 0.494176
C  0.621665 -0.167710 -1.470390
H  1.019823 -1.182636 -1.574305
O  1.179308 0.580162 -2.532260
H  1.082253 1.511504 -2.292795
C  -0.906392 -0.264757 -1.550661
H  -1.343025 0.742171 -1.561481
O  -1.244304 -0.986985 -2.723731
H  -2.205739 -1.038734 -2.765375
24
49 zpe= -687.197589 src= /lustre/lwork/pjhsu/sugar_opt/pj_sugar/beta_galactose/4C1.xyz:243 moment= 2.440184 0.731260 -0.165545 2.961536 2.615145 1.062223 -0.267194 3.126126 3.996740 1.805802 -0.272093 2.212542 3.752730 1.718304 -0.221733 2.150725
H -3.015123 0.000336 -0.381910
O  -2.709842 -0.908412 -0.503204
C  -1.316026 -0.910942 -0.376906
H  -1.022578 -1.967910 -0.328252
O  -0.979050 -0.242932 0.827422
C  0.426535 -0.238410 1.102049
H  0.780395 -1.279790 1.162506
C  0.582045 0.398305 2.476599
H  0.201936 1.426925 2.442563
H  1.639496 0.423878 2.752822
O  -0.077939 -0.352037 3.482288
H  -0.995829 -0.456966 3.204542
C  1.211528 0.459163 -0.016856
H  2.285151 0.331579 0.166109
O  0.896664 1.854935 -0.128896
H  1.459699 2.366068 0.458682
C  0.881925 -0.166003 -1.383373
H  1.271770 -1.188311 -1.409599
O  1.542718 0.525796 -2.423117
H  1.364416 1.466079 -2.292164
C  -0.637828 -0.238613 -1.583128
H  -1.035031 0.784692 -1.665193
O  -0.899163 -0.982724 -2.759652
H  -1.853870 -1.103704 -2.824334
24
50 zpe= -687.197341 src= /lustre/lwork/pjhsu/sugar_opt/pj_sugar/beta_galactose/4C1.xyz:244 moment= 2.467605 0.840009 0.236651 2.670014 2.641912 1.106812 -0.157410 2.933844 4.607682 2.026163 -0.503870 2.434756 3.962990 1.816258 -0.082112 2.543791
H -2.756124 -1.836374 0.313044
O  -2.368014 -1.474066 -0.491697
C  -1.031193 -1.155762 -0.243523
H  -0.468783 -2.040897 0.095690
O  -0.979302 -0.158043 0.766679
C  0.370850 0.212326 1.098007
H  0.947270 -0.693095 1.338278
C  0.330685 1.079999 2.341385
H  -0.447377 1.841144 2.230808
H  1.298092 1.587383 2.447424
O  0.076935 0.232910 3.461029
H  -0.164833 0.777716 4.215131
C  0.993753 0.910254 -0.122596
H  2.034281 1.173180 0.083271
O  0.340035 2.140206 -0.398831
H  -0.609579 1.977516 -0.444751
C  0.974930 -0.082430 -1.297934
H  1.603531 -0.938795 -1.005005
O  1.509917 0.531324 -2.453957
H  1.398340 -0.089183 -3.184035
C  -0.434988 -0.619138 -1.545329
H  -1.083098 0.192245 -1.901263
O  -0.325237 -1.632481 -2.540240
H  -1.212092 -1.936935 -2.762583
24
51 zpe= -687.197323 src= /lustre/lwork/pjhsu/sugar_opt/pj_sugar/beta_galactose/4C1.xyz:245 moment= 2.431672 0.798964 0.122084 2.477566 2.613886 1.064734 -0.268772 3.115512 4.277173 1.899016 -0.427134 2.279845 3.946667 1.842037 -0.011270 2.396843
H -3.274783 -0.670875 -1.067635
O  -2.936532 -0.545366 -0.171989
C  -1.549473 -0.700059 -0.229220
H  -1.279730 -1.769842 -0.268971
O  -1.046880 -0.142315 0.972811
C  0.363752 -0.345684 1.105208
H  0.593918 -1.414363 0.965229
C  0.751148 0.049118 2.531467
H  0.072561 -0.450790 3.229853
H  0.646924 1.125954 2.666090
O  2.115398 -0.259004 2.798751
H  2.193413 -1.197267 2.996806
C  1.091899 0.448905 0.012770
H  2.169136 0.293252 0.094125
O  0.889343 1.858870 0.148374
H  -0.028495 2.008987 0.410161
C  0.595685 -0.014523 -1.366188
H  0.921244 -1.045117 -1.542851
O  1.151677 0.760729 -2.422054
H  1.200757 1.672705 -2.102236
C  -0.935275 0.031160 -1.424899
H  -1.270251 1.076846 -1.372922
O  -1.446677 -0.579933 -2.603129
H  -0.989760 -0.192388 -3.359552
24
52 zpe= -687.197172 src= /lustre/lwork/pjhsu/sugar_opt/pj_sugar/beta_galactose/4C1.xyz:249 moment= 2.463450 0.782393 -0.008832 2.685462 2.618900 1.085694 -0.153341 3.148944 4.185705 1.899532 -0.301189 2.212788 4.087788 1.890078 -0.155720 2.287015
H -2.802913 -2.157792 0.060340
O  -2.540648 -1.518562 -0.611197
C  -1.183191 -1.226867 -0.458772
H  -0.575715 -2.147009 -0.510248
O  -0.995361 -0.617186 0.809701
C  0.360549 -0.263956 1.070634
H  0.984610 -1.175223 1.072722
C  0.343842 0.365075 2.468418
H  0.115446 -0.398202 3.218475
H  -0.450902 1.110482 2.494443
O  1.556013 1.055818 2.772865
H  2.235757 0.423164 3.024124
C  0.932449 0.680823 0.001169
H  2.015524 0.752258 0.143885
O  0.355791 1.987596 0.068993
H  0.793580 2.472913 0.776726
C  0.674734 0.153421 -1.421270
H  1.301388 -0.729149 -1.588680
O  1.081855 1.106818 -2.381612
H  0.753409 1.963007 -2.076264
C  -0.784911 -0.282231 -1.596095
H  -1.443542 0.594179 -1.544119
O  -0.902998 -0.944473 -2.844640
H  -1.824764 -1.205902 -2.948598
24
53 zpe= -687.197146 src= /lustre/lwork/pjhsu/sugar_opt/pj_sugar/beta_galactose/4C1.xyz:251 moment= 2.462493 0.785008 0.124127 3.179727 2.617741 1.071923 -0.261107 3.010820 4.457035 2.023423 -0.381586 2.195458 4.066926 1.917756 -0.072967 2.315036
H -3.043775 -0.940024 0.104146
O  -2.603784 -1.544353 -0.508004
C  -1.262535 -1.151346 -0.599874
H  -0.744288 -1.975528 -1.108494
O  -0.765673 -0.979109 0.715400
C  0.621263 -0.645086 0.767582
H  1.211443 -1.466959 0.333224
C  0.937096 -0.515454 2.256744
H  0.958765 -1.509403 2.713556
H  0.138529 0.068711 2.725255
O  2.200647 0.145685 2.387922
H  2.498760 0.074800 3.299132
C  0.950701 0.628033 -0.026583
H  2.038374 0.711412 -0.105363
O  0.423368 1.806067 0.594273
H  1.019306 2.048532 1.311587
C  0.365867 0.572577 -1.447170
H  0.914329 -0.177663 -2.026387
O  0.566835 1.802959 -2.113861
H  0.344251 2.499076 -1.481564
C  -1.104851 0.142031 -1.415012
H  -1.700574 0.927119 -0.925164
O  -1.540053 -0.072995 -2.746631
H  -2.426004 -0.452083 -2.705711
24
54 zpe= -687.196983 src= /lustre/lwork/pjhsu/sugar_opt/pj_sugar/beta_galactose/4C1.xyz:252 moment= 2.456900 0.789426 0.086122 2.700354 2.636787 1.096249 -0.182634 2.981958 4.370519 1.954952 -0.416059 2.268885 4.022084 1.881124 -0.078185 2.269204
H -3.016469 -0.177449 0.346312
O  -2.800668 -0.824301 -0.338419
C  -1.414416 -0.783615 -0.530333
H  -1.165965 -1.680569 -1.114478
O  -0.795894 -0.832623 0.745856
C  0.630560 -0.764035 0.699598
H  1.010466 -1.602963 0.092963
C  1.163133 -0.999310 2.104756
H  2.243087 -1.180512 2.036553
H  0.677925 -1.892157 2.512979
O  0.900963 0.137823 2.934982
H  1.237343 -0.024272 3.820828
C  1.108441 0.544116 0.026862
H  2.206867 0.520939 -0.037459
O  0.666511 1.708136 0.698372
H  0.760420 1.553353 1.648543
C  0.535998 0.554046 -1.392230
H  0.900320 -0.348309 -1.909529
O  0.971068 1.705272 -2.088958
H  0.439119 1.769293 -2.891227
C  -0.985310 0.468858 -1.309965
H  -1.358515 1.358894 -0.790349
O  -1.475372 0.417528 -2.648577
H  -2.437613 0.371858 -2.618079
24
55 zpe= -687.196903 src= /lustre/lwork/pjhsu/sugar_opt/pj_sugar/beta_galactose/4C1.xyz:253 moment= 2.424213 0.783098 0.081901 2.620644 2.604795 1.043818 -0.370483 3.095539 4.264471 1.880799 -0.459010 2.285965 3.933939 1.828262 -0.042341 2.401435
H -3.268665 -0.094116 -0.175653
O  -2.880070 -0.974808 -0.117717
C  -1.507171 -0.884759 -0.257467
H  -1.149757 -1.907250 -0.428943
O  -0.951318 -0.390262 0.975070
C  0.477904 -0.450285 1.000759
H  0.805592 -1.464197 0.718569
C  0.925988 -0.182700 2.438753
H  0.358977 -0.836018 3.109559
H  0.716249 0.851740 2.712490
O  2.331486 -0.358215 2.584414
H  2.525911 -1.297892 2.654516
C  1.037178 0.536836 -0.029387
H  2.127708 0.492706 -0.040231
O  0.704336 1.892887 0.285640
H  -0.197521 1.907868 0.630787
C  0.481922 0.173645 -1.412039
H  0.898596 -0.788867 -1.727782
O  0.871073 1.113467 -2.407593
H  0.849269 1.986821 -1.991625
C  -1.051085 0.042729 -1.390054
H  -1.484398 1.037774 -1.188284
O  -1.533136 -0.452585 -2.624456
H  -1.087068 0.045484 -3.321330
24
56 zpe= -687.196812 src= /lustre/lwork/pjhsu/sugar_opt/pj_sugar/beta_galactose/4C1.xyz:256 moment= 2.439179 0.793869 0.070258 2.520794 2.608136 1.066512 -0.225898 3.110459 4.240546 1.863898 -0.460319 2.324030 4.053976 1.858584 -0.135211 2.384934
H -3.195587 -1.248250 0.312969
O  -2.835213 -0.641086 -0.342969
C  -1.444191 -0.748805 -0.353550
H  -1.126922 -1.792816 -0.508113
O  -0.945785 -0.307203 0.909952
C  0.484027 -0.399974 0.971819
H  0.797185 -1.415188 0.677496
C  0.899789 -0.165276 2.425082
H  0.299244 -0.812801 3.073141
H  0.710270 0.870785 2.705904
O  2.295042 -0.379164 2.606727
H  2.469855 -1.325199 2.627006
C  1.074563 0.599316 -0.024176
H  2.164615 0.564580 0.010829
O  0.717696 1.944380 0.313279
H  -0.210076 1.948995 0.582949
C  0.600291 0.278516 -1.454586
H  1.043800 -0.668798 -1.779337
O  1.061382 1.262084 -2.361074
H  0.976409 2.115271 -1.914210
C  -0.928886 0.122721 -1.506110
H  -1.395834 1.111763 -1.399130
O  -1.276054 -0.461168 -2.750312
H  -2.236626 -0.453681 -2.825586
24
57 zpe= -687.196809 src= /lustre/lwork/pjhsu/sugar_opt/pj_sugar/beta_galactose/4C1.xyz:257 moment= 2.470059 0.809482 0.088114 2.501010 2.640698 1.104279 -0.161731 2.946102 4.389431 1.969747 -0.417494 2.237863 4.049460 1.883055 -0.094101 2.301341
H -2.530620 -2.289389 0.056132
O  -2.450499 -1.477376 -0.456501
C  -1.101306 -1.126756 -0.541700
H  -0.516821 -1.931393 -1.021494
O  -0.603687 -0.922148 0.774488
C  0.750178 -0.468546 0.793989
H  1.386033 -1.199213 0.265066
C  1.236188 -0.468761 2.235307
H  2.325614 -0.337859 2.229327
H  0.998802 -1.440995 2.680971
O  0.611164 0.586288 2.973024
H  0.939063 0.588147 3.876660
C  0.893140 0.882626 0.053578
H  1.958795 1.158853 0.040584
O  0.112010 1.915871 0.619033
H  0.154107 1.827020 1.581119
C  0.432819 0.658206 -1.389488
H  1.071422 -0.126020 -1.828117
O  0.569696 1.849374 -2.138198
H  0.084159 1.721791 -2.962133
C  -1.005693 0.146361 -1.384546
H  -1.658043 0.905059 -0.942550
O  -1.360584 -0.110805 -2.743151
H  -2.295935 -0.339332 -2.771395
24
58 zpe= -687.196759 src= /lustre/lwork/pjhsu/sugar_opt/pj_sugar/beta_galactose/4C1.xyz:261 moment= 2.450446 0.762181 -0.027806 2.919507 2.604894 1.057718 -0.270244 3.133447 4.191826 1.899389 -0.311782 2.208660 4.053316 1.889696 -0.136961 2.242036
H -3.156685 -0.364515 0.338667
O  -2.881546 -0.987180 -0.347058
C  -1.501080 -0.837209 -0.526949
H  -1.182787 -1.700665 -1.126881
O  -0.887748 -0.858300 0.750115
C  0.536163 -0.780396 0.710885
H  0.932030 -1.662782 0.179316
C  0.973538 -0.812135 2.179820
H  0.770403 -1.797898 2.608205
H  0.379689 -0.079241 2.726244
O  2.339731 -0.433556 2.351212
H  2.911664 -1.178959 2.144709
C  1.037681 0.467468 -0.032263
H  2.114540 0.363634 -0.198408
O  0.781319 1.671752 0.696761
H  1.463149 1.764950 1.371071
C  0.355656 0.621637 -1.401533
H  0.712052 -0.172539 -2.066120
O  0.736829 1.838463 -2.011270
H  0.680679 2.519952 -1.328391
C  -1.163568 0.463726 -1.272730
H  -1.566396 1.305022 -0.688765
O  -1.723781 0.430350 -2.574027
H  -2.660531 0.219422 -2.482611
24
59 zpe= -687.196754 src= /lustre/lwork/pjhsu/sugar_opt/pj_sugar/beta_galactose/4C1.xyz:262 moment= 2.429195 0.760191 0.009562 2.502962 2.619396 1.061759 -0.291081 3.142029 3.984556 1.843116 -0.101421 2.304421 3.907467 1.874247 -0.237147 1.995706
H -3.099865 0.184226 0.470065
O  -2.934905 -0.582310 -0.094055
C  -1.550358 -0.700228 -0.265998
H  -1.375371 -1.725443 -0.617633
O  -0.917986 -0.476182 0.980391
C  0.505668 -0.688334 0.948247
H  0.707586 -1.712371 0.602903
C  0.978840 -0.527368 2.399147
H  0.664417 -1.396550 2.978341
H  0.494895 0.356413 2.826424
O  2.391367 -0.448192 2.501936
H  2.653535 0.441225 2.237628
C  1.182835 0.295499 -0.021343
H  2.229768 0.009419 -0.136368
O  1.225865 1.615662 0.511939
H  0.331894 1.965472 0.588143
C  0.508577 0.188530 -1.397852
H  0.723880 -0.822489 -1.778635
O  1.049928 1.159323 -2.272809
H  0.567688 1.094801 -3.105809
C  -1.011780 0.306435 -1.289503
H  -1.282527 1.318728 -0.949502
O  -1.540600 0.071664 -2.587718
H  -2.503355 0.075070 -2.530938
24
60 zpe= -687.196679 src= /lustre/lwork/pjhsu/sugar_opt/pj_sugar/beta_galactose/4C1.xyz:263 moment= 2.436431 0.786865 0.044787 2.542605 2.605910 1.063342 -0.233411 3.120633 4.233723 1.830281 -0.506489 2.448730 3.985127 1.842781 -0.086426 2.386388
H -2.893952 -1.752136 0.247486
O  -2.614864 -1.177960 -0.474954
C  -1.237148 -1.032040 -0.414590
H  -0.721449 -2.005412 -0.455059
O  -0.920345 -0.400003 0.833166
C  0.480549 -0.210035 1.034248
H  1.012348 -1.159604 0.852755
C  0.712459 0.208242 2.483627
H  0.051741 1.037061 2.737985
H  1.747461 0.559964 2.585578
O  0.423127 -0.822869 3.417212
H  1.084573 -1.517207 3.335672
C  0.973371 0.816012 0.006480
H  2.048300 0.985804 0.111418
O  0.359487 2.094513 0.192742
H  -0.572512 1.947652 0.403227
C  0.684610 0.284038 -1.402580
H  1.316177 -0.591617 -1.586933
O  1.033037 1.231350 -2.405678
H  0.753652 2.098923 -2.081476
C  -0.782675 -0.147457 -1.575913
H  -1.429264 0.741862 -1.567732
O  -0.945257 -0.864157 -2.787221
H  -0.563424 -0.324925 -3.490458
24
61 zpe= -687.196626 src= /lustre/lwork/pjhsu/sugar_opt/pj_sugar/beta_galactose/4C1.xyz:266 moment= 2.407140 0.747577 -0.020764 2.528936 2.585990 1.047065 -0.233440 3.294519 3.924338 1.796841 -0.096793 2.368701 3.828572 1.700061 -0.339198 2.310611
H -2.239320 -2.302716 -1.356425
O  -2.278455 -1.826787 -0.517267
C  -0.983021 -1.394459 -0.225854
H  -0.371250 -2.230485 0.157394
O  -1.118695 -0.415960 0.787211
C  0.149656 0.015952 1.285716
H  0.751854 -0.864951 1.563705
C  -0.057392 0.816389 2.573179
H  0.933362 0.986934 3.019548
H  -0.635356 0.200514 3.264115
O  -0.772149 2.032151 2.438849
H  -0.292536 2.602468 1.826618
C  0.898739 0.756764 0.166682
H  1.888467 1.069010 0.510092
O  0.225807 1.966501 -0.221174
H  -0.724713 1.784745 -0.231166
C  1.054737 -0.163564 -1.053780
H  1.742837 -0.978002 -0.804312
O  1.635266 0.516588 -2.159978
H  1.255983 1.406652 -2.172725
C  -0.296322 -0.771659 -1.444254
H  -0.959946 0.020226 -1.820171
O  -0.158489 -1.792680 -2.424101
H  0.351936 -1.433628 -3.159903
24
62 zpe= -687.196588 src= /lustre/lwork/pjhsu/sugar_opt/pj_sugar/beta_galactose/4C1.xyz:272 moment= 2.399435 0.726960 -0.089712 2.758577 2.577450 1.024797 -0.349725 3.267566 3.915312 1.786241 -0.128078 2.376915 3.807401 1.679086 -0.348915 2.366690
H -3.191660 -0.250902 -0.060957
O  -2.800819 -1.097238 -0.308806
C  -1.433377 -0.947437 -0.451625
H  -1.066530 -1.895023 -0.865323
O  -0.857786 -0.733784 0.846392
C  0.570322 -0.778066 0.840259
H  0.904177 -1.698043 0.331964
C  1.080602 -0.875564 2.279671
H  2.161642 -1.072968 2.238631
H  0.599825 -1.734295 2.750851
O  0.796850 0.237715 3.110564
H  1.231320 1.013865 2.738225
C  1.101152 0.415274 0.034069
H  2.191863 0.381229 -0.031927
O  0.792759 1.672877 0.659452
H  -0.101712 1.608211 1.021741
C  0.508824 0.378069 -1.379682
H  0.923385 -0.480744 -1.918298
O  0.873324 1.525970 -2.137192
H  0.834975 2.283475 -1.536539
C  -1.021227 0.224143 -1.352835
H  -1.460951 1.138800 -0.918611
O  -1.525861 0.014955 -2.657170
H  -1.109096 0.669478 -3.231856
24
63 zpe= -687.196456 src= /lustre/lwork/pjhsu/sugar_opt/pj_sugar/beta_galactose/4C1.xyz:277 moment= 2.438719 0.744760 -0.099947 2.676123 2.603777 1.052444 -0.268411 3.254291 3.966677 1.781218 -0.200296 2.408010 3.870752 1.724713 -0.337381 2.327315
H -1.900515 -2.916961 0.145226
O  -1.792686 -2.320871 -0.604855
C  -0.620964 -1.599838 -0.415385
H  0.265631 -2.258763 -0.444969
O  -0.694186 -0.978871 0.861846
C  0.439482 -0.193983 1.205992
H  1.350488 -0.817591 1.166354
C  0.289987 0.274914 2.656434
H  1.191491 0.856583 2.907699
H  0.273193 -0.605162 3.303661
O  -0.886802 1.001949 2.935170
H  -1.037248 1.618078 2.205911
C  0.649798 0.948518 0.200719
H  1.626849 1.410451 0.411749
O  -0.376491 1.924574 0.353248
H  -0.416652 2.439586 -0.463405
C  0.661281 0.391963 -1.228735
H  1.586119 -0.175450 -1.387121
O  0.578632 1.466269 -2.183253
H  1.463926 1.776637 -2.398374
C  -0.516481 -0.542254 -1.514996
H  -1.452518 0.027622 -1.504440
O  -0.327793 -1.199448 -2.758217
H  -0.355540 -0.527951 -3.448257
24
64 zpe= -687.196382 src= /lustre/lwork/pjhsu/sugar_opt/pj_sugar/beta_galactose/4C1.xyz:279 moment= 2.426203 0.725832 -0.140075 2.868927 2.589727 1.027334 -0.376344 3.253757 3.917015 1.764833 -0.165366 2.422520 3.877865 1.725773 -0.353677 2.315779
H -3.007224 -1.004159 -0.353040
O  -2.454383 -1.794424 -0.308966
C  -1.133473 -1.394172 -0.177245
H  -0.555068 -2.313896 -0.012934
O  -1.047414 -0.535537 0.952808
C  0.266149 -0.117912 1.299622
H  0.889592 -1.005131 1.508384
C  0.193626 0.682920 2.603663
H  1.224561 0.954804 2.881406
H  -0.200365 0.029708 3.385131
O  -0.646228 1.817086 2.566745
H  -0.475358 2.286831 1.739890
C  0.952188 0.631339 0.146202
H  2.015094 0.751854 0.405933
O  0.358720 1.916684 -0.024373
H  0.600915 2.237344 -0.903119
C  0.840257 -0.185725 -1.146018
H  1.478895 -1.074169 -1.072514
O  1.239750 0.608787 -2.278881
H  2.186678 0.513950 -2.423333
C  -0.591651 -0.652615 -1.410541
H  -1.228095 0.226983 -1.579217
O  -0.631798 -1.530080 -2.522091
H  -0.276373 -1.051473 -3.279513
24
65 zpe= -687.196306 src= /lustre/lwork/pjhsu/sugar_opt/pj_sugar/beta_galactose/4C1.xyz:280 moment= 2.442112 0.810946 0.262818 3.065341 2.624051 1.075832 -0.253441 3.011027 4.593406 2.003926 -0.550831 2.440446 3.962900 1.877765 0.060217 2.514739
H -3.031161 -0.665550 -0.723054
O  -2.555439 -1.443712 -0.409995
C  -1.204318 -1.155524 -0.328782
H  -0.696597 -2.114551 -0.172678
O  -0.981475 -0.306244 0.807396
C  0.407914 -0.127320 1.103597
H  0.901107 -1.109162 1.159069
C  0.531174 0.522839 2.471615
H  -0.197754 1.335308 2.556434
H  1.537181 0.950654 2.573334
O  0.309107 -0.480509 3.457034
H  0.052786 -0.062257 4.283294
C  1.048465 0.680716 -0.028993
H  2.121105 0.801338 0.142379
O  0.518883 2.010064 -0.109383
H  -0.431512 1.958674 0.055666
C  0.830325 -0.057098 -1.356146
H  1.419154 -0.980496 -1.352316
O  1.298807 0.701159 -2.466045
H  1.073962 1.625356 -2.288702
C  -0.644943 -0.439076 -1.564831
H  -1.231990 0.487300 -1.693261
O  -0.793755 -1.267524 -2.701583
H  -0.283025 -0.864383 -3.415053
24
66 zpe= -687.196132 src= /lustre/lwork/pjhsu/sugar_opt/pj_sugar/beta_galactose/4C1.xyz:282 moment= 2.450311 0.812699 0.094256 2.274977 2.626379 1.099520 -0.121236 3.007090 4.261341 1.891532 -0.424948 2.283082 4.022584 1.866131 -0.068601 2.364603
H -2.830889 -1.902801 -0.280634
O  -2.222354 -1.602978 -0.965301
C  -1.019203 -1.218606 -0.371620
H  -0.587304 -2.042024 0.220618
O  -1.268324 -0.113204 0.492589
C  -0.070044 0.359750 1.133629
H  0.429516 -0.486537 1.632643
C  -0.493251 1.370890 2.198926
H  -1.307097 0.939816 2.792253
H  -0.856359 2.281467 1.723286
O  0.608649 1.757451 3.013776
H  0.806275 1.048332 3.633444
C  0.868240 0.934775 0.058329
H  1.786795 1.295186 0.524682
O  0.289757 2.064826 -0.574729
H  -0.604734 1.838721 -0.855483
C  1.213894 -0.202150 -0.917205
H  1.729996 -0.984590 -0.337429
O  2.066404 0.276620 -1.938253
H  2.182064 -0.439461 -2.574101
C  -0.058039 -0.824298 -1.494196
H  -0.567722 -0.092725 -2.133899
O  0.340357 -1.955314 -2.263216
H  -0.434624 -2.303141 -2.718109
24
67 zpe= -687.19594 src= /lustre/lwork/pjhsu/sugar_opt/pj_sugar/beta_galactose/4C1.xyz:285 moment= 2.451411 0.806680 0.069516 2.314689 2.626143 1.099180 -0.121316 3.015004 4.255519 1.854115 -0.473552 2.427331 4.013811 1.842598 -0.124062 2.326071
H -3.007914 -1.390297 0.283551
O  -2.596354 -1.020546 -0.506239
C  -1.219404 -0.930113 -0.297334
H  -0.781905 -1.922290 -0.096374
O  -0.983412 -0.085030 0.820799
C  0.413853 0.061286 1.116413
H  0.870357 -0.938517 1.206733
C  0.544377 0.780434 2.454610
H  -0.076116 1.675788 2.451500
H  1.587626 1.095503 2.583819
O  0.101320 -0.003492 3.555994
H  0.727582 -0.718830 3.704702
C  1.083010 0.807959 -0.052033
H  2.157379 0.902979 0.125770
O  0.597411 2.137128 -0.154709
H  -0.366892 2.113346 -0.153195
C  0.881592 -0.028345 -1.327685
H  1.389647 -0.992782 -1.164345
O  1.459499 0.635164 -2.433972
H  1.226442 0.131543 -3.223074
C  -0.598962 -0.329131 -1.559312
H  -1.134686 0.601475 -1.786411
O  -0.673404 -1.222097 -2.666563
H  -1.602046 -1.362134 -2.882644
24
68 zpe= -687.195934 src= /lustre/lwork/pjhsu/sugar_opt/pj_sugar/beta_galactose/4C1.xyz:286 moment= 2.452529 0.825085 0.249217 2.751677 2.638136 1.098748 -0.177707 2.965061 4.550053 2.053487 -0.421036 2.223981 4.010991 1.899716 0.029332 2.435060
H -2.978535 -0.340002 -0.936656
O  -2.585632 -1.217028 -0.840099
C  -1.259883 -1.054216 -0.421738
H  -0.934990 -2.038668 -0.061425
O  -1.229046 -0.102500 0.630783
C  0.085502 0.045638 1.200049
H  0.459905 -0.941847 1.504661
C  -0.064235 0.896785 2.452642
H  -0.877742 0.485085 3.060242
H  -0.310755 1.924962 2.172424
O  1.181787 0.831266 3.144922
H  1.247307 1.578000 3.745848
C  1.034944 0.642862 0.147117
H  2.038752 0.716371 0.567573
O  0.668161 1.972964 -0.191921
H  -0.250211 1.979299 -0.483038
C  1.065443 -0.313517 -1.056189
H  1.475325 -1.271440 -0.698719
O  1.894502 0.214356 -2.073695
H  1.836364 -0.381687 -2.829770
C  -0.349811 -0.589336 -1.566681
H  -0.770114 0.337116 -1.988173
O  -0.245160 -1.579888 -2.582186
H  -1.131875 -1.793578 -2.894969
24
69 zpe= -687.19578 src= /lustre/lwork/pjhsu/sugar_opt/pj_sugar/beta_galactose/4C1.xyz:287 moment= 2.461058 0.795968 0.004990 2.413008 2.641861 1.081758 -0.277025 2.964908 4.279547 1.888615 -0.482252 2.244495 3.860331 1.774777 -0.075845 2.340589
H -2.408008 -2.469670 -0.046523
O  -2.435988 -1.648893 -0.552101
C  -1.149441 -1.123491 -0.593621
H  -0.476931 -1.775795 -1.188329
O  -0.648386 -1.058617 0.732725
C  0.675487 -0.526717 0.838542
H  1.366072 -1.159327 0.254242
C  1.063987 -0.611337 2.316241
H  0.815198 -1.611317 2.687303
H  0.493516 0.122871 2.882764
O  2.440923 -0.301925 2.513528
H  2.973110 -1.061801 2.258725
C  0.761384 0.894612 0.269752
H  1.818826 1.188467 0.246702
O  0.024106 1.775510 1.101846
H  -0.044526 2.615269 0.630845
C  0.203861 0.899217 -1.156242
H  0.878697 0.306822 -1.795786
O  0.178111 2.246290 -1.611905
H  -0.405351 2.281366 -2.380764
C  -1.195242 0.276539 -1.207949
H  -1.886947 0.876033 -0.614186
O  -1.694999 0.308884 -2.544596
H  -1.348462 -0.441992 -3.040211
24
70 zpe= -687.195632 src= /lustre/lwork/pjhsu/sugar_opt/pj_sugar/beta_galactose/4C1.xyz:288 moment= 2.489288 0.833725 0.175554 2.688065 2.665536 1.101414 -0.262906 2.934008 4.599021 2.016592 -0.523607 2.436819 4.023199 1.890662 0.011462 2.495538
H -3.279027 -0.934212 0.418510
O  -2.931866 -0.349870 -0.265124
C  -1.565604 -0.580936 -0.371270
H  -1.357690 -1.621228 -0.677889
O  -0.983638 -0.346647 0.903794
C  0.423372 -0.560928 0.954586
H  0.651842 -1.592631 0.640510
C  0.867343 -0.403799 2.398759
H  0.418763 0.506244 2.804630
H  1.959269 -0.297579 2.428943
O  0.463393 -1.564542 3.124900
H  0.312851 -1.322808 4.042089
C  1.157002 0.392322 0.003280
H  2.212340 0.077400 -0.047299
O  1.073630 1.718479 0.499651
H  1.253740 2.312115 -0.240665
C  0.545046 0.281760 -1.399832
H  0.811618 -0.690101 -1.832859
O  1.030964 1.339757 -2.246574
H  1.853869 1.065419 -2.663561
C  -0.981644 0.389820 -1.398119
H  -1.279991 1.399815 -1.094728
O  -1.497381 0.064030 -2.679513
H  -1.158199 0.718121 -3.300216
24
71 zpe= -687.195323 src= /lustre/lwork/pjhsu/sugar_opt/pj_sugar/beta_galactose/4C1.xyz:289 moment= 2.459153 0.796251 0.012654 2.502647 2.616602 1.042915 -0.412927 3.102116 4.295711 1.900560 -0.467830 2.264820 3.950784 1.839152 -0.025238 2.429229
H -2.982807 -1.312894 -0.380969
O  -2.317637 -2.008362 -0.453814
C  -1.061572 -1.426516 -0.385836
H  -0.343058 -2.250928 -0.487672
O  -0.928070 -0.809792 0.892860
C  0.353696 -0.246850 1.150857
H  1.121802 -1.035344 1.064137
C  0.336035 0.256883 2.595781
H  -0.073913 -0.531457 3.234919
H  -0.306527 1.133196 2.667387
O  1.635392 0.663074 3.022281
H  2.142364 -0.117757 3.264360
C  0.705203 0.847513 0.135321
H  1.749305 1.146089 0.308190
O  -0.158792 1.957889 0.324827
H  -0.073554 2.523876 -0.452163
C  0.555776 0.276278 -1.278411
H  1.328438 -0.483405 -1.452158
O  0.666465 1.313142 -2.270766
H  1.595141 1.464233 -2.474302
C  -0.811372 -0.378209 -1.481558
H  -1.587200 0.394539 -1.390184
O  -0.881111 -1.019204 -2.744037
H  -0.663004 -0.356993 -3.410051
24
72 zpe= -687.195312 src= /lustre/lwork/pjhsu/sugar_opt/pj_sugar/beta_galactose/4C1.xyz:291 moment= 2.402260 0.722228 -0.091480 2.909778 2.590130 1.048884 -0.254642 3.203689 3.991583 1.809069 -0.217879 2.288021 3.768914 1.726722 -0.251663 2.131419
H -3.075529 -0.256355 0.026822
O  -2.724886 -1.116756 -0.237430
C  -1.328897 -1.031730 -0.255353
H  -0.966087 -2.067531 -0.286859
O  -0.899053 -0.393325 0.938877
C  0.528877 -0.405843 1.071489
H  0.890649 -1.439379 0.947335
C  0.905783 0.014519 2.493258
H  1.986503 -0.150850 2.611935
H  0.387489 -0.645177 3.191239
O  0.547092 1.335227 2.860379
H  0.992116 1.946461 2.261180
C  1.137934 0.441311 -0.051155
H  2.229011 0.414741 0.002241
O  0.785654 1.831008 0.082368
H  -0.149310 1.876225 0.323942
C  0.703124 -0.076564 -1.435298
H  1.166077 -1.052856 -1.613524
O  1.182589 0.777211 -2.455471
H  1.053515 1.685201 -2.150269
C  -0.820346 -0.269169 -1.491676
H  -1.305832 0.721128 -1.497469
O  -1.139252 -0.982202 -2.671387
H  -2.088222 -1.155296 -2.665176
24
73 zpe= -687.195255 src= /lustre/lwork/pjhsu/sugar_opt/pj_sugar/beta_galactose/4C1.xyz:292 moment= 2.432980 0.791684 0.099518 2.473250 2.618677 1.089577 -0.151335 3.017165 4.240394 1.847971 -0.489625 2.378168 3.952075 1.843419 -0.014534 2.398028
H -2.611921 -1.776192 -1.372130
O  -2.457972 -1.492192 -0.462290
C  -1.106822 -1.154671 -0.357764
H  -0.483450 -2.063215 -0.284130
O  -0.984092 -0.409452 0.838751
C  0.378159 -0.112525 1.148556
H  0.970909 -1.042661 1.116984
C  0.447397 0.459832 2.562406
H  -0.262068 1.281024 2.664940
H  1.455741 0.865791 2.720985
O  0.103437 -0.476938 3.569982
H  0.745756 -1.193820 3.570890
C  0.936219 0.839551 0.079216
H  1.990948 1.054008 0.270659
O  0.274943 2.108666 0.095612
H  -0.665677 1.955374 0.256321
C  0.798441 0.193417 -1.309072
H  1.474921 -0.665188 -1.376201
O  1.189077 1.084064 -2.347414
H  0.870311 1.962542 -2.096189
C  -0.634549 -0.298989 -1.536070
H  -1.311940 0.564450 -1.599987
O  -0.747781 -1.090942 -2.711743
H  -0.369990 -0.590933 -3.445312
24
74 zpe= -687.195232 src= /lustre/lwork/pjhsu/sugar_opt/pj_sugar/beta_galactose/4C1.xyz:299 moment= 2.434269 0.749870 -0.070229 2.549111 2.599992 1.052123 -0.247778 3.280845 3.989426 1.695589 -0.611587 2.341943 3.794445 1.762695 -0.209348 2.084912
H -3.246564 -0.706062 -1.080707
O  -2.951628 -0.579773 -0.170101
C  -1.567159 -0.759972 -0.158715
H  -1.320060 -1.838630 -0.187497
O  -1.108385 -0.203192 1.046705
C  0.282047 -0.407049 1.261859
H  0.499332 -1.490001 1.254184
C  0.641164 0.100117 2.661769
H  1.709491 -0.116316 2.823942
H  0.070195 -0.478914 3.390864
O  0.347920 1.458059 2.907989
H  0.613882 1.967104 2.131191
C  1.136753 0.211366 0.138746
H  2.169084 -0.149232 0.265942
O  1.116680 1.632503 0.239149
H  1.391404 1.992950 -0.614279
C  0.617627 -0.233117 -1.238923
H  0.851582 -1.292830 -1.394654
O  1.215197 0.557634 -2.282370
H  2.038210 0.147933 -2.567871
C  -0.891601 -0.052608 -1.338704
H  -1.144023 1.011618 -1.273761
O  -1.417729 -0.626751 -2.532085
H  -1.054427 -0.145837 -3.283676
24
75 zpe= -687.194803 src= /lustre/lwork/pjhsu/sugar_opt/pj_sugar/beta_galactose/4C1.xyz:300 moment= 2.445002 0.805388 0.240569 3.148578 2.620295 1.067507 -0.282821 3.044361 4.587625 1.986143 -0.596950 2.438052 4.020575 1.862222 -0.110238 2.349562
H -2.775597 -1.031738 -0.790252
O  -2.184125 -1.787823 -0.684906
C  -0.906584 -1.303756 -0.382265
H  -0.333237 -2.171164 -0.032179
O  -1.018332 -0.336290 0.651803
C  0.269754 0.082607 1.130916
H  0.860427 -0.805326 1.398293
C  0.070204 0.899593 2.395371
H  -0.743079 1.617168 2.244416
H  0.990786 1.461372 2.600338
O  -0.221840 -0.001978 3.457902
H  -0.578800 0.491893 4.201282
C  0.984694 0.837854 0.009033
H  1.985077 1.137531 0.329929
O  0.307400 2.059870 -0.316611
H  -0.641402 1.880906 -0.321797
C  1.120166 -0.044623 -1.247899
H  1.827979 -0.854442 -1.042319
O  1.673742 0.701950 -2.314739
H  1.261733 1.576074 -2.289688
C  -0.225383 -0.688745 -1.617504
H  -0.896526 0.092766 -2.012243
O  0.005178 -1.682842 -2.598095
H  -0.832238 -2.130856 -2.766787
24
76 zpe= -687.194774 src= /lustre/lwork/pjhsu/sugar_opt/pj_sugar/beta_galactose/4C1.xyz:302 moment= 2.427975 0.779050 0.075123 2.700900 2.604621 1.059419 -0.250831 3.124786 4.255465 1.874107 -0.459998 2.303999 4.017578 1.855180 -0.124651 2.332208
H -2.976969 0.921367 0.476668
O  -2.977838 0.048327 0.063586
C  -1.653344 -0.318979 -0.190854
H  -1.689027 -1.375639 -0.484296
O  -0.901252 -0.171159 1.009961
C  0.437234 -0.669479 0.862229
H  0.395050 -1.695317 0.463081
C  1.066470 -0.717924 2.255758
H  0.378447 -1.232746 2.934377
H  1.226094 0.292985 2.631587
O  2.346663 -1.338550 2.222755
H  2.233916 -2.293159 2.179153
C  1.184847 0.209962 -0.141403
H  2.203517 -0.158374 -0.272582
O  1.319309 1.554997 0.333653
H  0.487969 1.811214 0.752156
C  0.462555 0.208312 -1.502642
H  0.545955 -0.785119 -1.955978
O  1.089610 1.105890 -2.398591
H  1.337828 1.886662 -1.885247
C  -1.034814 0.514396 -1.327097
H  -1.148544 1.578926 -1.061904
O  -1.696053 0.236056 -2.547621
H  -2.639625 0.387349 -2.417750
24
77 zpe= -687.194717 src= /lustre/lwork/pjhsu/sugar_opt/pj_sugar/beta_galactose/4C1.xyz:303 moment= 2.422866 0.726982 -0.155790 2.757717 2.608969 1.071906 -0.213484 3.010121 3.870511 1.713081 -0.317879 2.308495 3.783527 1.697849 -0.290875 2.286086
H -3.178568 -0.854571 0.671338
O  -2.837513 -0.292700 -0.033811
C  -1.498774 -0.600913 -0.235803
H  -1.374983 -1.670380 -0.497708
O  -0.802712 -0.370204 0.989022
C  0.618777 -0.541126 0.924860
H  0.857586 -1.579865 0.643048
C  1.126570 -0.322922 2.347328
H  2.214330 -0.414651 2.370467
H  0.701609 -1.091190 3.003043
O  0.821089 0.980869 2.843246
H  -0.140423 1.067306 2.852766
C  1.242456 0.391705 -0.133430
H  2.314292 0.152525 -0.210753
O  1.057072 1.765405 0.149075
H  1.159214 1.893414 1.103143
C  0.574799 0.073544 -1.472865
H  0.766918 -0.994552 -1.685186
O  1.133465 0.861043 -2.502041
H  0.491375 0.888232 -3.222638
C  -0.942306 0.272720 -1.364565
H  -1.156974 1.316820 -1.135842
O  -1.566288 0.010398 -2.620880
H  -1.584013 -0.940910 -2.779812
24
78 zpe= -687.194603 src= /lustre/lwork/pjhsu/sugar_opt/pj_sugar/beta_galactose/4C1.xyz:305 moment= 2.466564 0.815274 0.064421 2.342691 2.627317 1.067106 -0.293528 3.119925 4.314712 1.928386 -0.420796 2.249301 3.960717 1.854242 0.011275 2.423166
H -3.147241 -1.082553 -1.208274
O  -2.881597 -0.980702 -0.285608
C  -1.486545 -0.910593 -0.267335
H  -1.050998 -1.923725 -0.358070
O  -1.137138 -0.362167 0.980406
C  0.271203 -0.308886 1.186518
H  0.688995 -1.327992 1.107887
C  0.490995 0.199564 2.612877
H  -0.162480 -0.362530 3.287213
H  0.225233 1.253955 2.668354
O  1.862004 0.098162 2.995222
H  2.045592 -0.808471 3.258957
C  0.974018 0.555405 0.126615
H  2.058509 0.433294 0.262191
O  0.608011 1.913025 0.314311
H  0.857736 2.392318 -0.485295
C  0.571231 0.074968 -1.276793
H  1.003045 -0.915464 -1.467067
O  1.012125 0.998748 -2.287562
H  1.922430 0.799175 -2.529072
C  -0.944492 -0.024727 -1.393626
H  -1.388368 0.969912 -1.277294
O  -1.351339 -0.619937 -2.623671
H  -1.040929 -0.058781 -3.342885
24
79 zpe= -687.194404 src= /lustre/lwork/pjhsu/sugar_opt/pj_sugar/beta_galactose/4C1.xyz:306 moment= 2.440219 0.798927 0.103105 2.426966 2.623406 1.092281 -0.142073 3.034857 4.276104 1.900851 -0.427407 2.265609 3.993665 1.861901 -0.056608 2.333006
H -3.047338 -0.728959 0.000605
O  -2.538589 -1.468299 -0.356455
C  -1.186110 -1.110249 -0.346929
H  -0.627813 -2.042805 -0.500336
O  -0.874039 -0.545942 0.919099
C  0.527170 -0.241824 1.059467
H  1.109064 -1.147575 0.826904
C  0.765567 0.124716 2.524200
H  0.289843 -0.630843 3.158335
H  0.317511 1.093702 2.742890
O  2.155578 0.254136 2.804129
H  2.543344 -0.622757 2.885109
C  0.907479 0.867203 0.063118
H  1.974367 1.081462 0.145592
O  0.251095 2.087528 0.370176
H  -0.694629 1.921991 0.451770
C  0.607541 0.349265 -1.353101
H  1.243063 -0.535586 -1.518573
O  0.914205 1.345455 -2.308668
H  0.642967 1.010295 -3.171473
C  -0.846889 -0.110896 -1.461350
H  -1.510082 0.761788 -1.359902
O  -1.008028 -0.696518 -2.747896
H  -1.915277 -1.012286 -2.830710
24
80 zpe= -687.193719 src= /lustre/lwork/pjhsu/sugar_opt/pj_sugar/beta_galactose/4C1.xyz:310 moment= 2.428069 0.769667 0.038779 2.738045 2.603471 1.059352 -0.246268 3.130632 4.219977 1.813825 -0.550138 2.418019 4.000360 1.822485 -0.195214 2.290867
H -3.012923 -0.603338 -0.103048
O  -2.528655 -1.315602 -0.539995
C  -1.166681 -0.998113 -0.513415
H  -0.637848 -1.928251 -0.758828
O  -0.825545 -0.567470 0.796934
C  0.587085 -0.381082 0.948993
H  1.104990 -1.294677 0.613006
C  0.897094 -0.160917 2.427252
H  0.277386 0.644874 2.820738
H  1.946145 0.151513 2.516308
O  0.622742 -1.292557 3.237576
H  1.218319 -2.009168 2.996201
C  1.030946 0.778392 0.050733
H  2.113253 0.915913 0.113408
O  0.464014 2.022419 0.480994
H  -0.455031 1.863269 0.730672
C  0.658825 0.508963 -1.421041
H  1.272155 -0.314527 -1.801981
O  0.970403 1.633452 -2.220497
H  0.706495 2.417107 -1.719738
C  -0.813359 0.086510 -1.545947
H  -1.453443 0.961541 -1.343741
O  -1.034583 -0.395836 -2.857733
H  -1.941784 -0.720416 -2.903850
24
81 zpe= -687.193416 src= /lustre/lwork/pjhsu/sugar_opt/pj_sugar/beta_galactose/4C1.xyz:311 moment= 2.462427 0.783382 -0.049734 2.601481 2.619762 1.063345 -0.268379 3.145589 4.213218 1.826971 -0.488222 2.442753 4.003001 1.859405 -0.108954 2.311384
H -3.021390 -1.623309 0.363226
O  -2.876287 -0.776811 -0.074713
C  -1.534534 -0.689338 -0.417937
H  -1.240717 -1.500158 -1.107462
O  -0.771718 -0.807657 0.783436
C  0.631598 -0.732904 0.599224
H  0.956567 -1.510179 -0.118182
C  1.299338 -1.007965 1.943674
H  0.836368 -0.378758 2.705122
H  2.365215 -0.743277 1.870569
O  1.142681 -2.342205 2.400323
H  1.574998 -2.939918 1.781801
C  1.041568 0.621901 -0.009455
H  2.108496 0.594391 -0.266557
O  0.775996 1.735678 0.850697
H  1.477622 1.826664 1.501535
C  0.235374 0.866154 -1.286780
H  0.561731 0.150495 -2.048237
O  0.490042 2.154263 -1.834638
H  0.475919 2.776211 -1.094108
C  -1.273052 0.666244 -1.070850
H  -1.655078 1.433842 -0.385797
O  -1.946431 0.711208 -2.317679
H  -1.655304 1.514427 -2.766214
24
82 zpe= -687.193357 src= /lustre/lwork/pjhsu/sugar_opt/pj_sugar/beta_galactose/4C1.xyz:312 moment= 2.448356 0.772139 -0.072528 2.363871 2.622306 1.098466 -0.123112 2.978581 3.976049 1.842683 -0.358655 2.177281 3.965025 1.823352 -0.116545 2.314016
H -3.340141 -0.350902 -0.722064
O  -2.863792 -0.560184 0.091351
C  -1.507611 -0.630816 -0.234118
H  -1.273777 -1.605340 -0.699159
O  -0.809733 -0.520800 0.988521
C  0.603625 -0.637716 0.834230
H  0.838931 -1.598586 0.348732
C  1.173749 -0.676585 2.247404
H  0.944565 0.265870 2.764934
H  2.259245 -0.797219 2.205823
O  0.669387 -1.776436 2.982164
H  -0.293934 -1.729558 2.937232
C  1.169820 0.487715 -0.059376
H  2.238337 0.276395 -0.230979
O  1.006311 1.792501 0.475653
H  1.396353 1.834695 1.353727
C  0.428151 0.437036 -1.405492
H  0.667961 -0.525278 -1.881425
O  0.739605 1.503438 -2.293107
H  1.690810 1.551735 -2.431480
C  -1.079505 0.497943 -1.174959
H  -1.331099 1.453875 -0.703705
O  -1.811381 0.318608 -2.383656
H  -1.516879 0.989609 -3.010247
24
83 zpe= -687.193314 src= /lustre/lwork/pjhsu/sugar_opt/pj_sugar/beta_galactose/4C1.xyz:313 moment= 2.470349 0.790554 0.081932 2.709842 2.669601 1.098312 -0.329240 2.830858 4.450258 1.913711 -0.554001 2.524631 3.994855 1.854769 -0.088923 2.306651
H -3.043293 -0.235073 0.036135
O  -2.725032 -0.997183 -0.466134
C  -1.324118 -0.957393 -0.430299
H  -0.984400 -1.976827 -0.664517
O  -0.931581 -0.573130 0.869809
C  0.483033 -0.487937 1.055989
H  0.924702 -1.475229 0.833918
C  0.750514 -0.256058 2.538193
H  1.840876 -0.213036 2.676098
H  0.372975 -1.134865 3.076620
O  0.122191 0.925611 3.002949
H  0.176019 0.938316 3.962595
C  1.157794 0.484966 0.074009
H  2.245160 0.343603 0.171999
O  0.811822 1.828545 0.343860
H  1.093284 2.340345 -0.425888
C  0.750698 0.098111 -1.354895
H  1.165670 -0.890998 -1.596097
O  1.298391 1.074414 -2.236468
H  0.877759 0.961025 -3.097374
C  -0.766383 0.029239 -1.463110
H  -1.186839 1.019920 -1.248625
O  -1.076615 -0.374296 -2.794020
H  -2.033629 -0.472075 -2.862748
24
84 zpe= -687.19323 src= /lustre/lwork/pjhsu/sugar_opt/pj_sugar/beta_galactose/4C1.xyz:315 moment= 2.449559 0.767091 -0.046136 2.746771 2.619464 1.064858 -0.261085 3.130157 4.197110 1.821396 -0.491390 2.417327 3.960651 1.844261 -0.075428 2.333694
H -3.063838 -0.759609 -0.615982
O  -2.551574 -1.563182 -0.464477
C  -1.213245 -1.225009 -0.355150
H  -0.671864 -2.173264 -0.238580
O  -1.051470 -0.418222 0.814033
C  0.293712 -0.107437 1.134157
H  0.868125 -1.044996 1.258895
C  0.309250 0.646869 2.460986
H  -0.379487 1.491003 2.399893
H  1.325939 1.036325 2.627861
O  -0.123781 -0.119854 3.570532
H  0.412763 -0.916536 3.636029
C  0.984556 0.677792 0.001214
H  2.056930 0.759073 0.219856
O  0.429815 1.983312 -0.206181
H  0.794884 2.602779 0.431977
C  0.804143 -0.071976 -1.319756
H  1.386979 -0.997980 -1.283769
O  1.317383 0.664761 -2.423668
H  1.036786 1.581797 -2.297591
C  -0.665326 -0.448633 -1.559404
H  -1.257889 0.473909 -1.657299
O  -0.782858 -1.249400 -2.721160
H  -0.259932 -0.822521 -3.411417
24
85 zpe= -687.193168 src= /lustre/lwork/pjhsu/sugar_opt/pj_sugar/beta_galactose/4C1.xyz:318 moment= 2.429037 0.732231 -0.136442 2.688029 2.617618 1.038547 -0.433625 3.145905 3.905171 1.771424 -0.133019 2.412052 3.861315 1.732418 -0.351328 2.235592
H -3.081462 -0.460856 -0.448104
O  -2.650380 -1.322119 -0.389825
C  -1.280547 -1.134336 -0.312468
H  -0.837274 -2.138080 -0.344500
O  -0.983747 -0.512426 0.938720
C  0.408501 -0.330393 1.200902
H  0.922411 -1.304109 1.122850
C  0.525123 0.101989 2.663647
H  1.571095 0.324639 2.892202
H  0.218901 -0.755363 3.279339
O  -0.226805 1.248427 3.002469
H  -1.076662 1.185710 2.552090
C  1.053983 0.581878 0.148732
H  2.141662 0.584164 0.329515
O  0.539482 1.897752 0.227750
H  0.781471 2.344348 -0.593841
C  0.778340 -0.020006 -1.237438
H  1.309133 -0.974477 -1.341107
O  1.192012 0.879833 -2.280945
H  2.126388 0.746306 -2.470116
C  -0.714833 -0.273632 -1.452331
H  -1.237546 0.693078 -1.433514
O  -0.941780 -0.947153 -2.678316
H  -0.536463 -0.416175 -3.373714
24
86 zpe= -687.192867 src= /lustre/lwork/pjhsu/sugar_opt/pj_sugar/beta_galactose/4C1.xyz:319 moment= 2.411244 0.735056 -0.096407 2.641653 2.586924 1.026648 -0.364568 3.269427 3.921057 1.779107 -0.147469 2.401311 3.831637 1.695478 -0.344763 2.356992
H -3.113015 0.734908 0.231660
O  -3.029381 -0.213934 0.077906
C  -1.697880 -0.522491 -0.140318
H  -1.668431 -1.599633 -0.347870
O  -0.962075 -0.231793 1.050177
C  0.389690 -0.687415 1.005783
H  0.404755 -1.749831 0.708135
C  0.994374 -0.629627 2.410160
H  1.986493 -1.105106 2.359404
H  0.370844 -1.231079 3.074363
O  1.074216 0.656207 2.993317
H  1.504179 1.241140 2.356192
C  1.164170 0.106073 -0.063504
H  2.174773 -0.307069 -0.151953
O  1.365046 1.471984 0.303009
H  0.507917 1.912403 0.345152
C  0.433103 -0.055743 -1.408887
H  0.528143 -1.109309 -1.711519
O  0.924643 0.790118 -2.443855
H  1.879243 0.695098 -2.524917
C  -1.064262 0.256112 -1.302156
H  -1.186020 1.331469 -1.088620
O  -1.733194 -0.079554 -2.502230
H  -1.245334 0.329071 -3.227430
24
87 zpe= -687.192269 src= /lustre/lwork/pjhsu/sugar_opt/pj_sugar/beta_galactose/4C1.xyz:324 moment= 2.419230 0.761182 -0.028433 2.365949 2.615499 1.093430 -0.148059 2.897478 3.974125 1.832522 -0.383717 2.169895 3.871189 1.737887 -0.169258 2.476733
H -2.534109 -1.897424 -0.951351
O  -2.452148 -1.361144 -0.153003
C  -1.100003 -1.064326 0.028796
H  -0.614664 -1.852578 0.636185
O  -1.055842 0.149360 0.751549
C  0.290632 0.530331 1.101303
H  0.780914 -0.315398 1.604743
C  0.169222 1.672723 2.100078
H  -0.338874 2.524233 1.635081
H  1.168097 1.997142 2.399208
O  -0.496348 1.257114 3.282870
H  -1.369451 0.938049 3.026175
C  1.046454 0.874689 -0.191286
H  2.078735 1.155107 0.034360
O  0.474199 1.995162 -0.845570
H  -0.486140 1.902536 -0.828725
C  1.069880 -0.391706 -1.071593
H  1.620584 -1.162622 -0.502066
O  1.743804 -0.123559 -2.283513
H  1.522769 -0.820984 -2.911968
C  -0.353934 -0.902850 -1.304064
H  -0.903043 -0.185770 -1.919863
O  -0.375257 -2.119476 -2.059710
H  0.112521 -2.799609 -1.577635
24
88 zpe= -687.192228 src= /lustre/lwork/pjhsu/sugar_opt/pj_sugar/beta_galactose/4C1.xyz:325 moment= 2.469167 0.811036 0.070644 2.330814 2.650275 1.100105 -0.232397 2.896846 4.292817 1.892139 -0.472986 2.310868 3.965241 1.852791 0.002017 2.419839
H -3.413290 0.132920 -0.645284
O  -2.968995 -0.233340 0.129670
C  -1.625249 -0.402651 -0.210874
H  -1.496566 -1.314674 -0.824646
O  -0.927397 -0.546870 0.999663
C  0.450847 -0.841051 0.815934
H  0.546904 -1.767971 0.220588
C  1.076803 -1.072902 2.189397
H  0.823905 -0.236046 2.838416
H  2.169277 -1.099795 2.076791
O  0.600075 -2.241734 2.839618
H  0.833076 -3.013724 2.314228
C  1.176134 0.268984 0.032552
H  2.176617 -0.107644 -0.237253
O  1.297690 1.420277 0.850228
H  1.478640 2.168955 0.267426
C  0.406172 0.592053 -1.259795
H  0.506747 -0.241276 -1.965734
O  0.904400 1.800923 -1.860311
H  1.639781 1.591452 -2.445102
C  -1.074848 0.806142 -0.975372
H  -1.205878 1.687396 -0.337868
O  -1.835399 0.929892 -2.174457
H  -1.538447 1.720685 -2.637816
24
89 zpe= -687.19162 src= /lustre/lwork/pjhsu/sugar_opt/pj_sugar/beta_galactose/4C1.xyz:327 moment= 2.444422 0.750175 -0.134125 2.697944 2.608779 1.067369 -0.224611 3.092522 4.012276 1.808260 -0.290159 2.214615 3.751833 1.721983 -0.215745 2.138118
H -2.830657 1.120725 -0.199042
O  -2.882929 0.162784 -0.314820
C  -1.579508 -0.342747 -0.285863
H  -1.683541 -1.435277 -0.261714
O  -0.952149 0.120249 0.900123
C  0.388985 -0.351852 1.052744
H  0.386498 -1.453272 1.039763
C  0.837814 0.098383 2.437086
H  0.827296 1.196031 2.489451
H  1.856365 -0.250306 2.625958
O  0.025170 -0.454170 3.457724
H  -0.890256 -0.239269 3.240702
C  1.274853 0.138199 -0.105936
H  2.272893 -0.314024 0.010965
O  1.378932 1.554195 -0.172216
H  1.827182 1.881633 0.612985
C  0.672196 -0.355136 -1.435337
H  0.702164 -1.455483 -1.424133
O  1.352741 0.142263 -2.571758
H  2.282257 -0.101671 -2.516880
C  -0.790693 0.067898 -1.543607
H  -0.824728 1.161223 -1.641867
O  -1.358523 -0.568085 -2.677272
H  -2.290361 -0.323286 -2.714058
24
90 zpe= -687.190351 src= /lustre/lwork/pjhsu/sugar_opt/pj_sugar/beta_galactose/4C1.xyz:328 moment= 2.425039 0.774418 0.017316 2.328263 2.614438 1.054403 -0.308707 3.202932 4.001634 1.854594 -0.225783 2.090449 3.936086 1.720243 -0.387517 2.442349
H -3.129967 -0.835195 -1.174270
O  -2.863252 -0.778472 -0.248435
C  -1.469263 -0.836773 -0.198038
H  -1.135710 -1.887995 -0.094646
O  -1.082460 -0.125219 0.957780
C  0.329834 -0.200474 1.206354
H  0.647698 -1.252928 1.230114
C  0.545398 0.427088 2.588864
H  0.147799 -0.245502 3.349937
H  -0.014151 1.365579 2.645674
O  1.921340 0.620176 2.880773
H  2.211329 1.424220 2.436258
C  1.079514 0.523336 0.077127
H  2.156801 0.415379 0.216506
O  0.828371 1.921883 0.110717
H  -0.122980 2.064788 0.184845
C  0.704573 -0.140618 -1.262082
H  1.080999 -1.178687 -1.209509
O  1.333797 0.541123 -2.327938
H  0.914409 0.262642 -3.150659
C  -0.814125 -0.204033 -1.433933
H  -1.215824 0.805678 -1.555280
O  -1.191304 -0.889229 -2.634261
H  -0.862826 -1.796769 -2.595899
24
91 zpe= -687.190114 src= /lustre/lwork/pjhsu/sugar_opt/pj_sugar/beta_galactose/4C1.xyz:329 moment= 2.432053 0.791158 0.067597 2.425115 2.613981 1.077519 -0.206543 2.974533 4.266872 1.882313 -0.469685 2.249903 3.588202 1.761123 0.095035 2.262187
H -3.209774 0.307191 -0.153768
O  -2.909069 -0.607453 -0.216253
C  -1.525519 -0.631969 -0.298171
H  -1.262306 -1.682584 -0.495506
O  -0.973154 -0.246139 0.961663
C  0.453655 -0.418258 1.024714
H  0.702861 -1.447828 0.721178
C  0.869905 -0.232628 2.484129
H  0.211088 -0.835882 3.117432
H  0.764058 0.812965 2.772704
O  2.241532 -0.563962 2.675773
H  2.332581 -1.521250 2.707699
C  1.114242 0.567971 0.047906
H  2.198486 0.443705 0.067490
O  0.871855 1.912369 0.431816
H  -0.061655 2.006640 0.653489
C  0.590388 0.238625 -1.360285
H  0.905125 -0.796213 -1.585877
O  1.147788 1.122468 -2.309354
H  0.651781 1.013961 -3.130300
C  -0.944857 0.275982 -1.394357
H  -1.275862 1.303914 -1.209283
O  -1.430323 -0.033370 -2.699295
H  -1.463825 -0.990253 -2.814545
24
92 zpe= -687.189986 src= /lustre/lwork/pjhsu/sugar_opt/pj_sugar/beta_galactose/4C1.xyz:330 moment= 2.446957 0.829829 0.247982 2.703575 2.634979 1.098989 -0.199700 2.836194 4.568133 2.063811 -0.429303 2.186135 3.948217 1.755272 -0.275586 2.527946
H -2.117028 -2.319258 -1.425724
O  -1.842862 -2.269755 -0.501640
C  -0.704011 -1.464406 -0.435960
H  0.206967 -2.082896 -0.556293
O  -0.692020 -0.900062 0.859549
C  0.492114 -0.121715 1.093730
H  1.383051 -0.720939 0.856641
C  0.529718 0.200502 2.580786
H  0.384636 -0.728874 3.142336
H  -0.275655 0.897465 2.831001
O  1.811116 0.771419 2.842250
H  1.786357 1.223345 3.689855
C  0.450032 1.116304 0.182518
H  1.336676 1.730591 0.346398
O  -0.663472 1.940320 0.491182
H  -1.437905 1.376424 0.607811
C  0.442404 0.621259 -1.276852
H  1.387665 0.069254 -1.430282
O  0.385469 1.721645 -2.162243
H  0.133122 1.393437 -3.033277
C  -0.716409 -0.353161 -1.496258
H  -1.664949 0.184804 -1.419872
O  -0.720433 -0.903501 -2.819839
H  0.105418 -1.383198 -2.963815
24
93 zpe= -687.188683 src= /lustre/lwork/pjhsu/sugar_opt/pj_sugar/beta_galactose/4C1.xyz:331 moment= 2.409296 0.751267 -0.047817 2.333469 2.613666 1.053269 -0.315109 3.189425 3.897269 1.660011 -0.531798 2.402870 3.798920 1.760218 -0.233302 2.033924
H -2.261171 -2.195201 -1.245583
O  -2.173834 -1.913249 -0.326701
C  -0.896706 -1.375796 -0.160408
H  -0.182411 -2.173203 0.127877
O  -0.989970 -0.450405 0.901391
C  0.287777 0.096699 1.256089
H  1.003759 -0.726453 1.413513
C  0.175189 0.826242 2.595801
H  1.197038 1.100756 2.900246
H  -0.215590 0.124020 3.334737
O  -0.683401 1.949414 2.622154
H  -0.435837 2.533752 1.894000
C  0.786164 0.961327 0.082781
H  1.765657 1.389531 0.309844
O  -0.077372 2.074232 -0.134457
H  -0.987979 1.751424 -0.149100
C  0.922917 0.058709 -1.157679
H  1.688238 -0.699843 -0.911805
O  1.349735 0.823186 -2.266055
H  1.183798 0.311082 -3.066466
C  -0.393905 -0.671095 -1.429570
H  -1.154198 0.048025 -1.746226
O  -0.284840 -1.584608 -2.527490
H  0.376946 -2.255546 -2.315890
24
94 zpe= -687.188411 src= /lustre/lwork/pjhsu/sugar_opt/pj_sugar/beta_galactose/4C1.xyz:332 moment= 2.434201 0.800161 0.090889 2.346615 2.621450 1.092439 -0.167543 2.902934 4.278054 1.894878 -0.450376 2.245305 3.928027 1.719828 -0.370294 2.447466
H -3.171385 -0.692892 -1.089428
O  -2.784085 -0.934805 -0.239094
C  -1.398343 -0.808004 -0.347055
H  -0.953643 -1.768269 -0.675168
O  -0.923010 -0.519431 0.953283
C  0.511266 -0.458693 1.002536
H  0.928834 -1.377111 0.559374
C  0.913455 -0.408590 2.476978
H  0.376885 -1.196833 3.014924
H  0.636066 0.553108 2.908062
O  2.324755 -0.525255 2.629125
H  2.575123 -1.450217 2.543561
C  0.975664 0.757066 0.182247
H  2.064003 0.835646 0.210981
O  0.478598 1.964226 0.735619
H  -0.444200 1.831010 0.984563
C  0.522245 0.539275 -1.274572
H  1.021555 -0.380310 -1.631706
O  0.917072 1.634634 -2.074982
H  0.405085 1.610995 -2.891951
C  -0.988930 0.306870 -1.320949
H  -1.507634 1.224777 -1.032530
O  -1.457064 0.030263 -2.646943
H  -1.021313 -0.766458 -2.975877
24
95 zpe= -687.187568 src= /lustre/lwork/pjhsu/sugar_opt/pj_sugar/beta_galactose/4C1.xyz:334 moment= 2.456047 0.784210 -0.051484 2.492708 2.617838 1.074265 -0.213370 3.079141 4.177824 1.812725 -0.482387 2.423013 3.978364 1.845433 -0.092065 2.339220
H -3.186315 0.419541 0.087179
O  -2.982296 -0.492260 -0.154198
C  -1.613210 -0.609493 -0.326146
H  -1.436819 -1.647011 -0.639289
O  -0.987729 -0.364264 0.935196
C  0.419584 -0.525259 0.941168
H  0.678616 -1.544107 0.595760
C  0.913394 -0.372245 2.377494
H  0.525346 0.558395 2.796784
H  2.013226 -0.318760 2.363761
O  0.470045 -1.392212 3.255232
H  0.721841 -2.250074 2.898030
C  1.099122 0.464161 -0.034016
H  2.174608 0.227131 -0.076582
O  0.907199 1.825897 0.319798
H  1.352389 2.010642 1.152004
C  0.484664 0.238900 -1.419886
H  0.733679 -0.787067 -1.729698
O  0.922559 1.158414 -2.414312
H  1.873992 1.082242 -2.536895
C  -1.040721 0.354974 -1.375589
H  -1.301127 1.381243 -1.082719
O  -1.602118 0.026133 -2.634443
H  -1.139931 0.555077 -3.295633
24
96 zpe= -687.186836 src= /lustre/lwork/pjhsu/sugar_opt/pj_sugar/beta_galactose/4C1.xyz:335 moment= 2.435200 0.794331 0.070780 2.352356 2.621386 1.093585 -0.162182 2.901003 4.249925 1.845926 -0.512129 2.373037 3.874815 1.747944 -0.138652 2.506918
H -3.248431 0.141948 -0.861781
O  -2.869631 -0.125131 -0.015228
C  -1.514798 -0.393059 -0.216617
H  -1.372706 -1.459403 -0.482982
O  -0.873490 -0.149904 1.017372
C  0.518445 -0.491515 0.986145
H  0.631415 -1.519916 0.603936
C  1.059366 -0.440644 2.412072
H  0.778589 0.502973 2.878809
H  2.155805 -0.480179 2.368414
O  0.538169 -1.461921 3.249484
H  0.862175 -2.316127 2.946971
C  1.232723 0.478679 0.027047
H  2.297856 0.240981 -0.038129
O  1.160989 1.811118 0.506433
H  0.265784 1.970986 0.830136
C  0.612312 0.303757 -1.373476
H  0.809614 -0.740576 -1.678630
O  1.226854 1.188663 -2.287139
H  0.658457 1.261963 -3.062934
C  -0.903127 0.497144 -1.308930
H  -1.129503 1.539223 -1.068780
O  -1.530479 0.274414 -2.577750
H  -1.365388 -0.635474 -2.856445
