24
0 zpe= -687.191543 src= /lustre/lwork/pjhsu/sugar_opt/pj_sugar/beta_galactose/5S1.xyz:0 moment= 2.333853 0.601342 -0.154866 38.827117 2.573883 1.007816 -0.454525 3.272074 3.812167 1.600365 -0.502179 2.519356 3.497054 1.530288 -0.256136 2.402796
H -2.580147 -1.737318 0.242593
O  -1.956967 -2.280668 -0.258970
C  -0.701340 -1.658345 -0.159122
H  0.029287 -2.448012 -0.375723
O  -0.572129 -1.176403 1.166241
C  0.396802 -0.141211 1.444530
H  0.966947 -0.486409 2.314818
C  -0.301359 1.145722 1.897288
H  0.470758 1.840959 2.251498
H  -0.933419 0.889471 2.749931
O  -1.159522 1.761028 0.948344
H  -0.625990 2.089715 0.211069
C  1.412693 -0.030661 0.283974
H  1.909514 -1.004564 0.227849
O  2.422123 0.919837 0.562591
H  2.197107 1.730163 0.086662
C  0.759163 0.202316 -1.089799
H  1.422740 -0.184242 -1.868294
O  0.624264 1.628625 -1.265200
H  0.458331 1.819184 -2.194502
C  -0.588176 -0.521164 -1.184269
H  -1.379889 0.197425 -0.942627
O  -0.731597 -1.013417 -2.510812
H  -1.539194 -1.542030 -2.539073
24
1 zpe= -687.191543 src= /lustre/lwork/pjhsu/sugar_opt/pj_sugar/beta_galactose/5S1.xyz:2 moment= 2.333868 0.601292 -0.155038 39.114137 2.573889 1.007810 -0.454588 3.272113 3.812086 1.600438 -0.502065 2.518793 3.496847 1.530213 -0.256016 2.402818
H -2.701923 -1.534652 0.279062
O  -2.091579 -2.170125 -0.119414
C  -0.803417 -1.619296 -0.014148
H  -0.118046 -2.472385 -0.096259
O  -0.711641 -0.996258 1.254393
C  0.308820 0.003038 1.472782
H  0.807100 -0.273183 2.409309
C  -0.323112 1.374421 1.734855
H  0.474837 2.057212 2.054340
H  -1.015331 1.258582 2.571241
O  -1.085915 1.926920 0.672553
H  -0.492827 2.134798 -0.063143
C  1.390226 -0.084372 0.370901
H  1.822009 -1.086870 0.454928
O  2.445422 0.828462 0.601689
H  2.302391 1.589457 0.023561
C  0.828057 0.027175 -1.057528
H  1.504271 -0.487403 -1.745843
O  0.800227 1.429009 -1.400084
H  0.696272 1.520139 -2.353147
C  -0.558537 -0.617853 -1.151716
H  -1.311014 0.171419 -1.040680
O  -0.664849 -1.250863 -2.420840
H  -1.503441 -1.729369 -2.437814
24
2 zpe= -687.191255 src= /lustre/lwork/pjhsu/sugar_opt/pj_sugar/beta_galactose/5S1.xyz:26 moment= 2.378903 0.661441 -0.056531 4.585634 2.641577 1.078826 -0.254402 3.094719 3.979878 1.586853 -0.711967 2.965321 3.495451 1.506004 -0.204034 2.680345
H -2.112873 -2.776831 0.000249
O  -2.011036 -1.968516 -0.514290
C  -0.700643 -1.489201 -0.359228
H  0.017029 -2.272738 -0.643766
O  -0.510267 -1.143425 1.005215
C  0.464583 -0.117015 1.336112
H  1.003746 -0.505914 2.203863
C  -0.273797 1.145779 1.779959
H  -0.809293 1.606383 0.941726
H  0.449625 1.869621 2.158678
O  -1.162092 0.857560 2.851268
H  -1.712666 0.116963 2.569484
C  1.475398 0.057857 0.187031
H  1.980271 -0.906827 0.071702
O  2.476686 1.000250 0.512537
H  2.218709 1.838267 0.103550
C  0.804677 0.380247 -1.166879
H  1.437193 -0.006881 -1.972252
O  0.716985 1.806034 -1.273667
H  0.563123 2.043285 -2.193583
C  -0.574048 -0.278596 -1.282959
H  -1.332812 0.445250 -0.961492
O  -0.774181 -0.637160 -2.643572
H  -1.635318 -1.067392 -2.710687
24
3 zpe= -687.190813 src= /lustre/lwork/pjhsu/sugar_opt/pj_sugar/beta_galactose/5S1.xyz:42 moment= 2.350306 0.635238 -0.001413 8.152442 2.584904 1.031272 -0.344899 3.240747 4.021760 1.599080 -0.768145 2.942935 3.421596 1.469200 -0.119392 2.875771
H -2.062904 -2.837144 -0.639879
O  -2.044236 -1.922890 -0.944066
C  -0.749659 -1.414896 -0.763010
H  -0.043187 -1.969683 -1.400126
O  -0.395847 -1.576084 0.601713
C  0.611311 -0.709330 1.168906
H  1.314684 -1.365861 1.694626
C  0.013865 0.194591 2.253090
H  0.847734 0.680838 2.776763
H  -0.496343 -0.452986 2.968862
O  -0.953532 1.141040 1.828014
H  -0.530979 1.785297 1.243356
C  1.422020 -0.026620 0.042738
H  1.901466 -0.837274 -0.514966
O  2.465559 0.775824 0.560754
H  2.171793 1.695614 0.522878
C  0.549852 0.739849 -0.969881
H  1.068397 0.765997 -1.932755
O  0.413409 2.090855 -0.484972
H  0.063509 2.645722 -1.190193
C  -0.808053 0.059243 -1.162921
H  -1.534580 0.525149 -0.489246
O  -1.187082 0.225843 -2.524520
H  -2.038195 -0.212095 -2.646167
24
4 zpe= -687.190053 src= /lustre/lwork/pjhsu/sugar_opt/pj_sugar/beta_galactose/5S1.xyz:62 moment= 2.341626 0.620671 -0.051564 11.298839 2.583975 1.029495 -0.325245 3.308827 3.874095 1.653983 -0.464274 2.432919 3.729244 1.545704 -0.382118 2.856565
H -2.588383 -1.754110 0.007442
O  -1.948348 -2.265324 -0.506692
C  -0.710643 -1.616227 -0.383470
H  0.032928 -2.360348 -0.694971
O  -0.551818 -1.272624 0.985217
C  0.382209 -0.239219 1.342358
H  0.987481 -0.651411 2.163027
C  -0.353244 0.968152 1.942157
H  0.401647 1.683989 2.295909
H  -0.903180 0.606329 2.813947
O  -1.308197 1.588560 1.105487
H  -0.845441 1.973854 0.343384
C  1.345923 0.027818 0.166835
H  1.881200 -0.910309 -0.027313
O  2.282735 1.065323 0.453038
H  2.926732 0.757089 1.097847
C  0.637849 0.414579 -1.140908
H  1.302032 0.191115 -1.981384
O  0.309141 1.808610 -1.160685
H  1.130462 2.299160 -1.027398
C  -0.652051 -0.393931 -1.315818
H  -1.494645 0.256242 -1.054902
O  -0.734216 -0.820452 -2.668136
H  -1.531169 -1.357865 -2.754970
24
5 zpe= -687.189787 src= /lustre/lwork/pjhsu/sugar_opt/pj_sugar/beta_galactose/5S1.xyz:79 moment= 2.369123 0.639291 -0.132987 6.044418 2.628423 1.063758 -0.276706 3.190162 3.843243 1.632000 -0.485031 2.418687 3.472536 1.494623 -0.275847 2.509350
H -2.260731 -2.061737 0.059005
O  -1.542904 -2.471920 -0.441052
C  -0.416744 -1.640400 -0.326013
H  0.435926 -2.280095 -0.582895
O  -0.344825 -1.193380 1.017828
C  0.496032 -0.042197 1.319299
H  1.105712 -0.344372 2.175238
C  -0.402369 1.105110 1.774558
H  -1.051974 1.441246 0.957533
H  0.216334 1.947847 2.086549
O  -1.170234 0.726472 2.910758
H  -1.589944 -0.117374 2.707221
C  1.447752 0.266010 0.145593
H  2.094523 -0.610157 0.034754
O  2.297042 1.355657 0.439984
H  1.895944 2.140345 0.040673
C  0.716714 0.457943 -1.199161
H  1.401939 0.193506 -2.010524
O  0.366111 1.843919 -1.301156
H  0.190906 2.057605 -2.222940
C  -0.513473 -0.453004 -1.292661
H  -1.393619 0.135468 -0.996024
O  -0.638683 -0.894743 -2.636074
H  -1.337438 -1.560748 -2.663492
24
6 zpe= -687.189339 src= /lustre/lwork/pjhsu/sugar_opt/pj_sugar/beta_galactose/5S1.xyz:90 moment= 2.372574 0.653771 -0.067707 5.243667 2.611334 1.051090 -0.305995 3.208555 3.869239 1.679895 -0.358806 2.438671 3.695167 1.676861 -0.201334 2.251266
H -2.758621 -1.637452 0.267534
O  -2.155533 -2.199197 -0.237084
C  -0.873213 -1.632688 -0.124778
H  -0.172817 -2.468732 -0.248737
O  -0.771676 -1.055119 1.161825
C  0.218577 -0.026145 1.396876
H  0.688333 -0.284122 2.350238
C  -0.457374 1.340280 1.598875
H  -1.380183 1.179842 2.159597
H  -0.716468 1.802087 0.636839
O  0.351530 2.208023 2.378604
H  1.228702 2.215524 1.972739
C  1.318716 -0.041744 0.313445
H  1.877145 -0.975905 0.435512
O  2.222936 1.035410 0.533096
H  2.154862 1.615083 -0.241448
C  0.773502 -0.026625 -1.141463
H  1.411040 -0.667380 -1.759723
O  0.847438 1.318515 -1.627121
H  0.736643 1.311198 -2.583588
C  -0.648320 -0.576297 -1.208986
H  -1.349997 0.247880 -1.017275
O  -0.849930 -1.109089 -2.508778
H  -1.696296 -1.574344 -2.506203
24
7 zpe= -687.188851 src= /lustre/lwork/pjhsu/sugar_opt/pj_sugar/beta_galactose/5S1.xyz:100 moment= 2.359135 0.653394 0.059789 6.046219 2.589317 1.043831 -0.252820 3.310026 4.023498 1.607457 -0.735378 2.932901 3.723650 1.555062 -0.336446 2.851016
H -2.002416 -2.946282 0.006823
O  -1.942139 -2.186951 -0.583388
C  -0.690837 -1.580911 -0.411937
H  0.103525 -2.283034 -0.709992
O  -0.546374 -1.256819 0.965727
C  0.369621 -0.212817 1.339925
H  0.989626 -0.628950 2.148118
C  -0.378641 0.970523 1.971140
H  0.373453 1.672206 2.360402
H  -0.936245 0.575230 2.823379
O  -1.324274 1.623098 1.152507
H  -0.865916 2.003484 0.385622
C  1.318600 0.096573 0.162022
H  1.880067 -0.822688 -0.047106
O  2.228220 1.156876 0.452431
H  2.865852 0.869729 1.113137
C  0.592996 0.480041 -1.139357
H  1.258735 0.275244 -1.983786
O  0.238889 1.866818 -1.148956
H  1.052203 2.371687 -1.020761
C  -0.681813 -0.349339 -1.322129
H  -1.539930 0.263745 -1.029237
O  -0.765777 -0.740640 -2.685609
H  -1.595427 -1.218824 -2.799979
24
8 zpe= -687.188698 src= /lustre/lwork/pjhsu/sugar_opt/pj_sugar/beta_galactose/5S1.xyz:111 moment= 2.343904 0.639440 0.077384 7.905824 2.586291 1.010951 -0.428604 3.466383 4.052097 1.647076 -0.664629 2.790914 3.507096 1.424249 -0.414567 3.061425
H -2.021510 -3.003873 0.156000
O  -1.988969 -2.201912 -0.377247
C  -0.697403 -1.656683 -0.298675
H  0.036735 -2.392829 -0.656724
O  -0.420921 -1.356054 1.066391
C  0.429711 -0.228840 1.349975
H  1.052331 -0.535618 2.193975
C  -0.454890 0.970497 1.778600
H  -0.689147 0.881306 2.840474
H  -1.400496 0.933225 1.231339
O  0.177110 2.240949 1.596835
H  0.037335 2.475079 0.665428
C  1.375456 0.025652 0.161501
H  1.896311 -0.919757 -0.022675
O  2.385982 0.974495 0.452102
H  1.977994 1.673383 0.987165
C  0.602399 0.368027 -1.133190
H  1.219593 0.105816 -1.996840
O  0.270625 1.765794 -1.203423
H  1.059410 2.236697 -1.494086
C  -0.701025 -0.429948 -1.220370
H  -1.522853 0.219148 -0.895233
O  -0.893856 -0.833630 -2.567639
H  -1.729922 -1.312924 -2.612684
24
9 zpe= -687.18767 src= /lustre/lwork/pjhsu/sugar_opt/pj_sugar/beta_galactose/5S1.xyz:114 moment= 2.364912 0.626215 -0.112353 9.571907 2.615231 1.038196 -0.450094 3.098291 3.963553 1.583059 -0.699135 2.946192 3.487233 1.482600 -0.246992 2.801933
H -2.606935 -2.311785 0.052013
O  -2.358717 -1.514499 -0.428844
C  -0.967759 -1.336504 -0.329591
H  -0.452294 -2.242058 -0.680890
O  -0.652223 -1.119792 1.042506
C  0.490160 -0.299888 1.375376
H  1.026098 -0.836717 2.164626
C  0.002128 1.020795 2.001827
H  0.811922 1.751378 1.991912
H  -0.254972 0.821538 3.049701
O  -1.104897 1.609745 1.336123
H  -1.839499 0.988938 1.408744
C  1.477628 -0.228961 0.188197
H  1.819221 -1.258999 0.036811
O  2.617415 0.534002 0.526164
H  2.521533 1.390344 0.085197
C  0.854893 0.224036 -1.148384
H  1.372986 -0.291112 -1.965192
O  1.068259 1.631655 -1.267599
H  0.829985 1.912811 -2.156557
C  -0.628079 -0.139314 -1.220737
H  -1.199585 0.715800 -0.848809
O  -0.942503 -0.411819 -2.583111
H  -1.884769 -0.611594 -2.632479
24
10 zpe= -687.187416 src= /lustre/lwork/pjhsu/sugar_opt/pj_sugar/beta_galactose/5S1.xyz:118 moment= 2.362897 0.643681 -0.007519 6.221245 2.618229 1.048941 -0.307396 3.310137 3.964444 1.568862 -0.751087 3.011022 3.490358 1.509105 -0.204930 2.645324
H -1.626236 -3.042725 -0.439470
O  -1.615221 -2.187450 -0.883109
C  -0.422743 -1.520919 -0.567453
H  0.438997 -2.155833 -0.819223
O  -0.426769 -1.246097 0.825713
C  0.404694 -0.161899 1.318865
H  0.939578 -0.570004 2.181079
C  -0.513877 0.944101 1.837609
H  -1.078637 1.404724 1.013286
H  0.082939 1.719497 2.319476
O  -1.407814 0.441634 2.816853
H  -1.827996 -0.342176 2.441580
C  1.444668 0.257366 0.262817
H  2.099553 -0.607893 0.111061
O  2.257239 1.310363 0.739778
H  1.951356 2.117990 0.300773
C  0.828283 0.607510 -1.116798
H  1.572170 0.399178 -1.887890
O  0.582345 2.015159 -1.215947
H  -0.324183 2.210175 -0.955496
C  -0.410980 -0.242919 -1.412213
H  -1.315023 0.315721 -1.122262
O  -0.439309 -0.544081 -2.794672
H  -1.195034 -1.123421 -2.952355
24
11 zpe= -687.187294 src= /lustre/lwork/pjhsu/sugar_opt/pj_sugar/beta_galactose/5S1.xyz:122 moment= 2.379213 0.670917 0.038408 4.523987 2.624197 1.052250 -0.313773 3.261123 4.082960 1.694793 -0.656951 2.627941 3.858564 1.659252 -0.406784 2.436803
H -2.700104 -1.450921 0.030057
O  -2.191702 -1.887806 -0.666688
C  -0.858860 -1.455752 -0.530299
H  -0.246923 -2.267252 -0.944140
O  -0.607909 -1.275339 0.850879
C  0.407719 -0.333547 1.256158
H  0.922973 -0.821391 2.091512
C  -0.198253 0.969481 1.787007
H  -0.760555 1.495065 1.015733
H  0.624767 1.622444 2.102181
O  -1.117891 0.754840 2.851337
H  -0.662382 0.314808 3.576783
C  1.446239 -0.159519 0.126716
H  1.846779 -1.159338 -0.069227
O  2.536515 0.645700 0.525387
H  2.378037 1.531220 0.168986
C  0.809621 0.340401 -1.188896
H  1.392517 -0.041742 -2.032983
O  0.871358 1.772440 -1.173987
H  0.722761 2.102367 -2.065834
C  -0.630244 -0.164227 -1.324939
H  -1.301109 0.599692 -0.909977
O  -0.904685 -0.362011 -2.704145
H  -1.778670 -0.767615 -2.771618
24
12 zpe= -687.187207 src= /lustre/lwork/pjhsu/sugar_opt/pj_sugar/beta_galactose/5S1.xyz:133 moment= 2.406252 0.712350 0.209757 3.744034 2.661177 1.077868 -0.333155 3.078268 4.297574 1.720657 -0.883040 2.880986 3.882643 1.664972 -0.414469 2.466865
H -2.035304 -2.830382 0.148192
O  -1.920925 -2.126142 -0.500049
C  -0.622144 -1.602195 -0.364388
H  0.113000 -2.365678 -0.661585
O  -0.418585 -1.253597 0.993423
C  0.439489 -0.134462 1.306697
H  0.995642 -0.439933 2.196617
C  -0.362495 1.101086 1.698876
H  -1.125794 1.327498 0.947599
H  0.324741 1.952977 1.766093
O  -0.959316 0.836537 2.968298
H  -1.544165 1.565742 3.192736
C  1.459425 0.071023 0.166592
H  2.001237 -0.876305 0.081964
O  2.420002 1.060663 0.473673
H  2.139409 1.873249 0.030394
C  0.788231 0.330119 -1.198007
H  1.446227 -0.037070 -1.992164
O  0.626739 1.749146 -1.331012
H  0.448536 1.957875 -2.253456
C  -0.553287 -0.398990 -1.304063
H  -1.347234 0.290094 -0.992780
O  -0.739526 -0.784792 -2.660036
H  -1.573900 -1.266462 -2.715614
24
13 zpe= -687.187066 src= /lustre/lwork/pjhsu/sugar_opt/pj_sugar/beta_galactose/5S1.xyz:145 moment= 2.398183 0.701738 0.129621 3.690153 2.639988 1.068123 -0.295220 3.156198 4.143704 1.733078 -0.657095 2.578492 3.883422 1.668195 -0.397496 2.488275
H -2.423734 -2.466581 0.410670
O  -2.228384 -1.841019 -0.296138
C  -0.865770 -1.500880 -0.230803
H  -0.255036 -2.382122 -0.479128
O  -0.565987 -1.082994 1.091243
C  0.418739 -0.048758 1.289120
H  0.963474 -0.349491 2.191283
C  -0.220461 1.313327 1.575163
H  -0.906998 1.605952 0.781552
H  0.577313 2.064360 1.624727
O  -0.994406 1.314669 2.769580
H  -0.414551 1.134079 3.516697
C  1.436228 -0.073579 0.128103
H  1.857066 -1.084256 0.123471
O  2.513799 0.815689 0.341547
H  2.331165 1.610385 -0.179292
C  0.772637 0.146088 -1.247777
H  1.353713 -0.382117 -2.010709
O  0.803394 1.553960 -1.514159
H  0.614500 1.700616 -2.446494
C  -0.658474 -0.396545 -1.267063
H  -1.342081 0.417968 -1.001272
O  -0.933767 -0.860306 -2.582670
H  -1.833380 -1.209448 -2.588650
24
14 zpe= -687.186934 src= /lustre/lwork/pjhsu/sugar_opt/pj_sugar/beta_galactose/5S1.xyz:157 moment= 2.391064 0.689012 0.166522 4.389860 2.646986 1.063188 -0.351658 3.171763 4.277969 1.714071 -0.860854 2.891522 3.869108 1.669359 -0.392977 2.431397
H -2.442763 -1.898870 0.024132
O  -1.931280 -2.149134 -0.756836
C  -0.667138 -1.541697 -0.622192
H  0.039590 -2.221447 -1.115870
O  -0.398446 -1.427953 0.761057
C  0.535018 -0.416853 1.207322
H  1.141922 -0.906059 1.973440
C  -0.179306 0.744524 1.888180
H  -0.922025 1.197551 1.222702
H  0.572302 1.503513 2.135027
O  -0.796232 0.238339 3.071330
H  -1.202715 0.970620 3.543507
C  1.471883 -0.016261 0.046857
H  1.976754 -0.937985 -0.258860
O  2.481630 0.881352 0.460584
H  2.197585 1.766565 0.193129
C  0.707155 0.510566 -1.186183
H  1.291998 0.292401 -2.085368
O  0.578650 1.931395 -1.033397
H  0.349875 2.317511 -1.884767
C  -0.656387 -0.173818 -1.314694
H  -1.403341 0.453686 -0.810279
O  -0.968551 -0.297340 -2.694705
H  -1.778178 -0.819607 -2.763119
24
15 zpe= -687.186803 src= /lustre/lwork/pjhsu/sugar_opt/pj_sugar/beta_galactose/5S1.xyz:164 moment= 2.391616 0.643666 -0.146968 6.400875 2.633272 1.057691 -0.442067 2.905760 4.018286 1.592943 -0.779899 2.966838 3.444581 1.446909 -0.226979 2.971746
H -2.094382 -2.837813 0.148569
O  -1.984330 -2.055284 -0.402410
C  -0.654776 -1.608928 -0.291323
H  0.028404 -2.409557 -0.612514
O  -0.388458 -1.303317 1.070578
C  0.448855 -0.179773 1.406376
H  1.040674 -0.522617 2.262363
C  -0.347295 0.997088 1.958017
H  0.375501 1.705596 2.379705
H  -0.976165 0.608304 2.768189
O  -1.146828 1.625126 0.958888
H  -1.669982 2.318479 1.370456
C  1.474507 0.106466 0.279425
H  2.137345 -0.765291 0.275399
O  2.272544 1.227785 0.598425
H  1.987921 1.949924 0.019745
C  0.868689 0.198876 -1.148807
H  1.506276 -0.376350 -1.830945
O  0.877439 1.566359 -1.552859
H  0.500756 1.626262 -2.436789
C  -0.533000 -0.393784 -1.204174
H  -1.242642 0.354844 -0.843012
O  -0.794800 -0.734734 -2.564406
H  -1.687249 -1.097661 -2.606895
24
16 zpe= -687.186673 src= /lustre/lwork/pjhsu/sugar_opt/pj_sugar/beta_galactose/5S1.xyz:165 moment= 2.386338 0.695693 0.201113 4.213724 2.617107 1.066945 -0.266086 3.070394 4.120533 1.792653 -0.412106 2.428543 3.998067 1.754210 -0.418648 2.363273
H -1.955520 -2.671578 -1.346897
O  -1.628605 -2.623280 -0.439017
C  -0.509372 -1.781020 -0.462831
H  0.342754 -2.310529 -0.919414
O  -0.231357 -1.509354 0.897173
C  0.551446 -0.354380 1.222437
H  1.286165 -0.678364 1.967126
C  -0.362892 0.668739 1.908800
H  -0.935099 0.147723 2.681793
H  -1.050895 1.127794 1.193958
O  0.492118 1.669524 2.494162
H  -0.044422 2.369230 2.878384
C  1.323344 0.173745 -0.000698
H  2.024963 -0.614036 -0.294083
O  2.098548 1.331630 0.286316
H  1.766227 1.729544 1.107627
C  0.406008 0.447676 -1.223811
H  0.993756 0.265405 -2.132958
O  -0.085345 1.783047 -1.230079
H  0.674344 2.350144 -1.037536
C  -0.800800 -0.494453 -1.236789
H  -1.639917 0.003268 -0.737690
O  -1.186966 -0.898046 -2.551800
H  -1.531485 -0.132429 -3.023173
24
17 zpe= -687.186199 src= /lustre/lwork/pjhsu/sugar_opt/pj_sugar/beta_galactose/5S1.xyz:167 moment= 2.387881 0.701412 0.203077 4.081887 2.609019 1.056485 -0.283684 3.143504 4.103626 1.852126 -0.315286 2.251460 3.902770 1.671390 -0.344309 2.634081
H -2.014785 -2.513709 -1.543337
O  -1.608924 -2.587484 -0.669580
C  -0.528916 -1.697046 -0.655379
H  0.314180 -2.128194 -1.219511
O  -0.178686 -1.571806 0.710443
C  0.620280 -0.452480 1.112692
H  1.424711 -0.858303 1.739259
C  -0.241090 0.465570 1.997611
H  -0.770387 -0.148025 2.730922
H  -0.974208 1.012896 1.405909
O  0.570454 1.465975 2.643126
H  0.963715 1.094151 3.439159
C  1.277307 0.252536 -0.088744
H  1.980389 -0.459194 -0.533320
O  2.036935 1.393857 0.290647
H  1.720965 1.701521 1.156719
C  0.259163 0.639037 -1.198044
H  0.781747 0.590770 -2.162328
O  -0.273878 1.942995 -1.004558
H  0.476472 2.522431 -0.814017
C  -0.917363 -0.339663 -1.241736
H  -1.728883 0.060764 -0.623385
O  -1.392248 -0.592771 -2.565121
H  -1.797952 0.210176 -2.908430
24
18 zpe= -687.185806 src= /lustre/lwork/pjhsu/sugar_opt/pj_sugar/beta_galactose/5S1.xyz:170 moment= 2.384876 0.686237 0.142758 4.442781 2.601806 1.043246 -0.338138 3.159483 4.088221 1.828060 -0.361364 2.255597 3.915492 1.672550 -0.360927 2.671565
H -2.725604 -1.898765 0.170473
O  -1.973803 -2.502557 0.131247
C  -0.812498 -1.765434 -0.021079
H  -0.016725 -2.506349 -0.150472
O  -0.620171 -1.023446 1.196744
C  0.399144 -0.017399 1.258070
H  1.031381 -0.254725 2.124392
C  -0.287004 1.331148 1.532906
H  -1.000207 1.203731 2.351710
H  -0.822766 1.683947 0.651981
O  0.679684 2.352980 1.842362
H  0.926923 2.289549 2.770571
C  1.293166 -0.033841 0.006159
H  1.856374 -0.972953 0.024411
O  2.253118 1.016269 -0.005102
H  1.952572 1.717564 0.596560
C  0.482729 -0.021093 -1.314297
H  1.087088 -0.531134 -2.075813
O  0.183963 1.301370 -1.747420
H  1.013169 1.797187 -1.714342
C  -0.849658 -0.778254 -1.192752
H  -1.631266 -0.038856 -0.964185
O  -1.177273 -1.490267 -2.376103
H  -1.242338 -0.855672 -3.098020
24
19 zpe= -687.185761 src= /lustre/lwork/pjhsu/sugar_opt/pj_sugar/beta_galactose/5S1.xyz:172 moment= 2.362762 0.605349 -0.243046 24.086578 2.626585 1.055242 -0.392617 3.027139 3.817259 1.610386 -0.484734 2.490858 3.683889 1.562581 -0.529638 2.457059
H -2.854971 -1.134598 0.239297
O  -2.357970 -1.759276 -0.304423
C  -1.002687 -1.392540 -0.234450
H  -0.447139 -2.301543 -0.495476
O  -0.743232 -0.987463 1.101502
C  0.487752 -0.274380 1.372419
H  1.006962 -0.836890 2.156896
C  0.148781 1.090644 1.986341
H  1.057861 1.691509 2.033269
H  -0.194289 0.923404 3.014444
O  -0.817211 1.843688 1.264819
H  -1.673442 1.433625 1.419873
C  1.440518 -0.298117 0.149763
H  1.749655 -1.343436 0.042837
O  2.612764 0.443844 0.413289
H  2.519529 1.284480 -0.058400
C  0.798724 0.101198 -1.195632
H  1.295476 -0.464719 -1.991504
O  1.031142 1.496292 -1.391992
H  0.847233 1.720921 -2.309259
C  -0.688279 -0.260221 -1.220935
H  -1.252335 0.625193 -0.903383
O  -1.028923 -0.634789 -2.550177
H  -1.934917 -0.967827 -2.538118
24
20 zpe= -687.185728 src= /lustre/lwork/pjhsu/sugar_opt/pj_sugar/beta_galactose/5S1.xyz:173 moment= 2.358105 0.637781 -0.002512 7.209856 2.596430 1.040823 -0.293260 3.296153 3.883575 1.699658 -0.348398 2.394222 3.658920 1.671651 -0.140264 2.292765
H -2.380726 -2.081721 0.612494
O  -1.750401 -2.542680 0.043113
C  -0.594723 -1.747322 -0.026149
H  0.232408 -2.443668 -0.214160
O  -0.458520 -1.090535 1.217266
C  0.438585 0.039803 1.313140
H  1.083613 -0.155959 2.175203
C  -0.367826 1.304093 1.649430
H  -1.132776 1.030910 2.378864
H  -0.887847 1.690964 0.758795
O  0.437257 2.304037 2.245541
H  1.228168 2.393838 1.695736
C  1.341455 0.159148 0.065365
H  2.047383 -0.678012 0.095556
O  2.093496 1.365535 0.135225
H  1.833682 1.890271 -0.639740
C  0.588292 0.069542 -1.299348
H  1.232343 -0.452305 -2.009570
O  0.400235 1.370104 -1.866864
H  -0.468863 1.711650 -1.629430
C  -0.706230 -0.728942 -1.169140
H  -1.528009 -0.044287 -0.894299
O  -0.983679 -1.367201 -2.398799
H  -1.697316 -1.999265 -2.241227
24
21 zpe= -687.185654 src= /lustre/lwork/pjhsu/sugar_opt/pj_sugar/beta_galactose/5S1.xyz:175 moment= 2.349254 0.626835 -0.093321 8.851034 2.603728 1.015939 -0.525217 3.218646 3.839352 1.640371 -0.421118 2.468258 3.758077 1.542756 -0.463655 2.883400
H -2.444524 -1.921848 0.151265
O  -1.810079 -2.361982 -0.430989
C  -0.609708 -1.637655 -0.349741
H  0.164408 -2.326548 -0.710314
O  -0.415387 -1.298677 1.013876
C  0.502123 -0.235727 1.341286
H  1.177500 -0.648362 2.105065
C  -0.231172 0.925293 2.023658
H  0.525598 1.636179 2.381337
H  -0.746853 0.515859 2.895427
O  -1.219750 1.570733 1.245551
H  -0.782974 2.019672 0.504197
C  1.380447 0.109603 0.117629
H  1.902165 -0.819727 -0.149060
O  2.326479 1.125979 0.402790
H  2.976404 0.777889 1.021973
C  0.582351 0.492413 -1.136389
H  1.210602 0.301318 -2.011260
O  0.251852 1.884921 -1.095941
H  -0.058102 2.149885 -1.968290
C  -0.678386 -0.386219 -1.235507
H  -1.523963 0.207520 -0.867880
O  -0.859812 -0.743152 -2.600409
H  -1.619218 -1.337367 -2.648275
24
22 zpe= -687.185621 src= /lustre/lwork/pjhsu/sugar_opt/pj_sugar/beta_galactose/5S1.xyz:179 moment= 2.353024 0.621390 -0.086074 10.025036 2.605550 1.033510 -0.337715 3.416618 3.854201 1.648063 -0.470698 2.381938 3.457402 1.500144 -0.209137 2.535750
H -2.119073 -2.186483 -0.237969
O  -1.338407 -2.525057 -0.695700
C  -0.285239 -1.626884 -0.465521
H  0.628050 -2.197157 -0.671016
O  -0.354816 -1.221324 0.890808
C  0.441755 -0.075806 1.305643
H  1.022671 -0.413694 2.168832
C  -0.515474 1.005587 1.799737
H  -1.156661 1.363300 0.979639
H  0.054885 1.851706 2.184270
O  -1.315719 0.530254 2.870866
H  -1.684600 -0.319797 2.603213
C  1.431360 0.344438 0.199194
H  2.139798 -0.483624 0.087352
O  2.181006 1.474751 0.594100
H  1.811232 2.234008 0.119746
C  0.772121 0.564237 -1.185019
H  1.523378 0.382325 -1.955262
O  0.399262 1.936742 -1.355621
H  -0.508975 2.070192 -1.064138
C  -0.384989 -0.416293 -1.408641
H  -1.334318 0.090296 -1.160525
O  -0.385994 -0.830066 -2.760473
H  -1.020255 -1.553647 -2.845515
24
23 zpe= -687.185548 src= /lustre/lwork/pjhsu/sugar_opt/pj_sugar/beta_galactose/5S1.xyz:180 moment= 2.376155 0.669032 -0.029727 4.242129 2.622583 1.070188 -0.209157 3.248073 3.904709 1.645794 -0.555797 2.528906 3.781312 1.579800 -0.390551 2.761307
H -2.699470 -1.863942 -1.003055
O  -2.446178 -1.618951 -0.103565
C  -1.062842 -1.381075 -0.123976
H  -0.528670 -2.330529 -0.292094
O  -0.759956 -0.893321 1.167723
C  0.355799 0.007011 1.331940
H  0.808884 -0.294718 2.283448
C  -0.159177 1.436813 1.515251
H  -0.627568 1.809870 0.598535
H  0.675363 2.098073 1.755003
O  -1.059910 1.495309 2.611627
H  -1.732731 0.818670 2.463347
C  1.378375 -0.212831 0.207935
H  1.699493 -1.260194 0.267249
O  2.512383 0.646632 0.316260
H  3.056073 0.379626 1.063801
C  0.786208 0.001134 -1.201072
H  1.329746 -0.645950 -1.901342
O  0.873558 1.354671 -1.628112
H  1.762793 1.670605 -1.422764
C  -0.698488 -0.385930 -1.229600
H  -1.289311 0.520910 -1.066507
O  -1.087739 -1.008416 -2.454412
H  -1.085633 -0.346467 -3.153620
24
24 zpe= -687.185252 src= /lustre/lwork/pjhsu/sugar_opt/pj_sugar/beta_galactose/5S1.xyz:181 moment= 2.414873 0.730187 0.221058 3.420180 2.630812 1.049238 -0.354268 3.303986 4.290671 1.719108 -0.861817 2.913154 3.975464 1.740718 -0.374935 2.361664
H -2.763499 -2.156370 -0.233971
O  -2.363295 -1.552956 -0.870117
C  -1.021271 -1.349903 -0.510848
H  -0.471979 -2.300470 -0.590275
O  -0.993839 -0.897968 0.836271
C  0.120219 -0.093717 1.269055
H  0.405692 -0.494162 2.249454
C  -0.306469 1.352701 1.499860
H  -0.898081 1.710886 0.653459
H  0.585715 1.982170 1.590685
O  -1.064479 1.375634 2.712185
H  -1.537907 2.210299 2.765706
C  1.301427 -0.283127 0.299501
H  1.545636 -1.352804 0.292269
O  2.454683 0.467988 0.675706
H  2.817312 0.118855 1.495806
C  0.957280 0.120967 -1.142975
H  1.662334 -0.372413 -1.821866
O  1.018887 1.532141 -1.314542
H  1.883251 1.822701 -0.998811
C  -0.459169 -0.335520 -1.511136
H  -1.111838 0.544664 -1.485128
O  -0.428812 -0.900539 -2.814404
H  -1.331798 -1.149058 -3.044884
24
25 zpe= -687.184983 src= /lustre/lwork/pjhsu/sugar_opt/pj_sugar/beta_galactose/5S1.xyz:182 moment= 2.400929 0.709434 0.194955 3.858577 2.619606 1.034911 -0.387981 3.391017 4.281776 1.717118 -0.843059 2.925797 3.954007 1.746439 -0.345427 2.316508
H -2.633988 -1.678213 0.195435
O  -2.094125 -2.142112 -0.458275
C  -0.824811 -1.538477 -0.446473
H  -0.140073 -2.305936 -0.828889
O  -0.533209 -1.205416 0.900603
C  0.500727 -0.232092 1.156565
H  1.123399 -0.669193 1.946355
C  -0.090273 1.051968 1.728185
H  -0.923184 1.396026 1.108405
H  0.682959 1.828237 1.728326
O  -0.517761 0.759760 3.060303
H  -0.985479 1.523992 3.408686
C  1.364731 -0.043911 -0.105459
H  1.794049 -1.022537 -0.352812
O  2.413645 0.904997 0.081495
H  3.088317 0.535651 0.659510
C  0.547929 0.421588 -1.322176
H  1.105015 0.174717 -2.233103
O  0.289320 1.819908 -1.269659
H  1.138022 2.266306 -1.161576
C  -0.799034 -0.309995 -1.369129
H  -1.567197 0.391836 -1.016966
O  -1.059141 -0.707818 -2.706126
H  -1.877839 -1.219283 -2.701231
24
26 zpe= -687.184114 src= /lustre/lwork/pjhsu/sugar_opt/pj_sugar/beta_galactose/5S1.xyz:185 moment= 2.394819 0.700339 0.109992 3.792637 2.612862 1.030729 -0.377294 3.444273 4.126623 1.713945 -0.668214 2.661681 3.951852 1.737746 -0.366925 2.326123
H -2.533680 -1.839602 -0.213590
O  -1.898407 -2.202923 -0.845331
C  -0.691517 -1.509049 -0.660641
H  0.085082 -2.176214 -1.056417
O  -0.537330 -1.302777 0.733517
C  0.384611 -0.293369 1.185730
H  0.995090 -0.775168 1.959814
C  -0.365108 0.870929 1.842237
H  -1.079954 1.309673 1.147671
H  0.360435 1.645407 2.116243
O  -1.122283 0.451504 2.972512
H  -0.520918 0.133203 3.653706
C  1.328873 0.109524 0.040710
H  1.881658 -0.789770 -0.252057
O  2.245420 1.100432 0.522810
H  3.122671 0.921739 0.171720
C  0.575685 0.633802 -1.200191
H  1.223705 0.524770 -2.079764
O  0.203395 1.994735 -1.033740
H  0.966801 2.455910 -0.662546
C  -0.695266 -0.189367 -1.447013
H  -1.547475 0.409158 -1.098517
O  -0.804021 -0.459136 -2.836207
H  -1.576467 -1.024411 -2.961657
24
27 zpe= -687.184011 src= /lustre/lwork/pjhsu/sugar_opt/pj_sugar/beta_galactose/5S1.xyz:187 moment= 2.390224 0.693268 0.075892 3.857416 2.602407 1.024320 -0.367511 3.491018 4.088632 1.688758 -0.673440 2.696620 3.940590 1.730440 -0.366896 2.331573
H -2.559281 -1.762986 0.136128
O  -2.074594 -2.091929 -0.632983
C  -0.825264 -1.449394 -0.638807
H  -0.172002 -2.101585 -1.231882
O  -0.386570 -1.372118 0.709055
C  0.583546 -0.369536 1.061565
H  1.300926 -0.887125 1.714152
C  -0.051714 0.760029 1.879830
H  -0.846506 1.248507 1.318780
H  0.716765 1.512978 2.090416
O  -0.654504 0.285212 3.079164
H  0.023122 -0.103346 3.641990
C  1.337807 0.089030 -0.201274
H  1.802245 -0.800459 -0.643434
O  2.342471 1.062857 0.089343
H  3.152077 0.624354 0.365785
C  0.400778 0.697343 -1.261786
H  0.881272 0.609557 -2.243299
O  0.111905 2.059951 -0.978402
H  0.954070 2.515609 -0.857290
C  -0.925926 -0.069885 -1.307984
H  -1.669167 0.521101 -0.756342
O  -1.316837 -0.224849 -2.663027
H  -2.124621 -0.753312 -2.672698
24
28 zpe= -687.183715 src= /lustre/lwork/pjhsu/sugar_opt/pj_sugar/beta_galactose/5S1.xyz:188 moment= 2.382485 0.696511 0.191386 4.281773 2.595426 1.041046 -0.326061 3.180599 4.137639 1.820404 -0.364183 2.403155 3.799423 1.693496 -0.183491 2.462732
H -2.470392 -2.342005 -0.971863
O  -2.190290 -2.237486 -0.052582
C  -0.922073 -1.649824 -0.084269
H  -0.156689 -2.437081 -0.206189
O  -0.766377 -1.031208 1.179491
C  0.285220 -0.069410 1.332930
H  0.845408 -0.348504 2.232215
C  -0.369484 1.289726 1.607135
H  -1.115355 1.153940 2.395472
H  -0.855456 1.678612 0.708471
O  0.674143 2.182900 2.041942
H  0.316336 3.068730 2.153439
C  1.266501 -0.094147 0.144859
H  1.757729 -1.072854 0.159034
O  2.294058 0.882296 0.253156
H  2.014896 1.554292 0.897189
C  0.559977 0.047770 -1.232866
H  1.194343 -0.465760 -1.974145
O  0.405860 1.406278 -1.604322
H  1.259833 1.828309 -1.435424
C  -0.818930 -0.618422 -1.216395
H  -1.573522 0.148083 -1.025503
O  -1.198899 -1.218499 -2.455885
H  -0.434836 -1.654732 -2.848891
24
29 zpe= -687.183297 src= /lustre/lwork/pjhsu/sugar_opt/pj_sugar/beta_galactose/5S1.xyz:189 moment= 2.376093 0.678062 0.002267 4.299577 2.584320 1.036660 -0.267919 3.345698 3.993505 1.741621 -0.445673 2.361445 3.683319 1.566243 -0.261322 2.760855
H -2.501136 -2.379927 -0.921401
O  -2.164274 -2.236427 -0.027418
C  -0.891686 -1.664152 -0.164442
H  -0.188294 -2.421092 -0.551138
O  -0.515194 -1.288520 1.143549
C  0.413260 -0.206318 1.323306
H  1.070367 -0.517768 2.143243
C  -0.324315 1.054306 1.808617
H  -1.013038 0.746195 2.596375
H  -0.907508 1.510717 1.002441
O  0.565953 2.001123 2.389638
H  1.152707 2.311641 1.690740
C  1.271855 -0.034916 0.057797
H  1.820134 -0.971810 -0.094184
O  2.204788 1.049953 0.167625
H  2.956602 0.773308 0.701251
C  0.438062 0.217057 -1.218896
H  0.977048 -0.218003 -2.070207
O  0.200324 1.599824 -1.456616
H  1.049137 2.056678 -1.410241
C  -0.930192 -0.464826 -1.113795
H  -1.645815 0.254848 -0.702844
O  -1.397681 -0.959817 -2.368239
H  -1.641104 -0.213071 -2.925162
24
30 zpe= -687.182999 src= /lustre/lwork/pjhsu/sugar_opt/pj_sugar/beta_galactose/5S1.xyz:193 moment= 2.359889 0.672008 0.239334 5.035466 2.614879 1.037218 -0.350530 3.392175 4.055651 1.656218 -0.633213 2.792576 3.955219 1.707312 -0.380764 2.477851
H -1.547647 -3.265401 -0.131071
O  -1.623645 -2.428479 -0.602426
C  -0.420054 -1.717804 -0.465748
H  0.416848 -2.336854 -0.817017
O  -0.230121 -1.435731 0.923708
C  0.460455 -0.223304 1.266743
H  1.100415 -0.465873 2.117653
C  -0.605180 0.798313 1.712007
H  -0.900444 0.583065 2.742513
H  -1.491058 0.700256 1.078349
O  -0.076325 2.135451 1.609680
H  -0.610064 2.740362 2.133834
C  1.395276 0.198333 0.110084
H  1.994469 -0.691708 -0.104715
O  2.336712 1.178155 0.490033
H  1.862575 1.984593 0.725043
C  0.615296 0.527586 -1.182815
H  1.282572 0.391109 -2.035962
O  0.177357 1.877384 -1.261473
H  -0.096154 2.185999 -0.386373
C  -0.554816 -0.469068 -1.347527
H  -1.482252 0.037927 -1.053185
O  -0.623138 -0.858094 -2.711432
H  -1.381076 -1.446217 -2.811904
24
31 zpe= -687.182991 src= /lustre/lwork/pjhsu/sugar_opt/pj_sugar/beta_galactose/5S1.xyz:195 moment= 2.320899 0.597513 -0.117425 93.585434 2.549477 0.976149 -0.512059 3.588533 3.763961 1.489623 -0.699030 2.959221 3.612164 1.483320 -0.569138 2.687691
H -2.926620 -1.372750 0.207805
O  -2.349594 -2.085515 -0.093175
C  -1.043757 -1.618987 -0.117326
H  -0.438266 -2.490863 -0.388251
O  -0.721874 -1.182053 1.212812
C  0.343404 -0.235061 1.405137
H  0.876790 -0.572284 2.297612
C  -0.263968 1.169262 1.685059
H  -0.434532 1.280388 2.756665
H  -1.236579 1.243914 1.191016
O  0.577394 2.258692 1.292254
H  0.457145 2.371514 0.336358
C  1.334418 -0.314729 0.232371
H  1.673935 -1.354408 0.192680
O  2.501070 0.467642 0.423845
H  2.226090 1.289117 0.861625
C  0.650727 -0.021683 -1.122653
H  1.183641 -0.567945 -1.907663
O  0.656666 1.379876 -1.448813
H  1.572403 1.627195 -1.628009
C  -0.814466 -0.483232 -1.131297
H  -1.438561 0.367799 -0.824165
O  -1.219868 -0.946564 -2.408579
H  -1.167597 -0.209322 -3.026310
24
32 zpe= -687.182839 src= /lustre/lwork/pjhsu/sugar_opt/pj_sugar/beta_galactose/5S1.xyz:196 moment= 2.371606 0.646580 -0.000495 6.420289 2.628560 1.052357 -0.314853 3.313226 3.971480 1.603958 -0.639014 2.896014 3.811304 1.593310 -0.404498 2.741333
H -2.135993 -2.753879 0.259322
O  -1.989197 -2.029681 -0.358920
C  -0.688161 -1.532947 -0.179176
H  0.035775 -2.357633 -0.241912
O  -0.624047 -0.963337 1.131542
C  0.268804 0.141258 1.361327
H  0.765736 -0.071808 2.316131
C  -0.557868 1.433159 1.565755
H  0.063384 2.304086 1.354757
H  -0.859378 1.476032 2.620908
O  -1.697788 1.518189 0.731404
H  -2.233502 0.734037 0.902779
C  1.374381 0.158254 0.289640
H  1.916934 -0.790732 0.386820
O  2.277215 1.248092 0.486406
H  2.922705 1.020596 1.161613
C  0.866009 0.235440 -1.161676
H  1.613918 -0.241749 -1.808141
O  0.647151 1.571641 -1.579506
H  1.440078 2.075658 -1.360443
C  -0.448380 -0.533885 -1.318993
H  -1.257345 0.201399 -1.297525
O  -0.413988 -1.232740 -2.557549
H  -1.288443 -1.610449 -2.704563
24
33 zpe= -687.182555 src= /lustre/lwork/pjhsu/sugar_opt/pj_sugar/beta_galactose/5S1.xyz:197 moment= 2.361397 0.641231 -0.146841 5.937371 2.606979 1.053114 -0.348690 2.966782 3.820688 1.586679 -0.617363 2.556043 3.479432 1.462989 -0.310424 2.728207
H -2.766033 -1.479017 -1.096237
O  -2.332072 -1.683781 -0.257771
C  -0.974181 -1.349139 -0.394583
H  -0.461801 -2.137445 -0.977087
O  -0.459969 -1.339240 0.916525
C  0.632012 -0.444203 1.240650
H  1.258092 -1.015109 1.930707
C  0.091125 0.762808 2.009496
H  -0.516664 1.409473 1.365526
H  0.928965 1.354443 2.383338
O  -0.650253 0.338558 3.142881
H  -1.283346 -0.323425 2.836690
C  1.470827 -0.145281 -0.014508
H  1.828346 -1.115515 -0.374838
O  2.619932 0.620828 0.281355
H  2.405815 1.545862 0.098589
C  0.637232 0.482168 -1.155475
H  1.086557 0.181388 -2.112112
O  0.729462 1.902113 -1.021589
H  0.349064 2.324820 -1.798400
C  -0.821356 0.004496 -1.101993
H  -1.403397 0.732875 -0.534867
O  -1.442816 -0.031117 -2.390385
H  -0.925539 -0.596561 -2.976913
24
34 zpe= -687.182516 src= /lustre/lwork/pjhsu/sugar_opt/pj_sugar/beta_galactose/5S1.xyz:199 moment= 2.365565 0.635639 -0.151481 6.480433 2.627640 1.070039 -0.245641 3.168339 3.803615 1.551042 -0.580051 2.732923 3.708861 1.581253 -0.625806 2.479110
H -2.806367 -1.381502 -0.273493
O  -2.154894 -2.086781 -0.370227
C  -0.882232 -1.545248 -0.298166
H  -0.207126 -2.375959 -0.531448
O  -0.673496 -1.103589 1.052280
C  0.398622 -0.178571 1.351962
H  0.890888 -0.582153 2.241746
C  -0.217185 1.166756 1.745269
H  -0.691690 1.652408 0.882925
H  0.561229 1.832725 2.124737
O  -1.149458 0.996665 2.802572
H  -1.699220 0.236534 2.574019
C  1.431580 -0.142860 0.212922
H  1.893232 -1.133328 0.179399
O  2.496302 0.753751 0.479024
H  2.168908 1.648882 0.325283
C  0.800005 0.114809 -1.180012
H  1.374887 -0.438341 -1.929141
O  0.801277 1.511452 -1.517300
H  1.611802 1.716368 -1.993575
C  -0.653218 -0.368334 -1.255520
H  -1.299261 0.455243 -0.920371
O  -1.009322 -0.764665 -2.569979
H  -0.987264 0.016737 -3.132902
24
35 zpe= -687.182288 src= /lustre/lwork/pjhsu/sugar_opt/pj_sugar/beta_galactose/5S1.xyz:201 moment= 2.349599 0.634355 -0.032437 7.232671 2.612463 1.060053 -0.333879 2.933560 3.885777 1.603955 -0.648744 2.612129 3.490162 1.478035 -0.308725 2.682814
H -2.170226 -2.290663 -1.304945
O  -1.899632 -2.162353 -0.386818
C  -0.630646 -1.563637 -0.410433
H  0.099651 -2.256662 -0.858270
O  -0.313389 -1.342533 0.945355
C  0.593406 -0.272146 1.293186
H  1.231591 -0.686920 2.078068
C  -0.205519 0.870897 1.923650
H  -0.844823 1.368649 1.176280
H  0.482682 1.613258 2.330536
O  -0.998189 0.399571 2.996541
H  -1.456361 -0.392308 2.684906
C  1.487729 0.099375 0.098614
H  2.058809 -0.803642 -0.146533
O  2.415746 1.107534 0.450448
H  2.176480 1.904856 -0.042720
C  0.683686 0.476481 -1.172360
H  1.270580 0.190925 -2.047266
O  0.524312 1.896498 -1.307253
H  -0.164046 2.202438 -0.703975
C  -0.661168 -0.261281 -1.220878
H  -1.440670 0.367818 -0.769326
O  -1.044906 -0.631895 -2.542138
H  -1.198097 0.161741 -3.065669
24
36 zpe= -687.181983 src= /lustre/lwork/pjhsu/sugar_opt/pj_sugar/beta_galactose/5S1.xyz:202 moment= 2.338735 0.626944 -0.022043 9.833980 2.563415 0.988069 -0.509970 3.437360 3.923539 1.661493 -0.585751 2.423775 3.376287 1.493840 -0.014598 2.688206
H -2.188575 -2.446398 -1.191095
O  -2.133269 -2.180788 -0.263976
C  -0.860333 -1.629360 -0.083232
H  -0.108919 -2.437615 -0.069840
O  -0.911363 -0.993747 1.177030
C  0.088914 -0.017828 1.500110
H  0.480358 -0.292103 2.488194
C  -0.553473 1.366767 1.689719
H  0.192083 2.038006 2.150926
H  -1.353562 1.244773 2.422009
O  -1.148689 1.961086 0.553197
H  -0.484161 2.080187 -0.142626
C  1.274233 -0.105296 0.516966
H  1.716830 -1.095954 0.648151
O  2.324660 0.805393 0.823675
H  1.948285 1.655392 1.074848
C  0.850997 0.000351 -0.967584
H  1.581791 -0.540923 -1.576472
O  0.795290 1.366494 -1.413108
H  1.697245 1.707050 -1.440952
C  -0.531356 -0.623052 -1.190860
H  -1.290724 0.161655 -1.133614
O  -0.623902 -1.328834 -2.430770
H  -0.762359 -0.695259 -3.141697
24
37 zpe= -687.180937 src= /lustre/lwork/pjhsu/sugar_opt/pj_sugar/beta_galactose/5S1.xyz:203 moment= 2.347729 0.621135 -0.075532 9.913903 2.611710 1.046275 -0.286485 3.390593 3.819383 1.580308 -0.509878 2.684204 3.704784 1.572354 -0.633416 2.557843
H -2.473979 -1.896068 -0.343463
O  -1.696374 -2.427263 -0.554546
C  -0.564404 -1.635967 -0.460191
H  0.261515 -2.279823 -0.779899
O  -0.412718 -1.261287 0.915702
C  0.546747 -0.238331 1.277789
H  1.168614 -0.672222 2.067145
C  -0.221471 0.927462 1.899175
H  -0.864025 1.416678 1.147841
H  0.479374 1.668661 2.285300
O  -1.009129 0.489726 2.992507
H  -1.468311 -0.311606 2.710839
C  1.458073 0.112148 0.089110
H  2.049494 -0.786038 -0.120709
O  2.369538 1.140669 0.426438
H  2.102170 1.933225 -0.059894
C  0.680940 0.440548 -1.207093
H  1.315936 0.175022 -2.054739
O  0.464520 1.850460 -1.364722
H  -0.257379 2.132411 -0.789852
C  -0.627642 -0.362777 -1.319683
H  -1.447922 0.247307 -0.904443
O  -0.921181 -0.729255 -2.655147
H  -0.933388 0.067319 -3.197465
24
38 zpe= -687.180735 src= /lustre/lwork/pjhsu/sugar_opt/pj_sugar/beta_galactose/5S1.xyz:204 moment= 2.355722 0.653176 0.059804 5.896147 2.590844 1.029137 -0.408312 3.097192 3.980668 1.708167 -0.500330 2.446370 3.633225 1.666345 -0.094571 2.317741
H -2.551364 -2.281048 -0.985570
O  -2.156159 -2.202219 -0.107904
C  -0.883480 -1.640057 -0.278877
H  -0.231814 -2.351021 -0.814511
O  -0.399629 -1.430845 1.026428
C  0.580031 -0.407999 1.266015
H  1.296378 -0.844392 1.968590
C  -0.056213 0.790156 1.993070
H  -0.748376 0.398468 2.740006
H  -0.650233 1.411147 1.302063
O  0.907484 1.571512 2.676690
H  1.638301 1.723036 2.061565
C  1.345672 -0.051738 -0.022578
H  1.918727 -0.940106 -0.312081
O  2.261526 1.006743 0.249787
H  2.147302 1.673553 -0.442715
C  0.420275 0.300605 -1.225573
H  0.873370 -0.100099 -2.134494
O  0.347234 1.711130 -1.471239
H  -0.196100 2.127920 -0.790764
C  -0.964920 -0.329811 -1.067623
H  -1.618124 0.342412 -0.493959
O  -1.567508 -0.645483 -2.318739
H  -1.712381 0.166133 -2.816583
24
39 zpe= -687.18068 src= /lustre/lwork/pjhsu/sugar_opt/pj_sugar/beta_galactose/5S1.xyz:206 moment= 2.351125 0.636030 -0.008783 7.384328 2.582125 1.023255 -0.343274 3.358828 3.816217 1.588291 -0.481758 2.673942 3.692054 1.666020 -0.344003 2.256557
H -2.542957 -2.096804 0.001691
O  -1.805415 -2.576557 -0.395706
C  -0.686208 -1.761062 -0.380779
H  0.128639 -2.386335 -0.763600
O  -0.453851 -1.382934 0.978392
C  0.475711 -0.328869 1.289284
H  1.152494 -0.724475 2.053836
C  -0.280394 0.841332 1.939823
H  -1.005610 0.422739 2.639994
H  -0.853521 1.408897 1.186886
O  0.573816 1.692621 2.679856
H  1.339204 1.882319 2.119730
C  1.322354 0.053683 0.060956
H  1.990008 -0.790121 -0.146877
O  2.128459 1.189739 0.368032
H  1.976911 1.845059 -0.328795
C  0.490274 0.292959 -1.230371
H  1.079932 -0.059523 -2.079332
O  0.292236 1.686099 -1.507604
H  -0.373028 2.042568 -0.905767
C  -0.831208 -0.488707 -1.228672
H  -1.608001 0.124574 -0.741715
O  -1.235051 -0.843628 -2.537413
H  -1.275799 -0.042574 -3.071845
24
40 zpe= -687.180513 src= /lustre/lwork/pjhsu/sugar_opt/pj_sugar/beta_galactose/5S1.xyz:207 moment= 2.403332 0.719807 0.221328 3.554159 2.643521 1.072525 -0.278622 3.198560 4.276501 1.711046 -0.875815 2.886518 3.880790 1.642409 -0.400131 2.625733
H -2.329223 -2.256888 -1.304318
O  -2.157202 -2.013143 -0.385800
C  -0.818988 -1.584966 -0.325969
H  -0.155600 -2.425970 -0.587637
O  -0.605735 -1.221864 1.020440
C  0.275272 -0.127420 1.313778
H  0.740807 -0.400093 2.267711
C  -0.472203 1.180673 1.572405
H  -1.265810 1.322132 0.834463
H  0.229468 2.018653 1.491541
O  -1.009522 1.103775 2.894209
H  -1.744339 1.717980 2.971149
C  1.374575 -0.065666 0.239802
H  1.850942 -1.053691 0.227340
O  2.355731 0.940367 0.484733
H  2.867952 0.713487 1.267177
C  0.813166 0.187755 -1.172076
H  1.484074 -0.282032 -1.902214
O  0.681420 1.576089 -1.459761
H  1.501841 2.008169 -1.189979
C  -0.581615 -0.434348 -1.311376
H  -1.320588 0.343878 -1.096600
O  -0.817791 -0.983445 -2.608529
H  -0.896634 -0.261434 -3.240488
24
41 zpe= -687.180302 src= /lustre/lwork/pjhsu/sugar_opt/pj_sugar/beta_galactose/5S1.xyz:208 moment= 2.345393 0.626933 -0.109546 8.468340 2.599163 1.052839 -0.330830 2.955666 3.822800 1.584225 -0.624608 2.574183 3.460064 1.456095 -0.314116 2.718825
H -2.100054 -2.158802 -1.438965
O  -1.821003 -2.182836 -0.513970
C  -0.572067 -1.549439 -0.442220
H  0.207044 -2.220581 -0.846504
O  -0.342459 -1.340130 0.932572
C  0.493511 -0.231883 1.341041
H  1.090802 -0.623807 2.168443
C  -0.388114 0.880656 1.913424
H  -0.983810 1.365841 1.125984
H  0.245071 1.641273 2.372818
O  -1.237471 0.375731 2.927698
H  -1.647928 -0.427723 2.581690
C  1.457701 0.170590 0.211917
H  2.083641 -0.708106 0.020315
O  2.319395 1.214912 0.611904
H  1.998706 2.024046 0.186984
C  0.737436 0.514287 -1.124780
H  1.399981 0.204276 -1.940946
O  0.600877 1.929540 -1.281900
H  -0.298040 2.201728 -1.068792
C  -0.592433 -0.233499 -1.238914
H  -1.395276 0.370994 -0.804029
O  -1.008323 -0.475766 -2.581392
H  -0.248184 -0.739301 -3.112380
24
42 zpe= -687.179573 src= /lustre/lwork/pjhsu/sugar_opt/pj_sugar/beta_galactose/5S1.xyz:209 moment= 2.371191 0.674631 -0.039710 4.439157 2.561922 1.007839 -0.350332 3.478869 3.951725 1.738348 -0.420523 2.306795 3.629314 1.648488 -0.082062 2.376324
H -1.882587 -2.750972 -1.158186
O  -1.566682 -2.695735 -0.246360
C  -0.499785 -1.791382 -0.240078
H  0.429479 -2.324808 -0.515812
O  -0.402092 -1.333739 1.093134
C  0.298622 -0.104014 1.347319
H  0.960615 -0.299861 2.199554
C  -0.710311 0.964320 1.802786
H  -1.354839 0.502037 2.551575
H  -1.336501 1.294161 0.967838
O  -0.076230 2.070079 2.436185
H  0.439489 2.531298 1.765555
C  1.176538 0.272490 0.139326
H  1.918724 -0.524146 0.009707
O  1.854174 1.522647 0.319449
H  2.572709 1.410563 0.950374
C  0.388825 0.386904 -1.186537
H  1.092198 0.163560 -2.004723
O  -0.165165 1.677035 -1.377518
H  0.543834 2.320682 -1.257057
C  -0.754771 -0.634299 -1.217179
H  -1.671171 -0.133098 -0.898839
O  -1.041004 -1.146845 -2.517660
H  -0.217071 -1.374879 -2.962856
24
43 zpe= -687.179386 src= /lustre/lwork/pjhsu/sugar_opt/pj_sugar/beta_galactose/5S1.xyz:211 moment= 2.398229 0.703821 0.083089 3.508921 2.619961 1.050848 -0.302927 3.280402 4.137138 1.726090 -0.643558 2.625803 3.909760 1.723261 -0.307241 2.374467
H -2.662304 -1.556402 0.257759
O  -2.077845 -2.133362 -0.252365
C  -0.796808 -1.555114 -0.215237
H  -0.102072 -2.386891 -0.386763
O  -0.627849 -0.990301 1.074423
C  0.374614 0.033211 1.246945
H  0.912133 -0.247953 2.163526
C  -0.260744 1.405973 1.482406
H  -0.912874 1.677456 0.653864
H  0.537686 2.154692 1.530980
O  -1.078515 1.434093 2.648896
H  -0.523082 1.316410 3.426180
C  1.382507 -0.017209 0.079960
H  1.760768 -1.047514 0.046448
O  2.464572 0.883613 0.252568
H  3.061601 0.522069 0.915182
C  0.714436 0.226351 -1.280661
H  1.354907 -0.204243 -2.057274
O  0.561150 1.625301 -1.493510
H  0.424357 1.775020 -2.433962
C  -0.646700 -0.498520 -1.318138
H  -1.424342 0.258131 -1.145780
O  -0.804845 -1.088106 -2.601079
H  -1.631752 -1.586705 -2.593369
24
44 zpe= -687.179214 src= /lustre/lwork/pjhsu/sugar_opt/pj_sugar/beta_galactose/5S1.xyz:212 moment= 2.332283 0.622894 -0.096921 10.850483 2.546084 0.962937 -0.575440 3.688115 3.902059 1.661656 -0.547515 2.398508 3.392114 1.502675 -0.078242 2.619449
H -2.329964 -2.378758 -0.986669
O  -2.024755 -2.275919 -0.076056
C  -0.756738 -1.677113 -0.128844
H  -0.015476 -2.424716 -0.468230
O  -0.471539 -1.303127 1.200600
C  0.449622 -0.215646 1.412222
H  1.095479 -0.528520 2.235979
C  -0.352234 1.038391 1.839920
H  -0.605016 0.956465 2.898062
H  -1.291334 1.073974 1.281217
O  0.375909 2.258359 1.672788
H  0.229257 2.540252 0.757900
C  1.357734 -0.027565 0.182662
H  1.793632 -1.010451 -0.024603
O  2.453878 0.822543 0.425071
H  2.119645 1.605347 0.888195
C  0.540458 0.340301 -1.073243
H  1.148674 0.101780 -1.954708
O  0.269053 1.748048 -1.070194
H  -0.090087 2.005562 -1.925535
C  -0.767692 -0.480314 -1.098373
H  -1.586134 0.170109 -0.783758
O  -1.137064 -0.918201 -2.410094
H  -0.407309 -1.418801 -2.794310
24
45 zpe= -687.179009 src= /lustre/lwork/pjhsu/sugar_opt/pj_sugar/beta_galactose/5S1.xyz:213 moment= 2.416889 0.732667 0.142626 3.100136 2.634520 1.066062 -0.280487 3.188225 4.192992 1.765833 -0.627543 2.566996 3.944085 1.738736 -0.298079 2.413238
H -1.534681 -3.131522 0.021093
O  -1.547745 -2.422568 -0.631900
C  -0.404985 -1.627161 -0.453145
H  0.492688 -2.213294 -0.703115
O  -0.356058 -1.228877 0.909586
C  0.360453 -0.022058 1.242472
H  0.985776 -0.285768 2.107175
C  -0.596541 1.088641 1.683878
H  -1.380480 1.232010 0.942066
H  -0.035795 2.026169 1.762328
O  -1.263688 0.774570 2.904269
H  -0.629265 0.815737 3.626634
C  1.305867 0.362786 0.085479
H  1.939614 -0.514464 -0.099719
O  2.121358 1.482274 0.394805
H  2.804862 1.201526 1.011401
C  0.554135 0.617253 -1.226924
H  1.264436 0.506860 -2.053075
O  0.016996 1.935051 -1.217308
H  -0.213404 2.174182 -2.120360
C  -0.556659 -0.438348 -1.403351
H  -1.512250 0.036744 -1.151341
O  -0.552840 -0.862603 -2.761057
H  -1.261794 -1.508137 -2.868892
24
46 zpe= -687.178955 src= /lustre/lwork/pjhsu/sugar_opt/pj_sugar/beta_galactose/5S1.xyz:214 moment= 2.396270 0.710737 0.126128 3.445918 2.627460 1.066428 -0.238922 3.267556 4.103751 1.715312 -0.642122 2.595814 3.890547 1.653550 -0.380509 2.622920
H -2.037382 -2.657945 -1.007553
O  -1.735511 -2.440730 -0.116117
C  -0.556430 -1.694384 -0.262206
H  0.236004 -2.341210 -0.675695
O  -0.203809 -1.297829 1.046649
C  0.492034 -0.059086 1.233468
H  1.191938 -0.263168 2.056523
C  -0.423226 1.081051 1.697750
H  -1.222948 1.267123 0.982768
H  0.180616 1.994865 1.765495
O  -1.068845 0.798704 2.931941
H  -0.405604 0.583213 3.595744
C  1.328079 0.250830 -0.022261
H  1.988459 -0.609486 -0.181903
O  2.107752 1.442042 0.098704
H  2.911995 1.257750 0.592441
C  0.458562 0.399824 -1.287657
H  1.057686 0.092046 -2.154179
O  -0.005323 1.732276 -1.468642
H  0.747792 2.323729 -1.343783
C  -0.777235 -0.504935 -1.201960
H  -1.608261 0.083660 -0.801754
O  -1.140110 -1.065970 -2.464265
H  -1.518232 -0.372369 -3.014509
24
47 zpe= -687.178548 src= /lustre/lwork/pjhsu/sugar_opt/pj_sugar/beta_galactose/5S1.xyz:216 moment= 2.336805 0.624030 0.045153 10.024673 2.596918 1.025185 -0.429323 3.203562 3.854422 1.604646 -0.524412 2.591339 3.659080 1.565410 -0.537813 2.517243
H -2.865957 -1.490177 -0.100064
O  -2.304276 -2.038944 -0.660699
C  -1.029788 -1.494845 -0.693959
H  -0.474637 -2.122190 -1.398758
O  -0.471714 -1.628165 0.630368
C  0.621912 -0.778215 1.010212
H  1.320658 -1.416464 1.555295
C  0.085249 0.304949 1.981132
H  0.207365 -0.035079 3.012810
H  -0.981811 0.452899 1.795682
O  0.786286 1.553987 1.794218
H  0.659194 2.116171 2.564667
C  1.370466 -0.283995 -0.246885
H  1.636032 -1.199392 -0.783436
O  2.606012 0.331327 0.041269
H  2.429683 1.155075 0.511033
C  0.454187 0.522293 -1.199324
H  0.819313 0.376969 -2.218971
O  0.472917 1.930439 -1.000659
H  0.414185 2.109912 -0.049945
C  -0.991049 -0.022839 -1.131784
H  -1.532622 0.556650 -0.367032
O  -1.659274 0.093158 -2.376102
H  -1.573334 1.007474 -2.670064
24
48 zpe= -687.178185 src= /lustre/lwork/pjhsu/sugar_opt/pj_sugar/beta_galactose/5S1.xyz:217 moment= 2.368378 0.648964 -0.028894 5.935746 2.630488 1.070535 -0.314658 3.020930 3.957141 1.578834 -0.708418 2.936074 3.830540 1.583590 -0.486546 2.782295
H -2.069936 -2.767424 0.302471
O  -1.954254 -2.024204 -0.299677
C  -0.653042 -1.515143 -0.153517
H  0.077410 -2.327848 -0.271572
O  -0.543202 -0.975094 1.165033
C  0.370884 0.120213 1.375710
H  0.904016 -0.117851 2.304346
C  -0.423544 1.427061 1.626763
H  0.183814 2.282418 1.329934
H  -0.629400 1.504051 2.702310
O  -1.636704 1.502728 0.896600
H  -2.152337 0.719282 1.123642
C  1.435131 0.148606 0.261444
H  1.912788 -0.841183 0.279249
O  2.409253 1.152899 0.493070
H  2.961245 0.880031 1.232947
C  0.856553 0.301366 -1.151370
H  1.560082 -0.158284 -1.856216
O  0.696899 1.677392 -1.456068
H  0.399324 1.748014 -2.368880
C  -0.477587 -0.461171 -1.250570
H  -1.279944 0.270314 -1.117281
O  -0.541241 -1.064430 -2.539583
H  -1.407211 -1.479742 -2.626783
24
49 zpe= -687.177942 src= /lustre/lwork/pjhsu/sugar_opt/pj_sugar/beta_galactose/5S1.xyz:218 moment= 2.390725 0.687047 0.060377 3.959683 2.646550 1.090624 -0.211601 3.061434 4.062918 1.707295 -0.611788 2.537458 3.819528 1.593325 -0.436998 2.712286
H -2.537778 -2.002324 -1.220473
O  -2.246195 -1.873930 -0.308893
C  -0.887788 -1.517374 -0.362091
H  -0.309319 -2.346114 -0.803568
O  -0.488680 -1.341513 0.977717
C  0.413526 -0.279926 1.314160
H  0.975210 -0.670262 2.171097
C  -0.292897 0.994644 1.794837
H  -0.915292 1.440407 1.018817
H  0.484056 1.725501 2.061041
O  -1.160766 0.769208 2.894489
H  -0.712394 0.220273 3.546463
C  1.432714 -0.082973 0.171463
H  1.940153 -1.044671 0.058511
O  2.449460 0.850783 0.485631
H  2.086252 1.733209 0.336753
C  0.749856 0.241415 -1.185953
H  1.303964 -0.251720 -1.989788
O  0.714675 1.658392 -1.430896
H  1.477336 1.902458 -1.963876
C  -0.694002 -0.259290 -1.214094
H  -1.343599 0.519089 -0.803315
O  -1.123682 -0.598691 -2.533313
H  -1.315812 0.213412 -3.012718
24
50 zpe= -687.177173 src= /lustre/lwork/pjhsu/sugar_opt/pj_sugar/beta_galactose/5S1.xyz:220 moment= 2.392180 0.700046 0.209438 4.262750 2.637495 1.122287 0.007572 3.305314 4.307315 1.742346 -0.819513 2.843198 3.729197 1.661773 -0.133891 2.543909
H -2.450947 -2.142291 -0.961769
O  -2.111428 -2.032266 -0.064315
C  -0.780823 -1.586529 -0.172189
H  -0.149175 -2.419580 -0.536903
O  -0.387338 -1.250548 1.133278
C  0.500491 -0.134317 1.333735
H  1.107191 -0.413489 2.198402
C  -0.243880 1.138663 1.728010
H  -1.096526 1.316452 1.065288
H  0.443512 1.989539 1.644912
O  -0.675264 0.976123 3.077495
H  -1.323614 1.655215 3.282985
C  1.451969 -0.010736 0.126153
H  1.938207 -0.987832 0.040794
O  2.482181 0.933748 0.329551
H  2.203826 1.759662 -0.088392
C  0.696654 0.236813 -1.195772
H  1.285473 -0.193525 -2.017297
O  0.608259 1.654067 -1.376474
H  0.274232 1.843958 -2.259149
C  -0.693470 -0.413275 -1.161007
H  -1.417075 0.336735 -0.838277
O  -1.148470 -0.818820 -2.456169
H  -0.512986 -1.439770 -2.832891
24
51 zpe= -687.177123 src= /lustre/lwork/pjhsu/sugar_opt/pj_sugar/beta_galactose/5S1.xyz:223 moment= 2.362051 0.657286 0.129635 5.637171 2.607159 1.031241 -0.340205 3.501998 4.074669 1.690713 -0.639917 2.700633 3.846746 1.624425 -0.380147 2.746872
H -2.417435 -1.977451 0.086627
O  -1.778529 -2.421876 -0.485401
C  -0.608689 -1.672977 -0.481824
H  0.156636 -2.330627 -0.910187
O  -0.318650 -1.364106 0.882690
C  0.541774 -0.261470 1.208671
H  1.203852 -0.631876 2.001323
C  -0.245031 0.914874 1.796875
H  -1.005764 1.272450 1.097432
H  0.457329 1.734284 1.993257
O  -0.972017 0.570458 2.967299
H  -0.359677 0.230376 3.628458
C  1.431864 0.091958 0.002499
H  2.015487 -0.809646 -0.214437
O  2.350074 1.124547 0.306679
H  2.068786 1.910901 -0.182177
C  0.611030 0.408636 -1.269104
H  1.209190 0.128105 -2.138117
O  0.400579 1.820715 -1.431125
H  -0.331559 2.106233 -0.871980
C  -0.708010 -0.383639 -1.317327
H  -1.506478 0.226542 -0.863803
O  -1.062900 -0.743905 -2.639602
H  -1.132864 0.057498 -3.169725
24
52 zpe= -687.176982 src= /lustre/lwork/pjhsu/sugar_opt/pj_sugar/beta_galactose/5S1.xyz:225 moment= 2.382924 0.687630 0.101570 4.169579 2.628303 1.106778 -0.053033 3.244770 4.137564 1.746197 -0.614746 2.532915 3.727463 1.657488 -0.152632 2.510144
H -1.960221 -2.527863 -1.122558
O  -1.649056 -2.441586 -0.212245
C  -0.464202 -1.688937 -0.243964
H  0.367144 -2.337645 -0.581687
O  -0.228375 -1.294671 1.086180
C  0.423944 -0.038284 1.337090
H  1.059575 -0.227626 2.209847
C  -0.558319 1.071971 1.726083
H  -1.306314 1.238853 0.951545
H  0.012303 2.001983 1.846461
O  -1.292898 0.772233 2.904471
H  -0.676929 0.585481 3.620667
C  1.373410 0.301894 0.168483
H  2.053799 -0.551298 0.082720
O  2.179238 1.432942 0.428108
H  1.750475 2.194108 0.013765
C  0.623725 0.422505 -1.175881
H  1.313765 0.135400 -1.981407
O  0.260385 1.795853 -1.337503
H  -0.096567 1.932374 -2.221173
C  -0.605404 -0.497345 -1.202034
H  -1.477666 0.074459 -0.881416
O  -0.932438 -0.946747 -2.520672
H  -0.172377 -1.409052 -2.894880
24
53 zpe= -687.176337 src= /lustre/lwork/pjhsu/sugar_opt/pj_sugar/beta_galactose/5S1.xyz:229 moment= 2.360114 0.624989 -0.139714 9.298803 2.626116 1.054151 -0.301084 3.261965 3.820972 1.627928 -0.428861 2.482601 3.681700 1.556833 -0.516744 2.510113
H -2.794306 -1.183652 0.037648
O  -2.224949 -1.873649 -0.326845
C  -0.896778 -1.430271 -0.227001
H  -0.291963 -2.322870 -0.423166
O  -0.699240 -0.961339 1.105304
C  0.433915 -0.102168 1.348355
H  0.944472 -0.525197 2.222374
C  -0.047105 1.321684 1.741006
H  0.694064 2.051969 1.417814
H  -0.131864 1.374209 2.833236
O  -1.281271 1.694183 1.144405
H  -1.953020 1.102267 1.498693
C  1.436815 -0.178172 0.180204
H  1.717123 -1.235946 0.083878
O  2.594900 0.599278 0.439209
H  3.127684 0.146729 1.100956
C  0.834766 0.215848 -1.172541
H  1.428698 -0.259955 -1.961596
O  0.874482 1.627125 -1.317136
H  0.595155 1.845999 -2.211795
C  -0.603206 -0.335003 -1.263480
H  -1.280959 0.501177 -1.051438
O  -0.800388 -0.835746 -2.581240
H  -1.678025 -1.235501 -2.617842
24
54 zpe= -687.176247 src= /lustre/lwork/pjhsu/sugar_opt/pj_sugar/beta_galactose/5S1.xyz:230 moment= 2.373121 0.686094 0.224188 4.443042 2.629548 1.066336 -0.241319 3.293397 4.125874 1.735229 -0.615965 2.584592 3.841964 1.633680 -0.331482 2.713736
H -1.496116 -2.771958 -1.506868
O  -1.219491 -2.642827 -0.590857
C  -0.200579 -1.678638 -0.602615
H  0.660591 -2.058754 -1.177139
O  0.157584 -1.509700 0.748980
C  0.688646 -0.247370 1.177307
H  1.494449 -0.499178 1.877215
C  -0.340647 0.575479 1.960900
H  -1.261400 0.705470 1.386039
H  0.091625 1.564528 2.160994
O  -0.757662 -0.048633 3.165186
H  0.015846 -0.223996 3.711529
C  1.344777 0.487889 -0.009950
H  2.118904 -0.188665 -0.388605
O  1.989768 1.679530 0.395631
H  1.468771 2.419124 0.052560
C  0.357879 0.735834 -1.175280
H  0.921856 0.747001 -2.109698
O  -0.232490 2.043552 -1.104824
H  -0.947392 2.042782 -0.457235
C  -0.697059 -0.376182 -1.247721
H  -1.592084 -0.073557 -0.686725
O  -1.057019 -0.713351 -2.584847
H  -1.508757 0.032620 -2.992978
24
55 zpe= -687.175242 src= /lustre/lwork/pjhsu/sugar_opt/pj_sugar/beta_galactose/5S1.xyz:231 moment= 2.388675 0.705632 0.105727 3.619496 2.607744 1.060963 -0.276852 3.046335 4.116752 1.727104 -0.620969 2.598297 3.780901 1.681215 -0.186590 2.474505
H -2.387377 -2.379389 -0.747630
O  -2.054211 -2.197760 0.141230
C  -0.798519 -1.597238 -0.011179
H  -0.043134 -2.383392 -0.202010
O  -0.521176 -0.981195 1.230118
C  0.364747 0.145358 1.248801
H  0.984391 -0.002197 2.145786
C  -0.381592 1.473360 1.430385
H  -1.111254 1.627399 0.637194
H  0.349371 2.289781 1.372685
O  -1.115301 1.525665 2.646261
H  -0.517238 1.376042 3.385758
C  1.299058 0.089327 0.024988
H  1.820882 -0.874403 0.064911
O  2.253900 1.149902 -0.006376
H  2.947249 0.986166 0.639815
C  0.527047 0.143464 -1.310853
H  1.147791 -0.356048 -2.071848
O  0.256354 1.473632 -1.714245
H  1.073606 1.979495 -1.619711
C  -0.809530 -0.599853 -1.180587
H  -1.591940 0.134944 -0.984373
O  -1.219842 -1.268051 -2.373316
H  -0.473282 -1.753010 -2.742804
24
56 zpe= -687.171765 src= /lustre/lwork/pjhsu/sugar_opt/pj_sugar/beta_galactose/5S1.xyz:232 moment= 2.360309 0.637735 -0.074724 7.143272 2.628310 1.054170 -0.333586 3.170180 3.945648 1.554363 -0.761751 3.057472 3.808538 1.548781 -0.577369 2.817478
H -2.355122 -2.503215 0.333255
O  -2.193417 -1.811143 -0.318102
C  -0.853345 -1.432958 -0.228385
H  -0.203998 -2.305781 -0.413629
O  -0.627078 -0.990130 1.117784
C  0.370884 0.016498 1.369084
H  0.896517 -0.313486 2.273897
C  -0.306701 1.367385 1.706351
H  0.377747 2.182731 1.470124
H  -0.513244 1.388929 2.784164
O  -1.501704 1.603523 0.980689
H  -2.106111 0.878224 1.179887
C  1.412082 0.013825 0.237080
H  1.801830 -1.013702 0.195829
O  2.475942 0.916989 0.489562
H  3.006749 0.571500 1.214589
C  0.816336 0.287774 -1.149513
H  1.469386 -0.200304 -1.888920
O  0.791378 1.682427 -1.393023
H  0.327286 1.832565 -2.223841
C  -0.597643 -0.333491 -1.268556
H  -1.318590 0.459211 -1.069645
O  -0.864275 -0.770872 -2.595008
H  -0.306909 -1.529499 -2.802674
24
57 zpe= -687.171358 src= /lustre/lwork/pjhsu/sugar_opt/pj_sugar/beta_galactose/5S1.xyz:233 moment= 2.348346 0.625842 -0.148308 9.266582 2.587149 1.050394 -0.254766 3.150044 3.808260 1.556298 -0.539429 2.834244 3.774729 1.593027 -0.495332 2.547828
H -2.395892 -1.962319 -1.095232
O  -2.101623 -1.960942 -0.174597
C  -0.779236 -1.487732 -0.167369
H  -0.096105 -2.317975 -0.422061
O  -0.538045 -1.090401 1.170840
C  0.423885 -0.046928 1.403592
H  1.000496 -0.376760 2.276316
C  -0.301608 1.264207 1.805127
H  0.310720 2.120958 1.522731
H  -0.425199 1.269762 2.895302
O  -1.562898 1.426741 1.176431
H  -2.094254 0.652450 1.401936
C  1.425670 0.034671 0.235609
H  1.856289 -0.972529 0.142912
O  2.456050 0.975358 0.484420
H  3.020928 0.634291 1.185484
C  0.770560 0.333504 -1.121601
H  1.410480 -0.111171 -1.900809
O  0.690382 1.733421 -1.319311
H  0.168599 1.898920 -2.111930
C  -0.617856 -0.332930 -1.169634
H  -1.354150 0.424235 -0.899074
O  -0.984194 -0.773264 -2.482337
H  -0.284001 -1.334566 -2.836746
