24
0 zpe= -687.197693 src= /lustre/lwork/pjhsu/sugar_opt/pj_sugar/beta_galactose/OS2.xyz:0 moment= 2.351579 0.618686 -0.456287 14.485962 2.517008 0.925209 -0.744479 3.843056 3.823340 1.565905 -0.548300 2.717387 3.504827 1.579993 -0.364768 2.213516
H -2.301076 1.006595 -0.746999
O  -2.654305 0.113557 -0.602136
C  -1.554286 -0.728811 -0.489830
H  -1.946772 -1.752506 -0.478752
O  -0.918440 -0.478272 0.773239
C  0.509868 -0.578605 0.814883
H  0.825452 -1.574777 0.485517
C  0.874256 -0.427726 2.288299
H  1.958132 -0.413698 2.416587
H  0.466104 -1.272599 2.851642
O  0.385245 0.808535 2.824343
H  -0.574505 0.800314 2.709945
C  1.185093 0.445082 -0.119229
H  2.168935 0.048738 -0.388175
O  1.379494 1.743875 0.448702
H  1.077908 1.736008 1.374243
C  0.350664 0.634030 -1.430077
H  1.030822 0.746905 -2.280784
O  -0.486561 1.781683 -1.324587
H  -0.014288 2.381431 -0.721615
C  -0.573863 -0.556359 -1.676277
H  -1.179123 -0.359298 -2.566352
O  0.255319 -1.703888 -1.874221
H  -0.263072 -2.399218 -2.290367
24
1 zpe= -687.197346 src= /lustre/lwork/pjhsu/sugar_opt/pj_sugar/beta_galactose/OS2.xyz:15 moment= 2.351015 0.621233 -0.444708 13.048695 2.518865 0.928848 -0.726915 3.809640 3.810537 1.564574 -0.502228 2.761761 3.509427 1.586543 -0.352199 2.216563
H -2.541970 0.685894 -0.165487
O  -2.735161 -0.264482 -0.125506
C  -1.528424 -0.922698 -0.330401
H  -1.757012 -1.987011 -0.432975
O  -0.714703 -0.736761 0.840538
C  0.696071 -0.624744 0.632015
H  1.068092 -1.504316 0.094585
C  1.307566 -0.629683 2.029090
H  2.385905 -0.467998 1.978088
H  1.120561 -1.597934 2.503335
O  0.775541 0.429110 2.836393
H  -0.179239 0.287131 2.886250
C  1.049308 0.614222 -0.215096
H  2.011912 0.419926 -0.698851
O  1.171552 1.834411 0.520975
H  1.054196 1.647462 1.469385
C  -0.029037 0.850798 -1.324820
H  0.468801 1.191534 -2.242251
O  -0.972269 1.831578 -0.907095
H  -0.482491 2.406127 -0.293525
C  -0.818363 -0.429864 -1.610378
H  -1.605131 -0.222352 -2.340998
O  0.043842 -1.470940 -2.083490
H  0.210451 -1.339413 -3.021779
24
2 zpe= -687.193821 src= /lustre/lwork/pjhsu/sugar_opt/pj_sugar/beta_galactose/OS2.xyz:17 moment= 2.406806 0.721357 -0.048207 4.807087 2.548596 0.935569 -0.800254 3.783040 4.369986 1.932779 -0.524994 2.160289 3.491553 1.679518 0.180205 2.387788
H -2.533918 0.566347 -1.129953
O  -2.814095 -0.295918 -0.784675
C  -1.655842 -0.928517 -0.343031
H  -1.959835 -1.927077 -0.002546
O  -1.151194 -0.189067 0.769933
C  0.262166 -0.203872 0.965689
H  0.609258 -1.234207 1.104657
C  0.472242 0.580274 2.257681
H  0.088889 -0.000698 3.100763
H  -0.084030 1.520519 2.193550
O  1.881293 0.830497 2.402220
H  2.055642 1.150792 3.291757
C  1.040653 0.378588 -0.242348
H  1.984790 -0.166579 -0.324765
O  1.303262 1.779799 -0.150666
H  1.848365 1.918815 0.635700
C  0.251222 0.188895 -1.558418
H  0.957064 0.104244 -2.391421
O  -0.640342 1.278544 -1.792978
H  -0.223454 2.061708 -1.405155
C  -0.610315 -1.068300 -1.479746
H  -1.165176 -1.188107 -2.415237
O  0.279987 -2.167466 -1.274063
H  -0.196631 -2.989218 -1.425949
24
3 zpe= -687.193679 src= /lustre/lwork/pjhsu/sugar_opt/pj_sugar/beta_galactose/OS2.xyz:18 moment= 2.380569 0.678052 -0.239926 4.785879 2.552831 0.946376 -0.724062 3.721036 3.814339 1.741763 -0.437558 2.011223 3.423081 1.585817 0.063004 2.342948
H -3.090449 -1.146276 -0.257313
O  -2.460906 -0.984033 -0.970538
C  -1.172039 -1.305343 -0.492857
H  -1.076867 -2.381119 -0.296961
O  -0.995676 -0.580476 0.711004
C  0.368647 -0.244045 1.035458
H  0.972656 -1.157818 1.030993
C  0.327688 0.337870 2.450716
H  0.073921 -0.453942 3.157386
H  -0.459122 1.098836 2.495569
O  1.584413 0.863477 2.844835
H  1.710093 1.677264 2.339675
C  0.960658 0.727880 -0.013821
H  2.020643 0.491630 -0.123940
O  0.893690 2.094608 0.382674
H  0.095753 2.464896 -0.024819
C  0.260971 0.557410 -1.390953
H  0.958493 0.853586 -2.179219
O  -0.846261 1.453580 -1.508446
H  -1.651807 1.010456 -1.204253
C  -0.179162 -0.896746 -1.598638
H  -0.698128 -0.998639 -2.556351
O  0.931081 -1.790314 -1.519482
H  1.471712 -1.692742 -2.309718
24
4 zpe= -687.193601 src= /lustre/lwork/pjhsu/sugar_opt/pj_sugar/beta_galactose/OS2.xyz:24 moment= 2.391831 0.689136 -0.303646 4.858269 2.533517 0.925069 -0.793584 3.914828 4.052719 1.766701 -0.484652 2.201249 3.472380 1.638555 0.082072 2.247300
H -2.660815 0.459370 -0.885455
O  -2.813386 -0.480860 -0.701374
C  -1.564347 -1.028363 -0.427352
H  -1.725428 -2.102952 -0.270595
O  -1.087438 -0.446357 0.787757
C  0.324339 -0.307540 0.929003
H  0.800162 -1.295582 0.861800
C  0.517466 0.264044 2.334973
H  0.211087 -0.471155 3.083763
H  -0.113151 1.145618 2.447227
O  1.864938 0.704946 2.557305
H  2.434545 -0.056702 2.703574
C  0.957151 0.575893 -0.178231
H  1.951183 0.176638 -0.400915
O  1.061503 1.958080 0.162310
H  1.633438 2.027918 0.938605
C  0.119240 0.529786 -1.476968
H  0.778879 0.691515 -2.336099
O  -0.909701 1.518115 -1.468046
H  -0.567470 2.266757 -0.958144
C  -0.576442 -0.822566 -1.604543
H  -1.164194 -0.844401 -2.527102
O  0.452445 -1.815482 -1.635405
H  0.074993 -2.647717 -1.936091
24
5 zpe= -687.193001 src= /lustre/lwork/pjhsu/sugar_opt/pj_sugar/beta_galactose/OS2.xyz:31 moment= 2.382235 0.680658 -0.303004 4.662945 2.540642 0.949273 -0.653463 3.698514 3.847741 1.670385 -0.632138 2.335275 3.816572 1.581854 -0.462629 2.715898
H -3.106191 -0.970662 0.084099
O  -2.604458 -0.658192 -0.678036
C  -1.255590 -0.979636 -0.481226
H  -1.101609 -2.063412 -0.392973
O  -0.845613 -0.347704 0.729028
C  0.597039 -0.296374 0.868925
H  0.990075 -1.297695 0.655646
C  0.880490 0.033261 2.325389
H  0.432935 0.999222 2.580283
H  1.957343 0.115399 2.478208
O  0.417831 -0.995488 3.192830
H  -0.529595 -1.088191 3.045120
C  1.194681 0.702551 -0.148591
H  2.144636 0.292731 -0.500340
O  1.484568 1.977754 0.402829
H  0.728306 2.548042 0.201147
C  0.233590 0.866052 -1.357450
H  0.805519 1.219514 -2.219029
O  -0.722690 1.897319 -1.103259
H  -1.404285 1.547908 -0.512628
C  -0.463129 -0.457715 -1.701511
H  -1.175563 -0.299390 -2.515896
O  0.490908 -1.466489 -2.040454
H  0.850801 -1.278806 -2.913113
24
6 zpe= -687.19292 src= /lustre/lwork/pjhsu/sugar_opt/pj_sugar/beta_galactose/OS2.xyz:39 moment= 2.382923 0.678723 -0.333404 4.789054 2.539745 0.947243 -0.662888 3.715070 3.839063 1.657041 -0.663906 2.341059 3.408092 1.550665 -0.002084 2.344590
H -2.939132 -1.238594 -0.344050
O  -2.256575 -1.171596 -1.022547
C  -1.002832 -1.225117 -0.397930
H  -0.847003 -2.188804 0.110977
O  -0.968465 -0.185227 0.572309
C  0.379676 0.125417 1.015122
H  0.872963 -0.819892 1.270536
C  0.238187 0.953380 2.281480
H  -0.317679 1.870894 2.064218
H  1.227009 1.241221 2.640640
O  -0.379797 0.209307 3.325938
H  -1.248975 -0.058787 3.008906
C  1.171268 0.810865 -0.122011
H  2.204447 0.459837 -0.069765
O  1.213741 2.225392 -0.012945
H  0.517045 2.570592 -0.590307
C  0.574810 0.413545 -1.500171
H  1.339492 0.529293 -2.268445
O  -0.474875 1.310203 -1.868609
H  -1.271673 1.079960 -1.371744
C  0.081230 -1.035873 -1.492808
H  -0.372950 -1.268865 -2.459875
O  1.223341 -1.854792 -1.245014
H  1.036749 -2.756357 -1.523904
24
7 zpe= -687.192912 src= /lustre/lwork/pjhsu/sugar_opt/pj_sugar/beta_galactose/OS2.xyz:42 moment= 2.382510 0.666726 -0.325586 5.437003 2.547134 0.946587 -0.711110 3.688460 3.869510 1.677195 -0.665054 2.307782 3.398996 1.554871 0.012456 2.323157
H -3.120223 -0.376252 0.168588
O  -2.592470 -0.208351 -0.621521
C  -1.345938 -0.854424 -0.461020
H  -1.463627 -1.945437 -0.450782
O  -0.815469 -0.418078 0.778307
C  0.632375 -0.367664 0.842044
H  1.020913 -1.345111 0.537475
C  0.981665 -0.137986 2.303151
H  0.537580 0.802214 2.643866
H  2.064309 -0.054363 2.409783
O  0.572372 -1.230868 3.118290
H  -0.378451 -1.332560 3.001532
C  1.184676 0.705412 -0.119159
H  2.166697 0.361318 -0.456206
O  1.383104 1.969095 0.490346
H  0.610408 2.508610 0.264156
C  0.255612 0.865306 -1.362397
H  0.864478 1.161168 -2.220981
O  -0.669673 1.936525 -1.164458
H  -1.491752 1.585688 -0.790700
C  -0.484433 -0.441858 -1.670922
H  -1.164984 -0.294292 -2.514829
O  0.425324 -1.510449 -1.930073
H  0.825507 -1.379642 -2.795491
24
8 zpe= -687.192799 src= /lustre/lwork/pjhsu/sugar_opt/pj_sugar/beta_galactose/OS2.xyz:47 moment= 2.383804 0.665239 -0.356087 5.576052 2.546830 0.945691 -0.715005 3.697378 3.859174 1.664363 -0.688622 2.321911 3.398771 1.555839 0.014192 2.323365
H -3.030576 -0.690727 0.115752
O  -2.497751 -0.571745 -0.680039
C  -1.189692 -1.032605 -0.407393
H  -1.185937 -2.123447 -0.262394
O  -0.767134 -0.401009 0.785376
C  0.661294 -0.155303 0.880650
H  1.180747 -1.103051 0.705511
C  0.916176 0.282467 2.313150
H  0.346837 1.191872 2.527189
H  1.975008 0.513415 2.439131
O  0.608732 -0.753220 3.240951
H  -0.319743 -0.978383 3.118041
C  1.116908 0.861115 -0.186761
H  2.146690 0.609309 -0.454127
O  1.126813 2.200994 0.274724
H  0.307537 2.608102 -0.045381
C  0.230855 0.755489 -1.466944
H  0.832632 1.014213 -2.338778
O  -0.829015 1.713614 -1.421083
H  -1.614839 1.308480 -1.026168
C  -0.325809 -0.659148 -1.636108
H  -0.973344 -0.692583 -2.517410
O  0.789302 -1.534553 -1.782935
H  0.496308 -2.363296 -2.173953
24
9 zpe= -687.192527 src= /lustre/lwork/pjhsu/sugar_opt/pj_sugar/beta_galactose/OS2.xyz:51 moment= 2.395239 0.698212 -0.134708 5.183314 2.536877 0.934187 -0.778608 3.744896 4.261704 1.843175 -0.553664 2.356580 3.853327 1.628634 -0.356026 2.770462
H -2.550888 0.797121 -0.541494
O  -2.774838 -0.146573 -0.504747
C  -1.565453 -0.832650 -0.508361
H  -1.815774 -1.899632 -0.570756
O  -0.907365 -0.589713 0.740849
C  0.516942 -0.564245 0.694355
H  0.887239 -1.479519 0.214945
C  1.034721 -0.616303 2.123875
H  2.123697 -0.748739 2.098482
H  0.580437 -1.478170 2.621892
O  0.696248 0.592465 2.821035
H  0.988285 0.533922 3.735201
C  1.043148 0.606771 -0.163623
H  2.043510 0.336071 -0.517316
O  1.130173 1.868324 0.503366
H  0.998943 1.732261 1.456439
C  0.116598 0.821814 -1.406472
H  0.729782 1.092021 -2.272892
O  -0.833224 1.849326 -1.145632
H  -0.411182 2.415730 -0.476480
C  -0.686548 -0.437077 -1.723929
H  -1.365615 -0.225027 -2.555039
O  0.246390 -1.460341 -2.086879
H  -0.225221 -2.167838 -2.536820
24
10 zpe= -687.192437 src= /lustre/lwork/pjhsu/sugar_opt/pj_sugar/beta_galactose/OS2.xyz:53 moment= 2.387855 0.670897 -0.383636 5.192642 2.538578 0.933563 -0.777862 3.782724 3.862390 1.666655 -0.699847 2.301601 3.430882 1.573497 -0.021061 2.229323
H -2.605181 -0.105858 -0.880885
O  -2.508993 -1.054051 -0.703163
C  -1.160978 -1.264761 -0.431037
H  -1.041217 -2.344587 -0.272927
O  -0.844253 -0.572740 0.777745
C  0.519018 -0.152330 0.923991
H  1.175636 -1.019249 0.791434
C  0.649140 0.333551 2.362067
H  -0.035072 1.170984 2.528948
H  1.667433 0.682227 2.546474
O  0.406136 -0.723221 3.280056
H  -0.470249 -1.071827 3.077875
C  0.906740 0.887223 -0.142599
H  1.973512 0.776266 -0.350683
O  0.644428 2.225367 0.324791
H  1.334589 2.814744 0.006513
C  0.106242 0.659458 -1.457958
H  0.712516 0.977664 -2.314483
O  -1.118443 1.387739 -1.440188
H  -0.984721 2.131254 -0.832701
C  -0.258815 -0.814525 -1.612294
H  -0.837792 -0.950425 -2.530863
O  0.972759 -1.535958 -1.679546
H  0.796566 -2.435947 -1.970568
24
11 zpe= -687.192432 src= /lustre/lwork/pjhsu/sugar_opt/pj_sugar/beta_galactose/OS2.xyz:64 moment= 2.388162 0.664295 -0.440791 5.681068 2.532129 0.929013 -0.774966 3.838585 3.847868 1.661597 -0.682193 2.310111 3.437037 1.583281 -0.012794 2.203128
H -2.450900 1.069590 -0.594374
O  -2.751538 0.150999 -0.515178
C  -1.602871 -0.628084 -0.423641
H  -1.939061 -1.672374 -0.384315
O  -0.945356 -0.300086 0.802130
C  0.478610 -0.458937 0.820217
H  0.729524 -1.486818 0.534397
C  0.890146 -0.248226 2.271625
H  0.618549 0.767050 2.581624
H  1.972819 -0.367820 2.374169
O  0.298715 -1.216750 3.123439
H  -0.653017 -1.175824 2.969078
C  1.170868 0.482495 -0.187104
H  2.089318 -0.002161 -0.531348
O  1.481841 1.784168 0.336039
H  2.317032 1.761863 0.810068
C  0.266203 0.745019 -1.420698
H  0.898098 0.893656 -2.302946
O  -0.565792 1.886288 -1.225680
H  -0.059138 2.519336 -0.698046
C  -0.675175 -0.433056 -1.653432
H  -1.318611 -0.214382 -2.510944
O  0.147338 -1.571717 -1.914094
H  -0.399601 -2.283231 -2.260986
24
12 zpe= -687.192398 src= /lustre/lwork/pjhsu/sugar_opt/pj_sugar/beta_galactose/OS2.xyz:66 moment= 2.370227 0.644940 -0.358075 6.902850 2.553842 0.946487 -0.744189 3.679519 3.784769 1.548350 -0.503882 2.802407 3.659154 1.600138 -0.467886 2.365183
H -3.086332 -0.300487 -0.209938
O  -2.470122 -0.378093 -0.949341
C  -1.322032 -1.064389 -0.471892
H  -1.542636 -2.129987 -0.331229
O  -0.983140 -0.483873 0.767636
C  0.423441 -0.333621 1.036091
H  0.907157 -1.312949 0.933750
C  0.588247 0.085872 2.496777
H  1.668083 0.104264 2.711721
H  0.138783 -0.684349 3.127469
O  -0.028026 1.307121 2.849153
H  0.307173 1.967147 2.225887
C  1.090173 0.608072 0.012600
H  2.144705 0.322457 -0.046298
O  1.056408 1.981794 0.395833
H  0.403114 2.405860 -0.185736
C  0.446611 0.459846 -1.407087
H  1.228209 0.565282 -2.164035
O  -0.473820 1.524438 -1.652829
H  -1.365931 1.233296 -1.402481
C  -0.246446 -0.899724 -1.560188
H  -0.758728 -0.945794 -2.525995
O  0.676964 -1.978911 -1.421925
H  1.199149 -2.051275 -2.226941
24
13 zpe= -687.192366 src= /lustre/lwork/pjhsu/sugar_opt/pj_sugar/beta_galactose/OS2.xyz:73 moment= 2.372065 0.643233 -0.367462 7.180737 2.552962 0.944369 -0.754905 3.696954 3.816293 1.563383 -0.520588 2.786391 3.564507 1.529589 -0.368223 2.484623
H -2.977493 -0.728276 0.141358
O  -2.519370 -0.467014 -0.667747
C  -1.223796 -1.048044 -0.628296
H  -1.292489 -2.127398 -0.832625
O  -0.720195 -0.855446 0.671530
C  0.680814 -0.530431 0.777401
H  1.260801 -1.317212 0.279678
C  1.064219 -0.570242 2.256569
H  2.153023 -0.417224 2.315495
H  0.849665 -1.570125 2.640555
O  0.370075 0.338557 3.085521
H  0.491504 1.211826 2.686079
C  1.009851 0.793218 0.057703
H  2.059737 0.741143 -0.244100
O  0.874323 1.942030 0.893129
H  0.076497 2.403595 0.584124
C  0.129437 0.987819 -1.222510
H  0.728988 1.458315 -2.002436
O  -0.948188 1.886064 -0.951938
H  -1.731215 1.374174 -0.692937
C  -0.403963 -0.350608 -1.735387
H  -1.075747 -0.169427 -2.580129
O  0.720197 -1.131655 -2.133190
H  0.423328 -1.853638 -2.695846
24
14 zpe= -687.192206 src= /lustre/lwork/pjhsu/sugar_opt/pj_sugar/beta_galactose/OS2.xyz:77 moment= 2.394107 0.700138 -0.127403 5.089931 2.538868 0.937858 -0.761551 3.712314 4.266052 1.847492 -0.546829 2.356631 3.832643 1.618817 -0.321081 2.845602
H -2.584514 0.759071 -0.536280
O  -2.808663 -0.181428 -0.457959
C  -1.602306 -0.871808 -0.432340
H  -1.845633 -1.938933 -0.439448
O  -0.935092 -0.550010 0.796036
C  0.487138 -0.554249 0.736827
H  0.837194 -1.499875 0.302848
C  1.020547 -0.540218 2.161480
H  2.106682 -0.694115 2.132939
H  0.555941 -1.365933 2.708546
O  0.711790 0.710039 2.796789
H  1.002982 0.691207 3.712854
C  1.020329 0.563480 -0.185461
H  2.016480 0.263882 -0.528953
O  1.124470 1.857808 0.411255
H  1.004855 1.773993 1.372025
C  0.086406 0.721111 -1.432288
H  0.702939 0.938527 -2.315116
O  -0.843228 1.778414 -1.232126
H  -0.412839 2.373602 -0.593752
C  -0.734839 -0.548265 -1.672047
H  -1.428005 -0.385706 -2.501853
O  0.114207 -1.671318 -1.943288
H  0.404161 -1.630274 -2.859686
24
15 zpe= -687.191983 src= /lustre/lwork/pjhsu/sugar_opt/pj_sugar/beta_galactose/OS2.xyz:79 moment= 2.327578 0.582031 -0.644909 -25.427388 2.485677 0.899158 -0.782996 4.145797 3.649703 1.528342 -0.599055 2.393548 3.435223 1.550257 -0.072931 2.277671
H -2.295675 1.011544 -0.825364
O  -2.695003 0.179489 -0.523902
C  -1.653309 -0.721044 -0.353933
H  -2.105857 -1.702010 -0.181737
O  -0.935314 -0.343096 0.844908
C  0.479122 -0.496771 0.857185
H  0.751971 -1.558918 0.737322
C  0.906918 -0.107495 2.272675
H  1.994091 -0.128779 2.366405
H  0.477510 -0.816674 2.986850
O  0.495417 1.226221 2.584597
H  -0.467437 1.249204 2.499512
C  1.179471 0.304340 -0.264722
H  2.115693 -0.211405 -0.505009
O  1.516153 1.648550 0.081680
H  1.218643 1.831684 0.990380
C  0.292638 0.356344 -1.552358
H  0.935616 0.299075 -2.437104
O  -0.462096 1.565209 -1.579500
H  0.094032 2.226214 -1.134908
C  -0.728594 -0.784784 -1.593104
H  -1.369645 -0.644922 -2.463778
O  -0.120914 -2.059260 -1.793253
H  0.377568 -2.324716 -1.014840
24
16 zpe= -687.191982 src= /lustre/lwork/pjhsu/sugar_opt/pj_sugar/beta_galactose/OS2.xyz:80 moment= 2.327533 0.581911 -0.645145 -25.178745 2.485685 0.899171 -0.782903 4.145639 3.649622 1.528308 -0.598928 2.393642 3.435245 1.550162 -0.073067 2.277968
H -2.421423 0.828915 -0.648151
O  -2.698851 -0.093146 -0.523865
C  -1.541044 -0.857640 -0.516949
H  -1.852236 -1.905984 -0.548736
O  -0.869227 -0.628864 0.744673
C  0.552977 -0.585173 0.750465
H  0.969246 -1.554794 0.428794
C  0.937647 -0.427026 2.221896
H  2.018218 -0.315876 2.327985
H  0.618563 -1.315407 2.775400
O  0.348305 0.749166 2.782919
H  -0.609260 0.655249 2.687362
C  1.123288 0.510344 -0.180005
H  2.119309 0.186607 -0.501309
O  1.273932 1.793150 0.430241
H  0.962964 1.750375 1.351760
C  0.224059 0.692611 -1.446795
H  0.859146 0.899785 -2.314641
O  -0.690917 1.767451 -1.248371
H  -0.226729 2.398097 -0.673328
C  -0.629802 -0.547851 -1.728531
H  -1.293169 -0.328814 -2.565520
O  0.147305 -1.661205 -2.164862
H  0.677701 -2.009969 -1.442429
24
17 zpe= -687.191559 src= /lustre/lwork/pjhsu/sugar_opt/pj_sugar/beta_galactose/OS2.xyz:81 moment= 2.388119 0.668216 -0.408234 5.429549 2.534058 0.935455 -0.735909 3.784656 3.858242 1.678539 -0.644837 2.287953 3.821545 1.557174 -0.552626 2.764488
H -2.567023 0.916345 -0.382100
O  -2.801306 -0.023764 -0.350905
C  -1.602205 -0.727963 -0.360721
H  -1.855578 -1.792611 -0.370862
O  -0.903122 -0.410451 0.847667
C  0.524197 -0.491118 0.783055
H  0.813823 -1.484502 0.420919
C  1.004903 -0.344888 2.221198
H  0.694128 0.632273 2.609155
H  2.096858 -0.406951 2.259391
O  0.516542 -1.394270 3.040494
H  -0.441964 -1.409472 2.928017
C  1.106993 0.546968 -0.198549
H  2.034429 0.139574 -0.613312
O  1.366676 1.836856 0.375682
H  2.170149 1.813947 0.902126
C  0.123965 0.819513 -1.368875
H  0.704069 1.057810 -2.269992
O  -0.759634 1.898857 -1.077029
H  -0.271057 2.527163 -0.526876
C  -0.757081 -0.406452 -1.618571
H  -1.464680 -0.194205 -2.423987
O  0.048355 -1.546338 -1.939377
H  0.219563 -1.556324 -2.885545
24
18 zpe= -687.191479 src= /lustre/lwork/pjhsu/sugar_opt/pj_sugar/beta_galactose/OS2.xyz:83 moment= 2.370243 0.657778 -0.386109 6.127213 2.522838 0.936369 -0.701714 3.708911 3.844007 1.673511 -0.634617 2.274674 3.396060 1.552922 -0.007673 2.283718
H -2.512209 0.914171 -0.096567
O  -2.700967 -0.031651 -0.193347
C  -1.490907 -0.665203 -0.457699
H  -1.736022 -1.701225 -0.720148
O  -0.711000 -0.673555 0.748090
C  0.714389 -0.585591 0.564560
H  1.040320 -1.328523 -0.168642
C  1.338080 -0.945220 1.907741
H  1.011862 -0.243858 2.685561
H  2.425857 -0.882705 1.835182
O  1.024881 -2.279795 2.275776
H  0.063219 -2.355161 2.267234
C  1.060533 0.805800 0.032947
H  2.086578 0.808321 -0.338500
O  1.022086 1.813142 1.049818
H  0.284129 1.612295 1.639124
C  0.084738 1.199754 -1.139720
H  0.663835 1.599016 -1.978346
O  -0.872563 2.165612 -0.705862
H  -0.401726 2.781707 -0.127444
C  -0.735393 0.007518 -1.634432
H  -1.493096 0.375551 -2.332810
O  0.166954 -0.879872 -2.295246
H  -0.336577 -1.510528 -2.819269
24
19 zpe= -687.191296 src= /lustre/lwork/pjhsu/sugar_opt/pj_sugar/beta_galactose/OS2.xyz:88 moment= 2.389808 0.669833 -0.328974 5.118167 2.555889 0.966928 -0.605878 3.557643 3.884260 1.703580 -0.608665 2.275136 3.697065 1.534727 -0.400784 2.803601
H -2.511496 0.826888 -0.557611
O  -2.706262 -0.117006 -0.469714
C  -1.482063 -0.763703 -0.307378
H  -1.715041 -1.827836 -0.165222
O  -0.866814 -0.244742 0.865082
C  0.568976 -0.365814 0.910977
H  0.841379 -1.407266 0.708656
C  0.969601 -0.034541 2.340826
H  0.664736 0.988641 2.583711
H  2.054306 -0.095589 2.444151
O  0.412910 -0.966524 3.259267
H  -0.541827 -0.956337 3.123637
C  1.231339 0.525438 -0.161949
H  2.167802 0.049001 -0.458867
O  1.583046 1.821986 0.292168
H  0.777925 2.356171 0.262931
C  0.312937 0.630869 -1.414203
H  0.927392 0.759514 -2.307433
O  -0.564710 1.767416 -1.256404
H  -0.443141 2.365015 -1.998756
C  -0.569331 -0.608007 -1.558631
H  -1.226901 -0.492749 -2.426529
O  0.315046 -1.713562 -1.739901
H  -0.197813 -2.495265 -1.968807
24
20 zpe= -687.190793 src= /lustre/lwork/pjhsu/sugar_opt/pj_sugar/beta_galactose/OS2.xyz:89 moment= 2.389232 0.677659 -0.298516 4.693972 2.565576 0.967742 -0.628982 3.577489 3.826349 1.756525 -0.424422 1.979343 3.411186 1.583755 0.083807 2.342014
H -2.698205 0.661231 0.370957
O  -2.885058 -0.235090 0.058581
C  -1.654443 -0.802977 -0.272761
H  -1.861200 -1.852986 -0.523813
O  -0.825057 -0.733581 0.876078
C  0.586987 -0.770517 0.626966
H  0.830649 -1.651881 0.023237
C  1.249875 -0.902241 2.000610
H  1.014185 -1.882709 2.416504
H  0.832037 -0.143454 2.671576
O  2.664267 -0.809559 1.922489
H  2.869070 0.115458 1.736406
C  1.053165 0.480331 -0.160447
H  1.879079 0.181943 -0.806580
O  1.564986 1.521810 0.666951
H  0.804903 2.029703 0.982825
C  -0.091653 1.026104 -1.050706
H  0.333672 1.539261 -1.915844
O  -0.877118 1.954164 -0.270464
H  -1.018252 2.754051 -0.784224
C  -1.007367 -0.108959 -1.506171
H  -1.823080 0.292411 -2.117106
O  -0.191672 -0.994234 -2.272813
H  -0.747769 -1.670280 -2.673249
24
21 zpe= -687.190609 src= /lustre/lwork/pjhsu/sugar_opt/pj_sugar/beta_galactose/OS2.xyz:90 moment= 2.413506 0.748897 0.038680 4.170169 2.556029 0.954755 -0.697098 3.623505 4.478093 1.856563 -0.791288 2.623469 3.453789 1.632672 0.176821 2.506988
H -3.009909 -1.128533 -0.489429
O  -2.365069 -0.963424 -1.188260
C  -1.084898 -1.111550 -0.639493
H  -0.904522 -2.147011 -0.309894
O  -1.008295 -0.256352 0.491320
C  0.351852 -0.102665 0.954011
H  0.812995 -1.097274 0.992463
C  0.319739 0.451986 2.361938
H  -0.352582 1.315194 2.398101
H  1.326348 0.794422 2.627105
O  -0.118066 -0.589273 3.236359
H  -0.271935 -0.214007 4.107871
C  1.145012 0.774131 -0.043975
H  2.168162 0.394452 -0.094784
O  1.230066 2.137384 0.348518
H  0.536786 2.607928 -0.137412
C  0.498599 0.681201 -1.453907
H  1.243589 0.932738 -2.208925
O  -0.533099 1.660488 -1.593450
H  -1.304592 1.363284 -1.091412
C  -0.044838 -0.724726 -1.727194
H  -0.547652 -0.734404 -2.698366
O  1.079948 -1.603670 -1.717078
H  0.833360 -2.440319 -2.123106
24
22 zpe= -687.190605 src= /lustre/lwork/pjhsu/sugar_opt/pj_sugar/beta_galactose/OS2.xyz:91 moment= 2.414291 0.738429 0.046453 4.537861 2.562192 0.952221 -0.747636 3.629260 4.493928 1.860681 -0.815274 2.610914 3.445209 1.636901 0.189170 2.491178
H -3.162833 -0.011135 0.311579
O  -2.689291 0.121225 -0.519153
C  -1.490376 -0.619155 -0.453718
H  -1.697044 -1.700820 -0.448670
O  -0.854070 -0.259596 0.755098
C  0.577191 -0.449353 0.739795
H  0.791122 -1.459435 0.372964
C  1.077787 -0.349634 2.164687
H  0.654748 0.542831 2.635703
H  2.168408 -0.240552 2.146430
O  0.692506 -1.540252 2.854374
H  0.871517 -1.423557 3.791541
C  1.234233 0.571993 -0.214010
H  2.132706 0.109153 -0.630689
O  1.645738 1.762816 0.438950
H  0.950441 2.417920 0.274981
C  0.264648 0.927609 -1.382808
H  0.849707 1.185395 -2.266088
O  -0.496852 2.095412 -1.065212
H  -1.305123 1.834500 -0.601320
C  -0.660152 -0.246533 -1.708640
H  -1.359114 0.047832 -2.497307
O  0.171983 -1.323597 -2.134132
H  -0.368877 -1.993066 -2.564357
24
23 zpe= -687.190515 src= /lustre/lwork/pjhsu/sugar_opt/pj_sugar/beta_galactose/OS2.xyz:93 moment= 2.413506 0.752359 0.071911 4.112194 2.558595 0.958774 -0.679886 3.597015 4.487834 1.870637 -0.760013 2.610516 3.858940 1.643973 -0.303178 2.768596
H -3.230452 -0.637726 -0.172265
O  -2.646702 -0.486713 -0.925530
C  -1.355940 -0.882568 -0.555722
H  -1.307643 -1.955014 -0.322323
O  -1.005173 -0.137357 0.604261
C  0.398807 -0.264556 0.911442
H  0.670359 -1.324965 0.836828
C  0.621301 0.174522 2.343182
H  0.127100 1.137208 2.509614
H  1.696315 0.312361 2.505557
O  0.095644 -0.838398 3.201558
H  0.105808 -0.511138 4.105335
C  1.228807 0.534957 -0.121361
H  2.150394 -0.017728 -0.319937
O  1.617011 1.822821 0.337224
H  0.968328 2.449098 -0.016589
C  0.422600 0.678697 -1.441574
H  1.117424 0.869769 -2.263125
O  -0.415685 1.835697 -1.390905
H  -1.170138 1.635207 -0.819042
C  -0.403736 -0.581768 -1.737566
H  -1.016049 -0.418681 -2.628760
O  0.442512 -1.723490 -1.895323
H  0.889106 -1.668237 -2.745981
24
24 zpe= -687.190494 src= /lustre/lwork/pjhsu/sugar_opt/pj_sugar/beta_galactose/OS2.xyz:95 moment= 2.413632 0.741660 0.079096 4.474234 2.564016 0.955129 -0.735245 3.607306 4.503193 1.873202 -0.790070 2.593880 3.444884 1.636619 0.187689 2.486250
H -3.197569 -0.219444 0.292176
O  -2.720861 0.076459 -0.493087
C  -1.496501 -0.621769 -0.539131
H  -1.652759 -1.695188 -0.708782
O  -0.870793 -0.420397 0.714506
C  0.562624 -0.568183 0.675391
H  0.804283 -1.503762 0.158279
C  1.065244 -0.673271 2.099640
H  0.617062 0.123583 2.700986
H  2.152161 -0.529682 2.100387
O  0.718362 -1.965969 2.598327
H  0.884450 -1.984920 3.544865
C  1.187979 0.606699 -0.108229
H  2.099626 0.239360 -0.587871
O  1.569378 1.695311 0.718077
H  0.850560 2.343366 0.665229
C  0.203519 1.109346 -1.208361
H  0.782555 1.528487 -2.035455
O  -0.590624 2.192841 -0.718308
H  -1.390835 1.837985 -0.304612
C  -0.689411 -0.029955 -1.715189
H  -1.408290 0.356290 -2.443685
O  0.087434 -1.089083 -2.276029
H  0.430406 -0.808105 -3.130123
24
25 zpe= -687.190441 src= /lustre/lwork/pjhsu/sugar_opt/pj_sugar/beta_galactose/OS2.xyz:98 moment= 2.389825 0.656969 -0.441390 6.252915 2.536338 0.956036 -0.617237 3.569559 3.845510 1.617363 -0.438205 2.602144 3.535486 1.609392 -0.335205 2.188663
H -3.321369 -0.131441 0.262018
O  -2.805397 -0.018578 -0.544214
C  -1.590643 -0.677856 -0.381948
H  -1.738030 -1.758470 -0.236126
O  -0.956156 -0.164108 0.792003
C  0.431440 -0.509593 0.859215
H  0.549675 -1.580279 0.642549
C  0.852478 -0.271625 2.304864
H  1.924192 -0.438622 2.425585
H  0.314730 -0.965434 2.959039
O  0.605636 1.081423 2.705693
H  -0.338076 1.246834 2.581819
C  1.245066 0.269522 -0.195354
H  2.102030 -0.350957 -0.474837
O  1.763140 1.525018 0.251835
H  1.455016 1.695078 1.157877
C  0.386241 0.540616 -1.476728
H  1.051699 0.463005 -2.350949
O  -0.200771 1.821686 -1.440902
H  0.412586 2.375479 -0.934018
C  -0.738457 -0.486790 -1.654216
H  -1.408458 -0.142579 -2.446374
O  -0.192269 -1.776855 -1.963495
H  0.196697 -1.745479 -2.843336
24
26 zpe= -687.190386 src= /lustre/lwork/pjhsu/sugar_opt/pj_sugar/beta_galactose/OS2.xyz:99 moment= 2.357207 0.648518 -0.310828 7.282085 2.517001 0.914303 -0.787673 4.050664 3.786883 1.679593 -0.377475 2.157914 3.822064 1.494443 -0.774218 3.110740
H -3.196313 -0.319870 -0.686192
O  -2.454753 -0.437250 -1.292823
C  -1.396493 -1.046045 -0.582760
H  -1.663499 -2.067863 -0.281892
O  -1.181195 -0.254096 0.577548
C  0.169020 -0.174641 1.057184
H  0.532688 -1.188832 1.286469
C  0.101000 0.609266 2.372086
H  -0.433962 0.016576 3.115728
H  -0.464749 1.530071 2.197170
O  1.390603 0.875992 2.894442
H  1.774649 1.567787 2.340243
C  1.115752 0.467431 0.009812
H  2.097927 -0.002276 0.113379
O  1.317252 1.856844 0.228360
H  0.716453 2.320585 -0.376645
C  0.592341 0.237660 -1.438021
H  1.439767 0.213870 -2.124654
O  -0.215983 1.346195 -1.841955
H  -1.148681 1.145913 -1.671772
C  -0.185483 -1.080071 -1.541331
H  -0.580645 -1.187369 -2.551648
O  0.642315 -2.219380 -1.343052
H  1.029990 -2.208499 -0.461677
24
27 zpe= -687.190183 src= /lustre/lwork/pjhsu/sugar_opt/pj_sugar/beta_galactose/OS2.xyz:102 moment= 2.385548 0.681206 -0.345364 4.709820 2.549361 0.935913 -0.795984 3.795322 3.822926 1.714574 -0.336680 2.109296 3.451774 1.607814 0.048107 2.271406
H -2.713066 0.622531 -0.682076
O  -2.871351 -0.331603 -0.624546
C  -1.624052 -0.925051 -0.453952
H  -1.799851 -2.008175 -0.409405
O  -1.096416 -0.478435 0.793150
C  0.325560 -0.499859 0.920503
H  0.702843 -1.505143 0.702108
C  0.610135 -0.172333 2.389405
H  0.210109 -0.977913 3.005996
H  0.090149 0.751872 2.658422
O  2.002821 -0.088278 2.663632
H  2.298702 0.765386 2.329352
C  1.003334 0.456084 -0.086356
H  1.953714 0.014005 -0.391092
O  1.254380 1.739022 0.533462
H  1.930782 2.199766 0.024397
C  0.117727 0.664852 -1.342090
H  0.753640 0.910762 -2.201297
O  -0.833899 1.708645 -1.142522
H  -0.497046 2.263004 -0.424002
C  -0.670586 -0.608472 -1.638560
H  -1.293170 -0.455209 -2.525369
O  0.293002 -1.638076 -1.867427
H  -0.150461 -2.410381 -2.231733
24
28 zpe= -687.190026 src= /lustre/lwork/pjhsu/sugar_opt/pj_sugar/beta_galactose/OS2.xyz:106 moment= 2.390702 0.656429 -0.451710 6.392606 2.535176 0.954124 -0.622937 3.588259 3.901831 1.636199 -0.474743 2.587980 3.533293 1.608921 -0.325497 2.207040
H -3.187151 -0.492887 0.518832
O  -2.801272 -0.196515 -0.313457
C  -1.519503 -0.730553 -0.418097
H  -1.557219 -1.828472 -0.524154
O  -0.812936 -0.448376 0.788713
C  0.604544 -0.617858 0.651087
H  0.806535 -1.583708 0.168073
C  1.155971 -0.676373 2.070817
H  2.245769 -0.731056 2.056062
H  0.768043 -1.567007 2.575829
O  0.819359 0.501454 2.813153
H  -0.143872 0.573694 2.811370
C  1.211667 0.483113 -0.244200
H  2.083296 0.055232 -0.748006
O  1.659038 1.648099 0.454892
H  1.432554 1.564943 1.395945
C  0.188715 0.946653 -1.333592
H  0.743939 1.176011 -2.251402
O  -0.535538 2.079316 -0.903658
H  0.077777 2.583358 -0.348238
C  -0.825473 -0.146828 -1.675068
H  -1.601615 0.288649 -2.309608
O  -0.098000 -1.167256 -2.368432
H  -0.713627 -1.712628 -2.866867
24
29 zpe= -687.18991 src= /lustre/lwork/pjhsu/sugar_opt/pj_sugar/beta_galactose/OS2.xyz:108 moment= 2.377708 0.673101 -0.321565 5.077112 2.540952 0.944764 -0.705545 3.675943 3.815133 1.704190 -0.366020 2.093217 3.425194 1.591728 0.060329 2.311126
H -2.585192 0.727844 -0.726702
O  -2.789431 -0.214404 -0.637491
C  -1.579311 -0.880220 -0.459612
H  -1.821769 -1.950017 -0.424950
O  -1.034958 -0.483738 0.800354
C  0.395013 -0.519750 0.893210
H  0.773187 -1.492061 0.563753
C  0.727076 -0.327863 2.377222
H  0.442915 -1.227911 2.923513
H  0.131277 0.500135 2.780096
O  2.115590 -0.129376 2.598253
H  2.331931 0.758222 2.288543
C  1.005424 0.555038 -0.020703
H  2.042997 0.295397 -0.229580
O  1.064194 1.843533 0.606798
H  0.185768 2.036975 0.958052
C  0.221525 0.649575 -1.372108
H  0.925528 0.794959 -2.196911
O  -0.730531 1.717666 -1.353604
H  -0.252009 2.539278 -1.195070
C  -0.596205 -0.614246 -1.632384
H  -1.199087 -0.466237 -2.533284
O  0.340687 -1.675281 -1.820035
H  -0.116618 -2.437519 -2.188361
24
30 zpe= -687.189543 src= /lustre/lwork/pjhsu/sugar_opt/pj_sugar/beta_galactose/OS2.xyz:109 moment= 2.396335 0.701475 -0.194700 4.349120 2.548229 0.944167 -0.727450 3.724563 4.127550 1.696790 -0.764707 2.569946 3.421104 1.589774 0.074840 2.337739
H -3.160627 0.381050 0.372332
O  -2.663207 0.519385 -0.443391
C  -1.587470 -0.394860 -0.448582
H  -1.944791 -1.428189 -0.550717
O  -0.919633 -0.238156 0.788419
C  0.478875 -0.575209 0.757378
H  0.588605 -1.563417 0.290324
C  0.977305 -0.650243 2.193659
H  0.695414 0.257290 2.725528
H  2.072582 -0.701333 2.184675
O  0.413167 -1.733858 2.926080
H  0.725188 -2.562018 2.547997
C  1.254920 0.446248 -0.106209
H  2.105586 -0.076898 -0.552882
O  1.784967 1.526653 0.642088
H  1.163970 2.263638 0.538095
C  0.346752 0.998998 -1.248798
H  0.975736 1.257721 -2.104759
O  -0.274689 2.222849 -0.850875
H  -1.130932 2.027395 -0.442095
C  -0.707732 -0.034153 -1.663544
H  -1.365621 0.389028 -2.428156
O  -0.099822 -1.242056 -2.125347
H  0.269454 -1.091867 -3.001223
24
31 zpe= -687.189495 src= /lustre/lwork/pjhsu/sugar_opt/pj_sugar/beta_galactose/OS2.xyz:116 moment= 2.359720 0.638343 -0.421397 8.883758 2.511211 0.915299 -0.765235 4.012874 3.827497 1.640401 -0.701978 2.365482 3.418118 1.550059 -0.008984 2.369178
H -3.122333 0.249580 -0.255066
O  -2.485790 0.168627 -0.975811
C  -1.436422 -0.676431 -0.551407
H  -1.800039 -1.699233 -0.386647
O  -0.954822 -0.144767 0.677117
C  0.457597 -0.300763 0.922136
H  0.700024 -1.374326 0.878108
C  0.690645 0.143240 2.359218
H  0.381315 1.186421 2.469983
H  1.754666 0.082083 2.592134
O  0.018193 -0.704132 3.282318
H  -0.923755 -0.652157 3.087102
C  1.303906 0.461721 -0.122767
H  2.243697 -0.088185 -0.246597
O  1.652581 1.767616 0.291812
H  1.040545 2.369174 -0.160889
C  0.566348 0.522206 -1.499037
H  1.305955 0.522667 -2.300826
O  -0.144232 1.757883 -1.613154
H  -1.061878 1.630051 -1.329054
C  -0.382524 -0.668685 -1.682345
H  -0.925562 -0.551667 -2.620396
O  0.304264 -1.907842 -1.805164
H  0.815621 -2.093081 -1.010766
24
32 zpe= -687.189442 src= /lustre/lwork/pjhsu/sugar_opt/pj_sugar/beta_galactose/OS2.xyz:130 moment= 2.362409 0.675870 -0.286024 4.685795 2.525677 0.945121 -0.609949 3.747500 3.830509 1.658805 -0.641694 2.331437 3.384761 1.550337 0.021284 2.311604
H -2.810340 0.116951 -0.990265
O  -2.661865 -0.777119 -0.658690
C  -1.302592 -0.966344 -0.424362
H  -1.183552 -2.023711 -0.162647
O  -0.919624 -0.164107 0.698424
C  0.511828 -0.227318 0.950113
H  0.799921 -1.285137 0.939555
C  0.719381 0.312568 2.356074
H  0.371381 1.350307 2.411109
H  1.782790 0.308090 2.597671
O  0.068100 -0.500628 3.322019
H  -0.863218 -0.546110 3.076504
C  1.292413 0.516885 -0.165610
H  2.163879 -0.083797 -0.431648
O  1.786393 1.790862 0.229093
H  1.153254 2.457588 -0.068778
C  0.381599 0.659364 -1.403585
H  0.980079 0.905827 -2.280750
O  -0.522807 1.759244 -1.225542
H  -0.992691 1.598330 -0.393441
C  -0.401265 -0.633364 -1.655958
H  -1.046491 -0.495100 -2.530026
O  0.563920 -1.655006 -1.898827
H  0.129512 -2.419276 -2.290434
24
33 zpe= -687.189243 src= /lustre/lwork/pjhsu/sugar_opt/pj_sugar/beta_galactose/OS2.xyz:131 moment= 2.381115 0.693715 -0.102789 6.100852 2.514468 0.908584 -0.839037 4.068206 4.327103 1.893918 -0.548187 2.217673 3.511031 1.672266 0.158063 2.424895
H -2.384167 1.271126 -0.946543
O  -2.854030 0.463161 -0.687219
C  -1.876529 -0.483721 -0.410739
H  -2.398915 -1.420867 -0.189599
O  -1.180364 -0.046015 0.770740
C  0.189353 -0.393189 0.890143
H  0.303845 -1.490509 0.920284
C  0.608944 0.150386 2.253746
H  0.101294 -0.414335 3.039927
H  0.305846 1.199589 2.318251
O  2.036141 0.020180 2.360243
H  2.302088 0.176328 3.270992
C  1.063546 0.138824 -0.279965
H  1.850176 -0.597911 -0.475466
O  1.662509 1.407144 -0.026870
H  2.249373 1.304648 0.734740
C  0.223268 0.315412 -1.565960
H  0.871926 0.182754 -2.438406
O  -0.386626 1.605556 -1.609391
H  0.223414 2.219128 -1.175813
C  -0.920202 -0.702202 -1.611114
H  -1.508265 -0.534263 -2.513217
O  -0.443594 -2.042063 -1.726917
H  -0.042031 -2.329161 -0.900847
24
34 zpe= -687.189219 src= /lustre/lwork/pjhsu/sugar_opt/pj_sugar/beta_galactose/OS2.xyz:132 moment= 2.373977 0.675220 -0.315131 4.986662 2.539291 0.946316 -0.691783 3.654408 3.821383 1.698406 -0.383425 2.107352 3.423946 1.594708 0.062030 2.301586
H -2.724203 0.529495 -0.264807
O  -2.830340 -0.429684 -0.343348
C  -1.555614 -0.977185 -0.453770
H  -1.685394 -2.048371 -0.633284
O  -0.882433 -0.783080 0.796648
C  0.541762 -0.660981 0.709383
H  0.961176 -1.475013 0.111093
C  1.069223 -0.770465 2.144602
H  0.963937 -1.801886 2.482379
H  0.458752 -0.146538 2.808594
O  2.447854 -0.441257 2.240117
H  2.525440 0.516214 2.156386
C  0.893641 0.664739 0.021065
H  1.927891 0.629971 -0.320999
O  0.836475 1.778804 0.924474
H  0.026253 1.692398 1.443241
C  -0.048643 0.918950 -1.207099
H  0.545766 1.301213 -2.046269
O  -1.082330 1.853428 -0.893901
H  -0.666157 2.617382 -0.475201
C  -0.767866 -0.364289 -1.637759
H  -1.501636 -0.124663 -2.411960
O  0.169259 -1.333920 -2.114341
H  0.376186 -1.148260 -3.035242
24
35 zpe= -687.189079 src= /lustre/lwork/pjhsu/sugar_opt/pj_sugar/beta_galactose/OS2.xyz:134 moment= 2.416745 0.701302 -0.278758 3.835283 2.581521 0.986922 -0.581426 3.394582 3.846195 1.780488 -0.392302 1.966295 3.421047 1.580688 0.054163 2.347253
H -3.222769 -0.771978 0.191099
O  -2.746345 -0.751035 -0.647466
C  -1.405758 -1.051303 -0.382944
H  -1.271334 -2.135584 -0.217041
O  -1.029584 -0.373057 0.797319
C  0.389428 -0.355317 1.003812
H  0.774226 -1.380619 0.920313
C  0.608738 0.146396 2.432887
H  0.209060 -0.589387 3.132608
H  0.051643 1.080127 2.569502
O  1.984491 0.308022 2.735989
H  2.285038 1.072782 2.227425
C  1.105219 0.506956 -0.073517
H  2.033766 0.003232 -0.343361
O  1.482836 1.800780 0.393660
H  0.743782 2.396806 0.206032
C  0.238794 0.642303 -1.347244
H  0.894712 0.830413 -2.203283
O  -0.628140 1.757932 -1.134764
H  -1.039871 2.013948 -1.965326
C  -0.562143 -0.636867 -1.617197
H  -1.256247 -0.465368 -2.447801
O  0.404734 -1.628522 -1.961400
H  -0.046274 -2.420658 -2.270304
24
36 zpe= -687.188763 src= /lustre/lwork/pjhsu/sugar_opt/pj_sugar/beta_galactose/OS2.xyz:135 moment= 2.376931 0.655907 -0.444543 5.984171 2.545425 0.934720 -0.792557 3.789836 3.821717 1.581998 -0.486630 2.695959 3.555235 1.520886 -0.328504 2.543114
H -2.690800 0.412545 -0.608261
O  -2.748574 -0.549857 -0.704046
C  -1.447628 -1.032454 -0.599894
H  -1.514303 -2.123721 -0.709187
O  -0.966035 -0.715983 0.703424
C  0.448117 -0.602922 0.830811
H  0.923560 -1.509468 0.431816
C  0.802192 -0.553801 2.319260
H  1.900185 -0.529125 2.401206
H  0.456194 -1.482654 2.776527
O  0.206656 0.495171 3.055619
H  0.447322 1.320098 2.617640
C  1.002754 0.567530 -0.011910
H  2.008167 0.298133 -0.342822
O  1.079437 1.787052 0.767429
H  1.839120 2.302988 0.479699
C  0.113795 0.835576 -1.256176
H  0.730864 1.249051 -2.063374
O  -0.945491 1.737930 -0.952573
H  -0.649872 2.279084 -0.206595
C  -0.534074 -0.464996 -1.721618
H  -1.169752 -0.265488 -2.589369
O  0.534386 -1.349773 -2.069969
H  0.174780 -2.104915 -2.545632
24
37 zpe= -687.188513 src= /lustre/lwork/pjhsu/sugar_opt/pj_sugar/beta_galactose/OS2.xyz:138 moment= 2.413251 0.685527 -0.383491 4.364109 2.569461 0.980982 -0.578785 3.420560 3.881431 1.704690 -0.597694 2.266176 3.661179 1.490886 -0.442891 2.955267
H -3.087796 0.520498 0.254769
O  -2.661149 0.368334 -0.596607
C  -1.531654 -0.428746 -0.376735
H  -1.821013 -1.484553 -0.229068
O  -0.890757 0.022882 0.800814
C  0.468206 -0.449025 0.910740
H  0.465863 -1.533133 0.738339
C  0.899920 -0.194042 2.346119
H  0.844038 0.877248 2.562847
H  1.935415 -0.509309 2.480182
O  0.116819 -0.947630 3.265694
H  -0.802683 -0.696005 3.126095
C  1.377154 0.210700 -0.154090
H  2.116289 -0.534137 -0.456579
O  2.113559 1.322902 0.328488
H  1.578176 2.111281 0.163738
C  0.553926 0.614541 -1.405696
H  1.204358 0.583234 -2.285842
O  0.095713 1.947136 -1.177003
H  -0.316129 2.294564 -1.973542
C  -0.625833 -0.337806 -1.632205
H  -1.246409 0.035066 -2.455399
O  -0.047653 -1.598474 -1.967245
H  -0.738359 -2.197525 -2.267816
24
38 zpe= -687.188074 src= /lustre/lwork/pjhsu/sugar_opt/pj_sugar/beta_galactose/OS2.xyz:139 moment= 2.384712 0.661531 -0.373617 5.302887 2.564850 0.970412 -0.613423 3.559072 3.788918 1.556696 -0.509388 2.762176 3.630119 1.574212 -0.389276 2.349013
H -2.656585 0.315732 -0.553692
O  -2.679659 -0.649513 -0.608684
C  -1.378175 -1.093245 -0.369631
H  -1.445841 -2.185942 -0.263213
O  -0.939172 -0.514051 0.846504
C  0.483606 -0.417370 0.983120
H  0.934563 -1.388031 0.736563
C  0.830810 -0.151801 2.448654
H  1.926875 -0.204790 2.540794
H  0.408459 -0.961667 3.047132
O  0.329710 1.052351 2.993092
H  0.660623 1.763548 2.428927
C  1.060755 0.606016 -0.020270
H  2.091889 0.315821 -0.234573
O  1.119046 1.942744 0.476908
H  0.306667 2.378931 0.178201
C  0.253645 0.580698 -1.351644
H  0.921351 0.799587 -2.188029
O  -0.771618 1.593251 -1.268346
H  -0.854260 2.031486 -2.120088
C  -0.425809 -0.771601 -1.560564
H  -1.043023 -0.736919 -2.464756
O  0.622752 -1.730310 -1.706957
H  0.243390 -2.574926 -1.970450
24
39 zpe= -687.18799 src= /lustre/lwork/pjhsu/sugar_opt/pj_sugar/beta_galactose/OS2.xyz:142 moment= 2.369950 0.638178 -0.426015 7.965258 2.546039 0.935881 -0.781876 3.782666 3.814221 1.562518 -0.543266 2.711122 3.587676 1.533814 -0.502928 2.552816
H -2.396386 1.109384 -0.462820
O  -2.762994 0.226807 -0.296525
C  -1.677005 -0.641531 -0.240693
H  -2.093653 -1.649613 -0.119879
O  -0.910339 -0.313973 0.918730
C  0.503333 -0.541791 0.876483
H  0.689607 -1.604458 0.680315
C  0.996185 -0.232222 2.296140
H  2.083599 -0.137569 2.299764
H  0.722240 -1.081922 2.936261
O  0.470414 0.970836 2.820523
H  -0.478133 0.959945 2.641802
C  1.194822 0.237940 -0.265984
H  2.001930 -0.393682 -0.645912
O  1.737898 1.485527 0.191143
H  2.550318 1.669125 -0.290448
C  0.208217 0.529557 -1.427797
H  0.765945 0.604081 -2.369374
O  -0.499992 1.743725 -1.191970
H  0.069459 2.283011 -0.620695
C  -0.829281 -0.583591 -1.535847
H  -1.514276 -0.370859 -2.362310
O  -0.106015 -1.793257 -1.776294
H  -0.721894 -2.478467 -2.053613
24
40 zpe= -687.187548 src= /lustre/lwork/pjhsu/sugar_opt/pj_sugar/beta_galactose/OS2.xyz:143 moment= 2.401001 0.704483 -0.172316 4.274287 2.553470 0.945801 -0.739742 3.697985 4.137871 1.747485 -0.648931 2.402632 3.416610 1.600857 0.105775 2.353453
H -3.148020 -0.430952 -0.372985
O  -2.477190 -0.546676 -1.057428
C  -1.305844 -1.046164 -0.436412
H  -1.459013 -2.089245 -0.120734
O  -1.063359 -0.248256 0.702732
C  0.330811 -0.022817 1.013459
H  0.836460 -0.995040 1.064957
C  0.369677 0.620358 2.397825
H  -0.309315 0.068502 3.058189
H  0.039178 1.655679 2.335750
O  1.695366 0.655346 2.919035
H  1.963245 -0.240747 3.145752
C  1.009254 0.809412 -0.096038
H  2.075858 0.572578 -0.073082
O  0.881581 2.203341 0.103615
H  0.204868 2.508039 -0.520042
C  0.434149 0.426123 -1.503015
H  1.236156 0.462558 -2.240763
O  -0.538233 1.386093 -1.926373
H  -1.421629 1.082615 -1.667467
C  -0.181853 -0.974409 -1.496185
H  -0.635559 -1.172529 -2.471862
O  0.860761 -1.907801 -1.218866
H  0.602651 -2.777007 -1.540058
24
41 zpe= -687.187309 src= /lustre/lwork/pjhsu/sugar_opt/pj_sugar/beta_galactose/OS2.xyz:145 moment= 2.389254 0.712687 0.037299 5.588813 2.527507 0.923419 -0.792627 3.908935 4.458896 1.832291 -0.837745 2.664383 3.461568 1.629474 0.167771 2.526987
H -3.113542 -0.763672 0.058801
O  -2.670663 -0.280277 -0.649739
C  -1.351540 -0.768622 -0.752004
H  -1.342614 -1.815737 -1.085208
O  -0.790778 -0.682897 0.550211
C  0.634012 -0.521142 0.580447
H  1.095223 -1.318207 -0.025194
C  1.105020 -0.742487 2.004371
H  0.469665 -0.166187 2.683015
H  2.131951 -0.371346 2.099222
O  1.036997 -2.142297 2.275667
H  1.156627 -2.281065 3.219276
C  1.036311 0.859774 0.011195
H  2.028905 0.761498 -0.442346
O  1.143919 1.854506 1.012669
H  0.318856 2.363828 0.976357
C  0.018106 1.318628 -1.080561
H  0.534696 1.940413 -1.812772
O  -0.983726 2.153169 -0.491690
H  -1.738406 1.608323 -0.224045
C  -0.624582 0.120236 -1.790429
H  -1.379055 0.481204 -2.489475
O  0.304067 -0.604187 -2.588770
H  0.984549 -1.003457 -2.036998
24
42 zpe= -687.186662 src= /lustre/lwork/pjhsu/sugar_opt/pj_sugar/beta_galactose/OS2.xyz:147 moment= 2.401133 0.702685 -0.281763 4.255706 2.541437 0.932505 -0.792979 3.807372 4.091815 1.678751 -0.764907 2.579197 3.449588 1.606209 0.036015 2.232948
H -2.726798 0.285285 -0.718226
O  -2.694785 -0.682632 -0.753638
C  -1.357545 -1.035316 -0.602069
H  -1.316695 -2.130951 -0.669615
O  -0.939580 -0.626978 0.699004
C  0.454262 -0.371483 0.842178
H  1.023079 -1.229942 0.457669
C  0.762513 -0.213513 2.327842
H  0.066797 0.497660 2.770574
H  1.776553 0.193593 2.437818
O  0.616288 -1.421830 3.061985
H  1.231841 -2.075988 2.716210
C  0.883933 0.848014 0.001158
H  1.933600 0.722187 -0.275719
O  0.727880 2.062969 0.760576
H  1.435495 2.673899 0.534611
C  0.023416 0.959003 -1.292369
H  0.626302 1.398133 -2.096291
O  -1.132334 1.761127 -1.067679
H  -0.927506 2.327778 -0.308052
C  -0.472712 -0.419144 -1.721514
H  -1.099446 -0.316609 -2.612313
O  0.687928 -1.204736 -2.009673
H  0.419515 -1.998524 -2.482465
24
43 zpe= -687.186266 src= /lustre/lwork/pjhsu/sugar_opt/pj_sugar/beta_galactose/OS2.xyz:149 moment= 2.392802 0.679086 -0.332413 4.822138 2.547270 0.953827 -0.641589 3.683889 3.926097 1.507878 -0.877071 3.299611 3.806532 1.709370 -0.348108 2.097127
H -3.330076 -0.541314 0.208376
O  -2.858079 -0.427479 -0.625308
C  -1.549745 -0.878839 -0.444560
H  -1.519767 -1.980108 -0.369199
O  -1.065189 -0.335544 0.773468
C  0.347726 -0.472132 0.921563
H  0.628721 -1.524118 0.744250
C  0.673050 -0.133568 2.378963
H  0.228245 -0.889904 3.027407
H  0.219174 0.832694 2.623631
O  2.069084 -0.136729 2.625200
H  2.422976 0.653493 2.196467
C  1.115510 0.410916 -0.103724
H  1.997632 -0.142384 -0.434449
O  1.613337 1.620507 0.458199
H  0.937369 2.298857 0.315000
C  0.232839 0.718778 -1.337226
H  0.878711 0.903094 -2.202198
O  -0.502631 1.900239 -1.010865
H  -0.973964 2.218011 -1.786899
C  -0.709228 -0.449535 -1.674632
H  -1.409817 -0.133179 -2.449172
O  0.012136 -1.535152 -2.252875
H  0.541983 -1.978603 -1.581414
24
44 zpe= -687.186197 src= /lustre/lwork/pjhsu/sugar_opt/pj_sugar/beta_galactose/OS2.xyz:150 moment= 2.423825 0.750320 0.108779 4.245526 2.581048 0.983558 -0.613958 3.418394 4.527641 1.911055 -0.723346 2.513662 3.728534 1.596107 -0.193516 2.962836
H -2.638892 0.886613 -0.031845
O  -2.828876 -0.049411 -0.183950
C  -1.598069 -0.692606 -0.316133
H  -1.808524 -1.762617 -0.417228
O  -0.852562 -0.443333 0.867777
C  0.564951 -0.592601 0.709952
H  0.776536 -1.540091 0.201551
C  1.191757 -0.661185 2.089168
H  0.758586 0.120110 2.721084
H  2.268809 -0.473516 2.003277
O  0.946648 -1.961810 2.624362
H  1.027614 -1.924975 3.580942
C  1.121597 0.560503 -0.152182
H  2.031928 0.210273 -0.643552
O  1.500646 1.705121 0.597640
H  0.687959 2.196524 0.779166
C  0.080849 0.959052 -1.242637
H  0.606255 1.309382 -2.135798
O  -0.758045 2.021038 -0.735476
H  -0.657502 2.798344 -1.290802
C  -0.833838 -0.221872 -1.585871
H  -1.588292 0.085579 -2.315075
O  -0.063095 -1.318344 -2.089275
H  0.064559 -1.209180 -3.036094
24
45 zpe= -687.186002 src= /lustre/lwork/pjhsu/sugar_opt/pj_sugar/beta_galactose/OS2.xyz:152 moment= 2.426254 0.726424 -0.189577 4.180635 2.550986 0.957969 -0.681304 3.524659 4.278358 1.863560 -0.525586 2.336262 3.866054 1.667481 -0.278729 2.699633
H -3.085003 -1.129871 -0.426758
O  -2.411651 -1.223462 -1.110477
C  -1.172837 -1.315042 -0.479698
H  -1.045719 -2.294078 0.008878
O  -1.119041 -0.311340 0.533328
C  0.215857 -0.075725 0.970721
H  0.725983 -1.041197 1.104939
C  0.175017 0.560150 2.352040
H  1.200564 0.638235 2.734221
H  -0.404126 -0.089740 3.015622
O  -0.432794 1.858135 2.278367
H  -0.455450 2.255362 3.153863
C  1.015418 0.690613 -0.102797
H  2.075010 0.452959 0.041309
O  0.878173 2.111832 -0.062983
H  0.364516 2.360463 0.722197
C  0.588843 0.223807 -1.540244
H  1.498463 0.167907 -2.158979
O  -0.323157 1.123002 -2.125589
H  -0.189295 1.968115 -1.668129
C  -0.056326 -1.169552 -1.535734
H  -0.508457 -1.348727 -2.514614
O  0.922113 -2.174434 -1.227720
H  1.542898 -2.234416 -1.960765
24
46 zpe= -687.185929 src= /lustre/lwork/pjhsu/sugar_opt/pj_sugar/beta_galactose/OS2.xyz:154 moment= 2.394568 0.746650 0.096112 4.212604 2.542871 0.950131 -0.667347 3.666725 4.477575 1.858763 -0.785100 2.611321 3.431528 1.637166 0.206564 2.476965
H -2.590243 -0.529119 -1.504051
O  -2.441271 -1.283680 -0.921523
C  -1.152678 -1.218751 -0.396335
H  -1.014625 -2.140375 0.180685
O  -1.075006 -0.100388 0.489714
C  0.271866 0.077992 0.991494
H  0.649505 -0.905467 1.295281
C  0.215522 0.952912 2.226304
H  -0.409851 1.829283 2.024317
H  1.227704 1.305198 2.454379
O  -0.311467 0.168973 3.295110
H  -0.519515 0.749623 4.032310
C  1.186339 0.632838 -0.131667
H  2.160788 0.146522 -0.055509
O  1.420274 2.034394 -0.036697
H  0.814316 2.472538 -0.649331
C  0.554457 0.294185 -1.500189
H  1.301081 0.378699 -2.289904
O  -0.463945 1.254628 -1.819870
H  -1.082809 1.253034 -1.073353
C  -0.040574 -1.117516 -1.490753
H  -0.493583 -1.322020 -2.466641
O  1.040782 -2.014291 -1.240753
H  0.752934 -2.916212 -1.414016
24
47 zpe= -687.18582 src= /lustre/lwork/pjhsu/sugar_opt/pj_sugar/beta_galactose/OS2.xyz:156 moment= 2.361543 0.653718 -0.443146 6.744892 2.515045 0.907351 -0.845036 4.104310 3.791546 1.676369 -0.373499 2.176451 3.469250 1.600419 0.025886 2.314344
H -2.727804 0.059559 -0.965465
O  -2.746156 -0.888952 -0.768448
C  -1.441467 -1.252316 -0.462865
H  -1.452617 -2.334527 -0.283949
O  -1.081825 -0.574527 0.750012
C  0.301659 -0.333500 0.962124
H  0.860969 -1.283169 0.936677
C  0.417352 0.220131 2.386962
H  0.086780 -0.550644 3.083713
H  -0.250133 1.080449 2.488373
O  1.756858 0.548700 2.727009
H  1.950294 1.394982 2.309172
C  0.907564 0.583878 -0.126359
H  1.939084 0.272110 -0.307506
O  0.909563 1.954224 0.330636
H  1.535098 2.456489 -0.203870
C  0.105334 0.480371 -1.447664
H  0.762373 0.717117 -2.293418
O  -1.010579 1.370959 -1.447891
H  -0.821555 2.069204 -0.805217
C  -0.458382 -0.934120 -1.621100
H  -1.033130 -0.975965 -2.546489
O  0.585686 -1.894920 -1.777931
H  0.905034 -2.187533 -0.918505
24
48 zpe= -687.185546 src= /lustre/lwork/pjhsu/sugar_opt/pj_sugar/beta_galactose/OS2.xyz:158 moment= 2.375354 0.680330 -0.214767 5.665342 2.515261 0.912872 -0.794829 4.058840 4.141380 1.699813 -0.760261 2.606907 3.444368 1.591711 0.069654 2.394920
H -3.205892 -0.095830 0.001768
O  -2.647162 -0.002940 -0.780148
C  -1.458805 -0.729019 -0.555605
H  -1.660062 -1.808120 -0.505271
O  -0.949316 -0.286036 0.694010
C  0.473566 -0.346367 0.833699
H  0.809005 -1.373419 0.601977
C  0.811926 -0.079322 2.297082
H  0.309274 0.832475 2.615884
H  1.890902 0.087789 2.388911
O  0.366095 -1.112995 3.168307
H  0.940229 -1.878624 3.069328
C  1.167830 0.637213 -0.142617
H  2.140482 0.210789 -0.414107
O  1.428524 1.897978 0.442723
H  0.722261 2.489427 0.137790
C  0.314039 0.824573 -1.437453
H  0.979175 1.035472 -2.275952
O  -0.526956 1.972906 -1.301611
H  -1.390881 1.700229 -0.958255
C  -0.519508 -0.424629 -1.746883
H  -1.152306 -0.228993 -2.612578
O  0.282569 -1.539936 -2.119547
H  0.877011 -1.782620 -1.402453
24
49 zpe= -687.185321 src= /lustre/lwork/pjhsu/sugar_opt/pj_sugar/beta_galactose/OS2.xyz:164 moment= 2.397080 0.751145 0.128678 4.135889 2.549551 0.959182 -0.632286 3.606500 4.489852 1.877296 -0.742899 2.595364 3.859849 1.648325 -0.271907 2.813338
H -2.575863 1.471519 -0.806874
O  -2.832855 0.579454 -0.545094
C  -1.696361 -0.208931 -0.393842
H  -2.050011 -1.218851 -0.167678
O  -0.939237 0.292130 0.711882
C  0.277565 -0.468047 0.893880
H  0.021679 -1.532014 0.820997
C  0.803867 -0.215287 2.291766
H  0.803735 0.861847 2.492282
H  1.839369 -0.569165 2.347455
O  -0.032288 -0.917823 3.208362
H  0.175258 -0.629544 4.101509
C  1.289704 -0.122819 -0.230840
H  1.782442 -1.045168 -0.545295
O  2.322924 0.767542 0.177602
H  2.058356 1.658777 -0.088216
C  0.518861 0.480736 -1.425689
H  1.143765 0.450794 -2.321472
O  0.264092 1.873989 -1.189934
H  -0.228646 1.919513 -0.355830
C  -0.801998 -0.265876 -1.668629
H  -1.342568 0.213746 -2.490958
O  -0.568592 -1.645813 -1.958043
H  -0.236202 -1.730708 -2.857344
24
50 zpe= -687.18518 src= /lustre/lwork/pjhsu/sugar_opt/pj_sugar/beta_galactose/OS2.xyz:166 moment= 2.367482 0.657977 -0.263139 6.444133 2.526024 0.946120 -0.578223 3.893130 3.919044 1.597830 -0.680663 2.681320 3.683305 1.612034 -0.379295 2.262725
H -3.358146 0.677489 -0.224476
O  -2.506445 0.778288 0.214060
C  -1.621775 -0.250023 -0.215804
H  -2.172111 -1.187851 -0.378717
O  -0.734732 -0.380790 0.868359
C  0.628011 -0.722239 0.550097
H  0.629578 -1.677862 0.002008
C  1.308351 -0.983829 1.887137
H  1.266867 -0.076432 2.496097
H  2.357996 -1.230669 1.721024
O  0.723717 -2.092264 2.557648
H  -0.201652 -1.874418 2.716422
C  1.312142 0.366104 -0.309051
H  2.048118 -0.135767 -0.947202
O  2.025413 1.315812 0.457019
H  1.456647 2.099167 0.520442
C  0.266860 1.091072 -1.214606
H  0.750230 1.400682 -2.142240
O  -0.177154 2.293585 -0.580956
H  -0.972575 2.113961 -0.057079
C  -0.918195 0.171816 -1.533578
H  -1.646318 0.728244 -2.126448
O  -0.558436 -0.935113 -2.352945
H  0.090610 -1.489963 -1.908208
24
51 zpe= -687.184426 src= /lustre/lwork/pjhsu/sugar_opt/pj_sugar/beta_galactose/OS2.xyz:167 moment= 2.365889 0.635218 -0.246553 8.484579 2.570255 0.979414 -0.540870 3.603042 3.884118 1.585399 -0.647789 2.685057 3.677166 1.652141 -0.299540 2.112696
H -3.153127 -0.852104 -0.917597
O  -2.542102 -0.378702 -0.342721
C  -1.279831 -1.039579 -0.330353
H  -1.428853 -2.131447 -0.296067
O  -0.703954 -0.594175 0.863106
C  0.727304 -0.373847 0.934167
H  1.225874 -1.348734 0.884881
C  0.929352 0.211078 2.329879
H  1.968186 0.515703 2.452350
H  0.694268 -0.558677 3.075028
O  0.131264 1.370460 2.539222
H  -0.786323 1.106002 2.402527
C  1.277058 0.521662 -0.218137
H  2.140843 0.002943 -0.636522
O  1.770805 1.778356 0.193206
H  1.023846 2.305833 0.506844
C  0.243107 0.680105 -1.358077
H  0.780029 0.971684 -2.262368
O  -0.685228 1.727175 -1.097554
H  -1.456702 1.378351 -0.631366
C  -0.457889 -0.661260 -1.586433
H  -1.146805 -0.583035 -2.435855
O  0.563070 -1.625323 -1.847867
H  0.167806 -2.419471 -2.220292
24
52 zpe= -687.184263 src= /lustre/lwork/pjhsu/sugar_opt/pj_sugar/beta_galactose/OS2.xyz:168 moment= 2.400485 0.722197 0.072335 5.147534 2.544879 0.953335 -0.644045 3.704336 4.478299 1.870341 -0.750410 2.591509 3.735726 1.613651 -0.168541 2.896227
H -2.336289 0.648249 -1.372637
O  -2.574840 -0.266126 -1.165589
C  -1.450654 -0.849848 -0.586087
H  -1.747367 -1.864150 -0.290179
O  -1.122178 -0.082898 0.570473
C  0.235358 -0.183464 0.998068
H  0.511615 -1.245640 1.105891
C  0.340895 0.411148 2.391136
H  -0.211468 1.354665 2.416423
H  1.392884 0.622281 2.614665
O  -0.192918 -0.537988 3.313782
H  -0.463167 -0.080073 4.113942
C  1.183971 0.484481 -0.024103
H  2.156368 -0.011688 0.037540
O  1.424925 1.854040 0.249233
H  0.722076 2.350297 -0.193590
C  0.622722 0.308920 -1.464998
H  1.450642 0.249776 -2.174454
O  -0.200363 1.459091 -1.771025
H  0.044569 1.800081 -2.635665
C  -0.256977 -0.942172 -1.581179
H  -0.683203 -0.988835 -2.584095
O  0.519540 -2.131591 -1.448152
H  0.632858 -2.357554 -0.519397
24
53 zpe= -687.184167 src= /lustre/lwork/pjhsu/sugar_opt/pj_sugar/beta_galactose/OS2.xyz:169 moment= 2.376668 0.685429 -0.162387 5.413333 2.519246 0.915983 -0.792213 4.011526 4.152438 1.755468 -0.626975 2.424833 3.442442 1.601944 0.098988 2.413200
H -3.204259 -0.515803 0.048925
O  -2.646116 -0.467968 -0.737026
C  -1.390411 -1.037710 -0.420728
H  -1.484218 -2.119749 -0.261013
O  -0.953965 -0.425170 0.785026
C  0.459360 -0.202543 0.894213
H  0.981627 -1.164121 0.750952
C  0.730902 0.236260 2.334072
H  0.168032 -0.417123 3.009194
H  0.395305 1.262464 2.471383
O  2.125692 0.221851 2.624487
H  2.397904 -0.682472 2.807248
C  0.953569 0.801941 -0.176282
H  2.010614 0.587240 -0.364831
O  0.876000 2.141674 0.258550
H  0.103314 2.525972 -0.185297
C  0.143198 0.634696 -1.509954
H  0.805392 0.816384 -2.357627
O  -0.881102 1.630314 -1.585826
H  -1.713368 1.259643 -1.253538
C  -0.469532 -0.765218 -1.632491
H  -1.100625 -0.803098 -2.520948
O  0.501890 -1.786352 -1.826056
H  1.188799 -1.731113 -1.154434
24
54 zpe= -687.182967 src= /lustre/lwork/pjhsu/sugar_opt/pj_sugar/beta_galactose/OS2.xyz:171 moment= 2.378665 0.715398 -0.119467 3.848565 2.529509 0.941377 -0.646317 3.790655 4.134438 1.739372 -0.644305 2.459178 3.686939 1.561009 -0.384559 2.663490
H -2.753411 1.370680 -0.565873
O  -2.941317 0.449328 -0.349803
C  -1.754418 -0.273780 -0.310962
H  -2.037057 -1.324305 -0.195914
O  -1.004802 0.145244 0.838327
C  0.292240 -0.495899 0.876167
H  0.149485 -1.554814 0.621248
C  0.810736 -0.414457 2.309856
H  -0.005900 -0.685826 2.987760
H  1.134260 0.599840 2.539310
O  1.951923 -1.245890 2.496627
H  1.664660 -2.163806 2.528006
C  1.221569 0.130967 -0.200361
H  1.838247 -0.663747 -0.623758
O  2.111114 1.112364 0.308192
H  1.736755 1.980810 0.109081
C  0.336387 0.748637 -1.309083
H  0.925750 0.893646 -2.217555
O  -0.091491 2.065658 -0.924997
H  -0.521017 1.971424 -0.060977
C  -0.890701 -0.128236 -1.596875
H  -1.504741 0.345181 -2.369728
O  -0.509355 -1.446307 -1.997761
H  -0.158916 -1.417709 -2.893929
24
55 zpe= -687.182714 src= /lustre/lwork/pjhsu/sugar_opt/pj_sugar/beta_galactose/OS2.xyz:172 moment= 2.399258 0.681203 -0.451742 4.902364 2.527206 0.928941 -0.757981 3.825917 3.902549 1.489563 -0.893726 3.365154 3.724181 1.533592 -0.504149 2.713176
H -3.320571 -0.015791 0.358684
O  -2.866566 0.145707 -0.476695
C  -1.620487 -0.466977 -0.427258
H  -1.722959 -1.565753 -0.363444
O  -0.953223 -0.031861 0.757297
C  0.408238 -0.463094 0.794641
H  0.436049 -1.540876 0.563861
C  0.887048 -0.299824 2.233282
H  0.807966 0.750636 2.527903
H  1.933923 -0.595920 2.312052
O  0.154984 -1.142703 3.112247
H  -0.771428 -0.885262 3.047633
C  1.253386 0.276419 -0.261553
H  1.995772 -0.423124 -0.659704
O  1.935773 1.377661 0.360024
H  2.690986 1.627121 -0.183035
C  0.366599 0.800956 -1.428692
H  0.974453 0.834139 -2.342694
O  -0.142803 2.091983 -1.150967
H  0.370558 2.459214 -0.419167
C  -0.831555 -0.120748 -1.716068
H  -1.505827 0.416769 -2.381439
O  -0.430437 -1.290833 -2.430654
H  -0.049876 -1.936837 -1.826252
24
56 zpe= -687.182468 src= /lustre/lwork/pjhsu/sugar_opt/pj_sugar/beta_galactose/OS2.xyz:173 moment= 2.399256 0.730830 0.142784 4.941503 2.544819 0.955565 -0.613416 3.763452 4.479863 1.854039 -0.814546 2.607509 3.430032 1.629471 0.201941 2.495707
H -3.314061 0.841809 -0.769057
O  -2.458742 1.043539 -0.376072
C  -1.665447 -0.136228 -0.317158
H  -2.303703 -1.024076 -0.199387
O  -0.877762 0.061947 0.829446
C  0.435582 -0.512360 0.794163
H  0.350992 -1.592242 0.589756
C  1.023855 -0.396576 2.187679
H  0.847387 0.615311 2.562214
H  2.106248 -0.558776 2.132083
O  0.401057 -1.383551 3.009908
H  0.544172 -1.155595 3.932420
C  1.310743 0.151957 -0.292910
H  2.040557 -0.591206 -0.633194
O  2.049748 1.254395 0.197556
H  1.572512 2.049245 -0.088868
C  0.433383 0.596707 -1.506508
H  1.018464 0.511672 -2.423220
O  0.092483 1.980651 -1.384043
H  -0.758907 2.069239 -0.929820
C  -0.828325 -0.267910 -1.619444
H  -1.441554 0.109015 -2.439510
O  -0.544362 -1.617419 -1.973890
H  -0.034321 -2.049551 -1.281141
24
57 zpe= -687.182444 src= /lustre/lwork/pjhsu/sugar_opt/pj_sugar/beta_galactose/OS2.xyz:174 moment= 2.374404 0.722022 0.054348 5.015134 2.513530 0.919969 -0.742351 3.972224 4.442174 1.825980 -0.823135 2.670134 3.443806 1.627586 0.183542 2.508057
H -2.609711 -0.211001 -1.677768
O  -2.594070 -0.939615 -1.045971
C  -1.326118 -1.051235 -0.489181
H  -1.340188 -1.973545 0.103332
O  -1.117200 0.062001 0.391237
C  0.199498 0.026847 0.975294
H  0.385897 -1.000172 1.325456
C  0.215082 0.913611 2.204933
H  -0.253887 1.873141 1.963115
H  1.255164 1.106955 2.489815
O  -0.486276 0.230827 3.241175
H  -0.676061 0.850400 3.951089
C  1.266125 0.403658 -0.088105
H  2.144497 -0.233699 0.053614
O  1.726349 1.743534 0.024842
H  1.254950 2.265718 -0.639274
C  0.670395 0.161415 -1.494113
H  1.468765 0.101596 -2.234115
O  -0.129391 1.292187 -1.874968
H  -0.809212 1.391752 -1.191234
C  -0.173845 -1.123204 -1.543072
H  -0.619239 -1.202849 -2.535792
O  0.626881 -2.293776 -1.409521
H  0.923595 -2.394548 -0.498790
24
58 zpe= -687.179518 src= /lustre/lwork/pjhsu/sugar_opt/pj_sugar/beta_galactose/OS2.xyz:177 moment= 2.387109 0.708235 -0.017593 4.606196 2.536195 0.948282 -0.604741 3.865261 4.180450 1.791359 -0.557314 2.408597 4.005682 1.702669 -0.466337 2.610508
H -2.801654 -1.313745 -1.752037
O  -2.362198 -0.614058 -1.257894
C  -1.205592 -1.132764 -0.607958
H  -1.343189 -2.198501 -0.377502
O  -1.128370 -0.383144 0.579942
C  0.188189 -0.047285 1.037945
H  0.766237 -0.976678 1.180272
C  0.019149 0.578749 2.423809
H  -0.692304 -0.027136 2.994281
H  -0.376226 1.587492 2.321979
O  1.272329 0.696058 3.092425
H  1.501840 -0.154959 3.477441
C  0.934746 0.857377 0.025646
H  2.007673 0.691093 0.167906
O  0.699287 2.230878 0.241813
H  0.074185 2.511667 -0.445091
C  0.541749 0.479669 -1.444833
H  1.411661 0.599278 -2.092240
O  -0.444832 1.389831 -1.939058
H  -1.330792 1.030297 -1.777341
C  0.029508 -0.962117 -1.532491
H  -0.305988 -1.156922 -2.552686
O  1.041802 -1.935144 -1.294603
H  1.502790 -1.748936 -0.470722
24
59 zpe= -687.179384 src= /lustre/lwork/pjhsu/sugar_opt/pj_sugar/beta_galactose/OS2.xyz:178 moment= 2.359414 0.695915 -0.143039 4.750432 2.498864 0.907192 -0.744194 4.163603 4.137930 1.735238 -0.639124 2.512304 3.703001 1.572081 -0.373118 2.660491
H -3.043229 0.456927 -0.761525
O  -2.931022 -0.470182 -0.519237
C  -1.578712 -0.777712 -0.450590
H  -1.520304 -1.867814 -0.356071
O  -1.040290 -0.180160 0.743748
C  0.381474 -0.391225 0.838747
H  0.583099 -1.446455 0.588032
C  0.793651 -0.186803 2.296300
H  0.070826 -0.704612 2.935093
H  0.783159 0.873999 2.542050
O  2.124701 -0.640107 2.522967
H  2.113436 -1.594912 2.639452
C  1.126283 0.511899 -0.188573
H  1.979634 -0.044188 -0.588217
O  1.653384 1.697445 0.378472
H  1.056088 2.421667 0.146116
C  0.142986 0.864296 -1.332584
H  0.694912 1.193635 -2.213294
O  -0.667524 1.984815 -0.941986
H  -1.098373 1.740460 -0.109099
C  -0.759000 -0.322818 -1.700228
H  -1.462517 0.000208 -2.468698
O  -0.035180 -1.390370 -2.303865
H  0.631519 -1.728989 -1.697006
24
60 zpe= -687.169957 src= /lustre/lwork/pjhsu/sugar_opt/pj_sugar/beta_galactose/OS2.xyz:179 moment= 2.393673 0.719360 -0.197815 3.953128 2.515506 0.935911 -0.588555 4.015256 4.046643 1.708769 -0.539748 2.522283 3.678661 1.533730 -0.380059 2.847356
H -3.198441 -0.894862 -1.384849
O  -2.805408 -0.445125 -0.629537
C  -1.445020 -0.779993 -0.560910
H  -1.310952 -1.875253 -0.511845
O  -1.026174 -0.206263 0.661185
C  0.386449 -0.292448 0.840609
H  0.698960 -1.329357 0.615936
C  0.697338 -0.027970 2.310932
H  0.251973 0.920851 2.608311
H  1.786604 0.056855 2.433323
O  0.168114 -1.009497 3.187294
H  0.575279 -1.860696 2.996970
C  1.124631 0.663331 -0.144556
H  2.000637 0.137169 -0.547506
O  1.541455 1.890898 0.442826
H  2.384153 1.758312 0.885881
C  0.188186 1.011585 -1.329829
H  0.799156 1.352398 -2.167173
O  -0.694452 2.077691 -1.040931
H  -1.218466 1.848047 -0.262768
C  -0.612696 -0.231160 -1.764535
H  -1.302592 0.082080 -2.548474
O  0.197457 -1.241824 -2.368306
H  0.812810 -1.606773 -1.724051
