# file_frame zpe
4C1.xyz:0	-687.205344
4C1.xyz:1	-687.204938
4C1.xyz:2	-687.204041
4C1.xyz:3	-687.203917
4C1.xyz:4	-687.203703
4C1.xyz:5	-687.203598
4C1.xyz:6	-687.203368
4C1.xyz:7	-687.203325
4C1.xyz:8	-687.203076
4C1.xyz:9	-687.202998
4C1.xyz:10	-687.20258
4C1.xyz:11	-687.20253
4C1.xyz:12	-687.202001
4C1.xyz:13	-687.201541
4C1.xyz:14	-687.201533
4C1.xyz:15	-687.201231
4C1.xyz:16	-687.20098
4C1.xyz:17	-687.200899
4C1.xyz:18	-687.200883
4C1.xyz:19	-687.200882
4C1.xyz:20	-687.200639
B3O.xyz:0	-687.200311
B3O.xyz:1	-687.200306
4C1.xyz:21	-687.200268
4C1.xyz:22	-687.20022
4C1.xyz:23	-687.199869
4C1.xyz:24	-687.199833
B3O.xyz:2	-687.199449
B3O.xyz:3	-687.199447
B3O.xyz:4	-687.199444
4C1.xyz:25	-687.199185
4C1.xyz:26	-687.19909
4C1.xyz:27	-687.199047
4C1.xyz:28	-687.198968
4C1.xyz:29	-687.198886
4C1.xyz:30	-687.198854
4C1.xyz:31	-687.198697
4C1.xyz:32	-687.198535
4C1.xyz:33	-687.198526
4C1.xyz:34	-687.198461
4C1.xyz:35	-687.198375
4C1.xyz:36	-687.198295
4C1.xyz:37	-687.198187
4C1.xyz:38	-687.198155
4C1.xyz:39	-687.198141
4C1.xyz:40	-687.198138
4C1.xyz:41	-687.198053
4C1.xyz:42	-687.198043
4C1.xyz:43	-687.19804
4C1.xyz:44	-687.197726
4C1.xyz:45	-687.19772
OS2.xyz:0	-687.197693
4C1.xyz:46	-687.197687
4C1.xyz:47	-687.19767
1S5.xyz:0	-687.197661
4C1.xyz:48	-687.197599
4C1.xyz:49	-687.197589
1C4.xyz:0	-687.197544
1S3.xyz:0	-687.197399
OS2.xyz:1	-687.197346
4C1.xyz:50	-687.197341
4C1.xyz:51	-687.197323
1S5.xyz:1	-687.197173
4C1.xyz:52	-687.197172
B3O.xyz:5	-687.197168
B3O.xyz:6	-687.197165
B3O.xyz:7	-687.197162
B3O.xyz:8	-687.197154
4C1.xyz:53	-687.197146
B3O.xyz:9	-687.197085
B3O.xyz:10	-687.197084
B3O.xyz:11	-687.197072
4C1.xyz:54	-687.196983
4C1.xyz:55	-687.196903
1S3.xyz:1	-687.196896
4C1.xyz:56	-687.196812
4C1.xyz:57	-687.196809
4C1.xyz:58	-687.196759
4C1.xyz:59	-687.196754
4C1.xyz:60	-687.196679
1C4.xyz:1	-687.196659
4C1.xyz:61	-687.196626
4C1.xyz:62	-687.196588
2SO.xyz:0	-687.196461
4C1.xyz:63	-687.196456
1C4.xyz:2	-687.196443
4C1.xyz:64	-687.196382
4C1.xyz:65	-687.196306
1C4.xyz:3	-687.19628
4C1.xyz:66	-687.196132
4C1.xyz:67	-687.19594
4C1.xyz:68	-687.195934
4C1.xyz:69	-687.19578
1S3.xyz:2	-687.195755
1C4.xyz:4	-687.195714
1C4.xyz:5	-687.195712
1C4.xyz:6	-687.195712
1C4.xyz:7	-687.195711
1S3.xyz:3	-687.195695
1S3.xyz:4	-687.195685
1S5.xyz:2	-687.195652
1S5.xyz:3	-687.195651
1S5.xyz:4	-687.19565
1S5.xyz:5	-687.19565
1S5.xyz:6	-687.195649
1S5.xyz:7	-687.195647
4C1.xyz:70	-687.195632
B3O.xyz:12	-687.195396
B3O.xyz:13	-687.195396
B3O.xyz:14	-687.195395
B3O.xyz:15	-687.195394
B3O.xyz:16	-687.195394
B3O.xyz:17	-687.195393
B3O.xyz:18	-687.195393
B3O.xyz:19	-687.195392
B3O.xyz:20	-687.195391
B3O.xyz:21	-687.195389
B14.xyz:0	-687.195344
4C1.xyz:71	-687.195323
4C1.xyz:72	-687.195312
1S3.xyz:5	-687.195287
1C4.xyz:8	-687.195257
4C1.xyz:73	-687.195255
4C1.xyz:74	-687.195232
1S5.xyz:8	-687.195208
1S3.xyz:6	-687.1951
1C4.xyz:9	-687.195061
1C4.xyz:10	-687.194988
1C4.xyz:11	-687.194901
4C1.xyz:75	-687.194803
4C1.xyz:76	-687.194774
1S3.xyz:7	-687.194747
4C1.xyz:77	-687.194717
4C1.xyz:78	-687.194603
2SO.xyz:1	-687.194595
1C4.xyz:12	-687.194594
1S5.xyz:9	-687.194584
1S3.xyz:8	-687.194566
1C4.xyz:13	-687.194481
1C4.xyz:14	-687.194446
1C4.xyz:15	-687.19443
4C1.xyz:79	-687.194404
1C4.xyz:16	-687.194402
1C4.xyz:17	-687.194396
1C4.xyz:18	-687.19439
B3O.xyz:22	-687.194377
1C4.xyz:19	-687.194328
1S3.xyz:9	-687.194313
1S3.xyz:10	-687.194104
1C4.xyz:20	-687.194057
1C4.xyz:21	-687.194054
1C4.xyz:22	-687.194052
1S3.xyz:11	-687.194033
1S3.xyz:12	-687.193964
1S3.xyz:13	-687.19391
B3O.xyz:23	-687.193887
1C4.xyz:23	-687.193883
1C4.xyz:24	-687.193883
1S3.xyz:14	-687.193824
OS2.xyz:2	-687.193821
1C4.xyz:25	-687.193814
3OB.xyz:0	-687.193812
1C4.xyz:26	-687.193793
1C4.xyz:27	-687.193793
1C4.xyz:28	-687.19379
1S5.xyz:10	-687.193763
4C1.xyz:80	-687.193719
3OB.xyz:1	-687.193701
1C4.xyz:29	-687.193689
1C4.xyz:30	-687.193687
1C4.xyz:31	-687.193684
1S3.xyz:15	-687.193684
OS2.xyz:3	-687.193679
1C4.xyz:32	-687.193678
OS2.xyz:4	-687.193601
1S3.xyz:16	-687.193599
1H2.xyz:0	-687.193578
1S5.xyz:11	-687.193574
1C4.xyz:33	-687.193503
1C4.xyz:34	-687.193496
1S3.xyz:17	-687.193489
4C1.xyz:81	-687.193416
1S3.xyz:18	-687.193389
4C1.xyz:82	-687.193357
1S3.xyz:19	-687.19334
4C1.xyz:83	-687.193314
1C4.xyz:35	-687.193281
1C4.xyz:36	-687.193253
4C1.xyz:84	-687.19323
1C4.xyz:37	-687.193219
1C4.xyz:38	-687.193189
4C1.xyz:85	-687.193168
B14.xyz:1	-687.193155
B14.xyz:2	-687.193154
1S3.xyz:20	-687.19314
2SO.xyz:2	-687.19313
1S3.xyz:21	-687.193118
2SO.xyz:3	-687.193114
1C4.xyz:39	-687.193081
1C4.xyz:40	-687.193078
1C4.xyz:41	-687.193076
1C4.xyz:42	-687.193054
1S5.xyz:12	-687.193038
1S5.xyz:13	-687.193015
OS2.xyz:5	-687.193001
1C4.xyz:43	-687.19298
OS2.xyz:6	-687.19292
OS2.xyz:7	-687.192912
1S3.xyz:22	-687.192897
1C4.xyz:44	-687.192894
4C1.xyz:86	-687.192867
1C4.xyz:45	-687.192864
1S3.xyz:23	-687.19284
B14.xyz:3	-687.192818
1S3.xyz:24	-687.1928
OS2.xyz:8	-687.192799
B3O.xyz:24	-687.192795
1C4.xyz:46	-687.192778
1S3.xyz:25	-687.192736
B3O.xyz:25	-687.192691
1C4.xyz:47	-687.19269
1S3.xyz:26	-687.19266
1C4.xyz:48	-687.192639
3S1.xyz:0	-687.19259
1C4.xyz:49	-687.192572
1C4.xyz:50	-687.192572
1C4.xyz:51	-687.192568
1S3.xyz:27	-687.192565
OS2.xyz:9	-687.192527
1S3.xyz:28	-687.192504
1S5.xyz:14	-687.192483
1S3.xyz:29	-687.192477
1C4.xyz:52	-687.19246
1C4.xyz:53	-687.192451
3S1.xyz:1	-687.192445
1C4.xyz:54	-687.192439
OS2.xyz:10	-687.192437
OS2.xyz:11	-687.192432
1C4.xyz:55	-687.192402
1S3.xyz:30	-687.192402
OS2.xyz:12	-687.192398
1C4.xyz:56	-687.192395
1S3.xyz:31	-687.192394
1C4.xyz:57	-687.19239
1C4.xyz:58	-687.192385
OS2.xyz:13	-687.192366
1S3.xyz:32	-687.192364
B25.xyz:0	-687.192359
1S5.xyz:15	-687.192327
B25.xyz:1	-687.192327
1C4.xyz:59	-687.192319
B14.xyz:4	-687.1923
1H2.xyz:1	-687.192287
B3O.xyz:26	-687.192273
1C4.xyz:60	-687.192269
4C1.xyz:87	-687.192269
14B.xyz:0	-687.192257
2SO.xyz:4	-687.192254
3S1.xyz:2	-687.19225
B25.xyz:2	-687.192249
1C4.xyz:61	-687.192239
1S3.xyz:33	-687.192235
1S5.xyz:16	-687.192235
4C1.xyz:88	-687.192228
1C4.xyz:62	-687.192227
2SO.xyz:5	-687.192222
OS2.xyz:14	-687.192206
B3O.xyz:27	-687.192193
2SO.xyz:6	-687.192184
1S3.xyz:34	-687.192167
B25.xyz:3	-687.192108
B3O.xyz:28	-687.1921
B3O.xyz:29	-687.192098
1S3.xyz:35	-687.192036
1S3.xyz:36	-687.192007
1S3.xyz:37	-687.191996
OS2.xyz:15	-687.191983
OS2.xyz:16	-687.191982
1C4.xyz:63	-687.191981
1S3.xyz:38	-687.191937
1S5.xyz:17	-687.191934
1S5.xyz:18	-687.191847
1C4.xyz:64	-687.191807
3S1.xyz:3	-687.191775
1S3.xyz:39	-687.191773
1S3.xyz:40	-687.191744
2SO.xyz:7	-687.191643
1S5.xyz:19	-687.191633
1S3.xyz:41	-687.191628
4C1.xyz:89	-687.19162
3S1.xyz:4	-687.191598
1S3.xyz:42	-687.191569
OS2.xyz:17	-687.191559
1S3.xyz:43	-687.191552
5S1.xyz:0	-687.191543
5S1.xyz:1	-687.191543
1S3.xyz:44	-687.191496
B3O.xyz:30	-687.191493
OS2.xyz:18	-687.191479
2SO.xyz:8	-687.191315
3S1.xyz:5	-687.191308
1C4.xyz:65	-687.191307
1S5.xyz:20	-687.191303
OS2.xyz:19	-687.191296
1S5.xyz:21	-687.191261
5S1.xyz:2	-687.191255
1S3.xyz:45	-687.191251
1S5.xyz:22	-687.191212
1S5.xyz:23	-687.191191
1C4.xyz:66	-687.191156
B3O.xyz:31	-687.191147
1C4.xyz:67	-687.191146
1S5.xyz:24	-687.191127
3S1.xyz:6	-687.191122
2SO.xyz:9	-687.19108
B14.xyz:5	-687.19107
1S5.xyz:25	-687.191069
1S3.xyz:46	-687.191054
1S5.xyz:26	-687.191046
1C4.xyz:68	-687.191038
1C4.xyz:69	-687.191034
1C4.xyz:70	-687.191026
B25.xyz:4	-687.19095
B3O.xyz:32	-687.190903
B3O.xyz:33	-687.190862
2SO.xyz:10	-687.190848
1S5.xyz:27	-687.19084
1S3.xyz:47	-687.190826
5S1.xyz:3	-687.190813
2SO.xyz:11	-687.190808
1S5.xyz:28	-687.190806
OS2.xyz:20	-687.190793
3S1.xyz:7	-687.190753
1S3.xyz:48	-687.190749
1S3.xyz:49	-687.19074
1S5.xyz:29	-687.19069
3S1.xyz:8	-687.19066
1S5.xyz:30	-687.190652
1C4.xyz:71	-687.190629
1S5.xyz:31	-687.190627
1S5.xyz:32	-687.190626
1S3.xyz:50	-687.190616
OS2.xyz:21	-687.190609
1C4.xyz:72	-687.190606
OS2.xyz:22	-687.190605
1S3.xyz:51	-687.190601
1S5.xyz:33	-687.190579
3S1.xyz:9	-687.190571
1S5.xyz:34	-687.19057
1C4.xyz:73	-687.190559
1S3.xyz:52	-687.190536
3S1.xyz:10	-687.190533
3OB.xyz:2	-687.190523
1H2.xyz:2	-687.190515
OS2.xyz:23	-687.190515
OS2.xyz:24	-687.190494
2SO.xyz:12	-687.190476
3S1.xyz:11	-687.190456
1S3.xyz:53	-687.190455
OS2.xyz:25	-687.190441
1S5.xyz:35	-687.19044
3S1.xyz:12	-687.1904
1C4.xyz:74	-687.190398
1S5.xyz:36	-687.190392
OS2.xyz:26	-687.190386
3S1.xyz:13	-687.190359
4C1.xyz:90	-687.190351
1S5.xyz:37	-687.190349
B14.xyz:6	-687.190345
B14.xyz:7	-687.190344
1S3.xyz:54	-687.190339
1S3.xyz:55	-687.190316
1S5.xyz:38	-687.190253
1C4.xyz:75	-687.190251
1S3.xyz:56	-687.190239
1S3.xyz:57	-687.190232
2SO.xyz:13	-687.190223
14B.xyz:1	-687.190199
1S5.xyz:39	-687.190191
OS2.xyz:27	-687.190183
1C4.xyz:76	-687.190169
1C4.xyz:77	-687.190166
1S3.xyz:58	-687.190163
1S5.xyz:40	-687.19015
1S5.xyz:41	-687.190134
4C1.xyz:91	-687.190114
1S5.xyz:42	-687.190093
3S1.xyz:14	-687.190088
5S1.xyz:4	-687.190053
OS2.xyz:28	-687.190026
1S5.xyz:43	-687.190004
1S3.xyz:59	-687.189994
1S5.xyz:44	-687.189994
1S5.xyz:45	-687.18999
4C1.xyz:92	-687.189986
OS2.xyz:29	-687.18991
3S1.xyz:15	-687.189889
1S3.xyz:60	-687.189855
2SO.xyz:14	-687.189807
1C4.xyz:78	-687.189794
5S1.xyz:5	-687.189787
1S3.xyz:61	-687.189777
2SO.xyz:15	-687.189771
1C4.xyz:79	-687.189759
3OB.xyz:3	-687.189748
14B.xyz:2	-687.189742
1S3.xyz:62	-687.189742
1C4.xyz:80	-687.189696
1C4.xyz:81	-687.189696
1C4.xyz:82	-687.189661
B14.xyz:8	-687.189607
OS2.xyz:30	-687.189543
1S5.xyz:46	-687.189523
14B.xyz:3	-687.189515
3S1.xyz:16	-687.189513
1S3.xyz:63	-687.189511
1S5.xyz:47	-687.189496
OS2.xyz:31	-687.189495
1C4.xyz:83	-687.189471
1C4.xyz:84	-687.189469
3OB.xyz:4	-687.18946
OS2.xyz:32	-687.189442
14B.xyz:4	-687.18943
3S1.xyz:17	-687.189429
3OB.xyz:5	-687.189427
B3O.xyz:34	-687.189424
3S1.xyz:18	-687.189402
1S3.xyz:64	-687.189398
1C4.xyz:85	-687.189377
1C4.xyz:86	-687.189348
2SO.xyz:16	-687.189343
5S1.xyz:6	-687.189339
14B.xyz:5	-687.189323
1S5.xyz:48	-687.189307
1S5.xyz:49	-687.189294
1S5.xyz:50	-687.189262
14B.xyz:6	-687.189256
OS2.xyz:33	-687.189243
B3O.xyz:35	-687.189235
3S1.xyz:19	-687.189234
OS2.xyz:34	-687.189219
1C4.xyz:87	-687.189174
1S3.xyz:65	-687.189151
2SO.xyz:17	-687.189146
B14.xyz:9	-687.189139
3OB.xyz:6	-687.189088
1S5.xyz:51	-687.189086
OS2.xyz:35	-687.189079
B25.xyz:5	-687.189077
B14.xyz:10	-687.189069
1C4.xyz:88	-687.189016
1C4.xyz:89	-687.189008
3S1.xyz:20	-687.188997
B14.xyz:11	-687.188983
1S3.xyz:66	-687.188972
1S3.xyz:67	-687.18897
1C4.xyz:90	-687.188961
1C4.xyz:91	-687.188956
1S5.xyz:52	-687.188931
2SO.xyz:18	-687.188909
B3O.xyz:36	-687.188893
B3O.xyz:37	-687.188886
1C4.xyz:92	-687.188879
B14.xyz:12	-687.188878
5S1.xyz:7	-687.188851
2SO.xyz:19	-687.1888
1S3.xyz:68	-687.18878
OS2.xyz:36	-687.188763
B3O.xyz:38	-687.188758
3S1.xyz:21	-687.188747
1C4.xyz:93	-687.18873
1C4.xyz:94	-687.188707
5S1.xyz:8	-687.188698
B14.xyz:13	-687.188697
4C1.xyz:93	-687.188683
1C4.xyz:95	-687.188639
3S1.xyz:22	-687.188621
1S5.xyz:53	-687.188605
1C4.xyz:96	-687.188603
1C4.xyz:97	-687.18859
2SO.xyz:20	-687.188587
2SO.xyz:21	-687.188577
3S1.xyz:23	-687.188566
1S5.xyz:54	-687.188547
1C4.xyz:98	-687.188545
1S3.xyz:69	-687.188545
1S3.xyz:70	-687.188543
3OB.xyz:7	-687.188536
OS2.xyz:37	-687.188513
B3O.xyz:39	-687.188512
B25.xyz:6	-687.188493
2SO.xyz:22	-687.188477
1S3.xyz:71	-687.188464
1S3.xyz:72	-687.18846
1C4.xyz:99	-687.188458
3S1.xyz:24	-687.188438
4C1.xyz:94	-687.188411
1S3.xyz:73	-687.188384
1S5.xyz:55	-687.188364
1C4.xyz:100	-687.188363
B14.xyz:14	-687.188349
2SO.xyz:23	-687.188345
B3O.xyz:40	-687.188341
2SO.xyz:24	-687.188325
1S5.xyz:56	-687.188321
3S1.xyz:25	-687.188284
3S1.xyz:26	-687.188266
3S1.xyz:27	-687.188213
B14.xyz:15	-687.188163
2SO.xyz:25	-687.188153
2SO.xyz:26	-687.188152
2SO.xyz:27	-687.188152
2SO.xyz:28	-687.188152
2SO.xyz:29	-687.188152
2SO.xyz:30	-687.188151
2SO.xyz:31	-687.188151
2SO.xyz:32	-687.188149
1C4.xyz:101	-687.188144
2SO.xyz:33	-687.188134
1S5.xyz:57	-687.188122
B3O.xyz:41	-687.188112
B25.xyz:7	-687.188088
3S1.xyz:28	-687.188086
OS2.xyz:38	-687.188074
1S3.xyz:74	-687.188069
2SO.xyz:34	-687.18801
2SO.xyz:35	-687.188009
OS2.xyz:39	-687.18799
1C4.xyz:102	-687.187979
1S5.xyz:58	-687.18797
3S1.xyz:29	-687.18796
1S5.xyz:59	-687.187958
B3O.xyz:42	-687.187867
B3O.xyz:43	-687.187854
1C4.xyz:103	-687.187848
1S3.xyz:75	-687.187825
1S5.xyz:60	-687.187825
2SO.xyz:36	-687.187796
3OB.xyz:8	-687.18778
B3O.xyz:44	-687.187763
B3O.xyz:45	-687.187763
B3O.xyz:46	-687.187762
B3O.xyz:47	-687.187758
1S5.xyz:61	-687.187735
B14.xyz:16	-687.187731
3OB.xyz:9	-687.187697
5S1.xyz:9	-687.18767
1S3.xyz:76	-687.187656
1S5.xyz:62	-687.187642
1S3.xyz:77	-687.187632
1S5.xyz:63	-687.18763
4C1.xyz:95	-687.187568
1S3.xyz:78	-687.187566
OS2.xyz:40	-687.187548
3S1.xyz:30	-687.187489
2SO.xyz:37	-687.187482
B25.xyz:8	-687.187477
1C4.xyz:104	-687.187452
1S5.xyz:64	-687.187424
5S1.xyz:10	-687.187416
1C4.xyz:105	-687.187415
3OB.xyz:10	-687.187387
B3O.xyz:48	-687.187366
3S1.xyz:31	-687.187346
1C4.xyz:106	-687.187339
1C4.xyz:107	-687.187331
OS2.xyz:41	-687.187309
B3O.xyz:49	-687.187307
5S1.xyz:11	-687.187294
B25.xyz:9	-687.187246
3S1.xyz:32	-687.18723
B14.xyz:17	-687.18723
5S1.xyz:12	-687.187207
1S3.xyz:79	-687.187148
B14.xyz:18	-687.187141
5S1.xyz:13	-687.187066
B3O.xyz:50	-687.187056
1S3.xyz:80	-687.187014
1S3.xyz:81	-687.187007
3S1.xyz:33	-687.186992
5S1.xyz:14	-687.186934
1S3.xyz:82	-687.186858
2SO.xyz:38	-687.186838
4C1.xyz:96	-687.186836
3S1.xyz:34	-687.186827
1S3.xyz:83	-687.18682
5S1.xyz:15	-687.186803
1S3.xyz:84	-687.18674
B25.xyz:10	-687.18668
5S1.xyz:16	-687.186673
1S5.xyz:65	-687.186662
OS2.xyz:42	-687.186662
1S3.xyz:85	-687.186534
B3O.xyz:51	-687.186423
B25.xyz:11	-687.186358
B14.xyz:19	-687.186351
3OB.xyz:11	-687.186308
3OB.xyz:12	-687.186285
OS2.xyz:43	-687.186266
1S3.xyz:86	-687.186248
3S1.xyz:35	-687.186204
5S1.xyz:17	-687.186199
OS2.xyz:44	-687.186197
1S3.xyz:87	-687.186193
1S5.xyz:66	-687.186155
1S3.xyz:88	-687.186134
B3O.xyz:52	-687.186042
1C4.xyz:108	-687.186023
1C4.xyz:109	-687.186023
1C4.xyz:110	-687.186022
1C4.xyz:111	-687.186022
OS2.xyz:45	-687.186002
2SO.xyz:39	-687.185994
2SO.xyz:40	-687.185993
3S1.xyz:36	-687.185992
3S1.xyz:37	-687.185972
OS2.xyz:46	-687.185929
3OB.xyz:13	-687.185858
B25.xyz:12	-687.185855
3S1.xyz:38	-687.185845
3S1.xyz:39	-687.185822
OS2.xyz:47	-687.18582
5S1.xyz:18	-687.185806
1S3.xyz:89	-687.185767
5S1.xyz:19	-687.185761
5S1.xyz:20	-687.185728
1C4.xyz:112	-687.185718
5S1.xyz:21	-687.185654
2SO.xyz:41	-687.185639
3S1.xyz:40	-687.185637
5S1.xyz:22	-687.185621
5S1.xyz:23	-687.185548
OS2.xyz:48	-687.185546
3S1.xyz:41	-687.185506
1S5.xyz:67	-687.185482
3S1.xyz:42	-687.185466
3S1.xyz:43	-687.185461
1C4.xyz:113	-687.185417
3OB.xyz:14	-687.185396
OS2.xyz:49	-687.185321
3S1.xyz:44	-687.1853
2SO.xyz:42	-687.185262
5S1.xyz:24	-687.185252
2SO.xyz:43	-687.185184
OS2.xyz:50	-687.18518
1C4.xyz:114	-687.185061
1S3.xyz:90	-687.18506
3S1.xyz:45	-687.185042
5S1.xyz:25	-687.184983
2SO.xyz:44	-687.184783
2SO.xyz:45	-687.184782
1S3.xyz:91	-687.184776
3S1.xyz:46	-687.184738
3S1.xyz:47	-687.184625
B3O.xyz:53	-687.184615
3S1.xyz:48	-687.184437
OS2.xyz:51	-687.184426
3S1.xyz:49	-687.184401
1S3.xyz:92	-687.184281
OS2.xyz:52	-687.184263
3S1.xyz:50	-687.184244
OS2.xyz:53	-687.184167
5S1.xyz:26	-687.184114
3S1.xyz:51	-687.184099
B14.xyz:20	-687.184096
5S1.xyz:27	-687.184011
3S1.xyz:52	-687.183988
25B.xyz:0	-687.183907
25B.xyz:1	-687.183903
25B.xyz:2	-687.183903
B3O.xyz:54	-687.183853
2SO.xyz:46	-687.1838
2SO.xyz:47	-687.183793
2SO.xyz:48	-687.183792
2SO.xyz:49	-687.183792
2SO.xyz:50	-687.183791
2SO.xyz:51	-687.183791
2SO.xyz:52	-687.183789
3OB.xyz:15	-687.183774
5S1.xyz:28	-687.183715
1S5.xyz:68	-687.183656
1S5.xyz:69	-687.183525
1S3.xyz:93	-687.183452
1S5.xyz:70	-687.18345
5S1.xyz:29	-687.183297
3S1.xyz:53	-687.183229
1S5.xyz:71	-687.18322
1S3.xyz:94	-687.183218
1C4.xyz:115	-687.18313
5S1.xyz:30	-687.182999
5S1.xyz:31	-687.182991
OS2.xyz:54	-687.182967
1S5.xyz:72	-687.182916
3S1.xyz:54	-687.182867
25B.xyz:3	-687.182859
25B.xyz:4	-687.182851
5S1.xyz:32	-687.182839
3S1.xyz:55	-687.182749
OS2.xyz:55	-687.182714
1S3.xyz:95	-687.182587
5S1.xyz:33	-687.182555
5S1.xyz:34	-687.182516
OS2.xyz:56	-687.182468
1S3.xyz:96	-687.182467
1S5.xyz:73	-687.182459
OS2.xyz:57	-687.182444
1S5.xyz:74	-687.182301
5S1.xyz:35	-687.182288
3S1.xyz:56	-687.182269
3S1.xyz:57	-687.182198
B3O.xyz:55	-687.182169
3S1.xyz:58	-687.182117
3S1.xyz:59	-687.182067
3S1.xyz:60	-687.182036
5S1.xyz:36	-687.181983
3S1.xyz:61	-687.181934
3S1.xyz:62	-687.181933
B3O.xyz:56	-687.181824
B3O.xyz:57	-687.181816
3S1.xyz:63	-687.18159
3S1.xyz:64	-687.181491
3S1.xyz:65	-687.181472
3S1.xyz:66	-687.181449
B14.xyz:21	-687.181348
1S5.xyz:75	-687.181347
3S1.xyz:67	-687.181311
3S1.xyz:68	-687.181311
B14.xyz:22	-687.181216
3S1.xyz:69	-687.181149
3S1.xyz:70	-687.180989
5S1.xyz:37	-687.180937
5S1.xyz:38	-687.180735
5S1.xyz:39	-687.18068
3OB.xyz:16	-687.180513
5S1.xyz:40	-687.180513
1S3.xyz:97	-687.180307
5S1.xyz:41	-687.180302
3S1.xyz:71	-687.18029
3S1.xyz:72	-687.180108
3OB.xyz:17	-687.179955
25B.xyz:5	-687.179837
25B.xyz:6	-687.179836
3OB.xyz:18	-687.179708
1S5.xyz:76	-687.179693
1S5.xyz:77	-687.179575
5S1.xyz:42	-687.179573
OS2.xyz:58	-687.179518
B14.xyz:23	-687.179405
5S1.xyz:43	-687.179386
OS2.xyz:59	-687.179384
B14.xyz:24	-687.179315
25B.xyz:7	-687.179282
5S1.xyz:44	-687.179214
5S1.xyz:45	-687.179009
5S1.xyz:46	-687.178955
5S1.xyz:47	-687.178548
2SO.xyz:53	-687.178537
2SO.xyz:54	-687.178536
2SO.xyz:55	-687.178535
2SO.xyz:56	-687.178535
2SO.xyz:57	-687.178535
2SO.xyz:58	-687.178533
2SO.xyz:59	-687.178532
B14.xyz:25	-687.178521
1S5.xyz:78	-687.178487
2SO.xyz:60	-687.178196
5S1.xyz:48	-687.178185
3OB.xyz:19	-687.178064
5S1.xyz:49	-687.177942
1C4.xyz:116	-687.177936
1S5.xyz:79	-687.177839
2SO.xyz:61	-687.177628
3S1.xyz:73	-687.177262
5S1.xyz:50	-687.177173
5S1.xyz:51	-687.177123
5S1.xyz:52	-687.176982
1S3.xyz:98	-687.176832
1S3.xyz:99	-687.176733
5S1.xyz:53	-687.176337
5S1.xyz:54	-687.176247
3S1.xyz:74	-687.176193
3S1.xyz:75	-687.176079
3S1.xyz:76	-687.175446
3S1.xyz:77	-687.175357
5S1.xyz:55	-687.175242
B14.xyz:26	-687.174487
5S1.xyz:56	-687.171765
5S1.xyz:57	-687.171358
3S1.xyz:78	-687.170162
OS2.xyz:60	-687.169957
