24
0 zpe= -687.19723 src= /lustre/lwork/pjhsu/sugar_opt/pj_sugar/beta_glucose/1S3.xyz:0 moment= 2.441865 0.769010 -0.029234 3.237060 2.566840 0.999033 -0.502530 3.241479 4.307551 1.914058 -0.387848 2.361770 4.082519 1.871872 -0.159082 2.384875
H -2.402810 -1.562102 1.126650
O  -2.206312 -0.794930 0.577243
C  -1.296709 -1.203027 -0.431156
H  -1.656462 -2.095671 -0.946435
C  -1.196320 -0.051971 -1.453316
H  -1.919235 0.718256 -1.163258
C  0.189891 0.578465 -1.448295
H  0.896438 -0.099390 -1.946220
C  0.633730 0.783486 -0.008337
H  -0.131542 1.367594 0.521343
C  0.816956 -0.594591 0.655638
H  1.828808 -0.932347 0.413453
C  0.679067 -0.526856 2.175379
H  -0.331320 -0.200243 2.442080
H  0.865645 -1.516923 2.605205
O  1.658380 0.422788 2.627807
H  1.563811 0.556384 3.575073
O  -0.054065 -1.604506 0.118106
O  1.856974 1.513211 -0.033921
H  2.151747 1.610421 0.881402
O  0.104628 1.803517 -2.166516
H  0.930624 2.280600 -2.019400
O  -1.531996 -0.584301 -2.730526
H  -1.451930 0.131135 -3.371997
24
1 zpe= -687.19642 src= /lustre/lwork/pjhsu/sugar_opt/pj_sugar/beta_glucose/1S3.xyz:38 moment= 2.435895 0.763846 -0.114708 3.145193 2.556239 0.985058 -0.541762 3.342384 4.173120 1.893382 -0.333286 2.196584 4.085482 1.862410 -0.192771 2.350174
H -2.771089 -0.433451 1.232358
O  -2.353865 0.079922 0.531290
C  -1.609913 -0.812810 -0.280375
H  -2.224510 -1.652685 -0.610124
C  -1.146146 -0.023339 -1.521772
H  -1.652986 0.947374 -1.507571
C  0.356489 0.231334 -1.494048
H  0.880746 -0.690682 -1.781153
C  0.769565 0.610549 -0.080093
H  0.156154 1.456359 0.258041
C  0.561440 -0.607569 0.838384
H  1.438668 -1.252191 0.713804
C  0.444661 -0.208033 2.312356
H  -0.391394 0.479647 2.449027
H  0.269017 -1.095840 2.927774
O  1.623677 0.496043 2.736342
H  2.285233 -0.142997 3.019073
O  -0.558876 -1.422635 0.447751
O  2.140305 1.001900 -0.120045
H  2.384216 1.276902 0.773548
O  0.635272 1.260682 -2.434664
H  1.547082 1.542418 -2.290145
O  -1.537279 -0.766880 -2.671456
H  -1.247465 -0.275018 -3.448304
24
2 zpe= -687.196187 src= /lustre/lwork/pjhsu/sugar_opt/pj_sugar/beta_glucose/1S3.xyz:51 moment= 2.426632 0.757922 0.009329 3.015746 2.581640 1.008414 -0.468013 3.368615 4.148536 1.828538 -0.361459 2.405885 3.939545 1.737496 -0.250910 2.474831
H -2.172369 0.251569 0.808479
O  -2.203442 0.139517 -0.156574
C  -1.306164 -0.883851 -0.529831
H  -1.859181 -1.775689 -0.844205
C  -0.457919 -0.355865 -1.716281
H  -0.994327 0.498713 -2.139207
C  0.916615 0.109564 -1.242734
H  1.581212 -0.763852 -1.224537
C  0.837584 0.686358 0.166109
H  0.097131 1.493588 0.190390
C  0.447428 -0.447381 1.124563
H  1.352682 -1.044131 1.278453
C  -0.007222 0.016237 2.500812
H  -0.171753 -0.866997 3.127183
H  0.785540 0.631728 2.939363
O  -1.221439 0.770676 2.377888
H  -1.554126 0.988922 3.253087
O  -0.522206 -1.346090 0.553026
O  2.101514 1.173506 0.601540
H  2.448272 1.722755 -0.112689
O  1.474185 1.121022 -2.083650
H  1.674908 0.727494 -2.939227
O  -0.217244 -1.345730 -2.720423
H  -1.030682 -1.503060 -3.210535
24
3 zpe= -687.19611 src= /lustre/lwork/pjhsu/sugar_opt/pj_sugar/beta_glucose/1S3.xyz:61 moment= 2.404425 0.721993 -0.131494 3.370622 2.554284 0.978096 -0.526954 3.640303 4.093913 1.780667 -0.403347 2.389089 3.675938 1.696543 -0.133743 2.245568
H -2.245368 0.117713 0.928234
O  -2.191658 0.023875 -0.037191
C  -1.281633 -1.015414 -0.332380
H  -1.810600 -1.957554 -0.513408
C  -0.509556 -0.592261 -1.607725
H  -1.096972 0.189840 -2.098463
C  0.861103 -0.024324 -1.245909
H  1.561305 -0.863612 -1.148135
C  0.800208 0.715868 0.085889
H  0.016024 1.481292 0.023220
C  0.495988 -0.304497 1.190995
H  1.435798 -0.832892 1.386310
C  0.043563 0.293641 2.522751
H  -0.083379 -0.520603 3.237944
H  0.822896 0.966335 2.894624
O  -1.223176 0.960930 2.462679
H  -1.090543 1.867677 2.168854
O  -0.436055 -1.315494 0.758679
O  2.043356 1.324673 0.409457
H  2.354749 1.764876 -0.391815
O  1.347678 0.899922 -2.220048
H  1.541099 0.415499 -3.029517
O  -0.266058 -1.676924 -2.505280
H  -1.089771 -1.920567 -2.939762
24
4 zpe= -687.195411 src= /lustre/lwork/pjhsu/sugar_opt/pj_sugar/beta_glucose/1S3.xyz:69 moment= 2.405467 0.730366 -0.110430 3.392476 2.558444 0.969195 -0.650438 3.471338 4.145045 1.811813 -0.408148 2.398942 3.935661 1.732429 -0.246603 2.499396
H -1.913017 1.033412 0.906098
O  -1.958571 0.952253 -0.061241
C  -1.594678 -0.354286 -0.430173
H  -2.479956 -0.968586 -0.625342
C  -0.737855 -0.259332 -1.708869
H  -1.047370 0.637409 -2.245909
C  0.757864 -0.148379 -1.357881
H  1.186380 -1.161876 -1.359089
C  0.978564 0.435603 0.034325
H  0.536116 1.434541 0.087391
C  0.337362 -0.509905 1.061358
H  1.017024 -1.363443 1.159119
C  0.181950 0.078233 2.456890
H  -0.188780 -0.707954 3.123458
H  1.165930 0.413527 2.801792
O  -0.741357 1.175009 2.422307
H  -0.897477 1.490825 3.316829
O  -0.918037 -1.054746 0.605004
O  2.365573 0.496509 0.354574
H  2.801015 0.955981 -0.373828
O  1.485655 0.670355 -2.272841
H  1.443702 0.270800 -3.148190
O  -0.973108 -1.344174 -2.606351
H  -0.804925 -2.171776 -2.140433
24
5 zpe= -687.1954 src= /lustre/lwork/pjhsu/sugar_opt/pj_sugar/beta_glucose/1S3.xyz:99 moment= 2.384431 0.693417 -0.299665 3.834600 2.531929 0.937623 -0.747080 3.747145 3.902177 1.681472 -0.359623 2.468457 3.745037 1.648569 -0.337277 2.340544
H -1.998312 0.244038 1.373926
O  -2.088700 0.440870 0.426708
C  -1.544253 -0.631214 -0.304366
H  -2.312627 -1.369128 -0.557360
C  -0.933735 -0.050843 -1.596772
H  -1.474683 0.864853 -1.836822
C  0.555748 0.281086 -1.392432
H  1.148989 -0.599911 -1.679206
C  0.869050 0.588957 0.068345
H  0.246673 1.432230 0.388406
C  0.581092 -0.668021 0.902083
H  1.421919 -1.349647 0.730482
C  0.503257 -0.444369 2.412383
H  0.347744 -1.411657 2.893020
H  1.455585 -0.031628 2.759553
O  -0.593101 0.379971 2.826162
H  -0.326688 1.303928 2.790163
O  -0.592578 -1.372426 0.442938
O  2.244855 0.901995 0.256052
H  2.478379 1.554768 -0.415857
O  0.984146 1.407614 -2.156075
H  0.876180 1.208394 -3.092330
O  -1.115121 -0.908581 -2.721962
H  -0.734821 -1.771281 -2.518041
24
6 zpe= -687.194997 src= /lustre/lwork/pjhsu/sugar_opt/pj_sugar/beta_glucose/1S3.xyz:112 moment= 2.426733 0.732362 -0.160746 3.063647 2.589447 1.020809 -0.455658 3.113256 4.044771 1.799953 -0.307901 2.327623 3.895028 1.790485 -0.332505 2.248680
H -2.641909 -0.209338 1.298258
O  -2.176649 0.339670 0.657115
C  -1.569212 -0.509333 -0.301087
H  -2.288812 -1.217393 -0.716792
C  -1.048989 0.393016 -1.437003
H  -1.442500 1.401413 -1.269396
C  0.472553 0.473103 -1.428209
H  0.878435 -0.452400 -1.858693
C  0.971139 0.598155 0.007650
H  0.488347 1.461466 0.480975
C  0.646787 -0.704945 0.755758
H  1.435146 -1.423086 0.514105
C  0.578359 -0.546292 2.271828
H  1.538376 -0.177482 2.644717
H  -0.197840 0.184416 2.532498
O  0.348354 -1.789217 2.918426
H  -0.357160 -2.234745 2.433862
O  -0.570258 -1.331700 0.277758
O  2.388323 0.807119 -0.050365
H  2.665459 1.361276 0.684284
O  0.844732 1.587215 -2.228255
H  1.801325 1.688042 -2.151245
O  -1.543335 -0.131636 -2.663757
H  -1.219669 0.433676 -3.374434
24
7 zpe= -687.194792 src= /lustre/lwork/pjhsu/sugar_opt/pj_sugar/beta_glucose/1S3.xyz:131 moment= 2.432276 0.754834 -0.149916 2.969385 2.556248 0.994124 -0.453080 3.455224 4.124114 1.842351 -0.269036 2.378730 3.898276 1.844365 -0.243319 2.137194
H -2.480239 -0.111586 1.642560
O  -2.151101 0.424033 0.911028
C  -1.690931 -0.456063 -0.102228
H  -2.502492 -1.094985 -0.463391
C  -1.188384 0.440598 -1.265064
H  -1.493734 1.467967 -1.044755
C  0.331706 0.407322 -1.370145
H  0.633968 -0.513211 -1.885040
C  0.917910 0.419478 0.033145
H  0.483970 1.262785 0.587914
C  0.581311 -0.904129 0.730537
H  1.269227 -1.660844 0.341541
C  0.758002 -0.840774 2.250833
H  0.191448 0.009798 2.656052
H  0.358245 -1.757647 2.688784
O  2.127592 -0.771219 2.621676
H  2.571939 -0.138668 2.041514
O  -0.740471 -1.373906 0.385875
O  2.338206 0.541521 0.024139
H  2.560667 1.259911 -0.582056
O  0.847557 1.544325 -2.059538
H  0.580526 1.487679 -2.983134
O  -1.696536 0.030509 -2.534825
H  -2.607386 0.328105 -2.625422
24
8 zpe= -687.194512 src= /lustre/lwork/pjhsu/sugar_opt/pj_sugar/beta_glucose/1S3.xyz:146 moment= 2.416877 0.748544 -0.091116 3.296382 2.547148 0.972019 -0.555613 3.523643 4.127624 1.810425 -0.351533 2.471478 4.092108 1.840007 -0.247527 2.363642
H -2.168426 0.378664 0.922210
O  -2.173577 0.330234 -0.046068
C  -1.468054 -0.828030 -0.441731
H  -2.147226 -1.659459 -0.645320
C  -0.699615 -0.467993 -1.725893
H  -1.215680 0.381708 -2.183785
C  0.732855 -0.040857 -1.396788
H  1.357685 -0.945031 -1.379394
C  0.807785 0.602031 -0.011157
H  0.120573 1.448082 0.046435
C  0.457868 -0.481015 1.024663
H  1.335369 -1.134720 1.091315
C  0.194467 0.028217 2.434880
H  0.012403 -0.837025 3.081027
H  1.085819 0.556948 2.793340
O  -0.943606 0.900624 2.435126
H  -1.191704 1.096112 3.343436
O  -0.629720 -1.317283 0.592594
O  2.156823 1.044324 0.212806
H  2.141631 1.960947 0.499382
O  1.181721 0.834924 -2.424429
H  2.085895 1.090497 -2.206160
O  -0.729304 -1.596739 -2.594617
H  -0.304982 -1.345160 -3.421870
24
9 zpe= -687.19439 src= /lustre/lwork/pjhsu/sugar_opt/pj_sugar/beta_glucose/1S3.xyz:152 moment= 2.415813 0.721086 -0.195899 3.134661 2.596387 1.012817 -0.547358 3.129718 3.918684 1.790902 -0.389288 2.213772 3.935861 1.749047 -0.227371 2.426686
H -2.623651 0.622544 0.986131
O  -2.094960 0.768696 0.193351
C  -1.538209 -0.466364 -0.212233
H  -2.316482 -1.225595 -0.331868
C  -0.847055 -0.225813 -1.573513
H  -1.269650 0.682365 -2.003614
C  0.665179 -0.038878 -1.405300
H  1.148470 -1.027497 -1.396076
C  0.982651 0.646149 -0.081600
H  0.442099 1.600698 -0.037206
C  0.552345 -0.275574 1.064856
H  1.320000 -1.046365 1.174161
C  0.394080 0.442561 2.399693
H  1.343686 0.910100 2.666274
H  -0.366045 1.229421 2.311050
O  0.071972 -0.464351 3.445835
H  -0.650006 -1.020640 3.130835
O  -0.665297 -1.012989 0.758627
O  2.377746 0.869192 0.069471
H  2.684773 1.300680 -0.737466
O  1.230840 0.758602 -2.441906
H  1.085421 0.320640 -3.287573
O  -1.135161 -1.257261 -2.516102
H  -0.791747 -2.093320 -2.178826
24
10 zpe= -687.194089 src= /lustre/lwork/pjhsu/sugar_opt/pj_sugar/beta_glucose/1S3.xyz:155 moment= 2.421781 0.724966 -0.152136 3.198702 2.593777 1.030261 -0.425863 3.053452 4.038323 1.791321 -0.305076 2.375698 3.894722 1.791978 -0.325014 2.256378
H -2.890168 0.242582 0.760016
O  -2.262348 0.603552 0.124014
C  -1.536444 -0.467985 -0.447996
H  -2.205286 -1.248448 -0.816146
C  -0.743218 0.106814 -1.638215
H  -1.037477 1.154427 -1.762386
C  0.757586 0.070743 -1.375088
H  1.108394 -0.966916 -1.484287
C  1.037182 0.545982 0.048337
H  0.614926 1.546731 0.178855
C  0.424920 -0.447759 1.047088
H  1.147576 -1.256869 1.212480
C  0.096992 0.170966 2.402560
H  0.999923 0.621560 2.820834
H  -0.655417 0.958023 2.273895
O  -0.337974 -0.811514 3.332240
H  -1.022154 -1.335265 2.899004
O  -0.729832 -1.135483 0.511449
O  2.440072 0.719928 0.268919
H  2.852826 -0.147979 0.357440
O  1.382953 0.898924 -2.346280
H  2.274722 1.096675 -2.033374
O  -1.097132 -0.645660 -2.792983
H  -0.621625 -0.271028 -3.543374
24
11 zpe= -687.194067 src= /lustre/lwork/pjhsu/sugar_opt/pj_sugar/beta_glucose/1S3.xyz:163 moment= 2.407725 0.724036 -0.314676 3.323418 2.528573 0.947115 -0.673018 3.627036 3.866337 1.793008 -0.349958 2.065587 3.626437 1.682899 -0.159628 2.251008
H -2.442868 -0.953550 1.342406
O  -2.179194 -0.210208 0.787461
C  -1.577958 -0.725163 -0.384783
H  -2.259576 -1.400789 -0.909387
C  -1.253975 0.478852 -1.298169
H  -1.914877 1.297749 -1.013003
C  0.203191 0.935556 -1.126135
H  0.838801 0.374748 -1.827246
C  0.681646 0.638193 0.286526
H  0.000233 1.115888 1.000558
C  0.700675 -0.881675 0.500122
H  1.571704 -1.276879 -0.031883
C  0.831441 -1.278498 1.974147
H  0.061505 -0.764490 2.567036
H  0.668441 -2.354522 2.061857
O  2.132078 -1.016964 2.480107
H  2.399194 -0.133576 2.192529
O  -0.449074 -1.525572 -0.099584
O  2.011664 1.106449 0.509042
H  2.044702 2.027689 0.221474
O  0.370037 2.334095 -1.345387
H  0.137647 2.538622 -2.257559
O  -1.552988 0.210699 -2.666208
H  -1.019448 -0.536652 -2.961926
24
12 zpe= -687.193968 src= /lustre/lwork/pjhsu/sugar_opt/pj_sugar/beta_glucose/1S3.xyz:180 moment= 2.436705 0.769266 -0.024500 3.262798 2.557791 0.988057 -0.532022 3.312357 4.320708 1.924786 -0.391806 2.326770 4.053128 1.858780 -0.126311 2.431270
H -3.031021 -0.140530 0.384236
O  -2.173236 -0.399177 0.739173
C  -1.427129 -1.062805 -0.284217
H  -1.973063 -1.931972 -0.659502
C  -1.136983 -0.113389 -1.476224
H  -1.773228 0.775863 -1.377972
C  0.311136 0.360786 -1.463655
H  0.949147 -0.444457 -1.852565
C  0.729785 0.662891 -0.032352
H  0.026872 1.383408 0.406644
C  0.722129 -0.653457 0.767738
H  1.680214 -1.146625 0.579880
C  0.573276 -0.425009 2.270268
H  -0.396790 0.032781 2.481092
H  0.640474 -1.383963 2.794189
O  1.652966 0.447032 2.652883
H  1.559510 0.683293 3.579861
O  -0.273567 -1.584272 0.306762
O  2.033570 1.234449 -0.080477
H  2.316391 1.374607 0.833477
O  0.401148 1.501977 -2.309053
H  1.273213 1.892094 -2.170178
O  -1.463788 -0.813674 -2.671786
H  -1.222027 -0.251848 -3.417219
24
13 zpe= -687.193911 src= /lustre/lwork/pjhsu/sugar_opt/pj_sugar/beta_glucose/1S3.xyz:250 moment= 2.407962 0.731922 -0.073463 3.484318 2.550442 0.972325 -0.576012 3.508269 4.139095 1.806168 -0.403313 2.443452 4.029609 1.808262 -0.215880 2.428330
H -2.020204 0.694614 0.962341
O  -2.076920 0.591027 -0.001599
C  -1.526331 -0.661062 -0.353653
H  -2.308367 -1.404722 -0.526301
C  -0.731943 -0.447608 -1.656424
H  -1.186086 0.419587 -2.153877
C  0.742734 -0.143335 -1.354159
H  1.297086 -1.085745 -1.371495
C  0.928619 0.485970 0.027555
H  0.360381 1.421051 0.093663
C  0.444204 -0.515069 1.087535
H  1.229811 -1.273283 1.174476
C  0.254490 0.078336 2.476625
H  -0.002223 -0.733261 3.165767
H  1.197312 0.538551 2.791551
O  -0.797449 1.053651 2.444643
H  -0.979452 1.354686 3.339391
O  -0.744856 -1.218649 0.684363
O  2.305302 0.734430 0.295273
H  2.687870 1.107215 -0.509042
O  1.360635 0.657053 -2.372517
H  0.822230 1.445831 -2.511525
O  -0.882085 -1.610056 -2.462983
H  -0.372757 -1.489211 -3.271611
24
14 zpe= -687.193622 src= /lustre/lwork/pjhsu/sugar_opt/pj_sugar/beta_glucose/1S3.xyz:276 moment= 2.401281 0.718861 -0.223407 3.507407 2.533582 0.946257 -0.664155 3.758153 4.047592 1.794162 -0.315616 2.341155 3.651062 1.666381 -0.168251 2.264425
H -2.224244 0.590393 1.052046
O  -2.173337 0.473779 0.090569
C  -1.546329 -0.765563 -0.166485
H  -2.272726 -1.579711 -0.224866
C  -0.820829 -0.628263 -1.519836
H  -1.255085 0.233950 -2.036670
C  0.667507 -0.362729 -1.298447
H  1.166148 -1.324484 -1.131466
C  0.867726 0.509590 -0.056237
H  0.254459 1.412675 -0.154193
C  0.455782 -0.319282 1.168370
H  1.286095 -1.010482 1.358652
C  0.249333 0.464440 2.466104
H  0.035346 -0.251025 3.261627
H  1.177999 0.989811 2.713330
O  -0.861684 1.365367 2.451143
H  -0.607783 2.176897 2.000545
O  -0.685109 -1.151331 0.891484
O  2.236966 0.870291 0.131354
H  2.454316 1.551080 -0.514018
O  1.192328 0.255778 -2.479902
H  2.112491 -0.005054 -2.581617
O  -1.036584 -1.817716 -2.271437
H  -0.671787 -1.679410 -3.152048
24
15 zpe= -687.193535 src= /lustre/lwork/pjhsu/sugar_opt/pj_sugar/beta_glucose/1S3.xyz:289 moment= 2.421348 0.748649 -0.146558 3.633377 2.541610 0.965332 -0.614174 3.448074 4.309808 1.902524 -0.453979 2.281856 3.704124 1.747276 -0.087369 2.365555
H -2.475637 -1.274386 0.975596
O  -2.186465 -0.506321 0.470640
C  -1.404258 -0.960956 -0.618797
H  -1.910804 -1.766045 -1.155517
C  -1.197848 0.223592 -1.588089
H  -2.041220 0.903904 -1.470927
C  0.095307 0.988302 -1.277966
H  0.906597 0.562701 -1.891863
C  0.506511 0.814603 0.180345
H  -0.287460 1.204390 0.828270
C  0.755604 -0.675638 0.471296
H  1.738411 -0.927144 0.060378
C  0.756748 -0.992089 1.966277
H  -0.225324 -0.757932 2.390919
H  0.968165 -2.056902 2.111431
O  1.776276 -0.179820 2.569292
H  1.773181 -0.311973 3.521584
O  -0.185813 -1.546746 -0.187846
O  1.699133 1.575901 0.357301
H  2.016518 1.412570 1.256049
O  -0.085846 2.354421 -1.605705
H  0.690432 2.826884 -1.279337
O  -1.250780 -0.223784 -2.938000
H  -0.432425 -0.688534 -3.145329
24
16 zpe= -687.193463 src= /lustre/lwork/pjhsu/sugar_opt/pj_sugar/beta_glucose/1S3.xyz:301 moment= 2.386601 0.696018 -0.251897 4.015160 2.524201 0.940107 -0.670973 3.801330 4.005301 1.772571 -0.294039 2.380253 3.656431 1.662423 -0.200424 2.236654
H -1.957611 0.936325 1.097372
O  -1.978174 0.866130 0.129165
C  -1.632544 -0.459047 -0.221607
H  -2.519040 -1.087177 -0.338531
C  -0.883180 -0.380484 -1.566394
H  -1.210874 0.550228 -2.049594
C  0.633511 -0.324535 -1.338808
H  1.019330 -1.347549 -1.330521
C  0.976668 0.323473 0.003530
H  0.542233 1.331680 0.036323
C  0.404591 -0.554118 1.126603
H  1.079200 -1.413039 1.216578
C  0.347978 0.106939 2.504004
H  -0.023956 -0.628609 3.219176
H  1.359006 0.402281 2.801652
O  -0.553861 1.218278 2.577802
H  -0.089025 2.021894 2.325789
O  -0.885287 -1.100089 0.790866
O  2.383708 0.399124 0.201480
H  2.778463 0.633239 -0.648470
O  1.330010 0.315945 -2.417049
H  0.915935 1.170757 -2.588214
O  -1.264152 -1.502318 -2.351676
H  -0.771927 -1.479324 -3.179476
24
17 zpe= -687.193176 src= /lustre/lwork/pjhsu/sugar_opt/pj_sugar/beta_glucose/1S3.xyz:315 moment= 2.423344 0.749687 -0.245599 3.073208 2.531874 0.959187 -0.580589 3.603483 4.047377 1.816743 -0.250267 2.352271 3.873290 1.813160 -0.283512 2.142589
H -2.970375 -0.178461 0.617281
O  -2.398152 0.109368 -0.103452
C  -1.498278 -0.945745 -0.394898
H  -2.031711 -1.868146 -0.633401
C  -0.683221 -0.510992 -1.632598
H  -1.157803 0.387204 -2.042819
C  0.747356 -0.153412 -1.241986
H  1.322544 -1.075410 -1.103106
C  0.699805 0.621253 0.072134
H  -0.029797 1.435535 -0.020320
C  0.279561 -0.341858 1.189309
H  1.156714 -0.943268 1.450557
C  -0.189925 0.372245 2.461186
H  -0.957746 1.117445 2.210885
H  -0.635066 -0.365792 3.131358
O  0.894575 0.965443 3.163762
H  1.469330 1.400405 2.520542
O  -0.707789 -1.285689 0.726394
O  1.971180 1.167938 0.440747
H  2.172251 1.882843 -0.173869
O  1.316910 0.621939 -2.304656
H  2.254935 0.419917 -2.368241
O  -0.729643 -1.570329 -2.580737
H  -0.295653 -1.262433 -3.384072
24
18 zpe= -687.193107 src= /lustre/lwork/pjhsu/sugar_opt/pj_sugar/beta_glucose/1S3.xyz:324 moment= 2.419067 0.722925 -0.157204 3.162425 2.589041 1.016337 -0.484039 3.139871 3.982820 1.771841 -0.273290 2.371803 3.936228 1.814429 -0.357541 2.185897
H -2.889046 0.014533 0.063586
O  -2.165896 0.355478 -0.474776
C  -1.271216 -0.710264 -0.747149
H  -1.789083 -1.557827 -1.201173
C  -0.234529 -0.168642 -1.754021
H  -0.642738 0.769935 -2.154218
C  1.101413 0.123827 -1.072536
H  1.674783 -0.803750 -0.997300
C  0.877618 0.677989 0.332477
H  0.225792 1.563549 0.273274
C  0.218213 -0.408574 1.190527
H  1.007717 -1.092499 1.512797
C  -0.489220 0.134646 2.426557
H  0.232955 0.674440 3.042447
H  -1.279183 0.834673 2.124490
O  -1.015135 -0.912915 3.229828
H  -1.480369 -1.519311 2.641666
O  -0.696128 -1.240563 0.427779
O  2.104233 1.026575 0.958236
H  2.669351 1.423878 0.283537
O  1.923532 0.995519 -1.860455
H  1.420488 1.792683 -2.069783
O  -0.105600 -1.128270 -2.794475
H  0.604047 -0.845108 -3.382312
24
19 zpe= -687.193074 src= /lustre/lwork/pjhsu/sugar_opt/pj_sugar/beta_glucose/1S3.xyz:351 moment= 2.421942 0.752902 -0.043012 3.260978 2.557358 0.993130 -0.435429 3.532050 4.186057 1.837915 -0.385083 2.387270 4.117162 1.797147 -0.383512 2.443234
H -1.694340 -0.188968 1.573454
O  -2.032847 0.040104 0.693446
C  -1.459207 -0.839851 -0.252040
H  -2.146619 -1.657412 -0.491963
C  -1.163636 -0.017931 -1.525636
H  -1.887052 0.801444 -1.564559
C  0.241243 0.584921 -1.477526
H  0.906593 -0.101302 -2.018791
C  0.758255 0.706726 -0.042041
H  0.102908 1.365306 0.529856
C  0.825693 -0.695089 0.585654
H  1.694794 -1.194224 0.141911
C  1.035680 -0.707787 2.093318
H  1.112926 -1.749900 2.420394
H  1.972352 -0.189015 2.327245
O  -0.072677 -0.063048 2.738353
H  -0.017530 -0.211513 3.686744
O  -0.317115 -1.503335 0.253858
O  2.090113 1.246747 -0.075399
H  2.104404 2.066952 0.423927
O  0.215185 1.850067 -2.126387
H  1.127445 2.151197 -2.202491
O  -1.241345 -0.823855 -2.700959
H  -2.157222 -0.869236 -2.990371
24
20 zpe= -687.193023 src= /lustre/lwork/pjhsu/sugar_opt/pj_sugar/beta_glucose/1S3.xyz:354 moment= 2.432210 0.764838 -0.095328 3.152641 2.550277 0.978392 -0.558871 3.387837 4.206505 1.914375 -0.339083 2.156039 4.052094 1.846365 -0.163556 2.394097
H -3.015174 0.505018 -0.313766
O  -2.302777 0.290583 0.298711
C  -1.586704 -0.843920 -0.193370
H  -2.254472 -1.699131 -0.324197
C  -0.909247 -0.535946 -1.554071
H  -1.359517 0.374625 -1.970141
C  0.581974 -0.266696 -1.380786
H  1.103059 -1.229208 -1.284541
C  0.805096 0.534374 -0.106395
H  0.193499 1.445241 -0.139302
C  0.404091 -0.337627 1.098093
H  1.254411 -0.993490 1.313943
C  0.087940 0.498666 2.341076
H  -0.739276 1.177657 2.135202
H  -0.200744 -0.155163 3.168797
O  1.225347 1.311410 2.687291
H  1.786852 0.822011 3.295853
O  -0.685180 -1.231734 0.800966
O  2.185349 0.888248 -0.057325
H  2.313719 1.409788 0.746374
O  1.038076 0.417920 -2.541376
H  1.930739 0.734477 -2.354414
O  -1.160254 -1.639515 -2.417511
H  -0.696807 -1.476590 -3.247108
24
21 zpe= -687.192996 src= /lustre/lwork/pjhsu/sugar_opt/pj_sugar/beta_glucose/1S3.xyz:381 moment= 2.409211 0.731094 -0.046981 3.464281 2.558831 0.993747 -0.448596 3.507972 4.119911 1.781946 -0.451748 2.424593 4.101075 1.784862 -0.396333 2.442463
H -1.934527 0.716908 0.948357
O  -2.011789 0.615644 -0.015205
C  -1.475730 -0.639388 -0.380028
H  -2.278681 -1.366511 -0.547554
C  -0.679403 -0.431367 -1.688990
H  -1.170073 0.391405 -2.224625
C  0.778623 -0.053685 -1.393260
H  1.376878 -0.963519 -1.487658
C  0.963993 0.497540 0.022889
H  0.392739 1.425863 0.135717
C  0.497863 -0.544104 1.048966
H  1.280782 -1.308089 1.098021
C  0.321927 0.006405 2.457254
H  0.065919 -0.822771 3.125242
H  1.266996 0.456564 2.778856
O  -0.728886 0.985036 2.455995
H  -0.908741 1.261624 3.358922
O  -0.705419 -1.224764 0.644974
O  2.341202 0.745122 0.288705
H  2.702135 1.181710 -0.493574
O  1.341832 0.853900 -2.345866
H  0.739968 1.598975 -2.457074
O  -0.648557 -1.604989 -2.493797
H  -1.531050 -1.776509 -2.838268
24
22 zpe= -687.192977 src= /lustre/lwork/pjhsu/sugar_opt/pj_sugar/beta_glucose/1S3.xyz:387 moment= 2.412140 0.731045 -0.250414 3.445905 2.523847 0.959036 -0.547604 3.602757 4.065950 1.813827 -0.276717 2.379874 3.820799 1.792471 -0.251551 2.153046
H -2.953453 -0.061098 0.670890
O  -2.385877 0.101480 -0.091349
C  -1.502552 -0.997789 -0.223103
H  -2.046044 -1.943285 -0.272698
C  -0.730292 -0.798451 -1.542558
H  -1.233853 -0.006634 -2.106441
C  0.705688 -0.346059 -1.283348
H  1.307806 -1.231623 -1.028299
C  0.721519 0.623624 -0.105951
H  0.034950 1.448736 -0.315269
C  0.309267 -0.119735 1.175067
H  1.187109 -0.666682 1.544365
C  -0.152769 0.815484 2.299615
H  -0.966880 1.457190 1.939460
H  -0.531503 0.209231 3.124069
O  0.922120 1.584657 2.825846
H  1.311907 2.100590 2.109740
O  -0.673959 -1.138395 0.916416
O  2.002846 1.255315 0.040954
H  2.624361 0.616844 0.413512
O  1.197106 0.248222 -2.477353
H  1.977392 0.768535 -2.248405
O  -0.781057 -2.027131 -2.259168
H  -0.342831 -1.893027 -3.106993
24
23 zpe= -687.192969 src= /lustre/lwork/pjhsu/sugar_opt/pj_sugar/beta_glucose/1S3.xyz:405 moment= 2.412915 0.733500 -0.283172 3.561792 2.531665 0.951776 -0.661810 3.554893 4.132212 1.835921 -0.447990 2.146315 3.683488 1.713583 -0.162622 2.285276
H -2.501518 0.065895 1.591972
O  -2.092769 0.526780 0.850852
C  -1.765900 -0.427700 -0.141151
H  -2.619910 -1.071361 -0.363566
C  -1.370039 0.330278 -1.425622
H  -1.916385 1.273024 -1.442022
C  0.135054 0.637914 -1.464089
H  0.635834 -0.156850 -2.041325
C  0.741254 0.621314 -0.065213
H  0.259391 1.393111 0.545132
C  0.541069 -0.765657 0.569362
H  1.263486 -1.444080 0.100105
C  0.776540 -0.755920 2.083504
H  0.095383 -0.047635 2.558323
H  0.583032 -1.751285 2.495293
O  2.104384 -0.310186 2.400193
H  2.708244 -1.057769 2.348238
O  -0.760743 -1.327732 0.300557
O  2.129359 0.916889 -0.216711
H  2.521584 0.910989 0.666997
O  0.333307 1.887914 -2.100518
H  1.266406 2.112977 -1.996284
O  -1.805069 -0.385031 -2.576347
H  -1.261998 -1.174880 -2.676683
24
24 zpe= -687.192807 src= /lustre/lwork/pjhsu/sugar_opt/pj_sugar/beta_glucose/1S3.xyz:411 moment= 2.388472 0.700457 -0.253167 4.080093 2.520118 0.943067 -0.629304 3.781409 4.063212 1.784277 -0.347335 2.395768 3.621683 1.654197 -0.151523 2.272029
H -2.139498 1.208374 0.584569
O  -1.962847 0.970979 -0.338589
C  -1.646527 -0.403665 -0.383907
H  -2.541246 -1.024224 -0.474583
C  -0.749611 -0.611119 -1.616066
H  -0.943670 0.217519 -2.303768
C  0.732268 -0.569396 -1.224829
H  1.030198 -1.594896 -0.953157
C  0.959548 0.327768 -0.006939
H  0.616599 1.337307 -0.240011
C  0.209903 -0.265703 1.197923
H  0.813707 -1.110710 1.563357
C  0.035663 0.676740 2.393206
H  -0.446918 0.117815 3.196638
H  1.023099 1.000319 2.741595
O  -0.809472 1.799482 2.141340
H  -0.308266 2.479391 1.679698
O  -1.050165 -0.844148 0.826316
O  2.356747 0.473891 0.272740
H  2.698617 -0.365142 0.606295
O  1.477353 -0.132147 -2.354005
H  2.363071 0.102064 -2.049862
O  -1.103684 -1.853160 -2.215989
H  -0.616865 -1.935340 -3.042969
24
25 zpe= -687.192739 src= /lustre/lwork/pjhsu/sugar_opt/pj_sugar/beta_glucose/1S3.xyz:413 moment= 2.370595 0.670645 -0.394221 4.645422 2.513384 0.922756 -0.759098 3.913039 3.730852 1.621727 -0.405937 2.318032 3.642733 1.498617 -0.474735 2.744890
H -2.166804 -0.303692 0.918958
O  -2.106053 -0.257902 -0.049948
C  -1.123897 -1.173325 -0.477915
H  -1.566123 -2.144385 -0.720106
C  -0.453706 -0.587277 -1.737943
H  -1.216698 -0.009657 -2.266007
C  0.723383 0.331421 -1.347199
H  1.650664 -0.246787 -1.420187
C  0.613869 0.834440 0.096272
H  -0.303930 1.425635 0.198227
C  0.599518 -0.366712 1.051145
H  1.632450 -0.727230 1.114552
C  0.151895 -0.053913 2.478686
H  0.213316 -0.971877 3.065720
H  0.831483 0.685195 2.913365
O  -1.209989 0.386228 2.570542
H  -1.238111 1.345523 2.505316
O  -0.174217 -1.469330 0.530475
O  1.740815 1.630971 0.445181
H  1.907027 2.221242 -0.301541
O  0.919911 1.433160 -2.236417
H  0.062650 1.805676 -2.471204
O  -0.061449 -1.604428 -2.648443
H  0.574997 -2.182977 -2.212531
24
26 zpe= -687.192686 src= /lustre/lwork/pjhsu/sugar_opt/pj_sugar/beta_glucose/1S3.xyz:419 moment= 2.410018 0.739249 -0.076419 3.497225 2.546125 0.974884 -0.539035 3.495714 4.140611 1.807520 -0.391580 2.463606 4.087977 1.823616 -0.258076 2.436565
H -1.847284 1.173026 1.012019
O  -1.941054 1.066376 0.052550
C  -1.687893 -0.279751 -0.280426
H  -2.613241 -0.854827 -0.366412
C  -0.959907 -0.274419 -1.634967
H  -1.234926 0.653186 -2.145103
C  0.561854 -0.279608 -1.439001
H  0.883220 -1.334353 -1.428411
C  0.965873 0.343774 -0.101921
H  0.630958 1.379637 -0.052063
C  0.359776 -0.494551 1.037616
H  0.969617 -1.406003 1.125416
C  0.395252 0.170195 2.409109
H  0.035950 -0.552473 3.150041
H  1.431872 0.440873 2.641383
O  -0.438769 1.333201 2.402138
H  -0.473362 1.705880 3.287815
O  -0.966153 -0.955023 0.740334
O  2.392680 0.411047 0.014465
H  2.744140 -0.486731 0.068697
O  1.158613 0.392901 -2.540935
H  2.072482 0.592668 -2.302386
O  -1.401258 -1.406764 -2.379890
H  -1.040442 -1.338265 -3.270070
24
27 zpe= -687.192545 src= /lustre/lwork/pjhsu/sugar_opt/pj_sugar/beta_glucose/1S3.xyz:421 moment= 2.389790 0.699749 -0.191944 3.953472 2.533540 0.963578 -0.515419 3.807279 4.088594 1.765727 -0.438336 2.431789 3.659469 1.670348 -0.184391 2.239639
H -2.140726 0.147019 0.941722
O  -2.110623 -0.013167 -0.016463
C  -1.228237 -1.092072 -0.254643
H  -1.781732 -2.034138 -0.338505
C  -0.497700 -0.796171 -1.586945
H  -1.179333 -0.176622 -2.184881
C  0.806232 -0.028788 -1.336516
H  1.618047 -0.759907 -1.301514
C  0.776406 0.724971 -0.004103
H  -0.049365 1.447943 -0.025114
C  0.592102 -0.272720 1.145711
H  1.558738 -0.768044 1.289351
C  0.203916 0.355997 2.483152
H  0.132954 -0.438057 3.228402
H  0.983600 1.058293 2.792387
O  -1.081117 0.994857 2.457432
H  -0.968638 1.923158 2.232409
O  -0.347036 -1.316873 0.820137
O  2.003728 1.407234 0.224880
H  2.271142 1.790846 -0.620808
O  1.162525 0.865287 -2.395042
H  0.383892 1.371979 -2.652697
O  -0.152268 -1.983272 -2.289590
H  -0.954508 -2.407751 -2.610759
24
28 zpe= -687.192511 src= /lustre/lwork/pjhsu/sugar_opt/pj_sugar/beta_glucose/1S3.xyz:424 moment= 2.376728 0.667046 -0.421346 4.825697 2.518917 0.936639 -0.689268 3.747081 3.707546 1.597232 -0.454666 2.331220 3.737315 1.515436 -0.661784 2.682671
H -2.533710 1.380578 -0.358265
O  -1.928786 0.910683 0.226488
C  -1.605667 -0.374225 -0.329267
H  -2.522388 -0.937143 -0.523209
C  -0.808711 -0.251718 -1.651392
H  -1.117951 0.654738 -2.176257
C  0.702674 -0.154663 -1.390032
H  1.130223 -1.167345 -1.469124
C  0.992673 0.352801 0.020475
H  0.580897 1.356901 0.137846
C  0.385021 -0.604602 1.057207
H  1.021067 -1.494480 1.101168
C  0.296237 -0.019668 2.467881
H  -0.279421 -0.721590 3.084860
H  1.304000 0.043196 2.888254
O  -0.244423 1.288774 2.528789
H  -1.065251 1.302130 2.014623
O  -0.921485 -1.096717 0.644591
O  2.418269 0.397062 0.165135
H  2.648634 1.116516 0.760619
O  1.280546 0.687658 -2.372348
H  2.211357 0.792675 -2.138864
O  -1.144036 -1.320145 -2.528469
H  -0.800768 -2.143417 -2.162708
24
29 zpe= -687.192404 src= /lustre/lwork/pjhsu/sugar_opt/pj_sugar/beta_glucose/1S3.xyz:442 moment= 2.410634 0.728012 -0.269744 3.441549 2.521977 0.950795 -0.597129 3.664800 4.005601 1.789952 -0.248348 2.380918 3.877721 1.808326 -0.311039 2.122101
H -2.844737 0.404894 0.698967
O  -2.273269 0.522126 -0.068754
C  -1.616839 -0.711303 -0.316019
H  -2.334832 -1.515588 -0.489985
C  -0.779377 -0.512190 -1.597723
H  -1.190107 0.372174 -2.104800
C  0.693435 -0.252595 -1.268298
H  1.212817 -1.209579 -1.172149
C  0.806977 0.503960 0.050170
H  0.202612 1.420951 -0.003889
C  0.296921 -0.391970 1.187573
H  1.074546 -1.135371 1.388409
C  0.032314 0.378175 2.485343
H  -0.629990 1.231896 2.281450
H  -0.474773 -0.286312 3.187582
O  1.235574 0.797264 3.112758
H  1.821308 1.169558 2.440602
O  -0.873379 -1.143647 0.798879
O  2.158691 0.844560 0.352367
H  2.583159 1.124505 -0.469009
O  1.376469 0.428515 -2.329175
H  0.868308 1.211991 -2.573972
O  -0.955760 -1.666335 -2.407496
H  -0.389070 -1.585681 -3.182830
24
30 zpe= -687.191993 src= /lustre/lwork/pjhsu/sugar_opt/pj_sugar/beta_glucose/1S3.xyz:451 moment= 2.433070 0.745099 -0.040869 3.016732 2.617440 1.041311 -0.467188 2.965827 4.194598 1.826534 -0.456055 2.416474 3.910637 1.768122 -0.156655 2.424634
H -2.895713 -0.253319 0.221515
O  -2.287698 0.135002 -0.419919
C  -1.269222 -0.808819 -0.680092
H  -1.694457 -1.735723 -1.079108
C  -0.318353 -0.182584 -1.729508
H  -0.738597 0.773845 -2.043107
C  1.067537 0.054177 -1.131749
H  1.583922 -0.910490 -1.014968
C  0.941763 0.702523 0.240162
H  0.384738 1.643227 0.120190
C  0.195377 -0.246511 1.195922
H  0.957621 -0.849291 1.699349
C  -0.597877 0.533446 2.247713
H  0.108734 1.194110 2.768265
H  -1.350632 1.155683 1.763860
O  -1.306345 -0.291626 3.162493
H  -0.681651 -0.860522 3.624262
O  -0.600486 -1.221474 0.492529
O  2.213491 0.972777 0.816596
H  2.722026 1.473028 0.166369
O  1.851630 0.925288 -1.940516
H  1.843332 0.589912 -2.844432
O  -0.223772 -0.954266 -2.927923
H  0.092626 -1.838396 -2.706898
24
31 zpe= -687.191889 src= /lustre/lwork/pjhsu/sugar_opt/pj_sugar/beta_glucose/1S3.xyz:480 moment= 2.402607 0.702476 -0.341720 3.652667 2.559948 0.984968 -0.550882 3.336009 3.869688 1.726127 -0.491616 2.257975 3.817576 1.617698 -0.440271 2.580989
H -2.811320 0.434334 0.059710
O  -2.068779 0.519004 -0.548687
C  -1.389135 -0.720347 -0.609156
H  -2.084984 -1.543081 -0.789070
C  -0.381549 -0.654867 -1.771770
H  -0.803103 -0.024492 -2.554354
C  0.958612 -0.046520 -1.323512
H  1.655032 -0.873150 -1.111828
C  0.816923 0.754644 -0.029243
H  0.146681 1.601050 -0.202672
C  0.285054 -0.157991 1.085691
H  1.103967 -0.811863 1.400780
C  -0.232773 0.596130 2.306422
H  0.573966 1.191391 2.741543
H  -1.040112 1.275990 2.001665
O  -0.669703 -0.290714 3.324357
H  -1.240706 -0.945168 2.904027
O  -0.763137 -1.052343 0.620341
O  2.129636 1.226172 0.309167
H  2.066762 2.101522 0.700582
O  1.469448 0.753713 -2.374748
H  2.301025 1.132022 -2.064064
O  -0.220051 -1.940324 -2.358443
H  0.199245 -2.525110 -1.716736
24
32 zpe= -687.191594 src= /lustre/lwork/pjhsu/sugar_opt/pj_sugar/beta_glucose/1S3.xyz:485 moment= 2.404646 0.705189 -0.257894 3.425947 2.576542 0.998207 -0.543963 3.245857 3.916093 1.773732 -0.445651 2.190550 3.722922 1.613859 -0.242121 2.628963
H -2.612459 0.086590 1.083918
O  -2.164674 0.280826 0.252676
C  -1.381524 -0.841547 -0.112434
H  -1.987771 -1.750432 -0.141991
C  -0.831041 -0.565037 -1.533517
H  -1.514157 0.152893 -1.995344
C  0.581087 0.032120 -1.468567
H  1.313719 -0.783076 -1.468533
C  0.786474 0.827593 -0.176347
H  0.024964 1.616982 -0.109157
C  0.675137 -0.125296 1.017823
H  1.605188 -0.697769 1.072495
C  0.462088 0.581611 2.350832
H  1.296709 1.261440 2.531364
H  -0.462922 1.172178 2.313738
O  0.437333 -0.338927 3.433119
H  -0.166915 -1.050484 3.191069
O  -0.367127 -1.124587 0.829304
O  2.084918 1.401130 -0.136374
H  2.259078 1.763643 -1.014908
O  0.922351 0.822695 -2.607087
H  0.157430 1.344294 -2.874888
O  -0.898970 -1.720041 -2.355860
H  -0.219915 -2.345796 -2.079329
24
33 zpe= -687.191495 src= /lustre/lwork/pjhsu/sugar_opt/pj_sugar/beta_glucose/1S3.xyz:488 moment= 2.411830 0.738437 -0.049196 3.525569 2.552647 0.993060 -0.425345 3.517158 4.156757 1.807588 -0.415367 2.445364 4.125606 1.788173 -0.433064 2.440783
H -2.018873 0.895378 0.797562
O  -2.029661 0.734713 -0.159503
C  -1.546105 -0.566831 -0.404108
H  -2.370783 -1.278225 -0.520484
C  -0.717217 -0.510606 -1.703337
H  -1.150513 0.265699 -2.339662
C  0.740639 -0.132295 -1.417933
H  1.312765 -1.074488 -1.425233
C  0.922009 0.518979 -0.044918
H  0.406932 1.478474 -0.020129
C  0.397366 -0.416287 1.058603
H  1.143772 -1.211538 1.197885
C  0.223166 0.257270 2.415015
H  -0.064330 -0.505977 3.146314
H  1.178016 0.704936 2.712961
O  -0.794228 1.260767 2.316045
H  -0.961954 1.632804 3.186521
O  -0.817238 -1.088035 0.692829
O  2.301652 0.838133 0.177257
H  2.810186 0.017598 0.203979
O  1.203759 0.723449 -2.452817
H  2.047615 1.093927 -2.166310
O  -0.703053 -1.772721 -2.370518
H  -1.513919 -1.868125 -2.879020
24
34 zpe= -687.191402 src= /lustre/lwork/pjhsu/sugar_opt/pj_sugar/beta_glucose/1S3.xyz:490 moment= 2.392219 0.704380 -0.197239 4.092824 2.526469 0.962271 -0.490259 3.825177 4.146264 1.785327 -0.470759 2.436553 3.625859 1.660938 -0.142865 2.272189
H -1.768325 -0.597003 1.564899
O  -2.013700 -0.077753 0.782901
C  -1.497287 -0.731376 -0.356929
H  -2.212313 -1.457988 -0.756340
C  -1.209567 0.355256 -1.413308
H  -1.922966 1.169086 -1.257459
C  0.204093 0.925737 -1.253273
H  0.838687 0.403667 -1.987191
C  0.777694 0.668623 0.142366
H  0.174933 1.210100 0.872323
C  0.800867 -0.838563 0.442885
H  1.647677 -1.270335 -0.111537
C  1.016801 -1.194127 1.916579
H  1.055136 -2.281363 2.002329
H  1.974806 -0.784299 2.253339
O  -0.049103 -0.768954 2.770396
H  0.110702 0.137271 3.051791
O  -0.363455 -1.519564 -0.050218
O  2.088728 1.233810 0.264710
H  2.692802 0.749377 -0.312074
O  0.169469 2.316129 -1.540065
H  1.021211 2.688031 -1.280189
O  -1.307295 -0.165945 -2.737759
H  -2.230595 -0.170819 -3.007178
24
35 zpe= -687.191314 src= /lustre/lwork/pjhsu/sugar_opt/pj_sugar/beta_glucose/1S3.xyz:494 moment= 2.449615 0.787801 0.155593 3.324418 2.616426 1.051256 -0.387808 3.025315 4.545537 1.989933 -0.509847 2.418768 3.948674 1.808789 -0.067448 2.542404
H -2.779185 -0.469345 0.598456
O  -2.258759 -0.273379 -0.189719
C  -1.165032 -1.173033 -0.219308
H  -1.518377 -2.208750 -0.203755
C  -0.397601 -0.915092 -1.538037
H  -1.022034 -0.289597 -2.176662
C  0.920829 -0.189256 -1.267474
H  1.668374 -0.915496 -0.914534
C  0.729582 0.862175 -0.183223
H  -0.080201 1.537119 -0.494885
C  0.371583 0.162845 1.137830
H  1.306490 -0.147672 1.610411
C  -0.345188 1.107740 2.091690
H  0.261063 2.020143 2.157102
H  -1.330059 1.369468 1.688054
O  -0.460044 0.474771 3.363932
H  -0.788932 1.117471 3.998719
O  -0.350766 -1.070993 0.926333
O  1.917811 1.609900 0.040897
H  2.233509 1.905168 -0.822207
O  1.412473 0.479605 -2.425913
H  1.506325 -0.164850 -3.136242
O  -0.175378 -2.109037 -2.289041
H  0.342517 -2.721905 -1.753426
24
36 zpe= -687.191286 src= /lustre/lwork/pjhsu/sugar_opt/pj_sugar/beta_glucose/1S3.xyz:509 moment= 2.416616 0.744544 -0.131016 3.706531 2.535206 0.957463 -0.638023 3.511999 4.313045 1.902013 -0.470013 2.258415 3.673167 1.729569 -0.070822 2.395022
H -2.840250 0.412476 -0.690734
O  -2.209814 0.272613 0.024483
C  -1.508909 -0.950308 -0.202661
H  -2.200401 -1.797678 -0.190345
C  -0.750426 -0.948328 -1.552473
H  -1.317510 -0.366674 -2.282822
C  0.641615 -0.311865 -1.413723
H  1.372986 -1.120879 -1.259071
C  0.727722 0.604794 -0.197617
H  0.026356 1.437116 -0.321699
C  0.394243 -0.187172 1.079096
H  1.286568 -0.759161 1.350880
C  0.008392 0.716671 2.248540
H  -0.909275 1.257883 2.002090
H  -0.162661 0.104024 3.139781
O  1.105955 1.623927 2.453491
H  0.872069 2.259719 3.135445
O  -0.651281 -1.163052 0.883311
O  2.065168 1.098570 -0.158787
H  2.147503 1.636003 0.641209
O  0.947515 0.388413 -2.608836
H  1.774577 0.861865 -2.453445
O  -0.697000 -2.264321 -2.091602
H  -0.125142 -2.804640 -1.534507
24
37 zpe= -687.191114 src= /lustre/lwork/pjhsu/sugar_opt/pj_sugar/beta_glucose/1S3.xyz:521 moment= 2.418820 0.725397 -0.166529 3.024824 2.600083 1.017463 -0.532542 3.107701 3.947794 1.796645 -0.433066 2.206529 3.923923 1.731171 -0.230714 2.510657
H -2.738118 1.148928 -0.007618
O  -1.990426 0.780668 0.475897
C  -1.537821 -0.400268 -0.184028
H  -2.375901 -1.080471 -0.368514
C  -0.853927 -0.069274 -1.537828
H  -1.235631 0.887692 -1.899529
C  0.667319 0.046512 -1.375728
H  1.110153 -0.955124 -1.477159
C  1.032625 0.575387 0.006684
H  0.550281 1.550671 0.153157
C  0.554982 -0.425705 1.065980
H  1.287660 -1.235090 1.113663
C  0.407022 0.183240 2.456881
H  1.373436 0.585099 2.767796
H  -0.323776 0.998815 2.427119
O  0.041493 -0.796220 3.418719
H  -0.772458 -1.209272 3.108068
O  -0.684557 -1.087151 0.681609
O  2.439667 0.700687 0.158215
H  2.762018 1.210443 -0.595144
O  1.250374 0.926760 -2.334368
H  1.125830 0.557084 -3.215055
O  -1.197079 -1.009704 -2.555384
H  -0.894166 -1.884707 -2.284433
24
38 zpe= -687.190949 src= /lustre/lwork/pjhsu/sugar_opt/pj_sugar/beta_glucose/1S3.xyz:527 moment= 2.424567 0.730131 -0.129487 3.141261 2.594694 1.032714 -0.388552 3.176381 4.086119 1.761731 -0.433030 2.456809 3.696182 1.658503 -0.233734 2.324811
H -2.708398 0.163124 0.598255
O  -2.162280 0.208557 -0.194965
C  -1.292491 -0.914609 -0.204062
H  -1.864031 -1.847867 -0.189701
C  -0.487310 -0.830653 -1.525846
H  -1.087867 -0.226339 -2.217323
C  0.870876 -0.157881 -1.313214
H  1.604575 -0.940990 -1.105860
C  0.836508 0.805823 -0.125925
H  0.065171 1.570200 -0.300541
C  0.526015 0.027193 1.154081
H  1.426316 -0.526508 1.434327
C  0.112969 0.915234 2.321409
H  0.917316 1.620235 2.538030
H  -0.784405 1.487953 2.048597
O  -0.105632 0.159566 3.504560
H  -0.667077 -0.587987 3.267878
O  -0.495582 -0.988382 0.951724
O  2.099564 1.428831 0.057475
H  2.443046 1.632802 -0.822263
O  1.363680 0.505923 -2.479217
H  0.668303 1.068585 -2.839522
O  -0.239165 -2.118991 -2.073079
H  -1.042102 -2.453818 -2.484817
24
39 zpe= -687.190757 src= /lustre/lwork/pjhsu/sugar_opt/pj_sugar/beta_glucose/1S3.xyz:528 moment= 2.405568 0.727364 -0.265969 3.440998 2.519962 0.951777 -0.575878 3.661123 4.017548 1.799663 -0.252173 2.363571 3.843593 1.796608 -0.279296 2.141015
H -2.807333 -0.321743 1.018572
O  -2.357539 0.000426 0.228909
C  -1.474737 -1.014552 -0.217785
H  -2.003112 -1.954048 -0.391804
C  -0.871734 -0.525564 -1.551633
H  -1.467885 0.334422 -1.882516
C  0.580132 -0.066231 -1.372754
H  1.216789 -0.957458 -1.343589
C  0.682709 0.675890 -0.041449
H  -0.102921 1.437476 0.011637
C  0.486698 -0.348140 1.093756
H  1.423253 -0.908775 1.201049
C  0.181124 0.305158 2.446632
H  -0.674480 0.987062 2.345473
H  -0.088266 -0.477169 3.158583
O  1.315038 0.973135 2.982614
H  1.680991 1.545215 2.295534
O  -0.509378 -1.336814 0.763098
O  1.896463 1.408581 0.129207
H  2.642903 0.863534 -0.147992
O  1.038324 0.672398 -2.500843
H  0.746150 1.588330 -2.424522
O  -0.974053 -1.585837 -2.490866
H  -0.560135 -1.293295 -3.311310
24
40 zpe= -687.190554 src= /lustre/lwork/pjhsu/sugar_opt/pj_sugar/beta_glucose/1S3.xyz:534 moment= 2.417437 0.738232 -0.212283 3.507291 2.526280 0.970209 -0.450610 3.711126 4.174950 1.835353 -0.356256 2.441267 3.838744 1.809943 -0.243882 2.130109
H -2.490151 -0.480032 1.433431
O  -2.208158 0.070887 0.693989
C  -1.596013 -0.768845 -0.271660
H  -2.284690 -1.550222 -0.605059
C  -1.224102 0.127822 -1.472802
H  -1.932731 0.959451 -1.498005
C  0.183933 0.715031 -1.334264
H  0.854787 0.080780 -1.934736
C  0.660122 0.684764 0.115749
H  0.009257 1.317823 0.721738
C  0.668551 -0.753958 0.651906
H  1.513111 -1.285435 0.192248
C  0.837241 -0.833212 2.174202
H  0.055303 -0.232839 2.659687
H  0.709136 -1.871901 2.483162
O  2.133426 -0.439087 2.600979
H  2.298762 0.454860 2.275988
O  -0.511195 -1.489087 0.270098
O  1.961866 1.283837 0.235452
H  2.605999 0.716099 -0.207729
O  0.171646 2.038752 -1.847938
H  1.003890 2.457644 -1.596344
O  -1.263622 -0.615497 -2.689478
H  -2.154371 -0.586636 -3.050611
24
41 zpe= -687.190454 src= /lustre/lwork/pjhsu/sugar_opt/pj_sugar/beta_glucose/1S3.xyz:535 moment= 2.410462 0.733087 -0.246032 3.606942 2.527538 0.946837 -0.676841 3.598464 4.164143 1.858412 -0.445002 2.110854 3.654409 1.698320 -0.141758 2.319255
H -2.894653 0.061471 -0.742353
O  -2.254569 -0.050148 -0.030699
C  -1.370637 -1.121119 -0.356924
H  -1.922577 -2.060498 -0.454220
C  -0.592645 -0.863424 -1.669017
H  -1.239386 -0.336733 -2.374250
C  0.654066 0.006029 -1.426677
H  1.526712 -0.662200 -1.358043
C  0.566745 0.767672 -0.108611
H  -0.272958 1.468812 -0.153314
C  0.371722 -0.216789 1.057931
H  1.345822 -0.674139 1.265592
C  -0.142722 0.476244 2.323463
H  -1.101904 0.951432 2.117184
H  -0.286996 -0.260736 3.118782
O  0.760467 1.517747 2.734631
H  1.432015 1.141964 3.312039
O  -0.509993 -1.313587 0.731111
O  1.791368 1.488109 0.029252
H  1.735117 1.982922 0.858316
O  0.814146 0.891606 -2.523600
H  1.537349 1.490862 -2.299874
O  -0.280831 -2.097805 -2.305176
H  0.334344 -2.586691 -1.746544
24
42 zpe= -687.190345 src= /lustre/lwork/pjhsu/sugar_opt/pj_sugar/beta_glucose/1S3.xyz:538 moment= 2.438117 0.749332 -0.059655 2.732078 2.623638 1.054478 -0.393228 3.017374 4.052197 1.770075 -0.358676 2.385755 3.720132 1.685453 -0.208739 2.275896
H -2.876677 0.526328 0.110050
O  -2.088131 0.259626 0.595040
C  -1.379874 -0.737301 -0.146019
H  -2.034511 -1.587134 -0.370107
C  -0.825327 -0.157099 -1.481177
H  -1.359703 0.772820 -1.710411
C  0.660316 0.166982 -1.360205
H  1.224533 -0.761813 -1.507600
C  0.976461 0.715833 0.025613
H  0.343852 1.594879 0.212944
C  0.704369 -0.374303 1.069239
H  1.578141 -1.029334 1.099429
C  0.451895 0.174967 2.469958
H  1.329015 0.743910 2.785558
H  -0.417271 0.841829 2.454156
O  0.277152 -0.869024 3.417100
H  -0.436285 -1.429959 3.091220
O  -0.384106 -1.255750 0.676529
O  2.345490 1.075612 0.140755
H  2.558020 1.621462 -0.626501
O  1.074498 1.146014 -2.313360
H  1.079123 0.739394 -3.186138
O  -0.944928 -1.076425 -2.569160
H  -1.856052 -1.101514 -2.877913
24
43 zpe= -687.189919 src= /lustre/lwork/pjhsu/sugar_opt/pj_sugar/beta_glucose/1S3.xyz:539 moment= 2.440438 0.778243 0.029295 3.358521 2.559170 0.997737 -0.442756 3.427602 4.350833 1.956218 -0.368540 2.291994 4.177262 1.892473 -0.201039 2.451085
H -2.713170 0.587199 -0.691434
O  -2.182979 0.327136 0.069816
C  -1.502572 -0.898710 -0.217240
H  -2.214458 -1.730419 -0.249621
C  -0.741265 -0.827501 -1.566971
H  -1.285956 -0.162918 -2.249445
C  0.668188 -0.260623 -1.392086
H  1.352616 -1.114722 -1.305668
C  0.791198 0.571428 -0.121024
H  0.124801 1.439064 -0.189068
C  0.426005 -0.283242 1.104783
H  1.288755 -0.917315 1.329723
C  0.092055 0.562978 2.331941
H  -0.799148 1.163042 2.126095
H  -0.106642 -0.096116 3.183364
O  1.232478 1.401647 2.588983
H  1.034224 1.996765 3.317347
O  -0.672599 -1.185894 0.864603
O  2.147220 1.007691 -0.055246
H  2.254472 1.479652 0.782218
O  0.989452 0.510964 -2.542405
H  1.849930 0.915539 -2.376473
O  -0.609382 -2.125765 -2.142008
H  -1.423222 -2.359881 -2.598183
24
44 zpe= -687.189635 src= /lustre/lwork/pjhsu/sugar_opt/pj_sugar/beta_glucose/1S3.xyz:546 moment= 2.447894 0.775660 0.191502 3.453061 2.613499 1.059370 -0.325346 2.998744 4.519374 1.983030 -0.484683 2.423453 4.008831 1.856261 -0.081239 2.459836
H -2.827864 -0.025910 0.800424
O  -2.294139 0.326646 0.078421
C  -1.474616 -0.727394 -0.400476
H  -2.078096 -1.580480 -0.718263
C  -0.708572 -0.186611 -1.627740
H  -1.061612 0.839134 -1.809301
C  0.791690 -0.151666 -1.355793
H  1.192003 -1.167666 -1.388328
C  1.062939 0.455015 0.016855
H  0.613765 1.462271 0.045543
C  0.434239 -0.431902 1.108751
H  1.194090 -1.151614 1.420125
C  0.035660 0.394559 2.325260
H  0.920945 0.971004 2.625685
H  -0.764254 1.093482 2.055459
O  -0.379523 -0.486796 3.364803
H  -0.519496 0.026334 4.165679
O  -0.635484 -1.250919 0.600867
O  2.455629 0.553871 0.284288
H  2.887145 0.839505 -0.531006
O  1.497903 0.553200 -2.388004
H  1.120003 1.438027 -2.472197
O  -1.024433 -1.015393 -2.738615
H  -0.436918 -0.777700 -3.465440
24
45 zpe= -687.189308 src= /lustre/lwork/pjhsu/sugar_opt/pj_sugar/beta_glucose/1S3.xyz:552 moment= 2.403461 0.703943 -0.304827 3.576006 2.560308 0.985905 -0.544768 3.335870 3.897241 1.736145 -0.523822 2.238324 3.800876 1.597918 -0.454371 2.668373
H -2.702929 1.065781 -0.295780
O  -2.019606 0.670253 0.256732
C  -1.532438 -0.513145 -0.374986
H  -2.352187 -1.209520 -0.574735
C  -0.801462 -0.208864 -1.700024
H  -1.319778 0.596271 -2.225090
C  0.649970 0.240879 -1.450233
H  1.307058 -0.621818 -1.637504
C  0.884917 0.672361 -0.002960
H  0.298908 1.572399 0.202150
C  0.500326 -0.463547 0.957787
H  1.299202 -1.210131 0.936792
C  0.291583 -0.002345 2.397799
H  1.212869 0.451076 2.774368
H  -0.509132 0.746244 2.425728
O  0.005323 -1.091121 3.260997
H  -0.754696 -1.553980 2.888527
O  -0.693294 -1.176878 0.527334
O  2.286057 0.965610 0.101692
H  2.426650 1.631959 0.780133
O  0.962388 1.287475 -2.355382
H  1.869728 1.559740 -2.171162
O  -0.879333 -1.331206 -2.571039
H  -0.431120 -2.076492 -2.154146
24
46 zpe= -687.18913 src= /lustre/lwork/pjhsu/sugar_opt/pj_sugar/beta_glucose/1S3.xyz:559 moment= 2.395072 0.714284 -0.120007 3.345780 2.569076 0.991711 -0.551380 3.306422 3.924842 1.789202 -0.406248 2.222794 3.900093 1.721721 -0.210854 2.535305
H -2.047030 0.944602 -0.120639
O  -2.356397 0.074827 0.154154
C  -1.378943 -0.911109 -0.104698
H  -1.920535 -1.856624 -0.103496
C  -0.681018 -0.726904 -1.480296
H  -1.275975 -0.038602 -2.084700
C  0.732205 -0.149154 -1.322100
H  1.433281 -0.972958 -1.126301
C  0.801964 0.809083 -0.139529
H  0.058050 1.610280 -0.290339
C  0.514604 0.029493 1.150016
H  1.441871 -0.471077 1.440027
C  0.060464 0.909772 2.312649
H  0.840811 1.642721 2.527389
H  -0.857486 1.449145 2.043061
O  -0.131321 0.151261 3.493782
H  -0.741105 -0.564163 3.276747
O  -0.432273 -1.046482 0.940566
O  2.086225 1.393407 -0.008230
H  2.345009 1.713503 -0.881750
O  1.151519 0.575752 -2.475514
H  1.188545 -0.026279 -3.226928
O  -0.651794 -1.933492 -2.239937
H  -0.181670 -2.607999 -1.734932
24
47 zpe= -687.189034 src= /lustre/lwork/pjhsu/sugar_opt/pj_sugar/beta_glucose/1S3.xyz:566 moment= 2.422065 0.774929 0.076277 3.539873 2.535107 0.980592 -0.432719 3.607661 4.340735 1.950489 -0.356968 2.314073 4.179090 1.888336 -0.215775 2.462423
H -2.002239 1.036315 0.013404
O  -2.325997 0.193504 0.348211
C  -1.570061 -0.880944 -0.191270
H  -2.258691 -1.722100 -0.270714
C  -0.992084 -0.549174 -1.590608
H  -1.638314 0.198524 -2.065263
C  0.423508 0.030437 -1.505432
H  1.124187 -0.792751 -1.694115
C  0.732665 0.595476 -0.122595
H  0.068013 1.450119 0.079386
C  0.546886 -0.492238 0.949069
H  1.432225 -1.134576 0.908592
C  0.414520 0.083165 2.358877
H  -0.505535 0.672865 2.428874
H  0.362085 -0.739146 3.079331
O  1.571759 0.902720 2.595566
H  1.520952 1.289317 3.474255
O  -0.581455 -1.343746 0.703174
O  2.075844 1.061135 -0.164727
H  2.310853 1.342776 0.730825
O  0.556748 1.033079 -2.504630
H  1.441490 1.407925 -2.413924
O  -0.915753 -1.717420 -2.402685
H  -1.791604 -1.924261 -2.743602
24
48 zpe= -687.18903 src= /lustre/lwork/pjhsu/sugar_opt/pj_sugar/beta_glucose/1S3.xyz:569 moment= 2.374152 0.658194 -0.422953 5.252621 2.526851 0.944584 -0.671165 3.671987 3.718565 1.604672 -0.456600 2.313304 3.700518 1.503517 -0.660167 2.648477
H -2.705814 1.091635 -0.123784
O  -2.042271 0.662539 0.427867
C  -1.569098 -0.533062 -0.205980
H  -2.399416 -1.227282 -0.360197
C  -0.905550 -0.240037 -1.574361
H  -1.356313 0.653550 -2.011022
C  0.601182 0.018986 -1.421735
H  1.120122 -0.944444 -1.578581
C  0.962270 0.511829 -0.018189
H  0.485284 1.474080 0.170636
C  0.531166 -0.511344 1.041982
H  1.268563 -1.325609 1.056314
C  0.452484 0.052049 2.463419
H  0.063217 -0.744338 3.112274
H  1.465901 0.295044 2.793827
O  -0.303814 1.238558 2.590010
H  -1.145812 1.117065 2.127583
O  -0.712628 -1.175591 0.687640
O  2.364749 0.784370 0.061287
H  2.849942 -0.049938 0.045500
O  1.009582 0.947042 -2.410527
H  1.883299 1.270854 -2.155490
O  -1.188924 -1.284480 -2.497578
H  -0.727126 -2.083475 -2.218895
24
49 zpe= -687.188884 src= /lustre/lwork/pjhsu/sugar_opt/pj_sugar/beta_glucose/1S3.xyz:573 moment= 2.412250 0.732768 -0.241423 3.335671 2.524597 0.958968 -0.549207 3.608275 4.032218 1.797887 -0.249493 2.419574 3.839639 1.805602 -0.262566 2.104023
H -3.022422 -0.381692 -0.556069
O  -2.305078 -0.302952 0.082362
C  -1.277697 -1.238622 -0.245931
H  -1.686957 -2.244267 -0.369315
C  -0.554899 -0.834948 -1.556472
H  -1.190322 -0.125413 -2.100951
C  0.765129 -0.126346 -1.256762
H  1.527373 -0.894414 -1.055576
C  0.602833 0.746777 -0.014866
H  -0.225848 1.442117 -0.173470
C  0.335523 -0.149381 1.206449
H  1.300298 -0.538798 1.557427
C  -0.316559 0.588296 2.382267
H  -1.240880 1.075269 2.053724
H  -0.570969 -0.141295 3.151933
O  0.586039 1.512934 2.983600
H  0.834321 2.174781 2.327815
O  -0.417775 -1.324327 0.851484
O  1.746009 1.591949 0.181681
H  2.463202 1.065524 0.556910
O  1.128538 0.631223 -2.403663
H  1.803718 1.266161 -2.132639
O  -0.371021 -2.017229 -2.326988
H  0.087446 -1.776345 -3.139950
24
50 zpe= -687.188559 src= /lustre/lwork/pjhsu/sugar_opt/pj_sugar/beta_glucose/1S3.xyz:615 moment= 2.393280 0.686396 -0.202285 4.341461 2.547831 0.982070 -0.468491 3.615643 4.083342 1.749732 -0.462611 2.471337 3.710018 1.679914 -0.222499 2.252276
H -2.743207 0.132329 -0.467783
O  -2.151866 -0.163624 0.232952
C  -1.189177 -1.101209 -0.275437
H  -1.673251 -2.065352 -0.458226
C  -0.541043 -0.599801 -1.592129
H  -1.244043 0.060941 -2.114074
C  0.734270 0.200766 -1.325571
H  1.571368 -0.509797 -1.411114
C  0.757690 0.810114 0.076490
H  -0.042005 1.545100 0.176140
C  0.613983 -0.276564 1.150989
H  1.586792 -0.771456 1.273636
C  0.195958 0.257529 2.523106
H  0.067578 -0.606271 3.189293
H  1.007863 0.874482 2.917013
O  -0.958103 1.074311 2.509521
H  -1.639429 0.632412 1.982275
O  -0.274030 -1.349303 0.739946
O  1.960482 1.563855 0.260497
H  2.706800 0.954039 0.315366
O  0.846390 1.209192 -2.319359
H  1.539113 1.817358 -2.031643
O  -0.182592 -1.699950 -2.425043
H  -0.950541 -1.991097 -2.925842
24
51 zpe= -687.18853 src= /lustre/lwork/pjhsu/sugar_opt/pj_sugar/beta_glucose/1S3.xyz:616 moment= 2.411624 0.742658 -0.113671 3.236903 2.533242 0.972201 -0.480750 3.663955 4.100070 1.836044 -0.254301 2.367665 3.883903 1.836651 -0.233290 2.151296
H -2.093935 0.332067 1.053413
O  -2.421932 -0.485650 0.662011
C  -1.467479 -1.020397 -0.236370
H  -1.958712 -1.887685 -0.676649
C  -1.108751 -0.016550 -1.378707
H  -1.702510 0.894201 -1.235215
C  0.363370 0.374177 -1.347970
H  0.963660 -0.447718 -1.756790
C  0.759558 0.626255 0.097663
H  0.045797 1.349140 0.528877
C  0.717988 -0.697097 0.873220
H  1.648012 -1.227774 0.648741
C  0.645098 -0.501235 2.391479
H  -0.205161 0.149588 2.649861
H  0.474255 -1.470117 2.862919
O  1.858608 0.013234 2.918580
H  2.187595 0.705125 2.329809
O  -0.335684 -1.559481 0.409894
O  2.072422 1.158214 0.222706
H  2.161787 1.864681 -0.430529
O  0.615560 1.576092 -2.071965
H  0.446848 1.410537 -3.005904
O  -1.358401 -0.553461 -2.676762
H  -2.307994 -0.585145 -2.833309
24
52 zpe= -687.188423 src= /lustre/lwork/pjhsu/sugar_opt/pj_sugar/beta_glucose/1S3.xyz:624 moment= 2.438486 0.758816 -0.019322 3.309536 2.591891 0.997661 -0.613019 3.238177 4.332491 1.942883 -0.383634 2.246517 3.811334 1.717135 -0.116225 2.524631
H -2.897608 -0.112928 0.619002
O  -2.305700 0.160234 -0.091131
C  -1.438580 -0.921625 -0.383192
H  -2.009928 -1.838229 -0.554204
C  -0.662884 -0.556869 -1.667288
H  -1.182466 0.276440 -2.140683
C  0.785155 -0.128469 -1.387108
H  1.406407 -1.030723 -1.264425
C  0.856777 0.657363 -0.086369
H  0.198017 1.533060 -0.168986
C  0.395947 -0.256839 1.075036
H  1.270682 -0.838673 1.378326
C  -0.099467 0.537838 2.283465
H  -0.967294 1.141413 1.998254
H  -0.387932 -0.158415 3.078799
O  0.985488 1.376857 2.706445
H  0.680834 1.974017 3.395505
O  -0.596414 -1.236599 0.706420
O  2.194411 1.070745 0.135277
H  2.209821 1.511031 0.995634
O  1.287314 0.662042 -2.450903
H  1.182564 0.156608 -3.265018
O  -0.696681 -1.610476 -2.631766
H  -0.210462 -2.366801 -2.282089
24
53 zpe= -687.188323 src= /lustre/lwork/pjhsu/sugar_opt/pj_sugar/beta_glucose/1S3.xyz:627 moment= 2.381629 0.687188 -0.156585 4.438298 2.533232 0.972381 -0.466601 3.702315 4.099050 1.751956 -0.486605 2.478869 3.637902 1.640170 -0.176411 2.354155
H -1.383870 1.562129 0.577534
O  -2.083735 0.897810 0.568010
C  -1.655504 -0.273452 -0.106963
H  -2.561018 -0.861675 -0.248786
C  -1.033287 0.031600 -1.495828
H  -1.369562 1.024797 -1.810228
C  0.496493 0.037949 -1.465037
H  0.822939 -0.968198 -1.771185
C  1.046310 0.315720 -0.066658
H  0.772572 1.327414 0.246836
C  0.529689 -0.718398 0.942195
H  1.113579 -1.639936 0.806251
C  0.684024 -0.275624 2.398520
H  0.406620 -1.112694 3.050159
H  1.728904 -0.020349 2.588138
O  -0.080153 0.881495 2.703584
H  -1.014020 0.652768 2.607188
O  -0.837789 -1.100033 0.698857
O  2.476143 0.345364 -0.089845
H  2.804016 -0.549858 -0.242103
O  0.957994 1.008469 -2.393291
H  1.906779 1.116364 -2.251341
O  -1.425850 -0.949890 -2.453550
H  -2.299276 -0.730774 -2.792458
24
54 zpe= -687.188322 src= /lustre/lwork/pjhsu/sugar_opt/pj_sugar/beta_glucose/1S3.xyz:628 moment= 2.419194 0.736181 -0.211899 3.333986 2.561778 0.993530 -0.505013 3.284065 4.149088 1.749114 -0.621218 2.500113 3.814189 1.620423 -0.429216 2.564010
H -2.698370 0.393095 0.877847
O  -2.167072 0.592204 0.098104
C  -1.577952 -0.614030 -0.352555
H  -2.332416 -1.392477 -0.488303
C  -0.898801 -0.334720 -1.709442
H  -1.426302 0.485215 -2.196859
C  0.569668 0.069982 -1.517602
H  1.187703 -0.840438 -1.573135
C  0.804445 0.685917 -0.137934
H  0.193115 1.587972 -0.042530
C  0.450636 -0.338978 0.955712
H  1.295686 -1.035120 1.020780
C  0.258359 0.324444 2.320300
H  1.146710 0.938925 2.527613
H  -0.609897 0.984450 2.294197
O  0.019640 -0.589774 3.379466
H  0.748402 -1.217533 3.425274
O  -0.679495 -1.158178 0.595795
O  2.197843 1.026315 -0.052500
H  2.290260 1.900450 0.335071
O  0.936889 0.964452 -2.552507
H  1.859739 1.204085 -2.404989
O  -1.037532 -1.450425 -2.580219
H  -0.531262 -2.188836 -2.222584
24
55 zpe= -687.188193 src= /lustre/lwork/pjhsu/sugar_opt/pj_sugar/beta_glucose/1S3.xyz:631 moment= 2.429807 0.739853 -0.129721 3.046698 2.586680 1.028143 -0.374076 3.215722 4.115237 1.783585 -0.421530 2.413170 3.666532 1.670153 -0.191935 2.223093
H -2.838359 0.000460 -0.368446
O  -2.111168 -0.102886 0.255228
C  -1.189075 -1.078337 -0.242372
H  -1.681201 -2.050679 -0.352277
C  -0.597799 -0.648144 -1.608645
H  -1.355737 -0.078589 -2.159757
C  0.625110 0.253431 -1.432158
H  1.512171 -0.388616 -1.512801
C  0.654100 0.918804 -0.057891
H  -0.209538 1.583741 0.039549
C  0.651363 -0.150185 1.044607
H  1.657229 -0.574672 1.104956
C  0.254089 0.389376 2.416249
H  0.956053 1.170918 2.720932
H  -0.752909 0.820306 2.358196
O  0.322492 -0.615627 3.415246
H  -0.205746 -1.359540 3.101450
O  -0.211734 -1.275389 0.729357
O  1.866806 1.684442 -0.012469
H  1.753514 2.433020 0.579677
O  0.621413 1.221107 -2.472271
H  1.397703 1.778551 -2.339981
O  -0.183297 -1.784635 -2.363485
H  -0.935481 -2.146854 -2.840895
24
56 zpe= -687.187913 src= /lustre/lwork/pjhsu/sugar_opt/pj_sugar/beta_glucose/1S3.xyz:633 moment= 2.429276 0.747357 -0.144621 3.199229 2.577505 0.979858 -0.665972 3.362719 4.162294 1.888524 -0.371451 2.085091 3.659485 1.745212 -0.069029 2.215730
H -2.825431 -0.153799 0.870428
O  -2.314114 0.088971 0.090126
C  -1.444290 -0.983665 -0.222122
H  -1.996200 -1.925178 -0.290193
C  -0.798959 -0.671414 -1.587929
H  -1.436811 0.053339 -2.094172
C  0.611191 -0.068551 -1.457811
H  1.339825 -0.891218 -1.372537
C  0.713171 0.763553 -0.188050
H  -0.044916 1.556514 -0.223852
C  0.470989 -0.158741 1.030661
H  1.416941 -0.678364 1.218211
C  0.075882 0.624633 2.288279
H  -0.826783 1.206393 2.095580
H  -0.129057 -0.074473 3.105713
O  1.088811 1.571337 2.655217
H  1.781226 1.115584 3.144633
O  -0.493212 -1.208848 0.798760
O  2.011044 1.330849 -0.102627
H  2.021575 1.877221 0.694178
O  0.923370 0.735417 -2.582302
H  0.839113 0.186010 -3.369642
O  -0.782198 -1.815271 -2.442760
H  -0.200166 -2.481298 -2.057786
24
57 zpe= -687.187731 src= /lustre/lwork/pjhsu/sugar_opt/pj_sugar/beta_glucose/1S3.xyz:635 moment= 2.437003 0.772511 0.017323 3.579321 2.576248 1.020681 -0.374287 3.274493 4.501621 1.926331 -0.615216 2.480023 3.831370 1.654318 -0.327345 2.632895
H -2.743025 0.774058 0.111731
O  -2.029187 0.756333 -0.535661
C  -1.524140 -0.568308 -0.595694
H  -2.333702 -1.286519 -0.745220
C  -0.556742 -0.653829 -1.792482
H  -0.880782 0.059247 -2.550395
C  0.877564 -0.303681 -1.370740
H  1.404000 -1.241085 -1.131190
C  0.898420 0.553633 -0.105123
H  0.378562 1.495294 -0.303834
C  0.234688 -0.216481 1.050715
H  0.952149 -0.962993 1.404351
C  -0.108237 0.688109 2.226160
H  0.761942 1.327437 2.433371
H  -0.956637 1.329751 1.960526
O  -0.405462 -0.128265 3.353435
H  -0.693642 0.432400 4.079388
O  -0.920399 -0.968321 0.617479
O  2.277799 0.809778 0.203222
H  2.379034 1.721363 0.488512
O  1.525159 0.349338 -2.448458
H  2.417418 0.565162 -2.151370
O  -0.637843 -1.932835 -2.409774
H  -0.315941 -2.597586 -1.789948
24
58 zpe= -687.187553 src= /lustre/lwork/pjhsu/sugar_opt/pj_sugar/beta_glucose/1S3.xyz:639 moment= 2.420956 0.729405 -0.142743 3.226728 2.582500 1.026751 -0.370098 3.222570 4.075371 1.744269 -0.470416 2.467919 3.667451 1.650978 -0.223135 2.269745
H -2.635845 1.064576 -0.296615
O  -2.034718 0.628038 0.317120
C  -1.496335 -0.547493 -0.291336
H  -2.287023 -1.286000 -0.465751
C  -0.796611 -0.218247 -1.632586
H  -1.340379 0.594749 -2.129123
C  0.645881 0.250510 -1.414274
H  1.288967 -0.617584 -1.624622
C  0.904363 0.700035 0.025038
H  0.322394 1.599689 0.231237
C  0.545786 -0.412906 1.017397
H  1.344818 -1.165344 1.008259
C  0.369792 0.086915 2.448435
H  1.285191 0.584905 2.774298
H  -0.454460 0.808858 2.477639
O  0.144827 -0.986773 3.350137
H  -0.625740 -1.470316 3.029861
O  -0.641228 -1.150568 0.628684
O  2.268190 1.108586 0.175098
H  2.834161 0.327288 0.141104
O  0.923516 1.299437 -2.331431
H  1.776322 1.678605 -2.084291
O  -0.742074 -1.367426 -2.474566
H  -1.601793 -1.509533 -2.882711
24
59 zpe= -687.187279 src= /lustre/lwork/pjhsu/sugar_opt/pj_sugar/beta_glucose/1S3.xyz:640 moment= 2.386823 0.715512 -0.269072 3.604927 2.502338 0.925770 -0.695335 3.856975 3.861134 1.791160 -0.339707 2.077658 3.612108 1.679985 -0.136482 2.268210
H -1.939798 1.141432 0.430020
O  -2.426438 0.310918 0.399022
C  -1.666625 -0.694775 -0.235906
H  -2.382664 -1.481303 -0.471538
C  -0.996704 -0.212804 -1.553076
H  -1.501494 0.696880 -1.884934
C  0.496447 0.096784 -1.351417
H  1.075555 -0.823753 -1.509750
C  0.750485 0.571865 0.070363
H  0.116058 1.452050 0.267784
C  0.421061 -0.564917 1.049552
H  1.261021 -1.265822 1.018913
C  0.265564 -0.090050 2.498952
H  -0.459511 0.734745 2.554200
H  -0.126669 -0.915783 3.094206
O  1.512200 0.279306 3.070837
H  1.994543 0.826367 2.437504
O  -0.731583 -1.318046 0.624753
O  2.107303 0.943368 0.282117
H  2.369853 1.514866 -0.451345
O  0.968247 1.118714 -2.226469
H  0.898208 0.810207 -3.136501
O  -1.182195 -1.138432 -2.621376
H  -0.824863 -1.994819 -2.356912
24
60 zpe= -687.187258 src= /lustre/lwork/pjhsu/sugar_opt/pj_sugar/beta_glucose/1S3.xyz:650 moment= 2.448159 0.789768 0.157812 3.308748 2.612289 1.045676 -0.397187 3.075225 4.557377 1.975206 -0.571085 2.449985 3.947418 1.785994 -0.080285 2.651682
H -2.667664 0.683789 -1.115683
O  -2.090770 0.574120 -0.351926
C  -1.425817 -0.687596 -0.445823
H  -2.154882 -1.491547 -0.591207
C  -0.415203 -0.703614 -1.623689
H  -0.719828 0.036953 -2.366316
C  0.994974 -0.351209 -1.134800
H  1.483582 -1.269574 -0.778351
C  0.941371 0.627261 0.032615
H  0.403625 1.529974 -0.285950
C  0.221145 -0.043273 1.213467
H  0.950257 -0.675377 1.726450
C  -0.313245 0.967586 2.216611
H  0.461803 1.729847 2.370877
H  -1.211360 1.440007 1.809772
O  -0.591362 0.279946 3.435809
H  -1.144778 0.838803 3.987752
O  -0.810710 -0.960399 0.773188
O  2.246883 0.973651 0.475850
H  2.748028 1.241100 -0.304409
O  1.791489 0.248749 -2.155532
H  1.922701 -0.391226 -2.863355
O  -0.423632 -1.948697 -2.323325
H  -0.194605 -2.652274 -1.704020
24
61 zpe= -687.186986 src= /lustre/lwork/pjhsu/sugar_opt/pj_sugar/beta_glucose/1S3.xyz:654 moment= 2.442238 0.770413 -0.045364 2.907156 2.583609 1.020071 -0.437720 3.118451 4.220210 1.835741 -0.497300 2.393268 4.044586 1.830514 -0.200045 2.373708
H -3.071301 -0.114079 -0.214724
O  -2.262260 -0.076318 0.306661
C  -1.345684 -1.058625 -0.182546
H  -1.837360 -2.027332 -0.299297
C  -0.762183 -0.630856 -1.553535
H  -1.382930 0.177054 -1.961412
C  0.652394 -0.087836 -1.391877
H  1.340491 -0.937323 -1.285724
C  0.738079 0.760303 -0.126809
H  -0.012438 1.557490 -0.176007
C  0.503269 -0.150959 1.095383
H  1.469214 -0.617356 1.320648
C  0.032496 0.628148 2.324496
H  0.668649 1.522289 2.426082
H  -0.998212 0.949876 2.180595
O  0.045192 -0.130795 3.523556
H  0.928844 -0.487647 3.661354
O  -0.362883 -1.258477 0.787853
O  2.052095 1.335252 -0.087563
H  2.009576 2.208707 0.311003
O  0.968896 0.652829 -2.564080
H  1.834308 1.055574 -2.422462
O  -0.805760 -1.761252 -2.417033
H  -0.402492 -1.508669 -3.255564
24
62 zpe= -687.186137 src= /lustre/lwork/pjhsu/sugar_opt/pj_sugar/beta_glucose/1S3.xyz:656 moment= 2.404551 0.736199 -0.205647 3.358102 2.514391 0.940433 -0.628195 3.777051 4.016885 1.807422 -0.219165 2.373792 3.862182 1.809162 -0.267903 2.160109
H -2.115801 0.605123 1.013413
O  -2.490933 -0.235340 0.728627
C  -1.631777 -0.878128 -0.188333
H  -2.220019 -1.689752 -0.611159
C  -1.187804 0.054977 -1.351106
H  -1.638870 1.044730 -1.197612
C  0.327158 0.236984 -1.367245
H  0.800836 -0.678328 -1.734930
C  0.775327 0.512915 0.064032
H  0.158099 1.332330 0.467818
C  0.584703 -0.763134 0.896356
H  1.458060 -1.396941 0.711952
C  0.516808 -0.499410 2.404854
H  -0.253302 0.254698 2.627530
H  0.230721 -1.423037 2.909768
O  1.778640 -0.107983 2.928512
H  2.194761 0.506380 2.310337
O  -0.540228 -1.527612 0.438070
O  2.146447 0.892280 0.162857
H  2.261222 1.705361 -0.344110
O  0.650661 1.341075 -2.226136
H  1.368750 1.085345 -2.811511
O  -1.671627 -0.504582 -2.563952
H  -1.501832 0.129052 -3.270032
24
63 zpe= -687.186103 src= /lustre/lwork/pjhsu/sugar_opt/pj_sugar/beta_glucose/1S3.xyz:665 moment= 2.467378 0.813502 0.223728 3.022405 2.633685 1.079515 -0.286631 2.977473 4.578205 2.007707 -0.513338 2.420069 3.959103 1.786059 -0.101724 2.643525
H -2.783550 0.881451 -0.120435
O  -2.069533 0.557119 0.438887
C  -1.489904 -0.611493 -0.154392
H  -2.252785 -1.385276 -0.297396
C  -0.842659 -0.268642 -1.529082
H  -1.256812 0.680757 -1.891206
C  0.666979 -0.105625 -1.386183
H  1.119688 -1.104145 -1.408454
C  1.009828 0.555061 -0.056673
H  0.482803 1.517389 0.008041
C  0.578988 -0.373383 1.089543
H  1.372642 -1.111516 1.228043
C  0.395720 0.375225 2.401280
H  1.236417 1.073305 2.509992
H  -0.541223 0.937973 2.368085
O  0.394653 -0.577840 3.463388
H  0.032857 -0.163698 4.251216
O  -0.588227 -1.157179 0.747984
O  2.409108 0.765543 0.068782
H  2.703626 1.183374 -0.750097
O  1.222329 0.705126 -2.423018
H  1.194853 0.206835 -3.246395
O  -1.041011 -1.295273 -2.503549
H  -1.953783 -1.284086 -2.808361
24
64 zpe= -687.185804 src= /lustre/lwork/pjhsu/sugar_opt/pj_sugar/beta_glucose/1S3.xyz:668 moment= 2.432594 0.757527 -0.018978 3.397757 2.578890 0.981307 -0.662956 3.347752 4.345312 1.946620 -0.411587 2.203903 3.640648 1.743219 0.000143 2.349915
H -2.620803 1.316963 -0.257787
O  -2.011070 0.877454 0.345060
C  -1.685264 -0.412416 -0.173258
H  -2.585782 -1.029120 -0.258195
C  -1.003588 -0.317499 -1.557968
H  -1.362036 0.580748 -2.065884
C  0.533214 -0.220373 -1.457367
H  0.946241 -1.240171 -1.484502
C  0.963781 0.399018 -0.134359
H  0.573679 1.422928 -0.075440
C  0.404810 -0.455383 1.029584
H  1.094689 -1.293602 1.161264
C  0.317541 0.320726 2.343319
H  -0.381449 1.153746 2.231505
H  -0.043727 -0.348583 3.131269
O  1.642679 0.792434 2.640810
H  1.608273 1.384220 3.397509
O  -0.878590 -1.061813 0.761826
O  2.380867 0.408036 -0.076944
H  2.618994 0.738928 0.799960
O  1.065285 0.544099 -2.528799
H  0.911338 0.060265 -3.347191
O  -1.396549 -1.395541 -2.408558
H  -1.092536 -2.223061 -2.016855
24
65 zpe= -687.185569 src= /lustre/lwork/pjhsu/sugar_opt/pj_sugar/beta_glucose/1S3.xyz:669 moment= 2.438361 0.766582 -0.000355 3.045297 2.588439 1.029033 -0.411746 3.062873 4.263179 1.866728 -0.469708 2.380364 4.038717 1.827334 -0.175284 2.447262
H -3.101976 0.247670 0.091295
O  -2.259904 0.115219 0.540112
C  -1.484935 -0.833244 -0.193405
H  -2.073836 -1.724671 -0.422430
C  -0.977016 -0.222143 -1.525314
H  -1.504595 0.723553 -1.700666
C  0.511926 0.094205 -1.444363
H  1.068795 -0.848640 -1.556729
C  0.840187 0.702152 -0.082671
H  0.239154 1.604389 0.061654
C  0.554574 -0.332505 1.024441
H  1.456479 -0.951479 1.136146
C  0.257684 0.329930 2.372710
H  1.000430 1.124849 2.528698
H  -0.734188 0.778310 2.342461
O  0.244901 -0.581212 3.462701
H  1.128916 -0.942210 3.583711
O  -0.450414 -1.281791 0.632316
O  2.193939 1.166681 -0.043525
H  2.783039 0.403024 -0.009693
O  0.828847 0.975542 -2.515055
H  1.685656 1.376371 -2.321765
O  -1.272258 -1.146378 -2.567119
H  -0.938409 -0.778624 -3.393511
24
66 zpe= -687.185506 src= /lustre/lwork/pjhsu/sugar_opt/pj_sugar/beta_glucose/1S3.xyz:670 moment= 2.449213 0.806524 0.295629 3.237818 2.612488 1.061826 -0.288358 3.104926 4.571307 2.011793 -0.483708 2.428165 3.933551 1.784801 -0.069894 2.651888
H -2.074704 0.862268 0.468291
O  -2.406382 -0.035843 0.360816
C  -1.432934 -0.843904 -0.283729
H  -1.972408 -1.738251 -0.594130
C  -0.843954 -0.139710 -1.544875
H  -1.328723 0.837933 -1.663034
C  0.652380 0.093291 -1.397219
H  1.177550 -0.859932 -1.532073
C  0.940433 0.631843 -0.002151
H  0.316453 1.529771 0.155423
C  0.606825 -0.453012 1.033814
H  1.488514 -1.092614 1.121272
C  0.325358 0.130656 2.412942
H  1.070813 0.913641 2.607146
H  -0.675323 0.579794 2.430929
O  0.429189 -0.917818 3.368658
H  0.102673 -0.603696 4.216374
O  -0.439192 -1.331827 0.584508
O  2.303231 0.984878 0.159980
H  2.559664 1.488084 -0.623564
O  1.135521 1.057968 -2.330366
H  1.031445 0.697492 -3.217737
O  -1.019091 -0.904459 -2.737168
H  -1.946338 -0.886552 -2.996106
24
67 zpe= -687.185152 src= /lustre/lwork/pjhsu/sugar_opt/pj_sugar/beta_glucose/1S3.xyz:671 moment= 2.403762 0.725929 -0.036742 3.212786 2.575254 1.017290 -0.386209 3.314112 4.056699 1.761126 -0.400873 2.415789 3.687273 1.656239 -0.209877 2.352039
H -1.775000 1.099143 0.647563
O  -2.282327 0.302797 0.454564
C  -1.472382 -0.653890 -0.206479
H  -2.155193 -1.465062 -0.458440
C  -0.858168 -0.097837 -1.533858
H  -1.334877 0.876195 -1.724991
C  0.648479 0.101783 -1.410295
H  1.142048 -0.858842 -1.579355
C  0.994005 0.593762 -0.002669
H  0.404917 1.506581 0.209442
C  0.663343 -0.503526 1.012071
H  1.478527 -1.230797 0.986053
C  0.512543 0.004933 2.444042
H  1.451970 0.462835 2.760224
H  -0.274577 0.772479 2.492007
O  0.238395 -1.049892 3.347354
H  -0.511331 -1.542516 2.991645
O  -0.514887 -1.254599 0.633009
O  2.369639 0.900716 0.116333
H  2.633741 1.327423 -0.710298
O  1.196520 0.988529 -2.387029
H  0.552185 1.669835 -2.607576
O  -1.084411 -0.971343 -2.630056
H  -2.023157 -0.978704 -2.845259
24
68 zpe= -687.18494 src= /lustre/lwork/pjhsu/sugar_opt/pj_sugar/beta_glucose/1S3.xyz:674 moment= 2.420085 0.740202 -0.184099 3.334866 2.558740 0.988845 -0.523087 3.307246 4.193072 1.774736 -0.641329 2.441354 3.380724 1.530331 0.065060 2.567576
H -2.976136 0.448147 -0.223292
O  -2.147003 0.320372 0.249632
C  -1.482917 -0.832493 -0.269684
H  -2.177567 -1.672836 -0.354141
C  -0.853270 -0.557043 -1.651796
H  -1.514165 0.088081 -2.233980
C  0.505851 0.151721 -1.506941
H  1.294506 -0.608334 -1.613931
C  0.682893 0.787252 -0.127767
H  -0.048758 1.590288 -0.008083
C  0.512904 -0.278604 0.972116
H  1.445817 -0.854039 1.002645
C  0.264784 0.339312 2.348341
H  0.982468 1.160924 2.495171
H  -0.744212 0.749784 2.381839
O  0.347630 -0.591898 3.416893
H  1.228370 -0.980801 3.427584
O  -0.513241 -1.243346 0.650182
O  2.013940 1.327329 -0.095201
H  2.016293 2.141454 0.415382
O  0.628715 1.118492 -2.537999
H  1.487715 1.543651 -2.426982
O  -0.755709 -1.765339 -2.397772
H  -0.196908 -2.382074 -1.910214
24
69 zpe= -687.184907 src= /lustre/lwork/pjhsu/sugar_opt/pj_sugar/beta_glucose/1S3.xyz:675 moment= 2.420091 0.740209 -0.183842 3.335041 2.558749 0.988840 -0.523115 3.307368 4.193268 1.774856 -0.641308 2.441226 3.799309 1.593692 -0.471794 2.649640
H -2.775282 0.211513 -1.164227
O  -2.130051 0.189837 -0.449594
C  -1.295885 -0.959131 -0.604918
H  -1.899136 -1.851080 -0.795722
C  -0.281895 -0.779736 -1.754745
H  -0.754672 -0.244820 -2.580746
C  0.939457 0.034626 -1.290452
H  1.749918 -0.674540 -1.063849
C  0.659442 0.816924 -0.007100
H  -0.102480 1.573963 -0.209240
C  0.198245 -0.142042 1.107499
H  1.096889 -0.643557 1.486006
C  -0.484551 0.592136 2.261605
H  0.122236 1.473311 2.520495
H  -1.469193 0.931125 1.940310
O  -0.700687 -0.218387 3.407143
H  0.147648 -0.540323 3.729248
O  -0.642175 -1.205158 0.606399
O  1.894887 1.450722 0.362447
H  1.709871 2.311152 0.748352
O  1.338497 0.898703 -2.342494
H  2.105595 1.392442 -2.028279
O  0.085252 -2.046704 -2.289513
H  0.487066 -2.570975 -1.586626
24
70 zpe= -687.184863 src= /lustre/lwork/pjhsu/sugar_opt/pj_sugar/beta_glucose/1S3.xyz:679 moment= 2.424473 0.782262 0.220393 3.576952 2.580530 1.021118 -0.393058 3.283941 4.544824 1.971089 -0.557784 2.457549 3.927635 1.777779 -0.054617 2.697244
H -2.013235 0.683343 -0.782200
O  -2.305589 -0.152593 -0.404913
C  -1.243985 -1.091017 -0.382152
H  -1.718206 -2.070715 -0.436831
C  -0.273446 -0.921595 -1.580546
H  -0.771135 -0.346817 -2.365403
C  1.002799 -0.180325 -1.154274
H  1.719954 -0.913241 -0.759205
C  0.715552 0.824538 -0.044752
H  -0.041498 1.542611 -0.403824
C  0.213110 0.067067 1.195695
H  1.095899 -0.309265 1.719041
C  -0.548675 0.963336 2.163752
H  -0.018979 1.922919 2.231165
H  -1.561024 1.133481 1.783618
O  -0.578834 0.315300 3.432545
H  -1.259396 0.721565 3.975843
O  -0.541675 -1.109020 0.841663
O  1.881977 1.538992 0.327981
H  2.300644 1.844423 -0.486837
O  1.597179 0.541721 -2.231421
H  1.877587 -0.083910 -2.908320
O  0.047308 -2.165854 -2.199158
H  0.422667 -2.753945 -1.532468
24
71 zpe= -687.184402 src= /lustre/lwork/pjhsu/sugar_opt/pj_sugar/beta_glucose/1S3.xyz:682 moment= 2.413033 0.754718 0.022823 3.301246 2.564884 0.991284 -0.539427 3.302768 4.273965 1.846060 -0.558986 2.397241 3.905233 1.735319 -0.166249 2.578000
H -2.126512 0.810940 0.427488
O  -2.344254 -0.124418 0.494160
C  -1.445234 -0.907034 -0.267404
H  -1.996913 -1.807123 -0.537651
C  -0.971397 -0.185117 -1.557286
H  -1.653706 0.640150 -1.775023
C  0.447529 0.376392 -1.385535
H  1.170632 -0.417239 -1.620833
C  0.696710 0.814603 0.052319
H  -0.051103 1.577810 0.326517
C  0.595210 -0.412748 0.974490
H  1.567470 -0.914026 0.919656
C  0.329068 -0.030176 2.432963
H  0.956247 0.837490 2.677403
H  -0.718282 0.246658 2.556275
O  0.553922 -1.097690 3.342826
H  1.493312 -1.307995 3.350070
O  -0.345533 -1.383800 0.481718
O  1.994191 1.364944 0.215497
H  2.121976 2.009301 -0.492315
O  0.688567 1.508549 -2.218281
H  0.611241 1.238833 -3.140106
O  -1.046503 -1.021556 -2.709902
H  -0.525639 -1.817741 -2.549046
24
72 zpe= -687.184398 src= /lustre/lwork/pjhsu/sugar_opt/pj_sugar/beta_glucose/1S3.xyz:684 moment= 2.388690 0.718566 -0.226014 3.760273 2.497297 0.927769 -0.635674 3.909407 3.981486 1.787119 -0.217461 2.389818 3.864021 1.802631 -0.293320 2.145324
H -2.105456 0.764447 0.508934
O  -2.520677 -0.049464 0.203096
C  -1.560736 -0.910587 -0.376311
H  -2.127759 -1.767460 -0.733932
C  -0.847316 -0.268437 -1.602145
H  -1.377116 0.669735 -1.832109
C  0.615942 0.058730 -1.301658
H  1.221459 -0.841914 -1.428995
C  0.741242 0.540423 0.138454
H  0.037017 1.378162 0.297733
C  0.404505 -0.622864 1.083868
H  1.288389 -1.266904 1.120227
C  0.097430 -0.170021 2.515900
H  -0.691095 0.598682 2.511238
H  -0.280256 -1.025102 3.078067
O  1.258080 0.292436 3.189877
H  1.762321 0.861656 2.594576
O  -0.654700 -1.444567 0.564010
O  2.052710 0.992363 0.448915
H  2.401037 1.449064 -0.328495
O  1.167169 1.005205 -2.226680
H  0.568436 1.758838 -2.301671
O  -0.980476 -1.170689 -2.690114
H  -0.469151 -0.833731 -3.434785
24
73 zpe= -687.183597 src= /lustre/lwork/pjhsu/sugar_opt/pj_sugar/beta_glucose/1S3.xyz:700 moment= 2.449654 0.793162 0.165864 3.384268 2.595238 1.055779 -0.247382 3.162433 4.542395 1.960079 -0.592756 2.444773 4.129043 1.826939 -0.311712 2.441199
H -2.608033 1.132590 -0.408981
O  -2.029854 0.703646 0.231255
C  -1.546617 -0.530326 -0.311971
H  -2.373470 -1.236192 -0.449381
C  -0.834133 -0.301250 -1.668237
H  -1.323511 0.525423 -2.198486
C  0.634697 0.077951 -1.463899
H  1.216695 -0.845784 -1.603391
C  0.908502 0.609427 -0.055655
H  0.381070 1.555408 0.078345
C  0.472545 -0.409158 1.009810
H  1.243809 -1.186210 1.085462
C  0.321835 0.226663 2.385266
H  1.141607 0.942282 2.530095
H  -0.632345 0.759560 2.422369
O  0.384513 -0.808786 3.365569
H  -0.018148 -0.494379 4.179240
O  -0.722965 -1.126040 0.635982
O  2.293784 0.945809 0.078853
H  2.809584 0.130727 0.116922
O  0.997047 1.038685 -2.446206
H  1.869846 1.375488 -2.207826
O  -0.854306 -1.483462 -2.464472
H  -1.731154 -1.602070 -2.842665
24
74 zpe= -687.183564 src= /lustre/lwork/pjhsu/sugar_opt/pj_sugar/beta_glucose/1S3.xyz:701 moment= 2.398422 0.733433 -0.145824 3.518355 2.509762 0.954396 -0.472876 3.891253 4.102549 1.824966 -0.288993 2.402816 3.883770 1.825325 -0.268236 2.137158
H -2.158822 0.463473 0.385203
O  -2.429301 -0.434226 0.162869
C  -1.303843 -1.212019 -0.210216
H  -1.707971 -2.211458 -0.372856
C  -0.667206 -0.720769 -1.553395
H  -1.396716 -0.035134 -2.010246
C  0.646157 0.024075 -1.324615
H  1.460398 -0.705273 -1.315087
C  0.604273 0.733540 0.026403
H  -0.285104 1.389506 0.060158
C  0.538138 -0.306169 1.149576
H  1.530323 -0.761245 1.228963
C  0.183003 0.294269 2.514344
H  -0.741779 0.887678 2.434989
H  -0.008668 -0.521023 3.213519
O  1.243714 1.065608 3.053930
H  1.598759 1.634575 2.358444
O  -0.370902 -1.376835 0.827610
O  1.757937 1.534343 0.235982
H  1.966298 1.963631 -0.605489
O  0.979134 0.954410 -2.357604
H  0.173336 1.325951 -2.732618
O  -0.390467 -1.799039 -2.435208
H  -1.218693 -2.188867 -2.734653
24
75 zpe= -687.183547 src= /lustre/lwork/pjhsu/sugar_opt/pj_sugar/beta_glucose/1S3.xyz:705 moment= 2.445710 0.775019 -0.031057 2.960726 2.583644 1.029276 -0.359098 3.202631 4.226529 1.827237 -0.544588 2.372731 4.151696 1.833624 -0.344032 2.362402
H -2.917765 0.083928 -0.356684
O  -2.161296 -0.011785 0.231865
C  -1.299289 -1.044533 -0.261593
H  -1.849345 -1.985337 -0.368859
C  -0.686322 -0.647129 -1.628674
H  -1.407676 -0.030494 -2.178282
C  0.588239 0.176231 -1.443254
H  1.433666 -0.521532 -1.508311
C  0.640144 0.847664 -0.072068
H  -0.183232 1.562955 0.009613
C  0.556258 -0.214523 1.039873
H  1.549372 -0.673718 1.112113
C  0.187621 0.392628 2.393561
H  0.805678 1.290178 2.551100
H  -0.860891 0.690498 2.382369
O  0.329961 -0.506468 3.483108
H  1.235944 -0.831886 3.505297
O  -0.332470 -1.299005 0.704129
O  1.896971 1.539982 -0.005331
H  1.787911 2.352222 0.496310
O  0.661068 1.135764 -2.488567
H  1.479645 1.629666 -2.360284
O  -0.336661 -1.802041 -2.388971
H  -1.114536 -2.133262 -2.847460
24
76 zpe= -687.18351 src= /lustre/lwork/pjhsu/sugar_opt/pj_sugar/beta_glucose/1S3.xyz:706 moment= 2.430008 0.775730 0.068018 3.132887 2.569069 0.991980 -0.506203 3.497979 4.231435 1.954909 -0.282983 2.135915 4.136918 1.891031 -0.168677 2.364400
H -2.152151 0.732501 -0.150510
O  -2.421486 -0.168272 0.060503
C  -1.385990 -1.082057 -0.262991
H  -1.877210 -2.048411 -0.375976
C  -0.666509 -0.702220 -1.585376
H  -1.282548 0.038691 -2.109400
C  0.717906 -0.078326 -1.360130
H  1.444711 -0.893608 -1.254000
C  0.722671 0.730983 -0.070526
H  -0.053448 1.513123 -0.138091
C  0.431270 -0.221516 1.112931
H  1.381087 -0.716524 1.342599
C  -0.055619 0.518640 2.364735
H  -0.991072 1.042221 2.158825
H  -0.246290 -0.203340 3.163502
O  0.894244 1.516475 2.774751
H  1.516441 1.124009 3.394636
O  -0.484728 -1.281579 0.802277
O  1.985441 1.345304 0.100823
H  1.950675 1.809633 0.948762
O  1.070143 0.760236 -2.449388
H  1.249121 0.195750 -3.208626
O  -0.454412 -1.833019 -2.431199
H  -1.291250 -2.098697 -2.826134
24
77 zpe= -687.183412 src= /lustre/lwork/pjhsu/sugar_opt/pj_sugar/beta_glucose/1S3.xyz:708 moment= 2.433071 0.768483 0.045629 3.057696 2.582233 1.006979 -0.509552 3.198238 4.259949 1.868698 -0.457900 2.405230 4.006366 1.833650 -0.133733 2.412667
H -2.212647 0.971623 0.542168
O  -2.528194 0.064241 0.480522
C  -1.603971 -0.735655 -0.226148
H  -2.171699 -1.594557 -0.578192
C  -1.006228 -0.004887 -1.458833
H  -1.342680 1.042906 -1.453843
C  0.516228 0.004015 -1.399379
H  0.891880 -1.013043 -1.548250
C  0.943706 0.512403 -0.025104
H  0.469791 1.492803 0.142988
C  0.495426 -0.500207 1.044135
H  1.321712 -1.212343 1.150227
C  0.262654 0.164121 2.404310
H  1.107896 0.841187 2.592998
H  -0.654063 0.756456 2.386864
O  0.096244 -0.756697 3.469299
H  0.887628 -1.300697 3.539567
O  -0.604675 -1.302952 0.601977
O  2.355788 0.654821 0.089250
H  2.623607 1.401248 -0.458189
O  0.993885 0.864394 -2.444208
H  1.779259 0.473193 -2.836812
O  -1.489642 -0.648913 -2.627126
H  -1.132906 -0.174461 -3.387221
24
78 zpe= -687.182372 src= /lustre/lwork/pjhsu/sugar_opt/pj_sugar/beta_glucose/1S3.xyz:709 moment= 2.436753 0.765913 -0.007946 3.168935 2.579704 1.028194 -0.354300 3.206727 4.267693 1.849656 -0.544027 2.348479 4.108236 1.794841 -0.377826 2.424495
H -2.459061 1.344922 -0.822982
O  -1.955523 0.984924 -0.084791
C  -1.602501 -0.372953 -0.361227
H  -2.501966 -0.990958 -0.460828
C  -0.758015 -0.473646 -1.654627
H  -1.107390 0.278240 -2.372984
C  0.722520 -0.199837 -1.372647
H  1.212840 -1.183991 -1.315229
C  0.945117 0.522391 -0.042343
H  0.533757 1.530755 -0.108267
C  0.296530 -0.245753 1.123001
H  0.962207 -1.080866 1.386704
C  0.111756 0.642102 2.355517
H  1.037037 1.212127 2.511527
H  -0.702664 1.341355 2.167470
O  -0.251057 -0.079416 3.525664
H  0.482403 -0.645093 3.787269
O  -0.940553 -0.882860 0.750583
O  2.347157 0.717633 0.178821
H  2.760421 -0.142376 0.325371
O  1.258952 0.551440 -2.453164
H  2.141651 0.842165 -2.192231
O  -0.839773 -1.779497 -2.221302
H  -1.694845 -1.891809 -2.648306
24
79 zpe= -687.181413 src= /lustre/lwork/pjhsu/sugar_opt/pj_sugar/beta_glucose/1S3.xyz:710 moment= 2.427007 0.783194 0.263355 3.655228 2.576245 1.023559 -0.351278 3.293248 4.551280 1.989936 -0.515071 2.435020 3.997628 1.849747 -0.057592 2.494541
H -2.070450 0.883627 0.196987
O  -2.404225 -0.019045 0.222532
C  -1.435776 -0.921154 -0.285256
H  -1.982256 -1.832149 -0.519716
C  -0.774556 -0.397617 -1.591275
H  -1.298833 0.525720 -1.890751
C  0.698383 -0.066071 -1.365543
H  1.279470 -0.991158 -1.368398
C  0.878565 0.625155 -0.016310
H  0.215119 1.510794 0.021744
C  0.513166 -0.370830 1.098694
H  1.406530 -0.970543 1.290075
C  0.139698 0.321949 2.404385
H  0.841357 1.152289 2.563533
H  -0.878234 0.721905 2.333791
O  0.240919 -0.631934 3.455185
H  -0.218615 -0.297720 4.230210
O  -0.481819 -1.316108 0.672683
O  2.215246 1.049624 0.188028
H  2.557467 1.349038 -0.664349
O  1.245300 0.712956 -2.438670
H  0.687945 1.488600 -2.580294
O  -0.951668 -1.385727 -2.594148
H  -0.422732 -1.139603 -3.362136
24
80 zpe= -687.181302 src= /lustre/lwork/pjhsu/sugar_opt/pj_sugar/beta_glucose/1S3.xyz:712 moment= 2.415491 0.754919 0.064060 3.391055 2.561012 0.994108 -0.493573 3.311507 4.274425 1.868220 -0.490853 2.384384 3.984712 1.819367 -0.136531 2.410163
H -1.922838 0.995136 0.819974
O  -2.367544 0.150893 0.691431
C  -1.606645 -0.690914 -0.152520
H  -2.285854 -1.483033 -0.459982
C  -1.108890 0.047067 -1.427980
H  -1.550424 1.057805 -1.427682
C  0.411720 0.182809 -1.430536
H  0.856349 -0.769871 -1.727576
C  0.908870 0.545746 -0.034239
H  0.394422 1.466400 0.300955
C  0.598565 -0.621114 0.921775
H  1.429079 -1.326498 0.811067
C  0.541791 -0.172955 2.385234
H  1.395293 0.495166 2.566109
H  -0.378323 0.382893 2.574373
O  0.528189 -1.250110 3.307633
H  1.347410 -1.748255 3.219205
O  -0.560488 -1.361915 0.515825
O  2.309053 0.770593 -0.011166
H  2.543199 1.226314 -0.830199
O  0.866917 1.121206 -2.415316
H  0.401133 1.957947 -2.291632
O  -1.579845 -0.673268 -2.556263
H  -1.171141 -0.303042 -3.347490
24
81 zpe= -687.180275 src= /lustre/lwork/pjhsu/sugar_opt/pj_sugar/beta_glucose/1S3.xyz:716 moment= 2.434992 0.798611 0.292068 3.450446 2.586588 1.046821 -0.249852 3.256028 4.576406 1.998326 -0.538524 2.417026 4.106987 1.846464 -0.230097 2.425108
H -1.828793 1.160835 0.176116
O  -2.322617 0.333990 0.197069
C  -1.487633 -0.750004 -0.185993
H  -2.166403 -1.596866 -0.286091
C  -0.799622 -0.494449 -1.567541
H  -1.272475 0.399185 -2.005356
C  0.692252 -0.234804 -1.394800
H  1.205442 -1.196776 -1.316315
C  0.936233 0.558580 -0.108583
H  0.324648 1.481205 -0.139062
C  0.547705 -0.305479 1.098508
H  1.377584 -0.992066 1.284431
C  0.337086 0.516754 2.363518
H  1.142787 1.260375 2.423296
H  -0.627440 1.036841 2.309980
O  0.377071 -0.367047 3.477891
H  0.105456 0.110204 4.266856
O  -0.582801 -1.148865 0.808944
O  2.297244 0.921707 0.022765
H  2.606574 1.165009 -0.860595
O  1.297823 0.434954 -2.503224
H  0.651832 1.007852 -2.929827
O  -0.941585 -1.596956 -2.450928
H  -1.870368 -1.702179 -2.683057
