24
0 zpe= -687.191122 src= /lustre/lwork/pjhsu/sugar_opt/pj_sugar/beta_glucose/5S1.xyz:0 moment= 2.337411 0.610599 -0.197718 16.749101 2.597445 1.014193 -0.511606 3.222641 3.796000 1.586223 -0.518072 2.543454 3.564715 1.544989 -0.349816 2.405055
H -2.657824 -1.449281 0.458625
O  -2.196758 -1.932189 -0.240704
C  -0.898406 -1.402622 -0.321142
H  -0.298172 -2.149991 -0.847209
C  -0.906253 -0.069743 -1.077085
H  -1.536505 0.614813 -0.494539
C  0.499627 0.533631 -1.173616
H  0.943572 0.230169 -2.124797
C  1.422838 0.017553 -0.059288
H  2.157492 0.800519 0.163204
C  0.682873 -0.345606 1.237842
H  1.388482 -0.920762 1.857162
C  0.278646 0.856763 2.106541
H  -0.205162 0.466706 3.004117
H  1.201742 1.367743 2.420502
O  -0.639826 1.762356 1.526421
H  -0.237991 2.165931 0.740945
O  -0.440103 -1.211808 1.011026
O  2.071288 -1.130309 -0.615348
H  2.594613 -1.559503 0.069776
O  0.474128 1.968687 -1.083939
H  -0.043641 2.308777 -1.822455
O  -1.410597 -0.219169 -2.398083
H  -2.244067 -0.702666 -2.338956
24
1 zpe= -687.191076 src= /lustre/lwork/pjhsu/sugar_opt/pj_sugar/beta_glucose/5S1.xyz:11 moment= 2.379803 0.666571 -0.117432 4.311582 2.624588 1.075918 -0.216263 3.101514 3.936907 1.516128 -0.907662 3.160726 3.708821 1.454767 -0.723612 3.000481
H -2.392323 -2.425707 0.074604
O  -2.282627 -1.563886 -0.341176
C  -0.921191 -1.225870 -0.345928
H  -0.318153 -2.045876 -0.753201
C  -0.783047 0.032880 -1.196953
H  -1.378510 0.813796 -0.706339
C  0.677024 0.490461 -1.267288
H  1.141406 -0.005491 -2.125454
C  1.480811 0.066857 -0.025230
H  2.223630 0.848575 0.169723
C  0.620933 -0.121672 1.228020
H  1.217821 -0.645130 1.985327
C  0.141693 1.190081 1.859274
H  1.004408 1.769114 2.197901
H  -0.403459 1.798379 1.128829
O  -0.652279 0.933258 3.006887
H  -1.332553 0.301927 2.740838
O  -0.525016 -0.972756 1.000556
O  2.127427 -1.160149 -0.386172
H  2.619918 -1.489245 0.373202
O  0.778185 1.907625 -1.395479
H  0.336310 2.165199 -2.212103
O  -1.237292 -0.167667 -2.528238
H  -2.144114 -0.493700 -2.482600
24
2 zpe= -687.191045 src= /lustre/lwork/pjhsu/sugar_opt/pj_sugar/beta_glucose/5S1.xyz:18 moment= 2.384819 0.672617 -0.101880 4.058949 2.648247 1.074506 -0.394245 2.875559 3.948222 1.526725 -0.893666 3.117311 3.613924 1.559760 -0.367324 2.416251
H -1.353711 -3.082201 -0.607548
O  -1.603680 -2.168855 -0.784534
C  -0.470012 -1.352672 -0.659367
H  0.354719 -1.736050 -1.272517
C  -0.886370 0.047594 -1.100416
H  -1.667923 0.375601 -0.402575
C  0.295203 1.018558 -1.013437
H  0.784020 1.016028 -1.995944
C  1.345573 0.576133 0.030867
H  1.783899 1.483347 0.461886
C  0.771099 -0.266168 1.169016
H  1.608469 -0.750649 1.678103
C  -0.017103 0.551159 2.196665
H  0.654347 1.253727 2.696419
H  -0.808477 1.132100 1.707884
O  -0.551000 -0.289943 3.206662
H  -1.011308 -1.009096 2.756106
O  -0.081661 -1.343148 0.707907
O  2.358753 -0.228804 -0.582599
H  2.831719 0.303737 -1.230817
O  -0.121799 2.341520 -0.682379
H  -0.763805 2.630032 -1.340822
O  -1.371594 0.074702 -2.436175
H  -2.079356 -0.577657 -2.503386
24
3 zpe= -687.190977 src= /lustre/lwork/pjhsu/sugar_opt/pj_sugar/beta_glucose/5S1.xyz:20 moment= 2.340998 0.616014 -0.198613 12.904739 2.579200 1.006670 -0.471099 3.298723 3.785404 1.576135 -0.525563 2.579949 3.595534 1.563724 -0.365812 2.357243
H -2.526207 -1.770854 0.227582
O  -1.899560 -2.231206 -0.347060
C  -0.679007 -1.539773 -0.259135
H  0.093783 -2.244690 -0.579555
C  -0.706199 -0.296401 -1.155834
H  -1.504375 0.349164 -0.766313
C  0.613821 0.477439 -1.083864
H  1.234233 0.160557 -1.929424
C  1.386923 0.179375 0.217158
H  1.974622 1.068495 0.474480
C  0.488154 -0.166956 1.410849
H  1.147428 -0.620219 2.160602
C  -0.172005 1.041569 2.087171
H  -0.756134 0.668107 2.930230
H  0.627222 1.680409 2.492104
O  -1.071773 1.787505 1.286679
H  -0.589268 2.172984 0.539622
O  -0.507345 -1.157845 1.093427
O  2.244227 -0.951335 0.035941
H  2.887933 -0.752549 -0.652364
O  0.415852 1.899585 -1.152399
H  -0.049207 2.104468 -1.971867
O  -0.944568 -0.632856 -2.517180
H  -1.708551 -1.222968 -2.539849
24
4 zpe= -687.19058 src= /lustre/lwork/pjhsu/sugar_opt/pj_sugar/beta_glucose/5S1.xyz:28 moment= 2.356795 0.647577 -0.068812 6.258848 2.589944 1.029984 -0.360450 3.263607 3.999145 1.549397 -0.927600 3.068159 3.626248 1.597447 -0.326528 2.304003
H -2.543284 -2.414646 0.195908
O  -2.288478 -1.736551 -0.439222
C  -0.965118 -1.350705 -0.181769
H  -0.290937 -2.213892 -0.249398
C  -0.618571 -0.282549 -1.216070
H  -1.305179 0.551054 -1.026901
C  0.820135 0.206404 -1.026152
H  1.458239 -0.369842 -1.705658
C  1.331525 -0.017834 0.413301
H  2.050314 0.777427 0.642734
C  0.227298 0.007283 1.478285
H  0.665751 -0.445547 2.375814
C  -0.227288 1.416438 1.883608
H  -1.005922 1.305282 2.640266
H  0.629505 1.920827 2.356466
O  -0.789243 2.212468 0.856702
H  -0.130227 2.352425 0.160263
O  -0.912007 -0.797792 1.124606
O  1.957585 -1.300285 0.526390
H  2.719503 -1.330906 -0.062043
O  0.961302 1.604603 -1.322099
H  0.630840 1.761262 -2.214426
O  -0.740888 -0.753150 -2.553623
H  -1.634861 -1.100777 -2.657983
24
5 zpe= -687.190408 src= /lustre/lwork/pjhsu/sugar_opt/pj_sugar/beta_glucose/5S1.xyz:34 moment= 2.354337 0.642928 -0.068883 6.698531 2.608854 1.037989 -0.400964 3.185220 3.989939 1.540219 -0.939714 3.107885 3.595748 1.580389 -0.305875 2.345372
H -2.337038 -2.598282 -0.202364
O  -2.232084 -1.730224 -0.606349
C  -0.898556 -1.321097 -0.466197
H  -0.218271 -2.064003 -0.900183
C  -0.782065 0.024631 -1.176662
H  -1.465012 0.701950 -0.650924
C  0.644112 0.574654 -1.074497
H  1.199136 0.260797 -1.962329
C  1.397282 0.021003 0.145842
H  2.105596 0.787921 0.480644
C  0.479642 -0.350157 1.322062
H  1.081063 -0.958379 2.015808
C  0.001844 0.848221 2.159264
H  -0.631922 0.459208 2.958352
H  0.890885 1.300034 2.626843
O  -0.770781 1.818713 1.481644
H  -0.245869 2.206909 0.764438
O  -0.625900 -1.174952 0.924735
O  2.103775 -1.127984 -0.335269
H  2.542512 -1.557366 0.406748
O  0.656508 2.008176 -0.976314
H  0.216714 2.366397 -1.755907
O  -1.112769 -0.060222 -2.557787
H  -1.999803 -0.433950 -2.621599
24
6 zpe= -687.189645 src= /lustre/lwork/pjhsu/sugar_opt/pj_sugar/beta_glucose/5S1.xyz:37 moment= 2.353450 0.653690 -0.033573 5.577431 2.603097 1.021052 -0.455274 3.339877 4.010306 1.583652 -0.800440 2.983965 3.484502 1.501869 -0.229847 2.605319
H -2.138014 -2.806027 -0.305155
O  -2.059841 -1.931577 -0.701542
C  -0.760168 -1.445609 -0.479632
H  -0.014368 -2.159381 -0.847054
C  -0.667073 -0.124093 -1.245631
H  -1.468247 0.517722 -0.857831
C  0.680224 0.575567 -1.016344
H  1.340856 0.333039 -1.853255
C  1.359360 0.098721 0.272290
H  2.006593 0.901148 0.635690
C  0.340975 -0.252820 1.360740
H  0.889324 -0.693495 2.201894
C  -0.461450 0.961321 1.886937
H  -1.265574 1.195959 1.184086
H  -0.927980 0.680172 2.832806
O  0.345443 2.101146 2.141917
H  0.502128 2.535798 1.293264
O  -0.584431 -1.264906 0.923576
O  2.141853 -1.042922 -0.091812
H  2.544268 -1.409246 0.702809
O  0.527357 1.998106 -0.897053
H  0.161034 2.340561 -1.719446
O  -0.831711 -0.317117 -2.644255
H  -1.660557 -0.793065 -2.777003
24
7 zpe= -687.1894 src= /lustre/lwork/pjhsu/sugar_opt/pj_sugar/beta_glucose/5S1.xyz:46 moment= 2.412795 0.731873 0.178980 3.372295 2.644615 1.086748 -0.256669 3.022951 4.257194 1.804484 -0.558840 2.564838 3.908513 1.706568 -0.317203 2.496398
H -2.640512 -2.307455 0.616744
O  -2.437487 -1.686609 -0.091157
C  -1.077243 -1.351364 -0.026539
H  -0.451904 -2.252194 -0.051915
C  -0.788791 -0.440894 -1.215016
H  -1.399854 0.460332 -1.070375
C  0.688965 -0.043229 -1.243863
H  1.223174 -0.789912 -1.839618
C  1.327787 -0.059540 0.156031
H  2.070269 0.742167 0.196837
C  0.324964 0.164724 1.295216
H  0.814757 -0.113811 2.236628
C  -0.092742 1.631952 1.437905
H  -0.386300 2.047890 0.468758
H  -0.949628 1.676419 2.118788
O  1.031462 2.331933 1.975834
H  0.914855 3.274602 1.830230
O  -0.856170 -0.648558 1.191326
O  1.959352 -1.342110 0.279317
H  2.414671 -1.379909 1.127088
O  0.870397 1.259482 -1.803034
H  0.554104 1.236136 -2.712916
O  -1.099839 -1.052419 -2.459795
H  -2.014284 -1.356631 -2.415471
24
8 zpe= -687.18933 src= /lustre/lwork/pjhsu/sugar_opt/pj_sugar/beta_glucose/5S1.xyz:54 moment= 2.369796 0.646115 -0.175063 5.510016 2.611593 1.059790 -0.243906 3.204165 3.822767 1.616132 -0.497087 2.440978 3.548965 1.506985 -0.391435 2.526755
H -2.366882 -1.833601 0.127785
O  -1.670169 -2.293757 -0.358415
C  -0.518663 -1.492229 -0.317329
H  0.311245 -2.142203 -0.605469
C  -0.640354 -0.299142 -1.269506
H  -1.472337 0.321729 -0.903218
C  0.634332 0.554738 -1.264465
H  1.285507 0.189192 -2.064089
C  1.418990 0.404559 0.049319
H  1.936119 1.352084 0.237922
C  0.537603 0.077291 1.259305
H  1.186139 -0.253290 2.080608
C  -0.276132 1.264988 1.778092
H  0.399111 2.070636 2.075633
H  -0.936442 1.653696 0.994291
O  -1.011605 0.906293 2.939335
H  -1.486936 0.091600 2.737600
O  -0.366236 -1.028428 1.020647
O  2.364334 -0.644496 -0.188592
H  2.858049 -0.812967 0.621021
O  0.346785 1.940944 -1.445379
H  -0.050706 2.054855 -2.315495
O  -0.886837 -0.713719 -2.604739
H  -1.592919 -1.371774 -2.584864
24
9 zpe= -687.189277 src= /lustre/lwork/pjhsu/sugar_opt/pj_sugar/beta_glucose/5S1.xyz:57 moment= 2.389811 0.675572 -0.073981 4.063082 2.623736 1.070727 -0.236428 3.140386 3.954402 1.541749 -0.829496 3.121071 3.784786 1.488908 -0.676849 3.130994
H -1.949908 -2.822091 0.004264
O  -1.991767 -1.962258 -0.427518
C  -0.721644 -1.369811 -0.390601
H  0.042561 -2.064185 -0.757644
C  -0.794400 -0.123623 -1.270735
H  -1.582417 0.517522 -0.855618
C  0.519446 0.662573 -1.247952
H  1.090022 0.379511 -2.136321
C  1.391645 0.315786 -0.020940
H  2.011691 1.190612 0.211005
C  0.575729 -0.039182 1.225171
H  1.248583 -0.491994 1.965894
C  -0.093346 1.165175 1.895794
H  0.670055 1.867283 2.240461
H  -0.740569 1.691186 1.185556
O  -0.817285 0.757910 3.046789
H  -1.416355 0.054983 2.766079
O  -0.442089 -1.028689 0.966930
O  2.218684 -0.780668 -0.428890
H  2.730819 -1.086897 0.327217
O  0.194878 2.054426 -1.271560
H  0.856383 2.524960 -1.786629
O  -1.083516 -0.463762 -2.617791
H  -1.918198 -0.946764 -2.622962
24
10 zpe= -687.18923 src= /lustre/lwork/pjhsu/sugar_opt/pj_sugar/beta_glucose/5S1.xyz:63 moment= 2.356896 0.659047 -0.029438 5.284450 2.585044 1.011030 -0.426860 3.440850 4.023768 1.595410 -0.791481 2.940237 3.495511 1.511600 -0.224861 2.586181
H -2.591522 -2.426328 0.235958
O  -2.415667 -1.638176 -0.289487
C  -1.044845 -1.339523 -0.210737
H  -0.445068 -2.197013 -0.536940
C  -0.822149 -0.136128 -1.130088
H  -1.475693 0.662976 -0.757190
C  0.632543 0.353063 -1.079913
H  1.150844 -0.052174 -1.956197
C  1.355722 -0.132471 0.189516
H  2.161099 0.569687 0.420252
C  0.418652 -0.200426 1.392816
H  0.971986 -0.682356 2.202541
C  -0.089239 1.182312 1.865372
H  -0.914131 1.503709 1.222943
H  -0.487663 1.070906 2.875252
O  0.927228 2.172387 1.925037
H  1.052576 2.504874 1.026881
O  -0.732569 -1.032236 1.141095
O  1.879670 -1.450725 0.001960
H  2.628046 -1.405609 -0.601776
O  0.722980 1.785865 -1.082902
H  0.294746 2.125004 -1.876549
O  -1.140281 -0.439358 -2.482577
H  -2.035262 -0.800260 -2.496266
24
11 zpe= -687.189157 src= /lustre/lwork/pjhsu/sugar_opt/pj_sugar/beta_glucose/5S1.xyz:73 moment= 2.343379 0.615010 -0.168612 13.617934 2.600049 1.012297 -0.526558 3.243598 3.830024 1.601577 -0.548802 2.519968 3.548625 1.538610 -0.323842 2.442496
H -2.810391 -1.145033 0.522867
O  -2.400228 -1.721869 -0.135923
C  -1.061259 -1.319772 -0.261655
H  -0.545824 -2.143272 -0.762905
C  -0.965193 -0.033542 -1.093677
H  -1.558878 0.730543 -0.575626
C  0.471793 0.483695 -1.196535
H  0.877555 0.175701 -2.162308
C  1.377536 -0.109277 -0.099210
H  2.198062 0.594374 0.093766
C  0.645865 -0.367316 1.227267
H  1.314882 -0.991477 1.841333
C  0.375738 0.885751 2.077474
H  -0.074416 0.552376 3.014615
H  1.346264 1.345840 2.320411
O  -0.522408 1.826361 1.525630
H  -0.145993 2.191378 0.709826
O  -0.560872 -1.120168 1.054476
O  1.891170 -1.324139 -0.652003
H  2.349368 -1.818096 0.036443
O  0.436496 1.919844 -1.107331
H  1.145099 2.294703 -1.638931
O  -1.455469 -0.252095 -2.408161
H  -2.329898 -0.652508 -2.327845
24
12 zpe= -687.189116 src= /lustre/lwork/pjhsu/sugar_opt/pj_sugar/beta_glucose/5S1.xyz:79 moment= 2.417422 0.737550 0.197185 3.357831 2.642944 1.084476 -0.263130 3.024127 4.292468 1.827284 -0.559846 2.529762 3.907116 1.706630 -0.301914 2.541313
H -2.436573 -2.601345 0.157390
O  -2.285363 -1.861378 -0.440695
C  -0.969669 -1.405267 -0.271951
H  -0.251361 -2.218468 -0.433535
C  -0.766309 -0.269760 -1.270208
H  -1.476099 0.518354 -0.984723
C  0.657614 0.287465 -1.173523
H  1.257320 -0.234721 -1.928963
C  1.306158 0.012870 0.202174
H  1.985758 0.838510 0.430796
C  0.302764 -0.087217 1.352595
H  0.824547 -0.554448 2.192601
C  -0.209294 1.278935 1.813852
H  -0.579049 1.859491 0.962115
H  -1.035671 1.108581 2.512489
O  0.879873 1.945916 2.453973
H  0.658209 2.874749 2.561746
O  -0.845197 -0.905586 1.051149
O  2.011211 -1.235880 0.178547
H  2.781968 -1.147704 -0.391446
O  0.697893 1.695818 -1.412063
H  0.341220 1.860802 -2.291998
O  -0.988381 -0.674042 -2.615523
H  -1.860571 -1.084678 -2.655799
24
13 zpe= -687.188815 src= /lustre/lwork/pjhsu/sugar_opt/pj_sugar/beta_glucose/5S1.xyz:83 moment= 2.337945 0.625080 -0.162638 8.943350 2.591330 0.997923 -0.570952 3.363046 3.808690 1.599194 -0.512978 2.492019 3.534784 1.553831 -0.373722 2.391051
H -2.615689 -1.653380 0.386895
O  -2.049927 -2.152369 -0.216893
C  -0.786766 -1.535002 -0.216166
H  -0.080886 -2.290597 -0.569101
C  -0.779907 -0.315992 -1.151061
H  -1.534679 0.387172 -0.769195
C  0.581756 0.396582 -1.154608
H  1.151732 0.049690 -2.020600
C  1.389594 0.067535 0.105767
H  2.078849 0.893754 0.298905
C  0.488510 -0.121824 1.330054
H  1.116859 -0.473621 2.156787
C  -0.234330 1.169469 1.783483
H  -1.105811 1.337975 1.143688
H  -0.599214 1.019536 2.801447
O  0.608477 2.309659 1.806460
H  0.680805 2.629902 0.897521
O  -0.499271 -1.151461 1.123423
O  2.116909 -1.127183 -0.191756
H  2.599604 -1.403494 0.594602
O  0.439587 1.825462 -1.188233
H  0.009607 2.076052 -2.012838
O  -1.094194 -0.689666 -2.484198
H  -1.880613 -1.249199 -2.453383
24
14 zpe= -687.188549 src= /lustre/lwork/pjhsu/sugar_opt/pj_sugar/beta_glucose/5S1.xyz:113 moment= 2.335406 0.614083 -0.132135 15.378141 2.578655 1.001476 -0.517628 3.320149 3.932980 1.505856 -0.939915 3.205150 3.569808 1.394306 -0.702343 3.024358
H -2.075840 -2.723986 0.310324
O  -1.953151 -1.981655 -0.291493
C  -0.637333 -1.506252 -0.168119
H  0.068168 -2.319346 -0.394083
C  -0.500901 -0.376274 -1.184338
H  -1.308560 0.326508 -0.959184
C  0.837416 0.358272 -1.061376
H  1.565434 -0.118083 -1.723097
C  1.417942 0.304328 0.367834
H  1.957537 1.238695 0.539741
C  0.340656 0.123356 1.440133
H  0.860491 -0.095280 2.379935
C  -0.522726 1.355593 1.753819
H  -1.271624 1.052716 2.488117
H  0.141309 2.087939 2.237992
O  -1.234709 1.949944 0.685310
H  -0.606435 2.265960 0.017687
O  -0.420661 -1.079131 1.175436
O  2.387722 -0.741704 0.463413
H  1.959772 -1.534931 0.803713
O  0.694693 1.744907 -1.416163
H  0.389438 1.792494 -2.329547
O  -0.608439 -0.860056 -2.519759
H  -1.479198 -1.263011 -2.617290
24
15 zpe= -687.188537 src= /lustre/lwork/pjhsu/sugar_opt/pj_sugar/beta_glucose/5S1.xyz:116 moment= 2.398404 0.705279 0.120247 3.836310 2.636267 1.066499 -0.303077 3.143681 4.231836 1.775042 -0.603652 2.613639 3.889096 1.714084 -0.283368 2.460504
H -2.816249 -1.435198 0.003979
O  -2.185379 -2.049676 -0.393627
C  -0.905357 -1.490662 -0.237342
H  -0.196762 -2.320780 -0.305757
C  -0.628192 -0.437144 -1.311856
H  -1.342135 0.384323 -1.145198
C  0.792211 0.121114 -1.179630
H  1.451487 -0.489967 -1.803258
C  1.322346 0.012158 0.260763
H  1.977859 0.867610 0.446373
C  0.219402 0.023289 1.327483
H  0.660163 -0.311283 2.274587
C  -0.349734 1.423161 1.579231
H  -0.605759 1.912890 0.634065
H  -1.256675 1.318029 2.185320
O  0.654729 2.157628 2.280338
H  0.465658 3.097254 2.210949
O  -0.866966 -0.878311 1.043302
O  2.062028 -1.215050 0.306661
H  2.441165 -1.315362 1.186311
O  0.860665 1.492737 -1.577882
H  0.638446 1.540672 -2.514143
O  -0.780225 -0.961001 -2.622966
H  -1.612723 -1.449432 -2.647703
24
16 zpe= -687.188519 src= /lustre/lwork/pjhsu/sugar_opt/pj_sugar/beta_glucose/5S1.xyz:124 moment= 2.419559 0.736749 0.151798 3.247818 2.636836 1.076983 -0.270485 3.088071 4.221807 1.851616 -0.476793 2.336322 3.922664 1.727299 -0.260184 2.558928
H -1.851390 -2.999620 -0.384745
O  -1.985278 -2.097954 -0.696349
C  -0.775229 -1.398021 -0.594888
H  0.023457 -1.915898 -1.140434
C  -1.024099 -0.000748 -1.152671
H  -1.774078 0.460732 -0.496098
C  0.258087 0.836438 -1.104044
H  0.744757 0.729399 -2.081609
C  1.256118 0.333176 -0.035905
H  1.798650 1.199292 0.354691
C  0.598716 -0.371602 1.152480
H  1.386267 -0.952062 1.647521
C  0.004883 0.613479 2.171354
H  -0.624327 1.353614 1.675393
H  -0.617080 0.045451 2.871130
O  1.020802 1.350820 2.846686
H  1.474703 0.764508 3.460514
O  -0.437928 -1.301564 0.781887
O  2.164073 -0.618634 -0.609637
H  2.717371 -0.169854 -1.257464
O  -0.011949 2.213289 -0.844940
H  -0.605176 2.537795 -1.531640
O  -1.483377 -0.018306 -2.498297
H  -2.256971 -0.593727 -2.534935
24
17 zpe= -687.188269 src= /lustre/lwork/pjhsu/sugar_opt/pj_sugar/beta_glucose/5S1.xyz:126 moment= 2.341634 0.630202 -0.159165 7.928402 2.573993 0.988329 -0.544247 3.462475 3.800405 1.591303 -0.516017 2.525177 3.552297 1.568629 -0.370383 2.354401
H -2.484141 -1.934233 -0.128554
O  -1.852961 -2.213458 -0.804801
C  -0.653440 -1.517516 -0.568395
H  0.140186 -2.116595 -1.022029
C  -0.711591 -0.120992 -1.207562
H  -1.548030 0.413067 -0.733154
C  0.574625 0.679703 -0.951551
H  1.199546 0.607992 -1.848504
C  1.358340 0.113741 0.246423
H  1.964304 0.915226 0.677125
C  0.432064 -0.421557 1.336030
H  1.061947 -0.929054 2.070430
C  -0.402376 0.675105 2.039174
H  -1.262925 0.931052 1.413195
H  -0.787934 0.262991 2.973475
O  0.344682 1.834298 2.372692
H  0.415677 2.367478 1.570273
O  -0.483675 -1.421317 0.836080
O  2.186739 -0.978856 -0.158477
H  2.915906 -0.639730 -0.687551
O  0.308175 2.059227 -0.653467
H  -0.152709 2.458444 -1.399343
O  -0.917769 -0.204170 -2.610606
H  -1.646637 -0.819845 -2.760906
24
18 zpe= -687.188136 src= /lustre/lwork/pjhsu/sugar_opt/pj_sugar/beta_glucose/5S1.xyz:130 moment= 2.403067 0.710762 0.139268 3.790381 2.636020 1.070719 -0.319538 3.026378 4.265077 1.795496 -0.606534 2.580833 3.882905 1.709422 -0.272655 2.507752
H -2.706064 -1.659487 0.244983
O  -2.115719 -2.142812 -0.347911
C  -0.862680 -1.507145 -0.292877
H  -0.123178 -2.256305 -0.589763
C  -0.827726 -0.289976 -1.221184
H  -1.562150 0.428934 -0.826718
C  0.552466 0.376330 -1.206316
H  1.121960 -0.042739 -2.044400
C  1.332769 0.061978 0.089749
H  1.971379 0.918614 0.323001
C  0.439873 -0.187025 1.306839
H  1.061903 -0.665483 2.068135
C  -0.129970 1.102257 1.901876
H  -0.607587 1.708179 1.124476
H  -0.881815 0.823672 2.648967
O  0.956998 1.806106 2.502711
H  0.683638 2.708992 2.686022
O  -0.664207 -1.079067 1.042488
O  2.113517 -1.128025 -0.077699
H  2.821755 -0.951676 -0.705441
O  0.465175 1.796952 -1.340269
H  0.037959 1.993532 -2.181395
O  -1.144444 -0.632415 -2.563340
H  -1.935851 -1.185387 -2.542937
24
19 zpe= -687.187973 src= /lustre/lwork/pjhsu/sugar_opt/pj_sugar/beta_glucose/5S1.xyz:133 moment= 2.414812 0.733408 0.154907 3.293752 2.636697 1.075666 -0.247609 3.118115 4.218819 1.840411 -0.486117 2.365889 3.918998 1.724105 -0.273077 2.524956
H -1.923992 -2.970275 -0.006096
O  -1.894703 -2.190661 -0.570905
C  -0.679534 -1.522701 -0.365189
H  0.169106 -2.202851 -0.508750
C  -0.636720 -0.362726 -1.353250
H  -1.469323 0.302887 -1.088073
C  0.679726 0.406644 -1.223401
H  1.405091 -0.061631 -1.896336
C  1.277126 0.315152 0.192825
H  1.759964 1.271313 0.414945
C  0.236275 0.043392 1.287021
H  0.776221 -0.275976 2.190027
C  -0.571155 1.299685 1.661379
H  -0.924096 1.817058 0.768385
H  -1.441781 0.986294 2.246373
O  0.232745 2.240875 2.370654
H  0.318473 1.951674 3.284319
O  -0.672847 -1.024022 0.968987
O  2.246471 -0.742322 0.135326
H  2.696032 -0.796042 0.985099
O  0.515374 1.785565 -1.551820
H  0.220984 1.838074 -2.467863
O  -0.757487 -0.790458 -2.703049
H  -1.560951 -1.319951 -2.771607
24
20 zpe= -687.187893 src= /lustre/lwork/pjhsu/sugar_opt/pj_sugar/beta_glucose/5S1.xyz:136 moment= 2.327583 0.614504 -0.104843 14.541989 2.575311 0.994265 -0.559264 3.297716 3.918233 1.523522 -0.829261 3.096801 3.380614 1.421592 -0.309132 2.653007
H -1.874601 -2.875534 0.120501
O  -1.854043 -2.028531 -0.338970
C  -0.530268 -1.544560 -0.343181
H  0.128661 -2.282078 -0.819385
C  -0.570388 -0.263029 -1.185569
H  -1.432317 0.312874 -0.833879
C  0.676702 0.619768 -1.043384
H  1.362684 0.400326 -1.865481
C  1.428147 0.372681 0.277217
H  1.916929 1.303096 0.566630
C  0.481806 -0.091173 1.384107
H  1.089486 -0.320430 2.262451
C  -0.620206 0.913627 1.795512
H  -1.477663 0.837387 1.120721
H  -0.975418 0.643727 2.791586
O  -0.144995 2.246948 1.877045
H  -0.041944 2.576397 0.972822
O  -0.075385 -1.371065 0.998570
O  2.458824 -0.595050 0.084067
H  2.130270 -1.454325 0.372544
O  0.312926 2.011067 -1.057978
H  -0.081991 2.222561 -1.910910
O  -0.738538 -0.576897 -2.564184
H  -1.569676 -1.056784 -2.660856
24
21 zpe= -687.187195 src= /lustre/lwork/pjhsu/sugar_opt/pj_sugar/beta_glucose/5S1.xyz:139 moment= 2.401422 0.708505 0.104867 3.740579 2.623600 1.060090 -0.273157 3.218154 4.198728 1.822299 -0.498491 2.403106 3.901678 1.733189 -0.241915 2.482344
H -2.605127 -1.764880 0.134913
O  -2.084026 -2.077816 -0.616288
C  -0.860992 -1.387429 -0.592612
H  -0.158412 -1.987231 -1.177824
C  -1.006916 0.020090 -1.173566
H  -1.681002 0.574748 -0.502325
C  0.343458 0.742739 -1.208650
H  0.808963 0.531510 -2.176128
C  1.311207 0.214661 -0.133950
H  1.928030 1.052349 0.204796
C  0.609009 -0.381679 1.093480
H  1.351223 -0.972200 1.649542
C  0.071487 0.695588 2.052111
H  -0.473623 1.465909 1.504829
H  -0.616639 0.216334 2.756616
O  1.132532 1.367615 2.725976
H  1.461508 0.803272 3.432609
O  -0.457220 -1.292090 0.766522
O  2.112752 -0.774741 -0.794610
H  2.770937 -1.106991 -0.175252
O  0.194967 2.150450 -1.022861
H  -0.322253 2.494579 -1.759305
O  -1.532438 0.000430 -2.492524
H  -2.301425 -0.583221 -2.493498
24
22 zpe= -687.186929 src= /lustre/lwork/pjhsu/sugar_opt/pj_sugar/beta_glucose/5S1.xyz:140 moment= 2.383081 0.652835 -0.162513 5.387840 2.632850 1.059359 -0.410765 2.988361 3.950625 1.528927 -0.891012 3.107608 3.594398 1.548473 -0.370180 2.421555
H -2.586454 -2.247977 0.131922
O  -2.359439 -1.481684 -0.406039
C  -0.991002 -1.211250 -0.259107
H  -0.392121 -2.103943 -0.483085
C  -0.662627 -0.066840 -1.215171
H  -1.226932 0.811276 -0.881841
C  0.826954 0.258845 -1.158348
H  1.320696 -0.423866 -1.863370
C  1.438417 -0.007486 0.235466
H  2.133836 0.810801 0.449619
C  0.447769 -0.111602 1.407971
H  0.970805 -0.708394 2.163178
C  0.044537 1.210487 2.080120
H  -0.343975 0.971289 3.078146
H  0.923458 1.846495 2.206174
O  -0.908623 1.964072 1.350371
H  -1.713194 1.433670 1.314313
O  -0.772370 -0.814386 1.088873
O  2.135364 -1.264215 0.238823
H  2.827110 -1.237323 -0.430858
O  1.105052 1.605210 -1.521740
H  0.668427 1.785499 -2.361820
O  -0.977955 -0.385981 -2.566018
H  -1.909733 -0.632695 -2.599580
24
23 zpe= -687.18666 src= /lustre/lwork/pjhsu/sugar_opt/pj_sugar/beta_glucose/5S1.xyz:142 moment= 2.342146 0.619317 -0.075988 12.459959 2.602481 1.027405 -0.410073 3.301462 3.938557 1.526136 -0.850697 3.180885 3.665550 1.437894 -0.642781 3.204214
H -2.416177 -2.444303 0.279380
O  -2.189806 -1.738915 -0.336602
C  -0.829622 -1.424643 -0.187382
H  -0.224167 -2.321822 -0.382337
C  -0.530299 -0.354735 -1.239103
H  -1.285141 0.425807 -1.109377
C  0.850153 0.281329 -1.062883
H  1.550645 -0.215919 -1.737269
C  1.400864 0.132840 0.376065
H  2.059696 0.982682 0.576738
C  0.294072 0.091220 1.432261
H  0.771907 -0.176072 2.382606
C  -0.435734 1.412646 1.722692
H  -1.183098 1.204625 2.491056
H  0.307398 2.097508 2.160289
O  -1.130555 2.025146 0.656040
H  -0.499047 2.292976 -0.028740
O  -0.596926 -1.011230 1.158943
O  2.218367 -1.036928 0.466383
H  1.692189 -1.760302 0.824217
O  0.724560 1.672337 -1.417711
H  1.553840 1.985697 -1.791023
O  -0.596648 -0.917530 -2.543357
H  -1.505476 -1.201413 -2.693885
24
24 zpe= -687.186168 src= /lustre/lwork/pjhsu/sugar_opt/pj_sugar/beta_glucose/5S1.xyz:145 moment= 2.418414 0.730201 0.185360 3.484479 2.671354 1.086284 -0.336617 3.017208 4.348831 1.768662 -0.833025 2.745476 3.878035 1.663143 -0.405834 2.491736
H -2.295414 -2.560564 -0.076988
O  -2.235288 -1.714751 -0.534886
C  -0.900775 -1.278433 -0.494983
H  -0.245740 -1.996728 -1.003938
C  -0.871616 0.084068 -1.181344
H  -1.518042 0.742370 -0.586159
C  0.547136 0.661987 -1.188336
H  1.003211 0.389420 -2.148488
C  1.423111 0.069345 -0.064303
H  2.151716 0.833428 0.226172
C  0.629954 -0.347904 1.178719
H  1.288803 -0.975621 1.786146
C  0.209426 0.840835 2.040591
H  1.067012 1.515852 2.162961
H  -0.597080 1.397532 1.553790
O  -0.203854 0.330722 3.305846
H  -0.753138 0.986711 3.742884
O  -0.520867 -1.156098 0.864808
O  2.092626 -1.112727 -0.516685
H  2.683837 -0.878794 -1.239902
O  0.549657 2.081731 -1.035190
H  0.017565 2.462611 -1.742617
O  -1.328897 0.027472 -2.526959
H  -2.192339 -0.403463 -2.522137
24
25 zpe= -687.186144 src= /lustre/lwork/pjhsu/sugar_opt/pj_sugar/beta_glucose/5S1.xyz:146 moment= 2.385794 0.680054 -0.022870 4.080241 2.632249 1.060184 -0.319201 3.176655 4.062633 1.693957 -0.645437 2.548605 3.831126 1.632985 -0.441005 2.461721
H -2.580070 -1.583611 0.173556
O  -2.037330 -1.995930 -0.512057
C  -0.763344 -1.403563 -0.435051
H  -0.059294 -2.137384 -0.840486
C  -0.721958 -0.104288 -1.243259
H  -1.430560 0.592866 -0.773459
C  0.674294 0.520615 -1.206587
H  1.240809 0.099079 -2.046511
C  1.428676 0.168460 0.096117
H  2.039901 1.036134 0.368806
C  0.494988 -0.158975 1.264913
H  1.111336 -0.633918 2.037308
C  -0.143005 1.100978 1.868391
H  0.668549 1.749022 2.229299
H  -0.701796 1.664699 1.121093
O  -1.065888 0.814764 2.907662
H  -0.645278 0.239913 3.555974
O  -0.501094 -1.140882 0.930321
O  2.248991 -0.988752 -0.084193
H  2.913031 -0.800484 -0.755764
O  0.628740 1.942918 -1.314736
H  0.162389 2.168140 -2.127725
O  -1.073714 -0.317685 -2.602941
H  -1.890374 -0.833117 -2.613672
24
26 zpe= -687.18594 src= /lustre/lwork/pjhsu/sugar_opt/pj_sugar/beta_glucose/5S1.xyz:147 moment= 2.406141 0.711448 0.058064 3.385442 2.648035 1.077729 -0.291088 3.073662 4.130679 1.733350 -0.658773 2.507787 3.870079 1.652371 -0.425398 2.498862
H -2.507860 -2.321774 0.324750
O  -2.212600 -1.767397 -0.405924
C  -0.896722 -1.350993 -0.153682
H  -0.225502 -2.216812 -0.082609
C  -0.502845 -0.436286 -1.309178
H  -1.187352 0.420945 -1.273608
C  0.932653 0.064756 -1.137204
H  1.587210 -0.647701 -1.655625
C  1.363893 0.106430 0.345515
H  2.048426 0.953218 0.465519
C  0.191746 0.282756 1.316661
H  0.574274 0.030893 2.313687
C  -0.321095 1.728659 1.354493
H  0.529747 2.386595 1.583457
H  -0.721119 2.031903 0.386738
O  -1.373543 1.920229 2.286712
H  -1.092752 1.597702 3.149526
O  -0.885245 -0.636864 1.072664
O  2.007865 -1.114510 0.724953
H  2.805138 -1.223997 0.195931
O  1.112212 1.372257 -1.678801
H  0.839497 1.356042 -2.603178
O  -0.587434 -1.084954 -2.571647
H  -1.476594 -1.451094 -2.652151
24
27 zpe= -687.185931 src= /lustre/lwork/pjhsu/sugar_opt/pj_sugar/beta_glucose/5S1.xyz:149 moment= 2.367582 0.638821 -0.169112 6.870819 2.617151 1.044803 -0.424345 3.068953 3.921352 1.514465 -0.889114 3.120935 3.675679 1.411899 -0.823709 3.177259
H -2.095549 -2.679465 0.090462
O  -2.020717 -1.844804 -0.384295
C  -0.701612 -1.374332 -0.280190
H  0.012956 -2.163249 -0.542991
C  -0.585597 -0.185601 -1.233549
H  -1.302620 0.572260 -0.902055
C  0.814262 0.423892 -1.187246
H  1.443719 -0.128958 -1.892685
C  1.463677 0.263050 0.195534
H  2.043945 1.169335 0.401036
C  0.480334 0.038020 1.356784
H  1.083762 -0.339461 2.193829
C  -0.260762 1.289439 1.895186
H  -0.440976 1.137768 2.967180
H  0.366452 2.175960 1.781639
O  -1.481524 1.565276 1.233823
H  -2.031892 0.777070 1.323154
O  -0.488081 -0.987732 1.080643
O  2.334067 -0.871239 0.070602
H  2.751836 -1.041627 0.921443
O  0.803800 1.809578 -1.515547
H  0.379440 1.907685 -2.375027
O  -0.841834 -0.569659 -2.580579
H  -1.730086 -0.943203 -2.615150
24
28 zpe= -687.185884 src= /lustre/lwork/pjhsu/sugar_opt/pj_sugar/beta_glucose/5S1.xyz:154 moment= 2.377929 0.669922 -0.055156 4.413807 2.605841 1.047938 -0.275115 3.277876 4.017440 1.657685 -0.660424 2.638997 3.835552 1.636485 -0.443963 2.436809
H -2.473122 -1.645816 0.356788
O  -2.087504 -1.922504 -0.485478
C  -0.826054 -1.308320 -0.582063
H  -0.243635 -1.916825 -1.280196
C  -0.955819 0.127377 -1.096136
H  -1.548451 0.686441 -0.357801
C  0.415150 0.796501 -1.231933
H  0.805643 0.568262 -2.228417
C  1.427119 0.234229 -0.217415
H  2.090775 1.053840 0.080262
C  0.754009 -0.348926 1.033417
H  1.516051 -0.910044 1.595070
C  0.217895 0.745143 1.972328
H  1.072558 1.353881 2.300681
H  -0.473264 1.410711 1.456285
O  -0.497701 0.228225 3.083454
H  0.044094 -0.426832 3.536080
O  -0.246553 -1.325887 0.714526
O  2.157637 -0.774804 -0.920565
H  2.759741 -1.213967 -0.310699
O  0.335017 2.208518 -1.036969
H  -0.247790 2.569662 -1.714102
O  -1.593458 0.171063 -2.364337
H  -2.398340 -0.358929 -2.304779
24
29 zpe= -687.185873 src= /lustre/lwork/pjhsu/sugar_opt/pj_sugar/beta_glucose/5S1.xyz:156 moment= 2.366008 0.647556 -0.184022 5.299786 2.613668 1.061907 -0.253860 3.133074 3.756989 1.613908 -0.619906 2.435740 3.750683 1.599387 -0.353413 2.518387
H -2.762166 -1.338209 0.233189
O  -2.109754 -1.975563 -0.083210
C  -0.885131 -1.339019 -0.235735
H  -0.223816 -2.081008 -0.695317
C  -0.957105 -0.058870 -1.079601
H  -1.530705 0.676978 -0.505834
C  0.454462 0.510596 -1.312835
H  0.856660 0.061377 -2.228467
C  1.430911 0.136770 -0.184954
H  2.145564 0.959960 -0.073145
C  0.742824 -0.109552 1.161084
H  1.454050 -0.617081 1.825906
C  0.295679 1.169854 1.873886
H  1.165217 1.796819 2.085593
H  -0.387270 1.748293 1.240425
O  -0.299794 0.865586 3.126021
H  -0.950746 0.170320 2.969485
O  -0.393666 -0.996554 1.065615
O  2.099448 -1.047185 -0.640067
H  2.688861 -1.361616 0.053753
O  0.432232 1.930250 -1.429724
H  -0.154060 2.161648 -2.159117
O  -1.666510 -0.206987 -2.303637
H  -1.446185 -1.055803 -2.704314
24
30 zpe= -687.185825 src= /lustre/lwork/pjhsu/sugar_opt/pj_sugar/beta_glucose/5S1.xyz:160 moment= 2.394108 0.698575 0.138856 4.185349 2.628686 1.058969 -0.314775 3.180682 4.300065 1.730160 -0.861169 2.828454 3.853608 1.659744 -0.397537 2.437109
H -2.475025 -1.722218 0.187866
O  -1.913904 -2.128028 -0.486148
C  -0.666930 -1.477180 -0.426403
H  0.072056 -2.195715 -0.792645
C  -0.671569 -0.215794 -1.294216
H  -1.422881 0.466395 -0.870310
C  0.690649 0.485137 -1.263685
H  1.297064 0.085466 -2.082082
C  1.447963 0.189849 0.041207
H  2.062248 1.065484 0.277642
C  0.517533 -0.105252 1.227366
H  1.124951 -0.497651 2.052953
C  -0.173596 1.146134 1.767629
H  0.581814 1.932280 1.898655
H  -0.923001 1.512606 1.059072
O  -0.766921 0.803261 3.017384
H  -1.278825 1.553213 3.333527
O  -0.433718 -1.143405 0.933182
O  2.276530 -0.940898 -0.243104
H  2.704927 -1.229699 0.569721
O  0.560780 1.903094 -1.381851
H  0.159038 2.095324 -2.236137
O  -0.990982 -0.511079 -2.646097
H  -1.778203 -1.070326 -2.642522
24
31 zpe= -687.185449 src= /lustre/lwork/pjhsu/sugar_opt/pj_sugar/beta_glucose/5S1.xyz:162 moment= 2.400750 0.706663 0.161186 4.030624 2.656519 1.070009 -0.363950 3.104851 4.330314 1.759821 -0.819182 2.763237 3.847328 1.653541 -0.396494 2.470505
H -2.829112 -1.158513 -0.079927
O  -2.277874 -1.701162 -0.659209
C  -0.942326 -1.324343 -0.416602
H  -0.330745 -2.212184 -0.605654
C  -0.535698 -0.171895 -1.339099
H  -1.168732 0.687864 -1.075803
C  0.927803 0.220310 -1.117275
H  1.532007 -0.355381 -1.829561
C  1.405068 -0.136680 0.307430
H  2.154016 0.605839 0.603254
C  0.279126 -0.137085 1.347326
H  0.663682 -0.629965 2.244554
C  -0.150590 1.273067 1.746127
H  0.747799 1.849204 2.005274
H  -0.648726 1.778888 0.912022
O  -1.016654 1.158292 2.871370
H  -1.367967 2.028261 3.080946
O  -0.861402 -0.916169 0.934367
O  1.963470 -1.452820 0.339617
H  2.734028 -1.479937 -0.237226
O  1.147113 1.618300 -1.311307
H  0.871005 1.845593 -2.206231
O  -0.706460 -0.504942 -2.709666
H  -1.589832 -0.883545 -2.805729
24
32 zpe= -687.185393 src= /lustre/lwork/pjhsu/sugar_opt/pj_sugar/beta_glucose/5S1.xyz:163 moment= 2.374217 0.659724 -0.132615 4.641134 2.617956 1.062530 -0.267086 3.122124 3.923356 1.492621 -0.958812 3.298275 3.674411 1.445089 -0.703794 2.970838
H -2.223145 -2.497374 0.542509
O  -2.135689 -1.843857 -0.160612
C  -0.831182 -1.353722 -0.139814
H  -0.103166 -2.170314 -0.255789
C  -0.674232 -0.321841 -1.257280
H  -1.388349 0.479743 -1.053617
C  0.752704 0.261819 -1.257095
H  1.374040 -0.360057 -1.913002
C  1.422591 0.220292 0.126308
H  2.082878 1.091343 0.204835
C  0.421764 0.245406 1.282146
H  0.946062 -0.024826 2.207503
C  -0.227000 1.614316 1.514633
H  0.541570 2.341626 1.787621
H  -0.717614 1.973062 0.602849
O  -1.138562 1.559379 2.600296
H  -1.744331 0.829192 2.421941
O  -0.620452 -0.742645 1.137377
O  2.189043 -0.992038 0.141777
H  2.599405 -1.091780 1.007316
O  0.760129 1.611312 -1.712758
H  0.339980 1.635552 -2.580185
O  -1.022919 -0.805175 -2.547781
H  -0.601527 -1.659414 -2.696179
24
33 zpe= -687.185391 src= /lustre/lwork/pjhsu/sugar_opt/pj_sugar/beta_glucose/5S1.xyz:164 moment= 2.400264 0.704004 0.038763 3.512723 2.623102 1.066891 -0.247300 3.154403 4.100955 1.708500 -0.666261 2.576123 3.872484 1.655912 -0.425620 2.471402
H -2.377026 -2.461291 0.002000
O  -2.190920 -1.710991 -0.572823
C  -0.851657 -1.328212 -0.402397
H  -0.178871 -2.161252 -0.641250
C  -0.617276 -0.147865 -1.339814
H  -1.307857 0.644799 -1.025362
C  0.819855 0.366956 -1.228155
H  1.433132 -0.188082 -1.945051
C  1.420208 0.108176 0.163976
H  2.097538 0.938236 0.392632
C  0.356701 0.004883 1.268057
H  0.852859 -0.392475 2.167352
C  -0.231495 1.371173 1.653162
H  0.601623 2.039280 1.915137
H  -0.762119 1.823131 0.816051
O  -1.172788 1.293799 2.712338
H  -0.762016 0.866277 3.471019
O  -0.665411 -0.950487 0.958421
O  2.152463 -1.117037 0.047436
H  2.509049 -1.353344 0.910112
O  0.897377 1.768759 -1.484587
H  0.568186 1.926546 -2.376418
O  -0.850324 -0.488653 -2.700022
H  -1.742229 -0.851329 -2.761818
24
34 zpe= -687.185231 src= /lustre/lwork/pjhsu/sugar_opt/pj_sugar/beta_glucose/5S1.xyz:166 moment= 2.373661 0.661151 -0.126392 4.519482 2.628507 1.062423 -0.395739 2.891232 3.852365 1.570451 -0.726626 2.611152 3.556151 1.509043 -0.396580 2.513577
H -2.080238 -2.408618 -1.011001
O  -1.829720 -2.186216 -0.105092
C  -0.592185 -1.525787 -0.178214
H  0.199003 -2.230342 -0.471713
C  -0.652769 -0.365930 -1.173609
H  -1.449179 0.311196 -0.845796
C  0.665114 0.404299 -1.218395
H  1.335390 -0.101695 -1.920079
C  1.381515 0.405937 0.153526
H  1.830432 1.395958 0.311615
C  0.446015 0.112326 1.329803
H  1.058441 -0.109901 2.212961
C  -0.470310 1.282669 1.714801
H  0.137880 2.122109 2.062325
H  -1.055155 1.628421 0.854194
O  -1.315509 0.916473 2.790680
H  -1.712355 0.065886 2.559646
O  -0.347493 -1.070806 1.138277
O  2.404251 -0.588315 0.044442
H  2.765391 -0.771731 0.918383
O  0.343151 1.716673 -1.687506
H  1.145899 2.149547 -1.996150
O  -0.992299 -0.933757 -2.437402
H  -1.214270 -0.219394 -3.043695
24
35 zpe= -687.184901 src= /lustre/lwork/pjhsu/sugar_opt/pj_sugar/beta_glucose/5S1.xyz:167 moment= 2.373014 0.679150 0.096202 4.679081 2.611078 1.053993 -0.266093 3.238660 4.146517 1.778135 -0.550751 2.431967 3.830204 1.657685 -0.305419 2.612778
H -2.660791 -1.407368 0.447552
O  -2.378188 -1.648408 -0.444219
C  -1.054760 -1.198466 -0.602407
H  -0.643928 -1.813978 -1.412913
C  -1.011800 0.278063 -0.993491
H  -1.466776 0.853699 -0.174614
C  0.427086 0.757903 -1.191735
H  0.737880 0.485520 -2.205982
C  1.414870 0.068199 -0.219126
H  2.115471 0.827535 0.130125
C  0.719746 -0.545397 0.996739
H  1.442542 -1.200360 1.494096
C  0.248976 0.487274 2.037486
H  -0.256647 1.332687 1.570433
H  -0.455154 -0.009118 2.715873
O  1.350889 1.048595 2.740318
H  1.730489 0.378690 3.318431
O  -0.360728 -1.434383 0.614766
O  2.204998 -0.913545 -0.895548
H  1.719255 -1.744294 -0.937902
O  0.525626 2.168927 -1.006674
H  -0.026660 2.595463 -1.671677
O  -1.721860 0.509654 -2.201516
H  -2.601530 0.123110 -2.109015
24
36 zpe= -687.184758 src= /lustre/lwork/pjhsu/sugar_opt/pj_sugar/beta_glucose/5S1.xyz:169 moment= 2.348427 0.633778 -0.112336 7.900113 2.592670 1.028554 -0.378047 3.270571 3.966367 1.512596 -0.989301 3.242416 3.558311 1.397007 -0.675911 2.987571
H -2.322805 -2.430079 0.850761
O  -2.171881 -1.957543 0.024106
C  -0.880887 -1.431637 0.060861
H  -0.132897 -2.239326 0.077792
C  -0.688313 -0.530630 -1.158980
H  -1.433898 0.262696 -1.072840
C  0.719928 0.100351 -1.143364
H  1.390393 -0.526729 -1.739107
C  1.332081 0.177872 0.263476
H  1.997094 1.048829 0.299123
C  0.285214 0.303616 1.378971
H  0.800489 0.090486 2.328832
C  -0.297200 1.716385 1.550662
H  -1.016105 1.677731 2.371159
H  0.526614 2.379625 1.858405
O  -0.995048 2.242868 0.440709
H  -0.392498 2.313095 -0.315878
O  -0.760423 -0.670622 1.263599
O  2.091878 -1.029280 0.406599
H  2.443760 -1.072277 1.302061
O  0.705326 1.428583 -1.687096
H  0.319813 1.386645 -2.570346
O  -0.938208 -1.172118 -2.403836
H  -0.582431 -2.067541 -2.384669
24
37 zpe= -687.184523 src= /lustre/lwork/pjhsu/sugar_opt/pj_sugar/beta_glucose/5S1.xyz:170 moment= 2.340426 0.614142 -0.170332 14.133751 2.577828 0.999631 -0.502054 3.345574 3.818409 1.535375 -0.612436 2.877276 3.542292 1.522807 -0.376057 2.411261
H -2.525266 -1.845840 -0.178750
O  -1.782121 -2.388231 -0.472332
C  -0.622996 -1.635138 -0.343793
H  0.202944 -2.310905 -0.579304
C  -0.601297 -0.404787 -1.263315
H  -1.457731 0.216610 -0.977390
C  0.677398 0.426240 -1.059757
H  1.404303 0.114627 -1.813477
C  1.327098 0.204238 0.319083
H  1.853967 1.121870 0.616263
C  0.310814 -0.147470 1.411780
H  0.886280 -0.514761 2.277485
C  -0.491691 1.048522 1.954004
H  -1.138539 0.673107 2.748962
H  0.219827 1.755260 2.408814
O  -1.345135 1.697608 1.030668
H  -0.815913 2.083499 0.316299
O  -0.559226 -1.212212 1.026682
O  2.265798 -0.855734 0.120837
H  2.558161 -1.186055 0.977158
O  0.317735 1.807753 -1.263609
H  1.102162 2.310853 -1.506465
O  -0.717038 -0.840742 -2.610621
H  -1.069534 -0.117314 -3.137221
24
38 zpe= -687.18437 src= /lustre/lwork/pjhsu/sugar_opt/pj_sugar/beta_glucose/5S1.xyz:172 moment= 2.348009 0.623723 -0.099565 10.016153 2.609683 1.029349 -0.470112 3.116028 3.837996 1.569104 -0.728920 2.589958 3.604806 1.591357 -0.275657 2.339405
H -2.559528 -1.885032 -1.048429
O  -2.297119 -1.803577 -0.121900
C  -0.957184 -1.397888 -0.122319
H  -0.317169 -2.278803 -0.318822
C  -0.696751 -0.316794 -1.166176
H  -1.338219 0.530134 -0.900697
C  0.770098 0.144248 -1.151447
H  1.334202 -0.461488 -1.863313
C  1.437133 -0.081463 0.234557
H  2.156558 0.725198 0.386857
C  0.442734 -0.086622 1.410036
H  0.968858 -0.540905 2.257778
C  0.018721 1.297213 1.891940
H  -0.766369 1.164977 2.641570
H  0.883415 1.782962 2.361447
O  -0.463871 2.103910 0.805934
H  -0.981956 2.834553 1.155393
O  -0.718979 -0.903751 1.179014
O  2.228497 -1.273770 0.246864
H  1.653693 -2.046226 0.219027
O  0.882886 1.484531 -1.613470
H  0.432260 2.042274 -0.960677
O  -1.093734 -0.861765 -2.426059
H  -1.018177 -0.172917 -3.095109
24
39 zpe= -687.184237 src= /lustre/lwork/pjhsu/sugar_opt/pj_sugar/beta_glucose/5S1.xyz:174 moment= 2.401016 0.705274 0.162901 4.050678 2.627561 1.053802 -0.337562 3.212119 4.310111 1.738362 -0.847374 2.828125 3.897063 1.685655 -0.408756 2.418640
H -2.373543 -1.918862 0.160461
O  -1.716809 -2.350434 -0.401930
C  -0.550525 -1.566170 -0.350999
H  0.274597 -2.231415 -0.618476
C  -0.640520 -0.397789 -1.338968
H  -1.504535 0.216765 -1.046849
C  0.602715 0.494296 -1.282506
H  1.267495 0.197113 -2.097525
C  1.377227 0.308419 0.038959
H  1.930189 1.232595 0.246226
C  0.456756 0.012423 1.232143
H  1.081278 -0.292219 2.082942
C  -0.329727 1.237438 1.696359
H  0.354260 2.094099 1.763876
H  -1.112601 1.484935 0.973320
O  -0.879713 0.933069 2.975823
H  -1.510313 1.618387 3.214232
O  -0.426359 -1.093081 0.982373
O  2.287784 -0.770039 -0.189818
H  2.706043 -1.014233 0.642807
O  0.177305 1.852584 -1.436592
H  0.849733 2.340461 -1.920588
O  -0.798227 -0.872881 -2.666203
H  -1.519513 -1.514460 -2.658070
24
40 zpe= -687.184183 src= /lustre/lwork/pjhsu/sugar_opt/pj_sugar/beta_glucose/5S1.xyz:175 moment= 2.345293 0.638727 -0.083385 7.095249 2.583251 1.009303 -0.429645 3.457045 3.986525 1.550021 -0.864972 3.127127 3.472806 1.491336 -0.256800 2.578577
H -2.118813 -2.794584 0.062136
O  -2.120111 -1.980348 -0.453898
C  -0.826376 -1.454234 -0.429989
H  -0.118095 -2.143557 -0.912832
C  -0.853002 -0.112208 -1.174789
H  -1.641828 0.487039 -0.714162
C  0.487548 0.649547 -1.048168
H  1.064781 0.493976 -1.965554
C  1.343584 0.152338 0.118411
H  2.012200 0.959297 0.429951
C  0.481142 -0.276475 1.305597
H  1.141919 -0.718465 2.060972
C  -0.305122 0.882535 1.963380
H  -1.197921 1.095984 1.368628
H  -0.642128 0.552869 2.947778
O  0.474533 2.052279 2.157859
H  0.507086 2.515314 1.310153
O  -0.441482 -1.314794 0.940340
O  2.099572 -0.948724 -0.398807
H  2.591490 -1.355326 0.322482
O  0.278250 2.053238 -0.839535
H  -0.245129 2.401904 -1.569633
O  -1.242996 -0.247612 -2.535090
H  -0.726100 -0.949996 -2.946231
24
41 zpe= -687.184044 src= /lustre/lwork/pjhsu/sugar_opt/pj_sugar/beta_glucose/5S1.xyz:178 moment= 2.386753 0.681021 -0.000950 4.134690 2.606292 1.045149 -0.292489 3.293697 4.054586 1.680984 -0.655922 2.624192 3.880362 1.663462 -0.451000 2.424062
H -2.789282 -1.142586 -0.341243
O  -2.191217 -1.755008 -0.790529
C  -0.880540 -1.329154 -0.516462
H  -0.237287 -2.195016 -0.695148
C  -0.483710 -0.167552 -1.434288
H  -1.184381 0.658844 -1.247003
C  0.928801 0.342407 -1.136307
H  1.617158 -0.153667 -1.824876
C  1.376277 -0.018496 0.297378
H  2.089416 0.743722 0.633716
C  0.202695 -0.065360 1.285801
H  0.572316 -0.508865 2.224172
C  -0.335243 1.332847 1.628482
H  0.492094 1.924653 2.046057
H  -0.687791 1.849451 0.736370
O  -1.438567 1.300000 2.520927
H  -1.199012 0.797257 3.306596
O  -0.846042 -0.938385 0.850357
O  2.020293 -1.291507 0.195975
H  2.212610 -1.624155 1.079153
O  0.939864 1.759378 -1.332269
H  1.766978 2.016067 -1.749078
O  -0.540110 -0.565041 -2.794544
H  -1.404321 -0.968835 -2.942237
24
42 zpe= -687.183848 src= /lustre/lwork/pjhsu/sugar_opt/pj_sugar/beta_glucose/5S1.xyz:179 moment= 2.364839 0.648142 -0.170822 5.346149 2.617168 1.067126 -0.317904 2.906895 3.763050 1.620339 -0.620353 2.403197 3.674837 1.585915 -0.285737 2.493651
H -1.848583 -2.335397 -1.323119
O  -1.509172 -2.364231 -0.419261
C  -0.398048 -1.508430 -0.365261
H  0.506066 -2.040493 -0.698952
C  -0.629345 -0.255743 -1.218320
H  -1.530504 0.230332 -0.837114
C  0.547099 0.726450 -1.127097
H  1.267496 0.493479 -1.922607
C  1.318770 0.572441 0.195735
H  1.701565 1.560581 0.475315
C  0.460172 0.031563 1.342091
H  1.125721 -0.259408 2.164863
C  -0.537395 1.047330 1.911525
H  0.004063 1.896706 2.335528
H  -1.195513 1.431058 1.123150
O  -1.285927 0.470188 2.967580
H  -1.635025 -0.369100 2.640122
O  -0.257693 -1.170740 1.000846
O  2.400332 -0.318427 -0.102451
H  2.859756 -0.541074 0.714250
O  0.119173 2.080362 -1.235039
H  -0.377294 2.180510 -2.054966
O  -0.948404 -0.606422 -2.568811
H  -0.155310 -0.949540 -2.999005
24
43 zpe= -687.18382 src= /lustre/lwork/pjhsu/sugar_opt/pj_sugar/beta_glucose/5S1.xyz:181 moment= 2.342442 0.605171 -0.162803 24.737454 2.609324 1.035782 -0.437412 3.074000 3.770340 1.532123 -0.590213 2.773819 3.572329 1.551832 -0.350482 2.345365
H -2.418949 -1.953587 0.052973
O  -1.628616 -2.500008 -0.036886
C  -0.520552 -1.671033 -0.114126
H  0.314072 -2.348473 -0.337961
C  -0.635662 -0.573601 -1.171528
H  -1.470512 0.069272 -0.859426
C  0.639016 0.294397 -1.226126
H  1.314019 -0.140413 -1.966049
C  1.421039 0.308739 0.113153
H  1.892200 1.288754 0.208931
C  0.536145 0.053826 1.343101
H  1.212933 -0.212392 2.164148
C  -0.234287 1.272331 1.841012
H  -0.890852 0.947350 2.653696
H  0.485779 2.000900 2.234296
O  -1.010189 1.867236 0.788079
H  -1.608152 2.519677 1.164846
O  -0.352988 -1.064398 1.177294
O  2.515498 -0.613751 0.088630
H  2.185468 -1.516880 0.141463
O  0.332259 1.597810 -1.707625
H  -0.226919 2.016640 -1.035413
O  -0.915320 -1.172900 -2.427815
H  -0.937431 -0.469494 -3.086664
24
44 zpe= -687.183794 src= /lustre/lwork/pjhsu/sugar_opt/pj_sugar/beta_glucose/5S1.xyz:182 moment= 2.371801 0.627115 -0.261553 8.495672 2.634842 1.070709 -0.346782 2.955339 3.809691 1.610727 -0.473936 2.476546 3.556919 1.518602 -0.380971 2.493090
H -2.879198 -0.926359 0.213485
O  -2.419258 -1.511928 -0.401654
C  -1.056612 -1.174281 -0.372129
H  -0.521322 -2.039758 -0.773217
C  -0.772114 0.083948 -1.198134
H  -1.264062 0.930527 -0.700216
C  0.730017 0.363274 -1.248379
H  1.140248 -0.213779 -2.083688
C  1.451350 -0.142079 0.013203
H  2.238540 0.579394 0.256330
C  0.570145 -0.339195 1.264883
H  1.114684 -1.049731 1.904815
C  0.338437 0.904124 2.139694
H  0.008672 0.561660 3.128456
H  1.283724 1.436777 2.268782
O  -0.585957 1.837273 1.607649
H  -1.459889 1.438267 1.663905
O  -0.710787 -0.938132 0.989578
O  2.028692 -1.399626 -0.372504
H  2.518922 -1.762962 0.372524
O  1.025135 1.745402 -1.412799
H  0.596177 2.047688 -2.220711
O  -1.234152 -0.050522 -2.536024
H  -2.141392 -0.377979 -2.503851
24
45 zpe= -687.183483 src= /lustre/lwork/pjhsu/sugar_opt/pj_sugar/beta_glucose/5S1.xyz:183 moment= 2.408434 0.713433 0.074060 3.416264 2.622805 1.063110 -0.263239 3.186181 4.121375 1.722797 -0.657736 2.570040 3.923267 1.682029 -0.441064 2.468400
H -2.437508 -2.420459 -0.289481
O  -2.393565 -1.498141 -0.563824
C  -1.047462 -1.109871 -0.633420
H  -0.498717 -1.744183 -1.339709
C  -1.043559 0.346261 -1.094078
H  -1.627891 0.915887 -0.360812
C  0.372699 0.924356 -1.129952
H  0.737671 0.849926 -2.157565
C  1.350482 0.127046 -0.240213
H  2.141573 0.810504 0.090486
C  0.671177 -0.475456 0.998629
H  1.383255 -1.183382 1.453938
C  0.343492 0.579340 2.066159
H  1.260003 1.145747 2.286534
H  -0.400632 1.285506 1.699845
O  -0.201487 0.017815 3.250510
H  0.410239 -0.638013 3.600847
O  -0.484235 -1.252691 0.668419
O  1.900246 -0.894562 -1.079212
H  2.452083 -1.477957 -0.547568
O  0.300356 2.289612 -0.710108
H  0.920815 2.812618 -1.225291
O  -1.607505 0.475048 -2.390494
H  -2.501529 0.115052 -2.354642
24
46 zpe= -687.183007 src= /lustre/lwork/pjhsu/sugar_opt/pj_sugar/beta_glucose/5S1.xyz:186 moment= 2.373571 0.675890 0.149035 5.052149 2.615765 1.048944 -0.331620 3.225448 4.239336 1.693118 -0.868582 2.881632 3.840708 1.614498 -0.505537 2.543340
H -2.415277 -1.615075 0.485620
O  -1.847034 -2.173037 -0.061416
C  -0.579796 -1.559666 -0.099430
H  0.128190 -2.375649 -0.285921
C  -0.501721 -0.550926 -1.251867
H  -1.317625 0.172877 -1.126059
C  0.815576 0.228816 -1.261621
H  1.513876 -0.285718 -1.926561
C  1.464487 0.286131 0.145020
H  2.035959 1.215733 0.213955
C  0.418717 0.246551 1.260515
H  0.935450 0.172371 2.222210
C  -0.460517 1.493141 1.338846
H  0.201090 2.368706 1.378663
H  -1.097004 1.597152 0.456021
O  -1.241477 1.390319 2.526809
H  -1.815558 2.159480 2.585972
O  -0.342516 -0.977362 1.176423
O  2.397492 -0.785201 0.299320
H  2.007164 -1.473438 0.848859
O  0.523698 1.545943 -1.743812
H  1.281796 1.876818 -2.234164
O  -0.640895 -1.228339 -2.490733
H  -1.463074 -1.732626 -2.456652
24
47 zpe= -687.182935 src= /lustre/lwork/pjhsu/sugar_opt/pj_sugar/beta_glucose/5S1.xyz:187 moment= 2.347548 0.638020 -0.108229 7.231593 2.575116 0.994184 -0.526544 3.370478 3.887970 1.604109 -0.712147 2.512398 3.579839 1.572192 -0.289520 2.373587
H -1.762577 -2.574909 -1.394548
O  -1.412694 -2.578883 -0.494489
C  -0.378644 -1.633062 -0.467121
H  0.502634 -2.018757 -0.999019
C  -0.833168 -0.305599 -1.080124
H  -1.673680 0.045860 -0.474834
C  0.291351 0.733053 -1.027312
H  0.857906 0.680305 -1.960390
C  1.282635 0.454526 0.124616
H  1.665990 1.414151 0.498323
C  0.647035 -0.297831 1.304344
H  1.475891 -0.656359 1.936201
C  -0.197167 0.588594 2.237535
H  -0.587626 -0.052302 3.029593
H  0.479563 1.322968 2.702237
O  -1.321852 1.221881 1.657825
H  -1.035654 1.824034 0.955378
O  -0.078148 -1.461982 0.904286
O  2.346246 -0.295784 -0.467009
H  2.892943 -0.674734 0.229707
O  -0.329933 2.026282 -0.897950
H  0.281285 2.705965 -1.201257
O  -1.252981 -0.578386 -2.419158
H  -1.861357 0.111970 -2.699834
24
48 zpe= -687.182548 src= /lustre/lwork/pjhsu/sugar_opt/pj_sugar/beta_glucose/5S1.xyz:188 moment= 2.327863 0.599142 -0.178021 61.775136 2.584874 1.002247 -0.525311 3.330893 3.905195 1.473429 -1.001315 3.369930 3.545145 1.389466 -0.685344 2.983546
H -1.944685 -2.763161 0.389222
O  -1.886056 -2.061122 -0.268807
C  -0.590662 -1.540998 -0.234716
H  0.131199 -2.318927 -0.536857
C  -0.542406 -0.359300 -1.207394
H  -1.404975 0.260916 -0.963287
C  0.734417 0.492643 -1.054089
H  1.496713 0.131537 -1.752354
C  1.364599 0.418761 0.350409
H  1.837735 1.381624 0.559342
C  0.338606 0.083883 1.432323
H  0.896322 -0.120983 2.353448
C  -0.646660 1.197390 1.820807
H  -1.344360 0.777785 2.548182
H  -0.055503 1.970799 2.334900
O  -1.437210 1.765609 0.795409
H  -0.857639 2.188645 0.143354
O  -0.270699 -1.187683 1.116881
O  2.404669 -0.563973 0.350328
H  2.055682 -1.377511 0.731851
O  0.453691 1.873809 -1.334204
H  0.071566 1.931135 -2.218217
O  -0.731337 -0.757492 -2.560704
H  -0.074008 -1.423384 -2.793827
24
49 zpe= -687.182525 src= /lustre/lwork/pjhsu/sugar_opt/pj_sugar/beta_glucose/5S1.xyz:189 moment= 2.400061 0.709228 0.094503 3.729022 2.606717 1.044047 -0.339927 3.186450 4.183142 1.809754 -0.501671 2.412892 3.893027 1.668739 -0.340043 2.665583
H -2.497269 -2.122573 -0.233129
O  -1.669974 -2.592011 -0.395340
C  -0.624608 -1.684531 -0.370593
H  0.271814 -2.246053 -0.643768
C  -0.828279 -0.474283 -1.287073
H  -1.671191 0.100151 -0.874142
C  0.411360 0.429581 -1.263558
H  1.077226 0.100431 -2.068129
C  1.223385 0.313591 0.045108
H  1.666223 1.289150 0.278237
C  0.376860 -0.110510 1.250155
H  1.065583 -0.456859 2.037111
C  -0.433096 1.059376 1.836261
H  -0.989346 1.574022 1.051488
H  -1.150101 0.652874 2.556500
O  0.415312 2.040961 2.431282
H  0.682780 1.736071 3.303760
O  -0.518091 -1.192108 0.976837
O  2.252267 -0.644325 -0.236446
H  2.756613 -0.808819 0.567414
O  -0.063560 1.755652 -1.515880
H  0.684249 2.331742 -1.706660
O  -1.133724 -0.915386 -2.599867
H  -1.306433 -0.136142 -3.139570
24
50 zpe= -687.182473 src= /lustre/lwork/pjhsu/sugar_opt/pj_sugar/beta_glucose/5S1.xyz:190 moment= 2.338263 0.631943 0.114902 8.956979 2.600855 1.032619 -0.336186 3.416599 3.958915 1.633278 -0.608242 2.628684 3.836198 1.569743 -0.603344 2.694869
H -2.597165 -2.169230 0.243740
O  -2.320732 -1.389228 -0.250423
C  -0.911393 -1.377705 -0.329118
H  -0.557220 -2.327134 -0.746896
C  -0.560118 -0.231797 -1.296308
H  -1.250038 0.591228 -1.083709
C  0.873080 0.326320 -1.170667
H  1.485482 -0.144006 -1.940976
C  1.514134 0.005196 0.198335
H  2.207974 0.808494 0.446169
C  0.462206 -0.148997 1.304013
H  0.987489 -0.441390 2.215333
C  -0.412154 1.082181 1.602608
H  -1.286446 1.098882 0.947089
H  -0.770128 1.019185 2.634634
O  0.380458 2.264374 1.413100
H  -0.069957 3.016769 1.809292
O  -0.354618 -1.290440 0.987552
O  2.294229 -1.188736 0.145717
H  1.716354 -1.937748 0.334761
O  0.888765 1.724594 -1.443384
H  0.730446 2.199597 -0.614274
O  -0.754316 -0.678597 -2.632849
H  -1.698331 -0.812812 -2.771741
24
51 zpe= -687.182299 src= /lustre/lwork/pjhsu/sugar_opt/pj_sugar/beta_glucose/5S1.xyz:191 moment= 2.357090 0.641875 -0.106383 6.213320 2.608498 1.066071 -0.185340 3.262316 3.851458 1.557170 -0.764855 2.668307 3.543809 1.523610 -0.315486 2.495705
H -2.087912 -2.386356 -1.073489
O  -1.801094 -2.200425 -0.170267
C  -0.585672 -1.505606 -0.262880
H  0.213727 -2.170923 -0.616493
C  -0.710873 -0.297340 -1.193356
H  -1.504667 0.340376 -0.778577
C  0.602363 0.490474 -1.265052
H  1.225649 0.049311 -2.043713
C  1.417196 0.377590 0.046360
H  1.910164 1.342002 0.223359
C  0.568140 0.023602 1.272567
H  1.240758 -0.290165 2.080982
C  -0.260589 1.193712 1.819431
H  0.404861 1.985026 2.174574
H  -0.903112 1.619254 1.033101
O  -1.042557 0.785113 2.922760
H  -1.475945 -0.041555 2.669466
O  -0.310035 -1.094836 1.063099
O  2.393294 -0.637428 -0.206098
H  2.875887 -0.824839 0.606290
O  0.378866 1.834663 -1.691404
H  -0.216176 2.274389 -1.073590
O  -1.116333 -0.800649 -2.462095
H  -1.216942 -0.063392 -3.073976
24
52 zpe= -687.182255 src= /lustre/lwork/pjhsu/sugar_opt/pj_sugar/beta_glucose/5S1.xyz:198 moment= 2.377250 0.676593 -0.054745 4.144455 2.610458 1.020328 -0.526457 3.153699 3.948691 1.672223 -0.566117 2.474146 3.776068 1.598713 -0.380627 2.633158
H -2.582755 -1.968890 -1.278533
O  -2.264817 -1.967901 -0.366757
C  -0.952980 -1.468308 -0.399616
H  -0.285359 -2.183374 -0.901192
C  -0.903137 -0.118154 -1.119602
H  -1.571229 0.563479 -0.581766
C  0.510995 0.461938 -1.117048
H  1.037315 0.085945 -1.999335
C  1.316876 0.006313 0.118498
H  1.969787 0.827690 0.436879
C  0.427266 -0.382922 1.302539
H  1.064585 -0.872531 2.049987
C  -0.238367 0.811128 2.015026
H  -0.895965 1.360745 1.337004
H  -0.853065 0.406826 2.821087
O  0.729142 1.678179 2.605448
H  0.900701 2.407190 2.003002
O  -0.578687 -1.341381 0.957010
O  2.106150 -1.101689 -0.325110
H  2.495088 -1.538357 0.440501
O  0.372444 1.889090 -1.184943
H  1.187758 2.266238 -1.531207
O  -1.398411 -0.337578 -2.440294
H  -1.591335 0.515324 -2.842577
24
53 zpe= -687.18215 src= /lustre/lwork/pjhsu/sugar_opt/pj_sugar/beta_glucose/5S1.xyz:199 moment= 2.371951 0.662973 -0.106895 4.570334 2.593635 1.029529 -0.355712 3.320685 3.824600 1.570370 -0.564288 2.681897 3.682554 1.627253 -0.448307 2.303067
H -2.939163 -1.393342 0.067284
O  -2.290881 -2.093742 -0.076203
C  -1.024577 -1.532060 -0.105883
H  -0.332987 -2.359894 -0.279879
C  -0.854459 -0.442253 -1.171934
H  -1.508114 0.395255 -0.887406
C  0.593122 0.065609 -1.190170
H  1.155043 -0.561454 -1.888900
C  1.288048 -0.059065 0.180706
H  1.987489 0.777142 0.299793
C  0.303675 -0.033439 1.351680
H  0.845640 -0.350893 2.252708
C  -0.270462 1.363862 1.653209
H  -0.811531 1.757878 0.788684
H  -0.981000 1.254786 2.474814
O  0.742116 2.272496 2.082411
H  1.035368 2.790915 1.328121
O  -0.788096 -0.946214 1.185359
O  2.009512 -1.294360 0.133028
H  2.346242 -1.496083 1.012834
O  0.547192 1.421484 -1.660595
H  1.400108 1.649183 -2.044571
O  -1.243851 -0.954226 -2.435595
H  -1.209436 -0.230584 -3.070495
24
54 zpe= -687.181707 src= /lustre/lwork/pjhsu/sugar_opt/pj_sugar/beta_glucose/5S1.xyz:200 moment= 2.336477 0.627658 -0.153328 8.938804 2.563671 0.977550 -0.578459 3.512417 3.871079 1.604441 -0.661233 2.517379 3.550426 1.580378 -0.315272 2.367150
H -2.782144 -1.672578 -1.038201
O  -2.277694 -1.853256 -0.235161
C  -0.976002 -1.361074 -0.443660
H  -0.458117 -1.974031 -1.197908
C  -1.032723 0.102630 -0.920231
H  -1.674446 0.639363 -0.218264
C  0.347899 0.786591 -0.954810
H  0.730436 0.787002 -1.982341
C  1.366635 0.033642 -0.094433
H  2.142591 0.735050 0.223815
C  0.713267 -0.587120 1.142894
H  1.476295 -1.183389 1.657257
C  0.153771 0.448643 2.147588
H  -0.817936 0.807909 1.796370
H  -0.014466 -0.057239 3.099606
O  1.041933 1.527523 2.396571
H  0.952226 2.146389 1.660079
O  -0.326531 -1.513572 0.799323
O  1.921438 -0.969513 -0.950993
H  2.446843 -1.579216 -0.421822
O  0.293713 2.130054 -0.457757
H  -0.342600 2.633655 -0.977091
O  -1.720721 0.181569 -2.172288
H  -1.164667 -0.209029 -2.857543
24
55 zpe= -687.181683 src= /lustre/lwork/pjhsu/sugar_opt/pj_sugar/beta_glucose/5S1.xyz:204 moment= 2.340073 0.614657 -0.136262 13.981226 2.601488 1.039053 -0.397852 3.074786 3.802948 1.552003 -0.735323 2.588495 3.591312 1.582158 -0.266420 2.369688
H -2.518215 -1.874710 -1.037815
O  -2.141411 -1.944136 -0.150038
C  -0.842960 -1.427137 -0.229559
H  -0.169195 -2.214655 -0.618206
C  -0.794902 -0.194099 -1.137960
H  -1.481509 0.534162 -0.702831
C  0.613504 0.420237 -1.193181
H  1.171014 -0.017585 -2.027291
C  1.440006 0.064788 0.078216
H  2.119329 0.899693 0.260965
C  0.582606 -0.173004 1.330229
H  1.238419 -0.643414 2.073156
C  0.056583 1.085562 2.015412
H  -0.607454 0.767543 2.823963
H  0.907879 1.627806 2.446244
O  -0.649398 1.933821 1.099244
H  -1.235227 2.518876 1.587850
O  -0.484295 -1.110308 1.103332
O  2.288448 -1.064781 -0.161162
H  1.806711 -1.878420 0.020675
O  0.580247 1.812489 -1.447631
H  0.093767 2.221364 -0.716010
O  -1.340087 -0.524566 -2.417052
H  -0.633860 -0.820523 -3.001547
24
56 zpe= -687.18124 src= /lustre/lwork/pjhsu/sugar_opt/pj_sugar/beta_glucose/5S1.xyz:207 moment= 2.354647 0.631872 -0.145440 7.468996 2.594525 1.043066 -0.252658 3.371547 3.816548 1.594062 -0.495864 2.584434 3.717455 1.581780 -0.643366 2.499278
H -2.069724 -2.329307 -0.069819
O  -1.180366 -2.690312 0.027052
C  -0.252512 -1.668678 -0.065199
H  0.723697 -2.149309 -0.156260
C  -0.505044 -0.696563 -1.222855
H  -1.444125 -0.167667 -0.983204
C  0.632658 0.334639 -1.314987
H  1.410969 -0.085685 -1.953595
C  1.310601 0.603953 0.048312
H  1.622634 1.655666 0.069900
C  0.407233 0.326593 1.254920
H  1.041229 0.242455 2.148215
C  -0.608683 1.439011 1.534322
H  -0.088792 2.370316 1.773304
H  -1.237181 1.618654 0.647478
O  -1.416586 1.121079 2.650879
H  -1.695523 0.202096 2.544248
O  -0.315278 -0.913162 1.161902
O  2.459334 -0.250602 0.067264
H  2.893504 -0.180653 0.924328
O  0.204645 1.516932 -1.990817
H  -0.530874 1.914789 -1.511425
O  -0.657920 -1.422767 -2.428252
H  -0.704896 -0.790480 -3.154711
24
57 zpe= -687.181222 src= /lustre/lwork/pjhsu/sugar_opt/pj_sugar/beta_glucose/5S1.xyz:210 moment= 2.386012 0.649841 -0.229482 5.236456 2.637109 1.078624 -0.334767 2.842338 3.855586 1.474340 -0.902340 3.241733 3.758035 1.617916 -0.350829 2.402463
H -2.801763 -1.304301 0.073458
O  -2.205037 -1.936822 -0.346306
C  -0.931219 -1.379781 -0.387011
H  -0.311243 -2.120535 -0.908770
C  -0.875608 -0.021757 -1.097426
H  -1.399814 0.711671 -0.481683
C  0.584041 0.411220 -1.245706
H  1.026642 -0.176410 -2.061153
C  1.422926 0.085184 0.004071
H  2.007110 0.976481 0.256975
C  0.608842 -0.341710 1.245428
H  1.302333 -0.912658 1.880593
C  0.131417 0.796796 2.146415
H  -0.342774 0.343495 3.025485
H  1.015068 1.359017 2.479571
O  -0.783900 1.644548 1.463032
H  -1.027392 2.375929 2.037410
O  -0.471902 -1.236841 0.959406
O  2.292861 -0.984413 -0.397387
H  2.855493 -1.229321 0.344696
O  0.699920 1.797462 -1.537264
H  0.094029 1.989924 -2.262589
O  -1.533281 -0.009255 -2.363166
H  -1.358747 -0.836920 -2.826078
24
58 zpe= -687.181062 src= /lustre/lwork/pjhsu/sugar_opt/pj_sugar/beta_glucose/5S1.xyz:211 moment= 2.365910 0.681221 0.198535 4.689482 2.609343 1.045571 -0.325928 3.230338 4.046660 1.715992 -0.527470 2.468384 4.060008 1.597130 -0.829429 3.065652
H -2.945658 -2.024920 -0.329891
O  -2.670031 -1.142820 -0.601261
C  -1.273803 -1.108064 -0.619161
H  -0.867255 -1.924629 -1.225965
C  -0.850956 0.244415 -1.199863
H  -1.401896 1.016146 -0.650465
C  0.665757 0.525001 -1.046655
H  1.124909 0.295014 -2.012887
C  1.323763 -0.373902 0.017107
H  2.216186 0.125871 0.405728
C  0.372006 -0.664091 1.176004
H  0.869385 -1.384116 1.830481
C  -0.026558 0.582333 1.991634
H  -0.867894 1.083600 1.504382
H  -0.354504 0.262829 2.984632
O  1.095127 1.477630 2.088989
H  0.937789 2.109890 2.797026
O  -0.829348 -1.297544 0.734977
O  1.664751 -1.652749 -0.525518
H  2.341712 -1.529749 -1.198844
O  0.910023 1.911844 -0.812766
H  1.047629 2.054281 0.136035
O  -1.238601 0.251002 -2.569320
H  -1.242529 1.162725 -2.877402
24
59 zpe= -687.181011 src= /lustre/lwork/pjhsu/sugar_opt/pj_sugar/beta_glucose/5S1.xyz:212 moment= 2.402288 0.712714 0.163562 3.838958 2.635562 1.061723 -0.338776 3.106564 4.313587 1.745688 -0.828319 2.820068 3.790227 1.655658 -0.215644 2.615341
H -2.314023 -2.448205 0.294551
O  -2.193537 -1.799028 -0.408273
C  -0.865480 -1.366049 -0.360006
H  -0.183371 -2.180402 -0.650252
C  -0.711447 -0.173449 -1.305007
H  -1.409644 0.594716 -0.964058
C  0.720735 0.393968 -1.247995
H  1.318637 -0.103321 -2.020595
C  1.419291 0.112420 0.089479
H  2.110564 0.937606 0.291807
C  0.435276 -0.025276 1.256416
H  0.983199 -0.408117 2.127113
C  -0.173853 1.306127 1.698103
H  0.614166 2.070280 1.726283
H  -0.938583 1.632097 0.987751
O  -0.725615 1.110382 2.998368
H  -1.346461 1.819731 3.185220
O  -0.581375 -1.001981 0.989741
O  2.142545 -1.108263 -0.108272
H  2.519811 -1.388007 0.732526
O  0.725363 1.804960 -1.456730
H  0.295464 1.982678 -2.301044
O  -1.095007 -0.450625 -2.646417
H  -0.746656 -1.310242 -2.908707
24
60 zpe= -687.180863 src= /lustre/lwork/pjhsu/sugar_opt/pj_sugar/beta_glucose/5S1.xyz:213 moment= 2.355296 0.638277 -0.142296 6.561649 2.608168 1.057096 -0.249547 3.200946 3.804230 1.552239 -0.727766 2.590628 3.561650 1.537865 -0.297598 2.505192
H -2.674518 -1.334227 -1.382008
O  -2.452483 -1.369979 -0.442163
C  -1.072512 -1.148693 -0.341866
H  -0.518141 -2.074410 -0.554482
C  -0.632300 -0.025469 -1.293836
H  -1.201649 0.862218 -0.995276
C  0.870359 0.255385 -1.173330
H  1.410680 -0.382868 -1.879683
C  1.414309 -0.150032 0.220771
H  2.230587 0.538637 0.467124
C  0.367825 -0.101163 1.337988
H  0.767562 -0.634857 2.210222
C  0.017695 1.315976 1.806872
H  0.903133 1.799235 2.227377
H  -0.331825 1.928592 0.963005
O  -0.957711 1.280619 2.830060
H  -1.668406 0.701670 2.523175
O  -0.860582 -0.772968 1.006344
O  1.918783 -1.480468 0.051395
H  2.210886 -1.821231 0.903637
O  1.217286 1.588210 -1.526749
H  0.510795 2.189761 -1.270981
O  -1.061462 -0.303847 -2.624852
H  -0.407313 -0.861092 -3.061744
24
61 zpe= -687.180629 src= /lustre/lwork/pjhsu/sugar_opt/pj_sugar/beta_glucose/5S1.xyz:214 moment= 2.332010 0.632240 0.123623 9.262706 2.585332 1.018514 -0.350967 3.514872 4.029028 1.693349 -0.551725 2.535721 3.839081 1.625798 -0.462568 2.546733
H -2.858683 -0.979205 0.183167
O  -2.392785 -1.686430 -0.281167
C  -1.021927 -1.383483 -0.265188
H  -0.531762 -2.316908 -0.562026
C  -0.678245 -0.285087 -1.283238
H  -1.313581 0.586748 -1.072946
C  0.792814 0.175746 -1.208081
H  1.344186 -0.349816 -1.989613
C  1.432515 -0.194047 0.148694
H  2.247818 0.503766 0.343548
C  0.417404 -0.116051 1.291910
H  0.914751 -0.460256 2.202298
C  -0.169216 1.282628 1.551009
H  -0.971330 1.493350 0.836923
H  -0.596877 1.302536 2.557929
O  0.878167 2.251623 1.418852
H  0.599684 3.082981 1.815433
O  -0.666451 -1.043965 1.081043
O  2.028053 -1.491995 0.112959
H  1.410407 -2.144543 0.458856
O  0.902360 1.571757 -1.480166
H  1.017730 2.052329 -0.648429
O  -0.936837 -0.766922 -2.592243
H  -1.848193 -1.082758 -2.619526
24
62 zpe= -687.180612 src= /lustre/lwork/pjhsu/sugar_opt/pj_sugar/beta_glucose/5S1.xyz:215 moment= 2.315660 0.599493 -0.208041 54.898923 2.558296 0.972971 -0.569150 3.592758 3.818061 1.542836 -0.736864 2.672656 3.502061 1.531537 -0.370306 2.415254
H -2.645297 -1.948685 -0.597109
O  -2.262498 -1.690458 0.251094
C  -0.890174 -1.445867 0.040447
H  -0.401977 -2.378197 -0.289060
C  -0.709081 -0.370601 -1.052245
H  -1.440388 0.411386 -0.845148
C  0.686787 0.279188 -1.093568
H  1.297088 -0.194651 -1.870702
C  1.435717 0.106269 0.237355
H  2.136961 0.934200 0.350601
C  0.467577 0.068748 1.419665
H  1.056293 -0.107928 2.323536
C  -0.379790 1.343493 1.635413
H  -1.247212 1.344379 0.969092
H  -0.765113 1.326694 2.656009
O  0.378730 2.533742 1.497590
H  0.514444 2.682733 0.551508
O  -0.359416 -1.107991 1.305850
O  2.191275 -1.105801 0.184391
H  1.782572 -1.749631 0.774477
O  0.591921 1.689556 -1.343332
H  0.140108 1.835087 -2.181903
O  -1.116952 -0.905319 -2.314702
H  -0.460574 -1.548343 -2.609258
24
63 zpe= -687.180563 src= /lustre/lwork/pjhsu/sugar_opt/pj_sugar/beta_glucose/5S1.xyz:216 moment= 2.363199 0.630462 -0.199029 8.137087 2.629509 1.053955 -0.413794 3.026277 3.918670 1.491432 -0.958848 3.284468 3.629015 1.397452 -0.792683 3.158149
H -2.233154 -2.535523 0.324221
O  -2.153356 -1.787917 -0.278852
C  -0.833016 -1.340833 -0.246166
H  -0.136503 -2.154387 -0.497925
C  -0.689071 -0.173776 -1.228062
H  -1.375867 0.610785 -0.909316
C  0.741409 0.388584 -1.199459
H  1.345451 -0.185724 -1.914694
C  1.427984 0.205871 0.161636
H  2.063595 1.080070 0.339744
C  0.470774 0.038025 1.350543
H  1.075907 -0.370278 2.173001
C  -0.180129 1.325720 1.906329
H  -0.421285 1.148846 2.962256
H  0.530330 2.153980 1.858600
O  -1.338098 1.737790 1.204952
H  -1.992724 1.035488 1.301529
O  -0.563408 -0.926233 1.101976
O  2.232360 -0.975597 0.014940
H  2.666615 -1.165774 0.853193
O  0.776193 1.768285 -1.537149
H  0.240169 1.897352 -2.327829
O  -1.077845 -0.501346 -2.556780
H  -0.576333 -1.268409 -2.856689
24
64 zpe= -687.180524 src= /lustre/lwork/pjhsu/sugar_opt/pj_sugar/beta_glucose/5S1.xyz:217 moment= 2.314251 0.589910 -0.230565 -52.820762 2.555578 0.971650 -0.556015 3.626429 3.758218 1.469049 -0.754272 3.041400 3.594779 1.456931 -0.632269 2.743197
H -2.560496 -1.580667 0.440693
O  -2.035171 -2.152087 -0.132716
C  -0.766180 -1.594666 -0.272640
H  -0.184068 -2.357886 -0.798386
C  -0.770933 -0.304394 -1.113129
H  -1.516770 0.375619 -0.685056
C  0.582477 0.427898 -1.106525
H  1.150686 0.107760 -1.983108
C  1.431528 0.120099 0.144326
H  2.051196 0.988490 0.376404
C  0.545996 -0.216421 1.340768
H  1.201861 -0.515039 2.162517
C  -0.373811 0.928236 1.837978
H  -1.320546 0.912050 1.287661
H  -0.612910 0.745812 2.887025
O  0.229137 2.209675 1.772581
H  0.219545 2.482584 0.844081
O  -0.215514 -1.404609 1.043571
O  2.323532 -0.960943 -0.125466
H  1.937791 -1.775815 0.216783
O  0.277740 1.838650 -1.199016
H  1.018458 2.290095 -1.617608
O  -1.158878 -0.676396 -2.427810
H  -1.452669 0.111956 -2.894926
24
65 zpe= -687.180306 src= /lustre/lwork/pjhsu/sugar_opt/pj_sugar/beta_glucose/5S1.xyz:218 moment= 2.356097 0.670475 0.124287 4.980188 2.594190 1.016564 -0.455871 3.277673 4.015050 1.694412 -0.526899 2.513065 3.932168 1.648037 -0.600880 2.526699
H -2.543543 -1.940094 -1.359684
O  -2.342885 -1.808607 -0.424581
C  -0.981427 -1.459153 -0.352105
H  -0.356356 -2.292499 -0.699973
C  -0.700698 -0.211383 -1.199737
H  -1.388740 0.573578 -0.866229
C  0.744220 0.300636 -1.045907
H  1.339013 -0.143636 -1.849291
C  1.349687 -0.148588 0.302947
H  2.077481 0.598495 0.631999
C  0.281124 -0.306437 1.388752
H  0.778026 -0.743693 2.257494
C  -0.405399 1.014964 1.802913
H  -1.290861 1.174614 1.182047
H  -0.736031 0.930870 2.841695
O  0.511530 2.114312 1.652482
H  0.183575 2.871552 2.147315
O  -0.738464 -1.240061 1.024560
O  1.968790 -1.433095 0.190971
H  2.741963 -1.352782 -0.376811
O  0.817190 1.712241 -1.237674
H  0.712942 2.145067 -0.375924
O  -1.013484 -0.575216 -2.545543
H  -1.006653 0.219920 -3.088714
24
66 zpe= -687.180247 src= /lustre/lwork/pjhsu/sugar_opt/pj_sugar/beta_glucose/5S1.xyz:219 moment= 2.391232 0.706382 0.169751 3.892937 2.613946 1.051664 -0.311213 3.221017 4.127011 1.784412 -0.478989 2.404825 3.862821 1.628225 -0.428297 2.700529
H -1.889860 -3.054080 0.179523
O  -1.999079 -2.242103 -0.327443
C  -0.773696 -1.583829 -0.361906
H  0.016289 -2.233878 -0.759709
C  -0.917990 -0.326718 -1.215363
H  -1.692774 0.289208 -0.736661
C  0.411395 0.448018 -1.255393
H  0.982378 0.039061 -2.092337
C  1.276094 0.260054 0.016803
H  1.769699 1.210405 0.245677
C  0.470254 -0.161884 1.243656
H  1.191675 -0.536764 1.978866
C  -0.319881 0.991401 1.886604
H  -1.036259 1.418631 1.180749
H  -0.901933 0.580885 2.717857
O  0.515275 2.068084 2.304305
H  0.986177 1.811787 3.103570
O  -0.446146 -1.232742 0.989632
O  2.250107 -0.773000 -0.181567
H  2.869962 -0.489391 -0.861766
O  0.201967 1.816797 -1.612026
H  -0.219322 2.283167 -0.881392
O  -1.326784 -0.695764 -2.521738
H  -1.418546 0.111654 -3.039940
24
67 zpe= -687.180122 src= /lustre/lwork/pjhsu/sugar_opt/pj_sugar/beta_glucose/5S1.xyz:220 moment= 2.387868 0.705343 0.159029 3.887173 2.612057 1.053102 -0.293435 3.219673 4.149903 1.814133 -0.426444 2.394927 3.836602 1.635569 -0.341235 2.670511
H -2.529388 -2.038636 -1.286280
O  -2.053932 -2.191885 -0.459815
C  -0.851625 -1.476166 -0.547256
H  -0.150664 -1.984803 -1.225429
C  -1.093195 -0.039854 -1.017878
H  -1.733474 0.440324 -0.265275
C  0.233892 0.715502 -1.136686
H  0.634449 0.506829 -2.131390
C  1.283920 0.216622 -0.106698
H  1.832965 1.083544 0.276180
C  0.676017 -0.511960 1.095764
H  1.495769 -1.067869 1.564711
C  0.077877 0.441554 2.145422
H  -0.718720 1.052777 1.713867
H  -0.379825 -0.166389 2.931905
O  1.037704 1.355339 2.669400
H  1.611964 0.891387 3.286854
O  -0.331285 -1.476159 0.765448
O  2.187950 -0.713873 -0.714324
H  2.712714 -0.251608 -1.376369
O  0.038275 2.131958 -1.124866
H  -0.209324 2.418782 -0.238635
O  -1.786017 -0.114646 -2.261241
H  -1.988047 0.779233 -2.558409
24
68 zpe= -687.180046 src= /lustre/lwork/pjhsu/sugar_opt/pj_sugar/beta_glucose/5S1.xyz:221 moment= 2.332417 0.596447 -0.146750 151.944033 2.587237 1.018337 -0.388151 3.395097 3.901338 1.489642 -0.899047 3.351054 3.638145 1.426642 -0.631139 3.217047
H -2.436597 -2.345710 0.356068
O  -2.306728 -1.560383 -0.187392
C  -0.933297 -1.359182 -0.343211
H  -0.486633 -2.227148 -0.855254
C  -0.762845 -0.098260 -1.209511
H  -1.507893 0.613002 -0.856320
C  0.621587 0.573931 -1.091143
H  1.222517 0.306769 -1.964638
C  1.422427 0.138626 0.154228
H  2.105339 0.947819 0.431536
C  0.518669 -0.208311 1.336976
H  1.161205 -0.629447 2.119480
C  -0.221574 0.947790 2.028106
H  -0.812688 0.511584 2.836033
H  0.548894 1.585461 2.489771
O  -1.120600 1.711018 1.252146
H  -0.629728 2.182751 0.562469
O  -0.314652 -1.317183 0.950030
O  2.232280 -0.991299 -0.184175
H  1.795860 -1.785098 0.147081
O  0.389716 1.995345 -1.082969
H  1.163018 2.451132 -1.429906
O  -1.106531 -0.368586 -2.561255
H  -0.542749 -1.074620 -2.897152
24
69 zpe= -687.180043 src= /lustre/lwork/pjhsu/sugar_opt/pj_sugar/beta_glucose/5S1.xyz:222 moment= 2.332412 0.596463 -0.146725 150.664568 2.587198 1.018346 -0.388032 3.394856 3.901440 1.489672 -0.899191 3.351041 3.637942 1.426605 -0.630941 3.216919
H -2.452107 -2.281770 0.589761
O  -2.276781 -1.612935 -0.081711
C  -0.895501 -1.418161 -0.153947
H  -0.402768 -2.359216 -0.448336
C  -0.652450 -0.343749 -1.229145
H  -1.427696 0.407290 -1.085316
C  0.714264 0.365657 -1.123612
H  1.390981 -0.052329 -1.873848
C  1.402791 0.193436 0.246850
H  2.056314 1.054110 0.420680
C  0.398723 0.062284 1.391719
H  0.970508 -0.188069 2.293333
C  -0.402810 1.314783 1.780229
H  -1.062252 1.030110 2.602747
H  0.322056 2.044033 2.175376
O  -1.231266 1.897509 0.796853
H  -0.682404 2.237100 0.073950
O  -0.394104 -1.116437 1.155455
O  2.242347 -0.964321 0.204030
H  1.780646 -1.688000 0.643828
O  0.478748 1.757323 -1.409984
H  1.278676 2.153275 -1.769757
O  -0.874712 -0.875005 -2.527905
H  -0.280203 -1.619918 -2.672250
24
70 zpe= -687.179922 src= /lustre/lwork/pjhsu/sugar_opt/pj_sugar/beta_glucose/5S1.xyz:223 moment= 2.344025 0.638937 -0.143043 7.065223 2.550882 0.967177 -0.574042 3.628549 3.879552 1.623804 -0.628661 2.458860 3.568932 1.597260 -0.307693 2.334697
H -2.180899 -2.433327 -1.007104
O  -1.799638 -2.385641 -0.121533
C  -0.618243 -1.629333 -0.218398
H  0.170758 -2.221805 -0.709102
C  -0.876989 -0.339100 -1.018097
H  -1.725525 0.160209 -0.544908
C  0.331391 0.617988 -1.012836
H  0.872676 0.514796 -1.962600
C  1.310574 0.277805 0.125039
H  1.867674 1.179295 0.390298
C  0.581790 -0.218201 1.371839
H  1.347578 -0.552032 2.076292
C  -0.298408 0.861188 2.046021
H  -1.246866 0.947124 1.507551
H  -0.530271 0.524800 3.057628
O  0.341443 2.124880 2.159988
H  0.247256 2.568687 1.307555
O  -0.243241 -1.365843 1.112585
O  2.202295 -0.762198 -0.293801
H  2.951337 -0.367084 -0.749946
O  -0.060221 1.985822 -0.835638
H  -0.710110 2.219751 -1.507698
O  -1.330498 -0.652711 -2.339062
H  -0.603861 -1.054066 -2.831074
24
71 zpe= -687.179804 src= /lustre/lwork/pjhsu/sugar_opt/pj_sugar/beta_glucose/5S1.xyz:224 moment= 2.394124 0.697777 0.036245 3.727498 2.616034 1.053656 -0.295607 3.185465 4.114971 1.723632 -0.631061 2.588037 3.791165 1.650609 -0.243854 2.578580
H -1.560056 -2.999247 -0.013681
O  -1.688479 -2.245586 -0.601224
C  -0.535687 -1.460526 -0.546048
H  0.314748 -1.987943 -1.006238
C  -0.808703 -0.142730 -1.270193
H  -1.641576 0.338492 -0.752092
C  0.425521 0.777386 -1.206473
H  1.057692 0.562320 -2.076055
C  1.297958 0.524134 0.032979
H  1.739563 1.480143 0.335007
C  0.502395 -0.063927 1.205294
H  1.227256 -0.410771 1.958263
C  -0.393709 0.975060 1.897193
H  0.230756 1.836884 2.173040
H  -1.170701 1.336442 1.224796
O  -1.072660 0.455183 3.029615
H  -0.427065 0.116767 3.658685
O  -0.228988 -1.236131 0.830557
O  2.319155 -0.384786 -0.396734
H  2.860920 -0.630682 0.360392
O  0.045665 2.151032 -1.203899
H  -0.507282 2.308443 -1.977896
O  -1.249663 -0.301527 -2.613081
H  -0.737061 -0.996429 -3.041206
24
72 zpe= -687.179615 src= /lustre/lwork/pjhsu/sugar_opt/pj_sugar/beta_glucose/5S1.xyz:225 moment= 2.379288 0.687570 0.111858 4.356417 2.604210 1.036656 -0.312893 3.404600 4.139608 1.781916 -0.492465 2.441276 3.843532 1.648137 -0.346722 2.621788
H -2.476618 -2.073914 -0.390252
O  -1.657362 -2.533839 -0.609850
C  -0.600147 -1.644650 -0.525369
H  0.279017 -2.183786 -0.886533
C  -0.808079 -0.342243 -1.306676
H  -1.618398 0.207334 -0.797811
C  0.475882 0.499692 -1.264507
H  1.126920 0.140427 -2.063007
C  1.272702 0.312259 0.045703
H  1.697746 1.277848 0.338839
C  0.425841 -0.216082 1.212392
H  1.121139 -0.597564 1.975662
C  -0.429570 0.871344 1.887894
H  -1.094877 1.350007 1.164651
H  -1.066123 0.388184 2.635977
O  0.360336 1.912750 2.454511
H  0.701807 1.624741 3.306577
O  -0.435260 -1.303294 0.864224
O  2.318010 -0.613721 -0.280468
H  2.851819 -0.776375 0.504580
O  0.211907 1.862678 -1.601133
H  -0.282923 2.286338 -0.891109
O  -1.192827 -0.636823 -2.636839
H  -1.180942 0.188688 -3.135458
24
73 zpe= -687.179164 src= /lustre/lwork/pjhsu/sugar_opt/pj_sugar/beta_glucose/5S1.xyz:226 moment= 2.327528 0.598691 -0.237476 59.562810 2.584060 1.035808 -0.268399 3.368240 3.753392 1.539994 -0.557596 2.683028 3.652023 1.537540 -0.657501 2.546042
H -2.713437 -1.276586 -0.189649
O  -2.061533 -1.987610 -0.169203
C  -0.785130 -1.450482 -0.191872
H  -0.125094 -2.298216 -0.403026
C  -0.589648 -0.351426 -1.239026
H  -1.264490 0.476603 -0.964107
C  0.858180 0.164634 -1.230898
H  1.458467 -0.504443 -1.849269
C  1.504695 0.140814 0.180029
H  2.136003 1.028757 0.273163
C  0.473299 0.122827 1.305895
H  0.988362 -0.133511 2.236822
C  -0.250671 1.451081 1.551897
H  0.471179 2.198807 1.891088
H  -0.721203 1.831198 0.632685
O  -1.218985 1.314158 2.574598
H  -1.660510 0.465877 2.434839
O  -0.498070 -0.935012 1.126912
O  2.387222 -0.978068 0.298407
H  1.916513 -1.718062 0.697131
O  0.939197 1.432329 -1.886739
H  0.416148 2.081996 -1.403269
O  -0.958120 -0.862622 -2.506396
H  -0.702373 -0.213044 -3.172010
24
74 zpe= -687.179161 src= /lustre/lwork/pjhsu/sugar_opt/pj_sugar/beta_glucose/5S1.xyz:227 moment= 2.327617 0.598801 -0.237035 58.042263 2.584097 1.035815 -0.268442 3.368316 3.753539 1.540257 -0.557029 2.682492 3.652583 1.537931 -0.657335 2.545645
H -2.676813 -1.255802 -0.536608
O  -2.023757 -1.965859 -0.519282
C  -0.754585 -1.428713 -0.382888
H  -0.071929 -2.255441 -0.605186
C  -0.475246 -0.244823 -1.311953
H  -1.177902 0.556986 -1.029005
C  0.962290 0.268443 -1.131566
H  1.619899 -0.345659 -1.748696
C  1.481573 0.124444 0.324037
H  2.095922 1.000943 0.547584
C  0.354823 0.011438 1.348385
H  0.787404 -0.323251 2.296295
C  -0.397223 1.314434 1.641012
H  0.286784 2.030564 2.104135
H  -0.788181 1.771069 0.719331
O  -1.450297 1.091815 2.559555
H  -1.872892 0.259335 2.309704
O  -0.589620 -1.026633 0.995019
O  2.358030 -1.000936 0.425034
H  1.859274 -1.771824 0.716776
O  1.091781 1.587368 -1.667642
H  0.521508 2.193170 -1.180614
O  -0.726425 -0.646561 -2.645662
H  -0.416417 0.056494 -3.228765
24
75 zpe= -687.178446 src= /lustre/lwork/pjhsu/sugar_opt/pj_sugar/beta_glucose/5S1.xyz:228 moment= 2.391860 0.684727 -0.000514 3.975077 2.634149 1.062597 -0.304893 3.227039 4.059101 1.699781 -0.620527 2.560581 3.877409 1.613215 -0.467602 2.759885
H -2.823754 -1.341165 0.246942
O  -2.243685 -1.984069 -0.180549
C  -0.972681 -1.430983 -0.259297
H  -0.312928 -2.237291 -0.590967
C  -0.889295 -0.227319 -1.207840
H  -1.541860 0.553819 -0.795349
C  0.540123 0.337310 -1.256808
H  1.040889 -0.129870 -2.114700
C  1.366935 0.006136 0.009671
H  2.089770 0.816159 0.179317
C  0.496452 -0.136976 1.259119
H  1.117484 -0.625713 2.021616
C  0.049121 1.225343 1.808300
H  0.952202 1.806975 2.047892
H  -0.517039 1.785967 1.063331
O  -0.796406 1.119995 2.942163
H  -0.424441 0.480304 3.558645
O  -0.627404 -0.999216 1.059321
O  2.050115 -1.240636 -0.139595
H  2.626199 -1.200718 -0.910341
O  0.406649 1.746010 -1.475688
H  1.252086 2.112299 -1.755316
O  -1.334056 -0.616043 -2.498129
H  -1.501478 0.180683 -3.011740
