24
0 zpe= -687.19032 src= /lustre/lwork/pjhsu/sugar_opt/pj_sugar/beta_glucose/B25.xyz:0 moment= 2.425687 0.746152 -0.114691 4.067002 2.562926 0.962126 -0.697686 3.509565 4.408075 1.956498 -0.536699 2.113012 3.472948 1.675009 0.196009 2.400041
H -2.504175 1.288013 -0.158565
O  -2.881889 0.401692 -0.055753
C  -1.847997 -0.519548 -0.223891
H  -2.330329 -1.502460 -0.279332
C  -1.050812 -0.255955 -1.521036
H  -1.766665 0.070182 -2.281754
C  -0.025712 0.863792 -1.316612
H  0.623246 0.910277 -2.195236
C  0.874471 0.641040 -0.076384
H  0.776644 1.532657 0.563114
C  0.398328 -0.569392 0.745216
H  0.682803 -1.484299 0.216110
C  0.979684 -0.596432 2.154153
H  0.643084 0.292282 2.700586
H  0.620326 -1.488654 2.676425
O  2.410838 -0.613222 2.035772
H  2.806074 -0.576998 2.911225
O  -1.015831 -0.498967 0.939695
O  2.212230 0.499033 -0.528723
H  2.739801 0.202683 0.226987
O  -0.814074 2.061302 -1.199585
H  -0.225001 2.814843 -1.090431
O  -0.336768 -1.410252 -1.959044
H  -0.968272 -2.060617 -2.281937
24
1 zpe= -687.190237 src= /lustre/lwork/pjhsu/sugar_opt/pj_sugar/beta_glucose/B25.xyz:2 moment= 2.388641 0.667922 -0.473264 4.893520 2.561529 0.944975 -0.814032 3.680044 3.748061 1.612219 -0.504509 2.335738 3.723830 1.550966 -0.424798 2.727205
H -2.300803 1.054497 -0.679345
O  -2.715681 0.209516 -0.451933
C  -1.691087 -0.703026 -0.186510
H  -2.177372 -1.662433 0.007091
C  -0.736980 -0.854047 -1.386182
H  -1.360948 -0.843107 -2.288641
C  0.265618 0.311428 -1.441024
H  1.036032 0.100849 -2.191986
C  0.988121 0.545870 -0.099927
H  0.816677 1.589596 0.175440
C  0.428195 -0.353791 1.012923
H  0.773842 -1.380088 0.857541
C  0.832354 0.093871 2.412700
H  0.420311 -0.618218 3.137829
H  1.920679 0.076664 2.508304
O  0.416521 1.420022 2.708890
H  -0.541741 1.447229 2.598914
O  -1.006324 -0.288215 0.996305
O  2.385631 0.306468 -0.301749
H  2.887221 0.850861 0.312237
O  -0.428592 1.528613 -1.773659
H  -0.675605 1.505967 -2.704698
O  -0.081119 -2.112843 -1.252982
H  0.548050 -2.225681 -1.973538
24
2 zpe= -687.19012 src= /lustre/lwork/pjhsu/sugar_opt/pj_sugar/beta_glucose/B25.xyz:5 moment= 2.381529 0.676335 -0.409628 4.541296 2.535562 0.925695 -0.839476 3.865083 3.775291 1.597432 -0.360575 2.666870 3.761136 1.629939 -0.468659 2.340265
H -1.977484 1.397273 -0.146587
O  -2.500748 0.591013 -0.029812
C  -1.706163 -0.529210 -0.325764
H  -2.399750 -1.350815 -0.508321
C  -0.841139 -0.277410 -1.566275
H  -1.500196 0.110700 -2.352815
C  0.251285 0.772781 -1.259101
H  1.052974 0.687814 -2.001759
C  0.880702 0.589719 0.130010
H  0.481853 1.377274 0.775900
C  0.511032 -0.766317 0.746558
H  0.952793 -1.572217 0.151803
C  0.972675 -0.911512 2.191755
H  0.669920 -1.901674 2.552685
H  2.061751 -0.853466 2.242112
O  0.464651 0.115356 3.033348
H  -0.497941 0.079550 2.970786
O  -0.919361 -0.914626 0.796762
O  2.296024 0.733709 -0.002317
H  2.644658 1.123481 0.805088
O  -0.312285 2.096730 -1.280976
H  -0.500901 2.354140 -2.190003
O  -0.282292 -1.529041 -1.953755
H  0.197943 -1.421250 -2.781322
24
3 zpe= -687.190109 src= /lustre/lwork/pjhsu/sugar_opt/pj_sugar/beta_glucose/B25.xyz:8 moment= 2.408335 0.718353 -0.268057 3.916894 2.550772 0.962731 -0.598310 3.668240 4.137592 1.839199 -0.441657 2.161699 3.782527 1.633991 -0.247760 2.681991
H -2.278983 1.712822 0.243160
O  -2.809490 0.924572 0.057546
C  -1.916915 -0.113277 -0.209853
H  -2.523357 -1.004666 -0.394522
C  -1.056509 0.169024 -1.461224
H  -1.700503 0.700737 -2.172922
C  0.154462 1.046154 -1.106646
H  0.817314 1.141748 -1.974955
C  0.993924 0.450900 0.038841
H  1.165393 1.263964 0.755399
C  0.242982 -0.688402 0.753087
H  0.310157 -1.592385 0.137086
C  0.817078 -0.974296 2.139023
H  0.765889 -0.074238 2.755100
H  0.233445 -1.757376 2.630767
O  2.206575 -1.334643 2.053159
H  2.274193 -2.284638 1.917052
O  -1.119193 -0.317968 0.960074
O  2.228748 0.001460 -0.511463
H  2.720419 -0.408408 0.214805
O  -0.304760 2.343943 -0.689152
H  -0.575433 2.844288 -1.466366
O  -0.663445 -1.092083 -1.999511
H  0.016010 -0.959231 -2.669482
24
4 zpe= -687.188714 src= /lustre/lwork/pjhsu/sugar_opt/pj_sugar/beta_glucose/B25.xyz:10 moment= 2.402145 0.685586 -0.438436 4.354827 2.542944 0.951917 -0.669925 3.612513 3.874542 1.694949 -0.622758 2.262857 3.680234 1.469361 -0.584521 3.009304
H -2.018126 1.642403 -0.903159
O  -2.579621 0.910217 -0.608008
C  -1.742734 -0.163537 -0.312015
H  -2.403862 -1.010394 -0.092788
C  -0.816239 -0.522861 -1.498619
H  -1.379766 -0.339004 -2.418328
C  0.426190 0.371271 -1.508697
H  1.113066 0.010362 -2.279321
C  1.185744 0.360364 -0.158117
H  1.352785 1.408125 0.131470
C  0.354019 -0.317146 0.942428
H  0.391947 -1.401529 0.803105
C  0.815278 0.034214 2.351386
H  1.845634 -0.298982 2.506693
H  0.782510 1.126111 2.476594
O  0.036321 -0.613013 3.341687
H  -0.885672 -0.400839 3.151076
O  -0.999463 0.155109 0.868364
O  2.434484 -0.291654 -0.383636
H  2.947690 -0.295699 0.430483
O  -0.069789 1.678767 -1.834540
H  0.670273 2.287246 -1.926607
O  -0.361693 -1.872406 -1.441529
H  -1.098976 -2.458125 -1.639921
24
5 zpe= -687.183792 src= /lustre/lwork/pjhsu/sugar_opt/pj_sugar/beta_glucose/B25.xyz:11 moment= 2.388197 0.691955 -0.372744 4.101130 2.531216 0.934443 -0.741732 3.831150 3.817013 1.649814 -0.441938 2.317385 3.712545 1.499510 -0.546725 2.925068
H -1.732364 1.801103 -0.188296
O  -2.410111 1.124418 -0.047544
C  -1.838784 -0.148171 -0.206973
H  -2.691904 -0.830605 -0.282946
C  -0.987330 -0.206389 -1.486936
H  -1.584555 0.220120 -2.302157
C  0.300766 0.622496 -1.321508
H  1.013996 0.288334 -2.082802
C  0.932763 0.453754 0.074521
H  0.732058 1.373450 0.626425
C  0.312008 -0.706516 0.858225
H  0.537237 -1.653725 0.349687
C  0.857112 -0.808341 2.287730
H  0.140953 -1.386086 2.874411
H  1.803572 -1.360255 2.263726
O  1.020219 0.435614 2.953096
H  1.834563 0.839982 2.635316
O  -1.112508 -0.550010 0.944195
O  2.355779 0.352453 0.031979
H  2.598765 -0.465397 -0.417285
O  0.020439 2.021658 -1.470973
H  -0.175621 2.215394 -2.394238
O  -0.575676 -1.533311 -1.814028
H  -1.352378 -2.098970 -1.881626
24
6 zpe= -687.181804 src= /lustre/lwork/pjhsu/sugar_opt/pj_sugar/beta_glucose/B25.xyz:12 moment= 2.397817 0.680798 -0.509831 4.489164 2.550399 0.952863 -0.687424 3.628185 3.792960 1.548995 -0.535824 2.825883 3.719306 1.565072 -0.456768 2.569911
H -2.581160 0.823082 -0.570789
O  -2.788866 -0.119905 -0.642251
C  -1.584621 -0.820571 -0.594436
H  -1.845660 -1.872639 -0.763660
C  -0.600339 -0.353536 -1.694060
H  -1.194972 -0.086074 -2.572377
C  0.174490 0.885904 -1.242005
H  0.957642 1.098614 -1.975093
C  0.857770 0.694547 0.135510
H  0.558418 1.552146 0.755819
C  0.384840 -0.599528 0.820710
H  0.872098 -1.442270 0.315299
C  0.747056 -0.697859 2.302849
H  0.344612 -1.635849 2.687538
H  1.843544 -0.751077 2.396529
O  0.213170 0.316990 3.139014
H  0.562956 1.174418 2.879399
O  -1.034563 -0.691572 0.716576
O  2.267675 0.717932 -0.086232
H  2.728950 0.518419 0.734764
O  -0.801203 1.937815 -1.213241
H  -0.364330 2.772861 -1.017838
O  0.362756 -1.355848 -2.018349
H  -0.079264 -2.067003 -2.492674
