24
0 zpe= -687.19957 src= /lustre/lwork/pjhsu/sugar_opt/pj_sugar/beta_glucose/B3O.xyz:0 moment= 2.384944 0.670358 -0.101959 4.000752 2.644061 1.087319 -0.303666 2.863612 3.860757 1.599655 -0.502567 2.659246 3.645270 1.588335 -0.348552 2.373189
H -2.991835 -0.954552 0.641713
O  -2.451586 -0.306758 0.173851
C  -1.256103 -0.955321 -0.275144
H  -1.520194 -1.890877 -0.774569
C  -0.585843 -0.015290 -1.289290
H  -0.846262 1.021809 -1.052559
C  0.925659 -0.175341 -1.196344
H  1.195380 -1.230636 -1.336149
C  1.374604 0.285347 0.185599
H  1.215268 1.369421 0.229281
C  0.559442 -0.399238 1.304532
H  1.250928 -1.042311 1.852584
C  -0.056957 0.583902 2.299800
H  -0.582377 0.012879 3.076019
H  0.756518 1.134819 2.779609
O  -0.909021 1.555649 1.711870
H  -1.678062 1.097495 1.340517
O  -0.422946 -1.333903 0.788395
O  2.749840 -0.009553 0.416286
H  3.258710 0.425799 -0.278031
O  1.602335 0.632109 -2.150908
H  1.224512 0.436819 -3.016754
O  -0.980365 -0.326672 -2.626187
H  -1.832647 0.082401 -2.806124
24
1 zpe= -687.198315 src= /lustre/lwork/pjhsu/sugar_opt/pj_sugar/beta_glucose/B3O.xyz:69 moment= 2.392724 0.675980 -0.149781 3.999120 2.589231 1.022437 -0.413217 3.243493 3.910150 1.680490 -0.427866 2.453229 3.643399 1.610865 -0.279082 2.348065
H -3.070312 -0.604549 0.745569
O  -2.456777 -0.089212 0.209255
C  -1.393921 -0.950087 -0.205142
H  -1.801410 -1.914379 -0.512497
C  -0.700974 -0.302185 -1.415430
H  -1.007933 0.749467 -1.479077
C  0.811718 -0.351244 -1.246489
H  1.142340 -1.396405 -1.188112
C  1.183953 0.373718 0.038690
H  0.858533 1.414606 -0.050865
C  0.492528 -0.293442 1.251696
H  1.240916 -0.914081 1.750438
C  -0.042197 0.716244 2.270350
H  -0.557734 0.164787 3.067473
H  0.809905 1.232199 2.724668
O  -0.867738 1.726694 1.717419
H  -1.621285 1.295899 1.282077
O  -0.520274 -1.251706 0.856166
O  2.613989 0.327279 0.161470
H  2.923610 1.140739 0.569705
O  1.377818 0.276290 -2.391559
H  2.332828 0.308638 -2.261534
O  -1.126435 -1.004597 -2.574335
H  -0.620147 -0.657672 -3.318936
24
2 zpe= -687.197772 src= /lustre/lwork/pjhsu/sugar_opt/pj_sugar/beta_glucose/B3O.xyz:114 moment= 2.392527 0.674761 -0.089621 3.907988 2.626901 1.047703 -0.450538 3.005078 3.899262 1.644649 -0.478982 2.486238 3.587960 1.587743 -0.260363 2.350469
H -2.331075 -0.100741 0.682979
O  -2.417776 -0.910129 0.151888
C  -1.134437 -1.235151 -0.314553
H  -1.236053 -2.197994 -0.816888
C  -0.612287 -0.198015 -1.336852
H  -1.045043 0.784235 -1.110033
C  0.901061 -0.089110 -1.252904
H  1.353719 -1.079951 -1.387476
C  1.252875 0.454806 0.124520
H  0.866224 1.480641 0.171482
C  0.609188 -0.406260 1.236731
H  1.432228 -0.914897 1.744033
C  -0.116575 0.412901 2.296757
H  -0.496570 -0.261977 3.070326
H  0.597579 1.113349 2.744524
O  -1.205939 1.134566 1.691890
H  -1.597234 1.725325 2.342299
O  -0.201955 -1.476108 0.733131
O  2.659270 0.467028 0.353013
H  3.063525 0.954793 -0.374932
O  1.429658 0.823630 -2.210151
H  1.071603 0.579390 -3.072022
O  -0.944685 -0.569924 -2.674737
H  -1.897304 -0.490414 -2.792024
24
3 zpe= -687.197115 src= /lustre/lwork/pjhsu/sugar_opt/pj_sugar/beta_glucose/B3O.xyz:229 moment= 2.377691 0.658750 -0.163575 4.685036 2.599566 1.036803 -0.371639 3.183254 3.869714 1.633183 -0.482515 2.558682 3.632580 1.574328 -0.357582 2.424553
H -2.870287 -1.241478 0.832505
O  -2.407222 -0.607444 0.273022
C  -1.163920 -1.179650 -0.125381
H  -1.314575 -2.221156 -0.414744
C  -0.649507 -0.397470 -1.342699
H  -1.132232 0.587495 -1.366246
C  0.855525 -0.191446 -1.227753
H  1.349180 -1.173657 -1.173879
C  1.159689 0.610328 0.033946
H  0.743747 1.611626 -0.093697
C  0.529493 -0.058059 1.281410
H  1.336739 -0.467851 1.896686
C  -0.247344 0.926045 2.161107
H  -0.673789 0.372889 3.008241
H  0.464695 1.655008 2.558587
O  -1.237993 1.668244 1.473478
H  -1.905128 1.045568 1.143381
O  -0.242496 -1.234672 0.942163
O  2.569014 0.823543 0.174093
H  2.993936 -0.019598 0.372703
O  1.275408 0.494970 -2.401057
H  2.167004 0.830218 -2.247978
O  -0.996289 -1.141739 -2.501117
H  -0.605648 -0.689710 -3.258768
24
4 zpe= -687.196393 src= /lustre/lwork/pjhsu/sugar_opt/pj_sugar/beta_glucose/B3O.xyz:259 moment= 2.374963 0.652370 -0.153542 5.170140 2.602962 1.023709 -0.477129 3.193967 3.888439 1.632083 -0.490729 2.530489 3.606785 1.603449 -0.257833 2.333246
H -2.201758 0.600780 0.917518
O  -2.556459 -0.178085 0.456121
C  -1.472905 -0.881820 -0.089127
H  -1.892991 -1.802113 -0.497239
C  -0.793694 -0.101087 -1.241062
H  -0.926835 0.976027 -1.075953
C  0.695051 -0.403305 -1.282095
H  0.851794 -1.485681 -1.371116
C  1.312113 0.098713 0.015756
H  1.214269 1.194728 0.002247
C  0.580301 -0.495120 1.240951
H  1.283926 -1.186875 1.711377
C  0.198154 0.538020 2.299773
H  -0.289344 0.025014 3.130081
H  1.102349 1.028585 2.674220
O  -0.744690 1.517299 1.823949
H  -0.280273 2.306548 1.531856
O  -0.534623 -1.323641 0.884451
O  2.688810 -0.241666 0.125139
H  3.124456 0.058059 -0.682458
O  1.354750 0.277533 -2.345321
H  0.876571 0.079496 -3.159483
O  -1.338115 -0.456264 -2.511211
H  -2.248859 -0.146144 -2.558373
24
5 zpe= -687.196321 src= /lustre/lwork/pjhsu/sugar_opt/pj_sugar/beta_glucose/B3O.xyz:273 moment= 2.372735 0.644250 -0.166885 5.672758 2.606520 1.040257 -0.379997 3.165024 3.811220 1.627815 -0.436239 2.483214 3.629590 1.564215 -0.386878 2.442572
H -2.448547 -1.924556 0.884966
O  -2.167412 -1.168476 0.356846
C  -0.856514 -1.430948 -0.143870
H  -0.810295 -2.450391 -0.530819
C  -0.590669 -0.454566 -1.301602
H  -1.277427 0.398717 -1.201660
C  0.847433 0.052476 -1.236360
H  1.538711 -0.787017 -1.340351
C  1.101009 0.763571 0.088598
H  0.515317 1.694520 0.090399
C  0.654735 -0.104809 1.285909
H  1.559245 -0.381154 1.831286
C  -0.267889 0.636928 2.255407
H  -0.549151 -0.049648 3.064036
H  0.301954 1.459732 2.696097
O  -1.411666 1.220354 1.651014
H  -1.968951 0.500463 1.315701
O  0.118550 -1.383122 0.868470
O  2.482959 1.063120 0.268128
H  2.793877 1.521145 -0.521879
O  1.139045 0.906598 -2.352102
H  0.591329 1.699567 -2.284349
O  -0.847747 -1.147486 -2.514262
H  -0.449897 -0.636016 -3.229603
24
6 zpe= -687.195957 src= /lustre/lwork/pjhsu/sugar_opt/pj_sugar/beta_glucose/B3O.xyz:300 moment= 2.383198 0.662034 -0.160635 4.319871 2.628145 1.052247 -0.408397 3.067058 3.773134 1.614486 -0.414329 2.434876 3.665147 1.623725 -0.268635 2.349499
H -3.000602 -0.885311 0.573672
O  -2.436826 -0.334251 0.017684
C  -1.215727 -1.031848 -0.214803
H  -1.445395 -2.063500 -0.502614
C  -0.477220 -0.322494 -1.366715
H  -0.856892 0.696742 -1.462669
C  1.019792 -0.273192 -1.072165
H  1.409299 -1.295174 -0.948174
C  1.251465 0.505515 0.216528
H  0.947681 1.541847 0.027869
C  0.417123 -0.074303 1.376607
H  1.113602 -0.563663 2.060404
C  -0.344682 0.992304 2.164544
H  -0.913778 0.497899 2.962706
H  0.391978 1.649197 2.635059
O  -1.177425 1.826671 1.375734
H  -1.859807 1.273010 0.966280
O  -0.444086 -1.165025 0.951066
O  2.619214 0.467741 0.616440
H  3.139418 0.861770 -0.093930
O  1.732215 0.393694 -2.106614
H  1.379004 0.094928 -2.953630
O  -0.735895 -0.927550 -2.634281
H  -0.512456 -1.865009 -2.587997
24
7 zpe= -687.195812 src= /lustre/lwork/pjhsu/sugar_opt/pj_sugar/beta_glucose/B3O.xyz:311 moment= 2.391076 0.672782 -0.172624 3.999477 2.593679 1.026674 -0.411716 3.198567 3.868594 1.660009 -0.397968 2.490994 3.647169 1.613686 -0.288579 2.305582
H -3.153361 -0.337054 0.250152
O  -2.349219 -0.430629 0.775100
C  -1.335479 -1.054835 -0.031034
H  -1.722442 -1.999670 -0.420284
C  -0.929228 -0.164723 -1.224971
H  -1.251014 0.867109 -1.030208
C  0.583381 -0.156274 -1.382754
H  0.950044 -1.178725 -1.540763
C  1.184990 0.413736 -0.104874
H  0.825301 1.441332 0.008035
C  0.755989 -0.431044 1.119566
H  1.608120 -1.057774 1.393895
C  0.371560 0.411554 2.337605
H  0.073704 -0.266099 3.147235
H  1.257436 0.961883 2.672013
O  -0.628635 1.380548 2.078291
H  -1.438162 0.910232 1.820837
O  -0.271348 -1.399819 0.797756
O  2.610763 0.418881 -0.270207
H  2.983587 1.164767 0.208408
O  0.881036 0.650777 -2.516657
H  1.840675 0.725197 -2.576946
O  -1.597253 -0.670622 -2.373089
H  -1.250444 -0.196744 -3.139105
24
8 zpe= -687.194686 src= /lustre/lwork/pjhsu/sugar_opt/pj_sugar/beta_glucose/B3O.xyz:388 moment= 2.427649 0.733867 0.050577 2.888779 2.647758 1.091469 -0.174439 3.210932 4.119685 1.815237 -0.361797 2.408754 3.880892 1.730318 -0.201792 2.484759
H -2.564190 -0.975306 1.169339
O  -2.292182 -0.735056 0.274574
C  -1.001926 -1.270135 0.049180
H  -1.036292 -2.363027 -0.000457
C  -0.512759 -0.715430 -1.305244
H  -1.093560 0.181222 -1.550198
C  0.959438 -0.339960 -1.202948
H  1.541595 -1.224534 -0.915564
C  1.127933 0.739027 -0.138585
H  0.633893 1.645747 -0.518532
C  0.477357 0.302049 1.193220
H  1.289277 0.168849 1.912729
C  -0.493297 1.364128 1.722911
H  0.075726 2.294669 1.859731
H  -1.287344 1.554550 1.000193
O  -1.154967 0.981853 2.920596
H  -0.496336 0.767061 3.589658
O  -0.110421 -1.006503 1.110113
O  2.499812 1.022636 0.110973
H  2.908598 1.239582 -0.735955
O  1.455687 0.198369 -2.423200
H  1.258164 -0.436528 -3.122052
O  -0.632051 -1.672949 -2.358626
H  -1.551152 -1.718316 -2.640858
24
9 zpe= -687.19466 src= /lustre/lwork/pjhsu/sugar_opt/pj_sugar/beta_glucose/B3O.xyz:420 moment= 2.374033 0.656039 -0.190591 4.702005 2.604541 1.042363 -0.362899 3.143235 3.823649 1.607223 -0.457988 2.610076 3.665291 1.605720 -0.323030 2.398588
H -3.189668 0.222810 -0.067588
O  -2.478920 0.054822 0.563459
C  -1.478471 -0.751936 -0.076329
H  -1.951850 -1.652259 -0.476544
C  -0.799272 0.000964 -1.235551
H  -0.885083 1.081709 -1.065323
C  0.680329 -0.349617 -1.278285
H  0.796710 -1.440148 -1.368988
C  1.325453 0.138777 0.017377
H  1.299626 1.230234 0.011240
C  0.559787 -0.390149 1.257662
H  1.205455 -1.105129 1.776978
C  0.201626 0.704551 2.265832
H  -0.313912 0.238685 3.114683
H  1.133238 1.145342 2.632486
O  -0.561701 1.763983 1.717474
H  -1.431633 1.407625 1.476278
O  -0.584535 -1.198279 0.897019
O  2.719443 -0.185439 0.046859
H  2.816402 -1.140496 0.142924
O  1.236926 0.291059 -2.420198
H  2.198007 0.265520 -2.339425
O  -1.489518 -0.360178 -2.425071
H  -1.008441 0.026547 -3.166967
24
10 zpe= -687.194564 src= /lustre/lwork/pjhsu/sugar_opt/pj_sugar/beta_glucose/B3O.xyz:463 moment= 2.389938 0.673424 -0.117557 3.979222 2.613227 1.025966 -0.534274 3.054327 3.885524 1.607393 -0.555318 2.654619 3.809613 1.668057 -0.332023 2.328943
H -2.353594 0.143200 0.569729
O  -2.485547 -0.692537 0.091137
C  -1.231675 -1.137861 -0.329024
H  -1.406386 -2.126704 -0.762905
C  -0.582988 -0.220545 -1.398025
H  -0.992227 0.788623 -1.304611
C  0.928878 -0.149052 -1.202367
H  1.364521 -1.157742 -1.242698
C  1.203667 0.464956 0.161801
H  0.815851 1.490829 0.137153
C  0.494192 -0.348453 1.267441
H  1.278456 -0.878490 1.812883
C  -0.232207 0.522095 2.284994
H  -0.690827 -0.120229 3.043362
H  0.503032 1.180293 2.761813
O  -1.240753 1.306951 1.622347
H  -1.638457 1.915966 2.251888
O  -0.335907 -1.399121 0.750034
O  2.593783 0.489921 0.475046
H  3.041033 0.957275 -0.241029
O  1.545592 0.684860 -2.177474
H  1.148516 0.474969 -3.032184
O  -0.907207 -0.617469 -2.731848
H  -0.819744 -1.574730 -2.807465
24
11 zpe= -687.194199 src= /lustre/lwork/pjhsu/sugar_opt/pj_sugar/beta_glucose/B3O.xyz:494 moment= 2.408197 0.704785 -0.091869 3.488380 2.583423 0.994511 -0.590382 3.266039 3.940939 1.732859 -0.330762 2.376957 3.622526 1.626464 -0.208054 2.318932
H -2.267824 0.181947 0.703034
O  -2.497416 -0.606805 0.183582
C  -1.315523 -1.158318 -0.320283
H  -1.583546 -2.131472 -0.729535
C  -0.689244 -0.320403 -1.467385
H  -1.146260 0.678266 -1.464382
C  0.813030 -0.156501 -1.269768
H  1.298431 -1.137089 -1.303822
C  1.044889 0.497100 0.087215
H  0.518468 1.458429 0.093100
C  0.498919 -0.422835 1.199699
H  1.359788 -0.963765 1.602624
C  -0.113718 0.344786 2.365017
H  -0.506043 -0.372226 3.092652
H  0.671690 0.948566 2.833916
O  -1.167746 1.198661 1.884600
H  -1.587166 1.638613 2.630191
O  -0.361259 -1.453858 0.700875
O  2.430081 0.716254 0.361464
H  2.716677 1.475960 -0.156667
O  1.315938 0.676717 -2.326754
H  2.168271 0.336015 -2.611471
O  -0.988434 -0.980057 -2.689982
H  -0.612004 -0.446986 -3.399916
24
12 zpe= -687.193754 src= /lustre/lwork/pjhsu/sugar_opt/pj_sugar/beta_glucose/B3O.xyz:495 moment= 2.437380 0.753057 0.178281 2.994900 2.671811 1.099935 -0.233008 3.111349 4.356640 1.885376 -0.494425 2.466823 3.882321 1.741723 -0.152426 2.558847
H -2.935326 -0.564825 0.478366
O  -2.414709 -0.192026 -0.243724
C  -1.239598 -0.974733 -0.375362
H  -1.490934 -1.992478 -0.690395
C  -0.372667 -0.311815 -1.462083
H  -0.637329 0.749968 -1.532780
C  1.095152 -0.433899 -1.077646
H  1.347678 -1.491780 -0.932359
C  1.328790 0.322752 0.225599
H  1.204725 1.391863 -0.003898
C  0.309509 -0.104491 1.306520
H  0.864488 -0.574796 2.118807
C  -0.438710 1.101833 1.866759
H  0.317491 1.804072 2.244182
H  -1.012323 1.597374 1.074492
O  -1.298386 0.663203 2.913331
H  -1.736192 1.430667 3.292648
O  -0.563587 -1.149979 0.846433
O  2.638388 0.102259 0.735353
H  3.262474 0.324172 0.033524
O  1.951775 0.144994 -2.055742
H  1.726252 -0.247607 -2.907564
O  -0.534390 -0.935901 -2.736470
H  -1.373573 -0.658826 -3.117989
24
13 zpe= -687.193513 src= /lustre/lwork/pjhsu/sugar_opt/pj_sugar/beta_glucose/B3O.xyz:518 moment= 2.370095 0.643348 -0.193378 5.695245 2.611841 1.048851 -0.351952 3.133420 3.774196 1.603755 -0.417133 2.544485 3.668301 1.604418 -0.350861 2.347708
H -2.899732 -1.319712 -0.416786
O  -2.313986 -0.994633 0.277389
C  -0.963904 -1.369850 -0.040645
H  -0.942626 -2.432239 -0.296209
C  -0.424265 -0.570663 -1.244819
H  -0.991660 0.367942 -1.325931
C  1.045673 -0.231782 -1.027287
H  1.628454 -1.147648 -0.904952
C  1.184863 0.640750 0.217415
H  0.743544 1.622367 -0.011185
C  0.432756 0.030053 1.422441
H  1.189988 -0.240743 2.160784
C  -0.544661 1.000658 2.086632
H  -1.012893 0.494455 2.939144
H  0.029449 1.849626 2.468766
O  -1.521742 1.534018 1.205882
H  -2.117684 0.810462 0.955664
O  -0.183787 -1.238729 1.104153
O  2.548079 0.802555 0.599237
H  3.043045 1.095946 -0.174943
O  1.605566 0.407164 -2.184158
H  1.178684 1.266284 -2.298493
O  -0.634953 -1.366334 -2.404518
H  -0.080207 -1.009950 -3.109585
24
14 zpe= -687.193313 src= /lustre/lwork/pjhsu/sugar_opt/pj_sugar/beta_glucose/B3O.xyz:550 moment= 2.383296 0.664127 -0.147077 4.647427 2.583189 1.003109 -0.541597 3.184167 3.895569 1.671955 -0.422982 2.461744 3.621105 1.607685 -0.231804 2.372651
H -2.342349 0.159207 0.701300
O  -2.494607 -0.739167 0.366641
C  -1.287735 -1.215349 -0.145638
H  -1.480663 -2.232425 -0.483618
C  -0.767919 -0.394317 -1.349251
H  -1.197575 0.616033 -1.308705
C  0.749017 -0.259313 -1.302270
H  1.199533 -1.262740 -1.320966
C  1.147703 0.465229 -0.021851
H  0.772075 1.488231 -0.084979
C  0.545892 -0.254219 1.215344
H  1.373221 -0.712551 1.767202
C  -0.118782 0.705691 2.198743
H  -0.538192 0.129782 3.029764
H  0.646721 1.391556 2.580483
O  -1.153065 1.446888 1.530410
H  -1.516622 2.104270 2.131470
O  -0.279008 -1.367118 0.863613
O  2.569390 0.617838 0.068837
H  2.968676 -0.253725 0.178920
O  1.145596 0.471421 -2.459532
H  2.067819 0.731421 -2.349624
O  -1.196855 -1.054980 -2.530457
H  -0.815272 -0.580663 -3.278836
24
15 zpe= -687.193221 src= /lustre/lwork/pjhsu/sugar_opt/pj_sugar/beta_glucose/B3O.xyz:573 moment= 2.373057 0.650131 -0.209650 5.231589 2.590245 1.002361 -0.570808 3.237580 3.796582 1.645561 -0.375091 2.352700 3.614892 1.614881 -0.241377 2.322702
H -2.225917 0.513830 0.905840
O  -2.559567 -0.238095 0.387498
C  -1.471845 -0.868509 -0.215307
H  -1.883306 -1.767844 -0.683073
C  -0.783732 -0.002817 -1.303721
H  -0.986428 1.053376 -1.106748
C  0.727690 -0.215907 -1.289259
H  0.962298 -1.278210 -1.445630
C  1.257752 0.221881 0.067410
H  1.059221 1.301078 0.144476
C  0.540202 -0.546432 1.198217
H  1.268799 -1.254302 1.601995
C  0.090907 0.338973 2.359514
H  -0.404969 -0.283379 3.105961
H  0.968677 0.804436 2.818688
O  -0.863640 1.344431 1.969646
H  -0.420377 2.185013 1.826718
O  -0.522368 -1.382978 0.716184
O  2.655406 -0.004804 0.207344
H  3.092285 0.412837 -0.545284
O  1.379575 0.577629 -2.275066
H  0.872802 0.499844 -3.093278
O  -1.316252 -0.230407 -2.609407
H  -1.438212 -1.177646 -2.741716
24
16 zpe= -687.193032 src= /lustre/lwork/pjhsu/sugar_opt/pj_sugar/beta_glucose/B3O.xyz:583 moment= 2.383265 0.661472 -0.191748 4.316506 2.628785 1.052694 -0.415569 3.035706 3.796536 1.543641 -0.602836 2.777022 3.684168 1.500486 -0.518537 2.859066
H -3.032031 -0.013950 -0.661675
O  -2.491590 -0.083955 0.135259
C  -1.338462 -0.888101 -0.152312
H  -1.682776 -1.892181 -0.431582
C  -0.501622 -0.295463 -1.310028
H  -0.719639 0.770528 -1.408281
C  0.985292 -0.457216 -1.016795
H  1.229844 -1.519188 -0.864335
C  1.305899 0.320669 0.255232
H  1.138188 1.381409 0.033334
C  0.396673 -0.112604 1.423366
H  1.017221 -0.687643 2.113684
C  -0.208161 1.060263 2.194043
H  -0.802483 0.661971 3.025586
H  0.613142 1.647716 2.613852
O  -0.973750 1.945366 1.392738
H  -1.747505 1.458319 1.069983
O  -0.617900 -1.070531 1.020848
O  2.653602 0.121099 0.671443
H  3.226432 0.432206 -0.039533
O  1.789998 0.081749 -2.058944
H  1.408761 -0.184279 -2.904329
O  -0.871583 -0.858311 -2.572472
H  -0.776551 -1.817872 -2.529084
24
17 zpe= -687.192778 src= /lustre/lwork/pjhsu/sugar_opt/pj_sugar/beta_glucose/B3O.xyz:601 moment= 2.380481 0.658723 -0.116583 4.557240 2.641602 1.054585 -0.453491 2.988093 3.862658 1.621566 -0.489937 2.504156 3.570987 1.569276 -0.290158 2.355952
H -2.323461 0.491057 0.558239
O  -2.547479 -0.378502 0.186847
C  -1.337464 -0.997974 -0.163224
H  -1.607040 -1.990143 -0.527272
C  -0.608871 -0.234906 -1.289172
H  -0.822182 0.837077 -1.201642
C  0.900469 -0.428773 -1.196100
H  1.116363 -1.509893 -1.179733
C  1.381103 0.206510 0.105585
H  1.292852 1.289010 -0.011184
C  0.503406 -0.266992 1.306439
H  1.171009 -0.809657 1.979617
C  -0.075156 0.879713 2.128627
H  -0.623943 0.466741 2.981279
H  0.754463 1.494737 2.495164
O  -0.956865 1.672706 1.312259
H  -1.200453 2.472196 1.788600
O  -0.487939 -1.240505 0.951513
O  2.762421 -0.022354 0.365662
H  2.996212 -0.911962 0.078944
O  1.570497 0.183454 -2.284081
H  1.086223 -0.063568 -3.082143
O  -1.016029 -0.701226 -2.576410
H  -1.929135 -0.435747 -2.728814
24
18 zpe= -687.192447 src= /lustre/lwork/pjhsu/sugar_opt/pj_sugar/beta_glucose/B3O.xyz:607 moment= 2.392158 0.672275 -0.129933 4.500992 2.575080 0.991970 -0.575237 3.273756 3.911744 1.739040 -0.286386 2.344288 3.938883 1.644220 -0.545501 2.615335
H -2.013483 -0.568934 1.032418
O  -2.201015 -1.216312 0.331469
C  -1.067532 -1.332474 -0.478889
H  -1.231448 -2.203109 -1.111947
C  -0.856575 -0.108035 -1.414786
H  -1.526735 0.697979 -1.075864
C  0.580140 0.398883 -1.361001
H  1.252939 -0.346195 -1.791196
C  0.973477 0.681102 0.082542
H  0.300167 1.456601 0.476616
C  0.840258 -0.606623 0.925621
H  1.850707 -1.010493 1.026750
C  0.334674 -0.347629 2.339834
H  0.234119 -1.305186 2.859744
H  1.069896 0.276224 2.860652
O  -0.934238 0.331041 2.289864
H  -1.267558 0.451805 3.184261
O  0.114873 -1.644341 0.254944
O  2.322009 1.125582 0.194272
H  2.469212 1.783963 -0.496216
O  0.755488 1.567123 -2.180008
H  0.142461 2.249473 -1.876972
O  -1.217786 -0.509929 -2.729304
H  -0.923049 0.175484 -3.340800
24
19 zpe= -687.192176 src= /lustre/lwork/pjhsu/sugar_opt/pj_sugar/beta_glucose/B3O.xyz:624 moment= 2.434809 0.745578 -0.056636 3.002423 2.601173 1.037076 -0.411637 3.013866 4.107038 1.791869 -0.395844 2.466710 4.040859 1.821073 -0.247553 2.339486
H -2.727832 -0.175482 1.182878
O  -2.315390 0.299413 0.450976
C  -1.567592 -0.634036 -0.303651
H  -2.199852 -1.444999 -0.671693
C  -0.971377 0.117367 -1.510741
H  -1.279794 1.167657 -1.448450
C  0.550538 0.063150 -1.480472
H  0.876527 -0.965271 -1.682375
C  1.047498 0.478037 -0.100464
H  0.684526 1.492923 0.104461
C  0.523106 -0.520025 0.958262
H  1.311185 -1.266685 1.102065
C  0.245154 0.175984 2.294812
H  1.184332 0.646049 2.628075
H  -0.497982 0.962528 2.161485
O  -0.273963 -0.681579 3.298874
H  0.269040 -1.475209 3.351971
O  -0.590556 -1.290800 0.481940
O  2.481994 0.487472 -0.144609
H  2.817429 1.191674 0.416929
O  1.023825 0.936130 -2.499222
H  1.987133 0.940439 -2.451308
O  -1.490392 -0.477668 -2.693375
H  -1.086556 -0.027073 -3.444365
24
20 zpe= -687.192111 src= /lustre/lwork/pjhsu/sugar_opt/pj_sugar/beta_glucose/B3O.xyz:635 moment= 2.443183 0.761129 0.007994 2.803528 2.620040 1.048305 -0.426334 2.954014 4.180866 1.843867 -0.377744 2.416925 4.013281 1.811417 -0.213828 2.393428
H -2.898729 -0.214468 0.786572
O  -2.409254 0.047511 -0.002900
C  -1.405397 -0.920678 -0.230470
H  -1.838771 -1.913124 -0.375999
C  -0.652564 -0.516318 -1.515028
H  -1.035595 0.456563 -1.845717
C  0.838672 -0.378572 -1.228950
H  1.252348 -1.360397 -0.979763
C  1.030885 0.572998 -0.050660
H  0.569684 1.535373 -0.315037
C  0.357643 -0.015832 1.205430
H  1.145970 -0.513811 1.779103
C  -0.267171 1.083054 2.070817
H  0.528985 1.799641 2.317641
H  -1.040041 1.609183 1.510378
O  -0.905468 0.596912 3.243247
H  -0.272602 0.086483 3.759211
O  -0.551460 -1.081031 0.885463
O  2.407365 0.780824 0.257182
H  2.793484 1.291973 -0.462824
O  1.479940 0.141275 -2.404565
H  2.273546 -0.371241 -2.579476
O  -0.910111 -1.505313 -2.503935
H  -0.489360 -1.211004 -3.319718
24
21 zpe= -687.191621 src= /lustre/lwork/pjhsu/sugar_opt/pj_sugar/beta_glucose/B3O.xyz:640 moment= 2.365091 0.637726 -0.178264 6.441437 2.620030 1.032741 -0.477359 3.159321 3.852665 1.612603 -0.493659 2.537833 3.588053 1.583481 -0.286426 2.341758
H -2.360926 0.527936 0.489133
O  -2.567815 -0.363934 0.163512
C  -1.353288 -1.003594 -0.125371
H  -1.620121 -2.011992 -0.444316
C  -0.595299 -0.304833 -1.274129
H  -0.820802 0.768944 -1.258410
C  0.912731 -0.477769 -1.128518
H  1.137730 -1.554210 -1.056150
C  1.352891 0.221191 0.155410
H  1.261457 1.296747 -0.024183
C  0.450604 -0.202812 1.354585
H  1.103513 -0.714269 2.066747
C  -0.169321 0.970562 2.114067
H  -0.754830 0.578884 2.947678
H  0.627566 1.604948 2.514800
O  -1.076562 1.749113 1.311611
H  -0.636460 2.537264 0.981845
O  -0.525884 -1.196579 1.014489
O  2.730180 0.032379 0.457976
H  2.976561 -0.878072 0.260694
O  1.606573 0.093559 -2.223827
H  1.157931 -0.206887 -3.024368
O  -0.958835 -0.846559 -2.543659
H  -1.876594 -0.620017 -2.728616
24
22 zpe= -687.191165 src= /lustre/lwork/pjhsu/sugar_opt/pj_sugar/beta_glucose/B3O.xyz:644 moment= 2.459642 0.790798 0.184704 3.001716 2.636644 1.077641 -0.318788 2.900168 4.484403 1.979106 -0.431726 2.435085 4.021375 1.836377 -0.140876 2.467660
H -2.613136 -1.199828 0.964299
O  -2.294930 -0.712262 0.195126
C  -1.070880 -1.300483 -0.205590
H  -1.201872 -2.363612 -0.421627
C  -0.613231 -0.590861 -1.495738
H  -1.275641 0.265197 -1.673005
C  0.811441 -0.075024 -1.330917
H  1.495963 -0.920696 -1.216118
C  0.869066 0.808030 -0.087623
H  0.139001 1.619821 -0.221911
C  0.518909 -0.025724 1.161202
H  1.458519 -0.321212 1.632782
C  -0.279126 0.799373 2.164020
H  0.294326 1.717213 2.353495
H  -1.250056 1.070500 1.734809
O  -0.440247 0.041293 3.359629
H  -0.895741 0.584857 4.008834
O  -0.102297 -1.276876 0.820770
O  2.161842 1.370832 0.117328
H  2.323209 1.994360 -0.599762
O  1.160710 0.686204 -2.498817
H  2.021440 0.397474 -2.813005
O  -0.720119 -1.519688 -2.567496
H  -0.494150 -1.048885 -3.377687
24
23 zpe= -687.191152 src= /lustre/lwork/pjhsu/sugar_opt/pj_sugar/beta_glucose/B3O.xyz:646 moment= 2.451642 0.770672 0.134564 3.120347 2.626237 1.077285 -0.277715 2.914635 4.417063 1.927305 -0.453714 2.490958 4.032579 1.838078 -0.173632 2.417540
H -2.403803 -1.446601 1.209655
O  -2.218301 -0.850112 0.474874
C  -1.068505 -1.339733 -0.192373
H  -1.206334 -2.381233 -0.491406
C  -0.865198 -0.488353 -1.459682
H  -1.561494 0.359026 -1.425701
C  0.554215 0.058742 -1.511841
H  1.261817 -0.773966 -1.611379
C  0.848495 0.812481 -0.222410
H  0.134617 1.643876 -0.148912
C  0.713005 -0.138796 0.992315
H  1.719311 -0.448048 1.283044
C  0.068387 0.575325 2.176926
H  0.624299 1.512166 2.343140
H  -0.970152 0.826642 1.936842
O  0.148415 -0.263567 3.322429
H  -0.334841 0.148501 4.044372
O  0.064018 -1.373667 0.652379
O  2.174935 1.343042 -0.346239
H  2.276710 2.101435 0.236073
O  0.633768 0.909720 -2.650126
H  1.510476 1.311504 -2.650860
O  -1.149828 -1.308627 -2.584908
H  -0.954014 -0.789761 -3.374210
24
24 zpe= -687.191141 src= /lustre/lwork/pjhsu/sugar_opt/pj_sugar/beta_glucose/B3O.xyz:653 moment= 2.418867 0.723436 -0.016198 3.261609 2.609196 1.051642 -0.237705 3.381730 4.102061 1.797766 -0.363678 2.460853 3.988881 1.771490 -0.277203 2.439997
H -2.807489 -0.605570 0.880443
O  -2.426720 -0.146443 0.121407
C  -1.358877 -0.924688 -0.369095
H  -1.705760 -1.897068 -0.727409
C  -0.721902 -0.157666 -1.542867
H  -1.130429 0.860456 -1.556315
C  0.788903 -0.068828 -1.360348
H  1.207453 -1.085313 -1.395714
C  1.120209 0.568465 -0.012103
H  0.777931 1.607398 -0.036342
C  0.423764 -0.204089 1.137629
H  1.194191 -0.750908 1.693822
C  -0.276914 0.757139 2.108388
H  0.490614 1.426205 2.523174
H  -1.007909 1.364405 1.575295
O  -1.004086 0.101773 3.136698
H  -0.410786 -0.474198 3.630160
O  -0.423871 -1.251076 0.648153
O  2.536867 0.678855 0.165328
H  2.904339 -0.205281 0.284572
O  1.298157 0.703925 -2.441653
H  2.219751 0.915361 -2.250426
O  -1.060600 -0.837766 -2.743592
H  -0.623835 -0.376085 -3.469206
24
25 zpe= -687.191096 src= /lustre/lwork/pjhsu/sugar_opt/pj_sugar/beta_glucose/B3O.xyz:674 moment= 2.440753 0.761136 0.156147 3.309071 2.626997 1.080982 -0.267370 2.891261 4.419119 1.923676 -0.473547 2.483062 4.017075 1.815138 -0.187844 2.481214
H -2.912254 -0.276381 0.869799
O  -2.420420 0.177791 0.175345
C  -1.486739 -0.739897 -0.358680
H  -1.986798 -1.642659 -0.717206
C  -0.786562 -0.058163 -1.548659
H  -1.048749 1.007254 -1.545183
C  0.725787 -0.178799 -1.412974
H  1.005107 -1.240919 -1.469935
C  1.160804 0.395534 -0.068067
H  0.903352 1.459342 -0.060042
C  0.452296 -0.345330 1.091974
H  1.164779 -1.034758 1.556126
C  -0.000445 0.636160 2.168436
H  0.876077 1.237750 2.447558
H  -0.770930 1.300371 1.762805
O  -0.490099 -0.101607 3.283326
H  -0.776613 0.517186 3.961284
O  -0.586258 -1.217854 0.623941
O  2.586676 0.386416 0.059202
H  2.878805 -0.520961 0.207761
O  1.306002 0.536438 -2.497977
H  2.245902 0.648363 -2.310423
O  -1.257195 -0.673206 -2.740414
H  -0.781526 -0.273073 -3.478000
24
26 zpe= -687.191022 src= /lustre/lwork/pjhsu/sugar_opt/pj_sugar/beta_glucose/B3O.xyz:696 moment= 2.377661 0.651323 -0.222409 5.563063 2.564656 0.978179 -0.602904 3.395947 3.884154 1.667537 -0.432913 2.437968 3.573605 1.590163 -0.234039 2.340249
H -2.415884 0.314337 0.508046
O  -2.595765 -0.580904 0.179203
C  -1.385653 -1.171201 -0.185888
H  -1.626074 -2.189326 -0.488848
C  -0.693163 -0.469204 -1.378865
H  -1.049744 0.569479 -1.440719
C  0.818267 -0.441295 -1.190677
H  1.195570 -1.466752 -1.096371
C  1.147758 0.333889 0.076043
H  0.845237 1.374724 -0.096110
C  0.393777 -0.274004 1.288728
H  1.148486 -0.766407 1.909346
C  -0.295212 0.765955 2.176643
H  -0.817245 0.245789 2.981070
H  0.457346 1.425023 2.625730
O  -1.288676 1.544186 1.487030
H  -0.914705 2.376108 1.184790
O  -0.487422 -1.336962 0.917745
O  2.572015 0.283851 0.243391
H  2.872059 1.060063 0.724894
O  1.375891 0.184454 -2.343945
H  2.334354 0.189012 -2.242296
O  -1.055205 -1.170881 -2.557060
H  -0.536011 -0.799932 -3.280881
24
27 zpe= -687.190763 src= /lustre/lwork/pjhsu/sugar_opt/pj_sugar/beta_glucose/B3O.xyz:706 moment= 2.428143 0.735547 -0.015947 3.216341 2.604244 1.037353 -0.426791 3.008869 4.176697 1.831246 -0.414181 2.401502 3.983082 1.808663 -0.190706 2.364097
H -2.685298 -0.530606 1.052534
O  -2.312288 -0.082820 0.283140
C  -1.356027 -0.948177 -0.298233
H  -1.810534 -1.891300 -0.609882
C  -0.793017 -0.235850 -1.547783
H  -1.323635 0.722191 -1.648470
C  0.699694 0.036358 -1.386788
H  1.250273 -0.902033 -1.484221
C  0.988548 0.649323 -0.019593
H  0.420153 1.590808 0.065913
C  0.553927 -0.325703 1.094162
H  1.445825 -0.894093 1.374625
C  0.036317 0.428346 2.323569
H  0.842127 1.094078 2.663584
H  -0.822340 1.043219 2.053763
O  -0.411363 -0.419353 3.371514
H  0.300806 -1.017179 3.621988
O  -0.353855 -1.333007 0.616995
O  2.374010 0.918597 0.153786
H  2.700392 1.305439 -0.668523
O  1.200263 0.866240 -2.445336
H  0.691767 1.687243 -2.462023
O  -1.056117 -1.061090 -2.674877
H  -0.578622 -0.697632 -3.429843
24
28 zpe= -687.190465 src= /lustre/lwork/pjhsu/sugar_opt/pj_sugar/beta_glucose/B3O.xyz:722 moment= 2.414013 0.705152 -0.084404 3.370770 2.599716 1.031847 -0.402452 3.194395 4.034350 1.758883 -0.426170 2.375411 3.889214 1.733572 -0.258349 2.407557
H -2.823164 -1.472745 0.817755
O  -2.455363 -0.750389 0.296398
C  -1.278624 -1.210675 -0.334092
H  -1.458034 -2.156228 -0.851040
C  -0.865497 -0.153877 -1.372892
H  -1.355268 0.795451 -1.106500
C  0.647753 0.037002 -1.352931
H  1.136449 -0.904293 -1.613907
C  1.113688 0.483516 0.028982
H  0.773472 1.516202 0.201335
C  0.522096 -0.424094 1.130812
H  1.372091 -0.920312 1.606822
C  -0.255120 0.354447 2.203950
H  -1.119372 0.859173 1.772893
H  -0.622385 -0.353642 2.956318
O  0.546964 1.375089 2.788846
H  1.320891 0.975217 3.200205
O  -0.249794 -1.511568 0.593322
O  2.534021 0.434711 0.138044
H  2.908002 0.908508 -0.614602
O  1.065774 0.959012 -2.370602
H  0.710650 1.832564 -2.161122
O  -1.319811 -0.592805 -2.644297
H  -0.849420 -0.079264 -3.312699
24
29 zpe= -687.18999 src= /lustre/lwork/pjhsu/sugar_opt/pj_sugar/beta_glucose/B3O.xyz:723 moment= 2.368976 0.645028 -0.193019 5.401618 2.638637 1.069848 -0.270202 3.159280 3.744898 1.587032 -0.471567 2.475070 3.624168 1.593193 -0.278583 2.392843
H -2.965458 -0.933800 0.650245
O  -2.421176 -0.459477 0.010557
C  -1.140555 -1.079907 -0.044378
H  -1.274031 -2.163039 -0.146215
C  -0.401598 -0.525162 -1.273040
H  -0.797729 0.461934 -1.518819
C  1.096597 -0.394325 -0.981522
H  1.484887 -1.382966 -0.674145
C  1.306135 0.595929 0.163567
H  1.077901 1.590601 -0.223437
C  0.359431 0.278778 1.357040
H  0.987720 0.017747 2.211395
C  -0.502587 1.470586 1.779797
H  -1.127960 1.168907 2.630149
H  0.170893 2.261118 2.122197
O  -1.283295 2.032565 0.737873
H  -1.959277 1.384877 0.487786
O  -0.419474 -0.930378 1.151375
O  2.662983 0.670630 0.587519
H  3.013233 -0.221402 0.690076
O  1.793213 0.059728 -2.125901
H  1.385773 -0.360482 -2.894272
O  -0.629387 -1.310697 -2.443215
H  -0.417237 -2.232766 -2.254630
24
30 zpe= -687.18968 src= /lustre/lwork/pjhsu/sugar_opt/pj_sugar/beta_glucose/B3O.xyz:727 moment= 2.389270 0.691410 -0.047969 3.447375 2.629481 1.047877 -0.478095 2.906708 3.908634 1.703907 -0.310460 2.472066 3.780220 1.748382 -0.251453 2.252374
H -2.436257 0.739862 0.401769
O  -2.570294 -0.214057 0.417402
C  -1.424641 -0.876388 -0.067639
H  -1.774166 -1.856952 -0.390072
C  -0.770321 -0.166377 -1.268895
H  -0.946213 0.919335 -1.197881
C  0.740545 -0.398304 -1.241535
H  0.950013 -1.471370 -1.206790
C  1.313880 0.271144 0.003157
H  1.198161 1.357857 -0.130880
C  0.542834 -0.187061 1.259056
H  1.238142 -0.742111 1.889720
C  -0.023150 0.984318 2.066963
H  0.807720 1.589443 2.439643
H  -0.630362 1.639241 1.419366
O  -0.763000 0.553348 3.188028
H  -1.370386 -0.135062 2.886133
O  -0.482308 -1.153800 0.958064
O  2.690414 -0.033045 0.187472
H  3.168590 0.309913 -0.576737
O  1.359942 0.189298 -2.395302
H  1.612986 -0.508650 -3.005576
O  -1.376465 -0.668183 -2.448466
H  -1.054664 -0.143398 -3.190000
24
31 zpe= -687.189424 src= /lustre/lwork/pjhsu/sugar_opt/pj_sugar/beta_glucose/B3O.xyz:733 moment= 2.379278 0.672704 -0.095795 3.881488 2.632167 1.069001 -0.263120 3.169297 3.759007 1.714586 -0.316758 2.242054 3.785444 1.639815 -0.316521 2.521478
H -2.563761 0.317060 -0.090821
O  -2.506724 -0.644295 -0.127294
C  -1.177889 -1.046971 -0.363637
H  -1.265503 -2.063817 -0.757872
C  -0.440862 -0.158528 -1.387416
H  -0.799288 0.875490 -1.318036
C  1.058483 -0.160783 -1.092452
H  1.430723 -1.194812 -1.065233
C  1.296712 0.485464 0.268561
H  1.081547 1.558261 0.150285
C  0.362085 -0.119129 1.335445
H  0.984668 -0.591383 2.095683
C  -0.527518 0.929007 2.007894
H  0.107403 1.644954 2.536403
H  -1.089296 1.499719 1.248778
O  -1.399371 0.359399 2.960595
H  -1.805837 -0.417464 2.554648
O  -0.432626 -1.213892 0.829475
O  2.638496 0.320285 0.708427
H  3.217466 0.698553 0.035632
O  1.781315 0.595710 -2.054060
H  1.451993 0.354169 -2.928889
O  -0.709576 -0.533353 -2.736185
H  -0.692638 -1.494643 -2.810932
24
32 zpe= -687.189316 src= /lustre/lwork/pjhsu/sugar_opt/pj_sugar/beta_glucose/B3O.xyz:746 moment= 2.374734 0.653633 -0.148104 4.833713 2.632135 1.037864 -0.523354 3.012827 3.829210 1.563268 -0.598623 2.703988 3.774113 1.636709 -0.364646 2.355531
H -2.259552 0.906666 0.326476
O  -2.589353 0.042676 0.029091
C  -1.477343 -0.759460 -0.227609
H  -1.883966 -1.724893 -0.544343
C  -0.564298 -0.194605 -1.339153
H  -0.633433 0.895832 -1.349024
C  0.899891 -0.576830 -1.099805
H  0.971745 -1.674244 -0.997106
C  1.366329 0.076389 0.197336
H  1.423294 1.151883 0.016251
C  0.347851 -0.215077 1.342293
H  0.881977 -0.801548 2.093223
C  -0.134593 1.041614 2.059264
H  -0.818556 0.755597 2.864893
H  0.738192 1.547487 2.487189
O  -0.802887 1.912367 1.128171
H  -0.962492 2.765267 1.543537
O  -0.728345 -1.076641 0.943476
O  2.685567 -0.300971 0.579743
H  2.823740 -1.230858 0.368858
O  1.719711 -0.138236 -2.167940
H  1.217893 -0.284810 -2.980770
O  -0.981970 -0.595853 -2.645021
H  -1.239403 -1.524750 -2.627031
24
33 zpe= -687.188009 src= /lustre/lwork/pjhsu/sugar_opt/pj_sugar/beta_glucose/B3O.xyz:750 moment= 2.369369 0.640012 -0.174003 6.606747 2.578957 1.013366 -0.427990 3.289546 3.939767 1.640793 -0.566357 2.560658 3.572008 1.564583 -0.304106 2.394326
H -2.259187 0.269291 0.954619
O  -2.542199 -0.475433 0.398728
C  -1.419057 -0.954497 -0.288237
H  -1.764086 -1.822310 -0.850228
C  -0.868569 0.084740 -1.303873
H  -1.109309 1.096836 -0.951669
C  0.644406 -0.020456 -1.415442
H  0.908747 -1.037800 -1.743200
C  1.250433 0.252655 -0.034089
H  1.085384 1.313855 0.171923
C  0.611235 -0.620812 1.073975
H  1.379620 -1.312205 1.436755
C  0.152727 0.174128 2.299089
H  -0.286549 -0.517338 3.020177
H  1.017925 0.659767 2.761773
O  -0.863766 1.143780 1.991927
H  -0.475721 2.018404 1.902476
O  -0.412365 -1.482303 0.574003
O  2.676642 0.135019 -0.068013
H  2.908064 -0.790685 -0.211605
O  1.117141 0.936787 -2.348025
H  2.076860 0.976104 -2.255749
O  -1.447926 -0.129665 -2.581808
H  -2.381451 0.102137 -2.532505
24
34 zpe= -687.187654 src= /lustre/lwork/pjhsu/sugar_opt/pj_sugar/beta_glucose/B3O.xyz:756 moment= 2.363446 0.649718 -0.129740 5.077157 2.614738 1.042367 -0.446672 2.939681 3.785798 1.634838 -0.375115 2.450260 3.723608 1.689877 -0.332811 2.227139
H -2.417294 0.523987 0.767473
O  -2.471773 -0.433654 0.680968
C  -1.408636 -0.919051 -0.112102
H  -1.796635 -1.796785 -0.627660
C  -0.920289 0.095974 -1.165992
H  -1.086898 1.122129 -0.786525
C  0.579368 -0.087020 -1.399323
H  0.774115 -1.114766 -1.712763
C  1.353871 0.203864 -0.115225
H  1.321482 1.295106 0.055554
C  0.701159 -0.512934 1.087503
H  1.451017 -1.170855 1.527169
C  0.212933 0.465430 2.163256
H  1.081070 0.972868 2.593004
H  -0.423119 1.247224 1.714753
O  -0.453386 -0.185579 3.220400
H  -1.128108 -0.757631 2.830254
O  -0.341440 -1.414903 0.679533
O  2.708298 -0.214603 -0.207724
H  3.076447 0.126260 -1.031907
O  1.037143 0.721876 -2.490966
H  0.975815 1.652568 -2.239810
O  -1.668947 -0.094160 -2.350605
H  -1.155195 0.273656 -3.081267
24
35 zpe= -687.187487 src= /lustre/lwork/pjhsu/sugar_opt/pj_sugar/beta_glucose/B3O.xyz:765 moment= 2.402872 0.699070 -0.143506 3.258382 2.590706 1.034879 -0.333090 3.245167 3.872668 1.669188 -0.370464 2.489393 3.788180 1.706152 -0.419010 2.226746
H -3.259359 0.463311 -0.514961
O  -2.613115 0.341265 0.190443
C  -1.655106 -0.616000 -0.241464
H  -2.160354 -1.508694 -0.622200
C  -0.754659 -0.057695 -1.361618
H  -0.732357 1.038771 -1.289539
C  0.663470 -0.575985 -1.183134
H  0.650290 -1.674789 -1.159269
C  1.214672 -0.036556 0.138303
H  1.377201 1.037543 -0.001800
C  0.210303 -0.277336 1.298335
H  0.694273 -0.914652 2.042840
C  -0.211388 1.008093 2.028203
H  -0.625000 1.743614 1.329386
H  -0.993038 0.757128 2.744709
O  0.868741 1.549227 2.782635
H  1.535769 1.905953 2.187361
O  -0.923110 -1.052123 0.870704
O  2.524895 -0.552220 0.388079
H  2.450197 -1.462012 0.698924
O  1.428548 -0.122582 -2.294435
H  2.353472 -0.343669 -2.133168
O  -1.333401 -0.445527 -2.599453
H  -0.711943 -0.206065 -3.297878
24
36 zpe= -687.187098 src= /lustre/lwork/pjhsu/sugar_opt/pj_sugar/beta_glucose/B3O.xyz:769 moment= 2.367764 0.644253 -0.225139 5.436360 2.610398 1.069461 -0.269438 2.956232 3.725892 1.560676 -0.504739 2.554561 3.666217 1.605665 -0.330948 2.384689
H -2.927066 -0.867728 -0.566148
O  -2.383702 -0.733808 0.220906
C  -1.047505 -1.174042 -0.061278
H  -1.083769 -2.244985 -0.301334
C  -0.435152 -0.402874 -1.246683
H  -0.899622 0.582788 -1.320531
C  1.067701 -0.209756 -1.043087
H  1.540402 -1.195699 -0.881586
C  1.275933 0.655912 0.201584
H  0.953157 1.666463 -0.055484
C  0.431291 0.134701 1.401061
H  1.131758 -0.185842 2.175517
C  -0.474183 1.198982 2.022444
H  -0.981799 0.763339 2.891689
H  0.160022 2.017778 2.373517
O  -1.406392 1.763880 1.114764
H  -2.057071 1.078146 0.900062
O  -0.292442 -1.087400 1.101131
O  2.646439 0.792811 0.557190
H  3.054507 -0.079800 0.592033
O  1.657299 0.428532 -2.160369
H  1.219937 0.091030 -2.952188
O  -0.734281 -1.039259 -2.493114
H  -0.415460 -1.950167 -2.468095
24
37 zpe= -687.186886 src= /lustre/lwork/pjhsu/sugar_opt/pj_sugar/beta_glucose/B3O.xyz:773 moment= 2.374845 0.647081 -0.129086 5.925184 2.583239 1.014226 -0.432084 3.291588 3.935194 1.654020 -0.516097 2.543154 3.759189 1.534566 -0.489228 2.851559
H -2.209025 -0.779302 0.818974
O  -2.184231 -1.478608 0.145143
C  -0.945678 -1.399916 -0.508527
H  -0.923242 -2.242332 -1.200036
C  -0.812059 -0.096676 -1.342169
H  -1.409037 0.696857 -0.870819
C  0.636555 0.363529 -1.384191
H  1.261582 -0.435631 -1.803715
C  1.091112 0.651905 0.048612
H  0.557443 1.558134 0.364191
C  0.789500 -0.526476 1.010180
H  1.756316 -0.926142 1.330179
C  0.038886 -0.122151 2.282171
H  -0.121410 -1.014040 2.889420
H  0.643853 0.584421 2.863087
O  -1.266802 0.426138 2.035412
H  -1.213171 1.380098 1.927087
O  0.162861 -1.630094 0.354948
O  2.493898 0.943877 -0.020585
H  2.740650 1.532366 0.698616
O  0.737452 1.539374 -2.169714
H  1.667487 1.793093 -2.177599
O  -1.273753 -0.317819 -2.665233
H  -2.219186 -0.498608 -2.625434
24
38 zpe= -687.1854 src= /lustre/lwork/pjhsu/sugar_opt/pj_sugar/beta_glucose/B3O.xyz:780 moment= 2.410694 0.719392 0.126620 3.539368 2.633123 1.060701 -0.298860 3.221023 4.288263 1.857091 -0.479930 2.443820 3.828977 1.707578 -0.209386 2.523549
H -2.642555 -0.932582 0.859026
O  -2.369895 -0.458025 0.063127
C  -1.152900 -1.022823 -0.368290
H  -1.325668 -2.022678 -0.790173
C  -0.546144 -0.100646 -1.441616
H  -0.973330 0.899187 -1.335679
C  0.975941 -0.015179 -1.275400
H  1.391821 -1.035455 -1.349004
C  1.326103 0.553007 0.101894
H  1.104711 1.623979 0.072987
C  0.475669 -0.136850 1.208046
H  1.157167 -0.591515 1.928224
C  -0.389428 0.876875 1.954216
H  0.293030 1.611895 2.401770
H  -1.058430 1.399132 1.260997
O  -1.137915 0.194442 2.956009
H  -1.629620 0.844323 3.466811
O  -0.263350 -1.261916 0.698962
O  2.718220 0.492695 0.386032
H  3.035148 -0.402495 0.220913
O  1.541531 0.811532 -2.275271
H  1.079498 0.611244 -3.099747
O  -0.881603 -0.496458 -2.772399
H  -0.728004 -1.443689 -2.869436
